+--------------------------------------------------------------------------------------------------------------------------------------------------------------------------------------------------------------------------------------------------------------------------------------------------------------------------------------------------------------------------------------------------------------------------------------------------------------------------------------------------------------------------------------------------------------------------------------------------------------------------------------------+-----------------------+-----------------------+
| []                                                                                                                                                                                                                                                                                                                                                                                                                                                                                                                                                                                                                                         |                       |                       |
|                                                                                                                                                                                                                                                                                                                                                                                                                                                                                                                                                                                                                                            |                       |                       |
| +-----------------------------------+:-------------------------------------:+                                                                                                                                                                                                                                                                                                                                                                                                                                                                                                                                                              |                       |                       |
| | []                                | LA VILLA DE COLIMA DE LA NUEVA ESPAÑA |                                                                                                                                                                                                                                                                                                                                                                                                                                                                                                                                                              |                       |                       |
| |                                   | SIGLO XVI                             |                                                                                                                                                                                                                                                                                                                                                                                                                                                                                                                                                              |                       |                       |
| |                                   |                                       |                                                                                                                                                                                                                                                                                                                                                                                                                                                                                                                                                              |                       |                       |
| |                                   | VOLUMEN II      (CAJAS 12-20)         |                                                                                                                                                                                                                                                                                                                                                                                                                                                                                                                                                              |                       |                       |
| +-----------------------------------+---------------------------------------+                                                                                                                                                                                                                                                                                                                                                                                                                                                                                                                                                              |                       |                       |
+--------------------------------------------------------------------------------------------------------------------------------------------------------------------------------------------------------------------------------------------------------------------------------------------------------------------------------------------------------------------------------------------------------------------------------------------------------------------------------------------------------------------------------------------------------------------------------------------------------------------------------------------+-----------------------+-----------------------+
| +------------------------------------------------------------------------+-------------------------------+-----------------------+                                                                                                                                                                                                                                                                                                                                                                                                                                                                                                         |                       |                       |
| | Inicio | Búsqueda | Siglas y bibliografía | Créditos | Más información | Vol. I (1-11) Vol. II (12-20) |    [ES]               |                                                                                                                                                                                                                                                                                                                                                                                                                                                                                                         |                       |                       |
| +------------------------------------------------------------------------+-------------------------------+-----------------------+                                                                                                                                                                                                                                                                                                                                                                                                                                                                                                         |                       |                       |
+--------------------------------------------------------------------------------------------------------------------------------------------------------------------------------------------------------------------------------------------------------------------------------------------------------------------------------------------------------------------------------------------------------------------------------------------------------------------------------------------------------------------------------------------------------------------------------------------------------------------------------------------+-----------------------+-----------------------+
| Búsqueda rápida                                                                                                                                                                                                                                                                                                                                                                                                                                                                                                                                                                                                                            |                       |                       |
|                                                                                                                                                                                                                                                                                                                                                                                                                                                                                                                                                                                                                                            |                       |                       |
| +:-------------------:+-----------------+:----------------------------------------:+----------------:+                                                                                                                                                                                                                                                                                                                                                                                                                                                                                                                                     |                       |                       |
| | Documento de fecha: |                 | Ubicación física del documento original: | [] [] []        |                                                                                                                                                                                                                                                                                                                                                                                                                                                                                                                                     |                       |                       |
| |                     |                 |                                          |                 |                                                                                                                                                                                                                                                                                                                                                                                                                                                                                                                                     |                       |                       |
| | 1568. Febrero, 4    |                 | Caja 21, exp. 6, 2 ff.                   |                 |                                                                                                                                                                                                                                                                                                                                                                                                                                                                                                                                     |                       |                       |
| +---------------------+-----------------+------------------------------------------+-----------------+                                                                                                                                                                                                                                                                                                                                                                                                                                                                                                                                     |                       |                       |
|                                                                                                                                                                                                                                                                                                                                                                                                                                                                                                                                                                                                                                            |                       |                       |
|   ------------- ------------------------------------------------------------------------------------------------------------------------------------------------                                                                                                                                                                                                                                                                                                                                                                                                                                                                           |                       |                       |
|   Resumen:      El cura y vicario de esta Villa de Colima Manuel de Nava, procede de oficio contra Pedro Cuivi, indio natural, al que se acusa de hechicerías.                                                                                                                                                                                                                                                                                                                                                                                                                                                                             |                       |                       |
|   ------------- ------------------------------------------------------------------------------------------------------------------------------------------------                                                                                                                                                                                                                                                                                                                                                                                                                                                                           |                       |                       |
|                                                                                                                                                                                                                                                                                                                                                                                                                                                                                                                                                                                                                                            |                       |                       |
|   ----------------------------------- ---------------------------------------------------------------------------------------------------------------------------------------------------------------------------------------------------------------------------------------------------------------------------------------------------------------------------------------------------------------------------------------------------------------------------------------------------------------------------------------------------------------------------------------------------------------------------------------------------- |                       |                       |
|   Contenido:                          El muy magnífico y reverendo señor Manuel de Nava,^([1]) cura y vicario de la Villa de Colima por el muy ilustre y reverendísimo señor don Antonio Morales de Molina,^([2]) obispo de Mechuacan, ante Baltasar de Alcalá, notario apostólico, procede de oficio contra el indio Pedro Cuivi a quien se acusa de hacer hechicerías.                                                                                                                                                                                                                                                                   |                       |                       |
|                                       Para la información, fue designado intérprete Mateo de Berlanga.^([3])                                                                                                                                                                                                                                                                                                                                                                                                                                                                                                                               |                       |                       |
|                                       Información                                                                                                                                                                                                                                                                                                                                                                                                                                                                                                                                                                                          |                       |                       |
|                                       El primer testigo a declarar fue una india natural del pueblo de Chiapa.^([4]) Dijo que su esposo Benito, hará dos años, tuvo enfermos el brazo izquierdo y la mano. Y que viniéndose a alquilar de Zacapan^([5]) a la Villa de Colima, el dicho Pedro Cuivi fue a posar a la casa de esta testigo y viendo que estaba enfermo el brazo, le dijo que le sanaría.                                                                                                                                                                                                                                     |                       |                       |
|                                       “E ansí le tomó el brazo con sus manos y se lo empezó a apretar y a decir ciertos cantares en lengua de indio -que esta testigo no entendió por ser de otra lengua-^([6]) y que le parecía a esta testigo que invocaba al demonio”, porque si bien no se entendían los cantares, eran “unos cantares muy espantosos” de lo que tuvo mucho miedo. Pero resulta que de nada sirvió, por cuanto Benito está aún con el brazo “tullido y lleno de llagas” y no puede aprovecharse de él para cosa alguna.                                                                                                |                       |                       |
|                                       Estando así las cosas, volvió a presentarse el dicho Pedro Cuivi que vino a visitarle un domingo, y al verle así, le dijo que le había encantado el brazo, de suerte que así quedaría manco.                                                                                                                                                                                                                                                                                                                                                                                                         |                       |                       |
|                                       Piensa que la causa de haberle hecho este mal es porque en cierta ocasión Pedro Cuivi quiso convidar a beber un poco de vino a Benito con otros amigos, y éste no aceptó.                                                                                                                                                                                                                                                                                                                                                                                                                            |                       |                       |
|                                       La testigo agregó que ha sabido de otros encantamientos hechos por Pedro Cuivi a un tal Martín, indio natural del pueblo de Tepetitango.^([7]) También lo acontecido a Angelina, india natural, que tenía un caballo que se estaba muriendo y que llamaron a Pedro para que lo viese, y vino; le dijo entonces a Angelina que su caballo estaba encantado y que él se lo desencantaría, “e ansí tomó un libro que traía”. y después de leer un rato en el libro, “tomó una vara y le dio con ella al dicho caballo, y luego se levantó bueno, e que publicó el dicho Pedro lo había desencantado”.   |                       |                       |
|                                       Domingo de Vargas, indio criado de Juan Fernández El Viejo, declaró que yendo este testigo en cierta ocasión al pueblo de Tecuaztlan,^([8]) se aposentó en casa de un natural, compadre suyo que se llama Francisco Juan, y que éste, señalándole a Pedro, le dijo: “Mira, éste es encantador y sabe muchos cantares con que encanta”.                                                                                                                                                                                                                                                               |                       |                       |
|                                       Agrega Domingo de Vargas que otros indios, como un tal Antón, le han dicho que Pedro hace mucho mal con ciertas palabras que dice, invocando al diablo en ellas, y que por enojo que tenía a Benito le dejó manco el brazo por poder del diablo o con alguna raíz. Y que es público y notorio que Pedro “es hechicero y que canta cantares del demonio”.                                                                                                                                                                                                                                             |                       |                       |
|                                       Un nuevo testigo fue examinado el día primero de marzo. Era Martín, indio natural del pueblo de Tepetitango. Dice que tenía un brazo enfermo y que no lo podía siquiera menear, y que llegó a su casa el dicho Pedro y, al vérselo, le comentó que lo tenía encantado y que mientras no se le desencantase, no podría sanar, y que como él era su amigo, se lo quería desencantar.                                                                                                                                                                                                                   |                       |                       |
|                                       Así pues, “empezó a sobar y a cantar ciertos cantares que este testigo no los podía entender -ya que era en diferente lengua y también a que lo cantaba entre dientes-, e que al cabo de tres días tuvo el brazo este testigo bueno”. Este testigo le preguntó, entonces, a Pedro sobre quién le había encantado el brazo y él no se lo quiso revelar. Concluye su testimonio diciendo que en Tepetitango y en Tecuaztlan es fama pública que Pedro es encantador y hechicero, y todos huyen de él porque le tienen miedo.                                                                           |                       |                       |
|                                                                                                                                                                                                                                                                                                                                                                                                                                                                                                                                                                                                                                            |                       |                       |
|   ----------------------------------- ---------------------------------------------------------------------------------------------------------------------------------------------------------------------------------------------------------------------------------------------------------------------------------------------------------------------------------------------------------------------------------------------------------------------------------------------------------------------------------------------------------------------------------------------------------------------------------------------------- |                       |                       |
|                                                                                                                                                                                                                                                                                                                                                                                                                                                                                                                                                                                                                                            |                       |                       |
| (1) Del ministerio en Colima de este clérigo han quedado algunas noticias, todas ellas aluden a procesos contra indígenas por ejercicio de la hechicería y prácticas idolátricas: supra, I, regº 179; véase: Romero de Solís, Andariegos… (2001), 357-358; además, Romero de Solís, Cirujano, hechicero y sangrador… (1992).                                                                                                                                                                                                                                                                                                               |                       |                       |
|                                                                                                                                                                                                                                                                                                                                                                                                                                                                                                                                                                                                                                            |                       |                       |
| (2) Antonio Ruiz de Morales y Molina, obispo de Michoacán (1566-1572), tenía bajo su jurisdicción la Villa de Colima, a la que visitó a fines de 1569. Luego fue trasladado como obispo de Puebla de los Ángeles: Romero de Solís, Andariegos… (2001), 480.                                                                                                                                                                                                                                                                                                                                                                                |                       |                       |
|                                                                                                                                                                                                                                                                                                                                                                                                                                                                                                                                                                                                                                            |                       |                       |
| (3) El vecino de Colima Mateo de Berlanga fungió en varias ocasiones como intérprete; al parecer era mestizo, no obstante ello fue alguacil mayor de Colima y alcalde ordinario: Romero de Solís, Andariegos… (2001), 66.                                                                                                                                                                                                                                                                                                                                                                                                                  |                       |                       |
|                                                                                                                                                                                                                                                                                                                                                                                                                                                                                                                                                                                                                                            |                       |                       |
| (4) No se alcanza a ver su nombre. Acerca del pueblo de Chiapa, cercano a la Villa de Colima: Romero de Solís, Los pueblos de Colima… (2015).                                                                                                                                                                                                                                                                                                                                                                                                                                                                                              |                       |                       |
|                                                                                                                                                                                                                                                                                                                                                                                                                                                                                                                                                                                                                                            |                       |                       |
| (5) Si la lectura correcta es Zacapan, es la única alusión localizada a este pueblo. ¿Acaso deba leerse Zacapu?                                                                                                                                                                                                                                                                                                                                                                                                                                                                                                                            |                       |                       |
|                                                                                                                                                                                                                                                                                                                                                                                                                                                                                                                                                                                                                                            |                       |                       |
| (6) En la región, el náhuatl era la lengua franca, pero continuaban vigentes otras. ¿Acaso tarasco?                                                                                                                                                                                                                                                                                                                                                                                                                                                                                                                                        |                       |                       |
|                                                                                                                                                                                                                                                                                                                                                                                                                                                                                                                                                                                                                                            |                       |                       |
| (7) Pueblo que dio nombre a la entonces muy poblada comarca de Tepetitango, Romero de Solís, Los pueblos de Colima… (2015).                                                                                                                                                                                                                                                                                                                                                                                                                                                                                                                |                       |                       |
|                                                                                                                                                                                                                                                                                                                                                                                                                                                                                                                                                                                                                                            |                       |                       |
| (8) Tecuaztlan o Tocistlan, encomienda de Juan Fernández El Viejo: Romero de Solís, Los pueblos de Colima… (2015).                                                                                                                                                                                                                                                                                                                                                                                                                                                                                                                         |                       |                       |
|                                                                                                                                                                                                                                                                                                                                                                                                                                                                                                                                                                                                                                            |                       |                       |
|   ---------------------------------------------------------------------------------------------------                                                                                                                                                                                                                                                                                                                                                                                                                                                                                                                                      |                       |                       |
|    Documento(s) original(es)                                                                                                                                                                                                                                                                                                                                                                                                                                                                                                                                                                                                               |                       |                       |
|   --------------------------- ------- ------- ------- ------- ------- ------- ------- ------- -------                                                                                                                                                                                                                                                                                                                                                                                                                                                                                                                                      |                       |                       |
|               []                []      []      []                                                                                                                                                                                                                                                                                                                                                                                                                                                                                                                                                                                         |                       |                       |
|               1f                1v      2f      2v                                                                                                                                                                                                                                                                                                                                                                                                                                                                                                                                                                                         |                       |                       |
|                                                                                                                                                                                                                                                                                                                                                                                                                                                                                                                                                                                                                                            |                       |                       |
|   ---------------------------------------------------------------------------------------------------                                                                                                                                                                                                                                                                                                                                                                                                                                                                                                                                      |                       |                       |
+--------------------------------------------------------------------------------------------------------------------------------------------------------------------------------------------------------------------------------------------------------------------------------------------------------------------------------------------------------------------------------------------------------------------------------------------------------------------------------------------------------------------------------------------------------------------------------------------------------------------------------------------+-----------------------+-----------------------+
| +----------------------------------------------------------------------------+-----------------------------------------------:+                                                                                                                                                                                                                                                                                                                                                                                                                                                                                                            |                       |                       |
| | ISBN 978-607-701-024-1                                                     |   ---- ---- ---- ---- ---- ---- ---- ---- ---- |                                                                                                                                                                                                                                                                                                                                                                                                                                                                                                            |                       |                       |
| | © Derechos Reservados 2013. Archivo Histórico del Municipio de Colima. [*] |   []        []        []        []        []   |                                                                                                                                                                                                                                                                                                                                                                                                                                                                                                            |                       |                       |
| |                                                                            |   ---- ---- ---- ---- ---- ---- ---- ---- ---- |                                                                                                                                                                                                                                                                                                                                                                                                                                                                                                            |                       |                       |
| +----------------------------------------------------------------------------+------------------------------------------------+                                                                                                                                                                                                                                                                                                                                                                                                                                                                                                            |                       |                       |
| |                                                                            |                                                |                                                                                                                                                                                                                                                                                                                                                                                                                                                                                                            |                       |                       |
| +----------------------------------------------------------------------------+------------------------------------------------+                                                                                                                                                                                                                                                                                                                                                                                                                                                                                                            |                       |                       |
+--------------------------------------------------------------------------------------------------------------------------------------------------------------------------------------------------------------------------------------------------------------------------------------------------------------------------------------------------------------------------------------------------------------------------------------------------------------------------------------------------------------------------------------------------------------------------------------------------------------------------------------------+-----------------------+-----------------------+

636 visitas
