+----------------------------------------------------------------------------------------------------------------------------------------------------------------------------------------------------------------------------------------------------------------------------------------------------------------------------------------------------------------------------------------------------------------------------------------------------------------------------------------------------------------------------------------------------------------------------------------------------------------------------------------------------------------------------------------------------------------+-----------------------+-----------------------+
| []                                                                                                                                                                                                                                                                                                                                                                                                                                                                                                                                                                                                                                                                                                             |                       |                       |
|                                                                                                                                                                                                                                                                                                                                                                                                                                                                                                                                                                                                                                                                                                                |                       |                       |
| +-----------------------------------+:-------------------------------------:+                                                                                                                                                                                                                                                                                                                                                                                                                                                                                                                                                                                                                                  |                       |                       |
| | []                                | LA VILLA DE COLIMA DE LA NUEVA ESPAÑA |                                                                                                                                                                                                                                                                                                                                                                                                                                                                                                                                                                                                                                  |                       |                       |
| |                                   | SIGLO XVI                             |                                                                                                                                                                                                                                                                                                                                                                                                                                                                                                                                                                                                                                  |                       |                       |
| |                                   |                                       |                                                                                                                                                                                                                                                                                                                                                                                                                                                                                                                                                                                                                                  |                       |                       |
| |                                   | VOLUMEN II      (CAJAS 12-20)         |                                                                                                                                                                                                                                                                                                                                                                                                                                                                                                                                                                                                                                  |                       |                       |
| +-----------------------------------+---------------------------------------+                                                                                                                                                                                                                                                                                                                                                                                                                                                                                                                                                                                                                                  |                       |                       |
+----------------------------------------------------------------------------------------------------------------------------------------------------------------------------------------------------------------------------------------------------------------------------------------------------------------------------------------------------------------------------------------------------------------------------------------------------------------------------------------------------------------------------------------------------------------------------------------------------------------------------------------------------------------------------------------------------------------+-----------------------+-----------------------+
| +------------------------------------------------------------------------+-------------------------------+-----------------------+                                                                                                                                                                                                                                                                                                                                                                                                                                                                                                                                                                             |                       |                       |
| | Inicio | Búsqueda | Siglas y bibliografía | Créditos | Más información | Vol. I (1-11) Vol. II (12-20) |    [ES]               |                                                                                                                                                                                                                                                                                                                                                                                                                                                                                                                                                                             |                       |                       |
| +------------------------------------------------------------------------+-------------------------------+-----------------------+                                                                                                                                                                                                                                                                                                                                                                                                                                                                                                                                                                             |                       |                       |
+----------------------------------------------------------------------------------------------------------------------------------------------------------------------------------------------------------------------------------------------------------------------------------------------------------------------------------------------------------------------------------------------------------------------------------------------------------------------------------------------------------------------------------------------------------------------------------------------------------------------------------------------------------------------------------------------------------------+-----------------------+-----------------------+
| Búsqueda rápida                                                                                                                                                                                                                                                                                                                                                                                                                                                                                                                                                                                                                                                                                                |                       |                       |
|                                                                                                                                                                                                                                                                                                                                                                                                                                                                                                                                                                                                                                                                                                                |                       |                       |
| +:-------------------:+-----------------+:----------------------------------------:+----------------:+                                                                                                                                                                                                                                                                                                                                                                                                                                                                                                                                                                                                         |                       |                       |
| | Documento de fecha: |                 | Ubicación física del documento original: | [] [] []        |                                                                                                                                                                                                                                                                                                                                                                                                                                                                                                                                                                                                         |                       |                       |
| |                     |                 |                                          |                 |                                                                                                                                                                                                                                                                                                                                                                                                                                                                                                                                                                                                         |                       |                       |
| | 1570. Febrero, 28   |                 | Caja 21, exp. 10, 2 ff.^([9])            |                 |                                                                                                                                                                                                                                                                                                                                                                                                                                                                                                                                                                                                         |                       |                       |
| +---------------------+-----------------+------------------------------------------+-----------------+                                                                                                                                                                                                                                                                                                                                                                                                                                                                                                                                                                                                         |                       |                       |
|                                                                                                                                                                                                                                                                                                                                                                                                                                                                                                                                                                                                                                                                                                                |                       |                       |
|   ------------- -----------------------------------------------------------------------------------------------------------------------                                                                                                                                                                                                                                                                                                                                                                                                                                                                                                                                                                        |                       |                       |
|   Resumen:      Gonzalo de Cáceres pide ser libre acerca de la pendencia de cuchilladas con Gaspar de la Plaza, de la que es acusado.                                                                                                                                                                                                                                                                                                                                                                                                                                                                                                                                                                          |                       |                       |
|   ------------- -----------------------------------------------------------------------------------------------------------------------                                                                                                                                                                                                                                                                                                                                                                                                                                                                                                                                                                        |                       |                       |
|                                                                                                                                                                                                                                                                                                                                                                                                                                                                                                                                                                                                                                                                                                                |                       |                       |
|   ----------------------------------- --------------------------------------------------------------------------------------------------------------------------------------------------------------------------------------------------------------------------------------------------------------------------------------------------------------------------------------------------------------------------------------------------------------------------------------------------------------------------------------------------------------------------------------------------------------------------------------------------------------------------------                                         |                       |                       |
|   Contenido:                          Ante el corregidor del Valle de Alima Juan Fernández,^([1]) el vecino de la Villa de Colima Gonzalo de Cáceres dice que “Francisco Hernández,^([2]) corregidor del pueblo de Maquili,^([3]) hizo cierta información sobre mí, por ausencia de V.m., de la cual información yo me hallo libre y sin culpa”.                                                                                                                                                                                                                                                                                                                                                               |                       |                       |
|                                       Pide ser dado por libre de la acusación que se le hace de haber tenido una “pendencia de cuchilladas con Gaspar de la Plaza”.^([4])                                                                                                                                                                                                                                                                                                                                                                                                                                                                                                                                      |                       |                       |
|                                       El corregidor de Alima declaró que tomaba la causa en sí. Luego dijo que por cuanto en su jurisdicción “no hay cárcel cómoda, ni prisiones de ningún género, ni manera para poder encarcelar al dicho Gonzalo de Cáceres”, le señaló por cárcel las casas de la morada de Juan de Arévalo que están en el pueblo de Tiçahuacan,^([5]) con pena de cien pesos de oro de minas, si la quebrantare.                                                                                                                                                                                                                                                                         |                       |                       |
|                                       Hernán López,^([6]) escribano nombrado, notificó el auto a Gonzalo de Cáceres, quien dijo que lo obedecía.                                                                                                                                                                                                                                                                                                                                                                                                                                                                                                                                                               |                       |                       |
|                                       El 14 de marzo, siendo testigos Martín de Monjaraz y Bartolomé Chavarín,^([7]) Gonzalo de Cáceres presentó ante el corregidor un escrito en el que pedía “darme en fiado por honra de la dicha Semana Santa y Pascua”, y que él se presentaría ante Su Merced cuando éste así lo dispusiera. Gonzalo de Cáceres alegaba que llevaba ya veinte días preso sin haber cometido el delito “y porque la semana que viene es Semana Santa y víspera de Pascua, y en este Partido no hay sacerdote ninguno que administre los Sacramentos,^([8]) y tengo necesidad de ir con mi mujer y casa a la Villa de Colima, donde soy vecino”.                                           |                       |                       |
|                                       El 15 de marzo, Gonzalo de Cáceres dio por su fiador a Juan de Arévalo, vecino del dicho Valle de Alima, obligándose éste a presentar a Gonzalo en el término de treinta días.                                                                                                                                                                                                                                                                                                                                                                                                                                                                                           |                       |                       |
|                                                                                                                                                                                                                                                                                                                                                                                                                                                                                                                                                                                                                                                                                                                |                       |                       |
|   ----------------------------------- --------------------------------------------------------------------------------------------------------------------------------------------------------------------------------------------------------------------------------------------------------------------------------------------------------------------------------------------------------------------------------------------------------------------------------------------------------------------------------------------------------------------------------------------------------------------------------------------------------------------------------                                         |                       |                       |
|                                                                                                                                                                                                                                                                                                                                                                                                                                                                                                                                                                                                                                                                                                                |                       |                       |
| (1) Se trata del vecino de Colima Juan Fernández de Ocampo, también nombrado Juan Fernández Lázaro: véase, supra, I, reg° 226, 227-230, expedientes donde se recogen incidentes relacionados con este caso.                                                                                                                                                                                                                                                                                                                                                                                                                                                                                                    |                       |                       |
|                                                                                                                                                                                                                                                                                                                                                                                                                                                                                                                                                                                                                                                                                                                |                       |                       |
| (2) Francisco Hernández -tal vez Francisco Hernández del Almendral- era natural de Tarauela, Badajoz: Llegó a Nueva España con Luis Ponce de León y participó en la pacificación de Nueva Galicia. Se avecindó en Colima y el cabildo de la Villa en 1546 le mercedó una estancia para ganado mayor en sus términos. Condueño de un barco surto en el Puerto de la Navidad con el que pretendía en compañía de otros pescar perlas en la Mar del Sur. Tuvo cargos de justicia: Romero de Solís, Andariegos… (2001), 196-197.                                                                                                                                                                                   |                       |                       |
|                                                                                                                                                                                                                                                                                                                                                                                                                                                                                                                                                                                                                                                                                                                |                       |                       |
| (3) Maquili o Maquilí, en Motines: Romero de Solís, Los pueblos de Colima… (2015).                                                                                                                                                                                                                                                                                                                                                                                                                                                                                                                                                                                                                             |                       |                       |
|                                                                                                                                                                                                                                                                                                                                                                                                                                                                                                                                                                                                                                                                                                                |                       |                       |
| (4) Sobre Gaspar de la Plaza, mozo que prestaba su servicio en huertas de cacao, la información ya mencionada: supra, I, reg° 229-230.                                                                                                                                                                                                                                                                                                                                                                                                                                                                                                                                                                         |                       |                       |
|                                                                                                                                                                                                                                                                                                                                                                                                                                                                                                                                                                                                                                                                                                                |                       |                       |
| (5) O Tezuacan, pueblo del Valle de Alima: Romero de Solís, Los pueblos de Colima… (2015).                                                                                                                                                                                                                                                                                                                                                                                                                                                                                                                                                                                                                     |                       |                       |
|                                                                                                                                                                                                                                                                                                                                                                                                                                                                                                                                                                                                                                                                                                                |                       |                       |
| (6) Hernán López, quien funge aquí de escribano nombrado, ya lo habíamos encontrado con anterioridad: supra, I, reg° 197, 222, 230                                                                                                                                                                                                                                                                                                                                                                                                                                                                                                                                                                             |                       |                       |
|                                                                                                                                                                                                                                                                                                                                                                                                                                                                                                                                                                                                                                                                                                                |                       |                       |
| (7) Bartolomé Chavarín El Mozo, hijo del conquistador Bartolomé Chavarín y María Gutiérrez. Casó con Leonor de Arévalo y, a su fallecimiento, con Catalina Álvarez, con quien tuvo descendencia. En ocasiones fungió de intérprete de la lengua mexicana. Romero de Solís, Andariegos… (2001), 112-113.                                                                                                                                                                                                                                                                                                                                                                                                        |                       |                       |
|                                                                                                                                                                                                                                                                                                                                                                                                                                                                                                                                                                                                                                                                                                                |                       |                       |
| (8) No obstante lo que aquí se dice, a partir de la década de los cincuenta, se observa una presencia bastante constante del clero secular ejerciendo el ministerio en Motines, aunque la sede parroquial cambió de un lugar a otro: Aquila (1533), Motín (1550-1551), Maquilí (1550-1566), Quacoman (1567-1582) y de nuevo Maquilí (1581-1597): Donald D. Brand, Coalcoman and Motines del Oro… (1960), 133; Silvio A. Zavala (Ed.), Libros de asientos de la gobernación de la Nueva España… (1982), 308; John Frederick y Anne C. Taylor Schwaller, Partidos y párrocos bajo la Real Corona… (1981), 96-97, 210-211, 230-231, 539, 573; y Francisco Miranda Godínez, Don Vasco de Quiroga… (1972), 310-311. |                       |                       |
|                                                                                                                                                                                                                                                                                                                                                                                                                                                                                                                                                                                                                                                                                                                |                       |                       |
| (9) Antes en Sección B, caja 21, exp. 12.                                                                                                                                                                                                                                                                                                                                                                                                                                                                                                                                                                                                                                                                      |                       |                       |
|                                                                                                                                                                                                                                                                                                                                                                                                                                                                                                                                                                                                                                                                                                                |                       |                       |
|   ---------------------------------------------------------------------------------------------------                                                                                                                                                                                                                                                                                                                                                                                                                                                                                                                                                                                                          |                       |                       |
|    Documento(s) original(es)                                                                                                                                                                                                                                                                                                                                                                                                                                                                                                                                                                                                                                                                                   |                       |                       |
|   --------------------------- ------- ------- ------- ------- ------- ------- ------- ------- -------                                                                                                                                                                                                                                                                                                                                                                                                                                                                                                                                                                                                          |                       |                       |
|               []                []      []      []                                                                                                                                                                                                                                                                                                                                                                                                                                                                                                                                                                                                                                                             |                       |                       |
|               1f                1v      2f      2v                                                                                                                                                                                                                                                                                                                                                                                                                                                                                                                                                                                                                                                             |                       |                       |
|                                                                                                                                                                                                                                                                                                                                                                                                                                                                                                                                                                                                                                                                                                                |                       |                       |
|   ---------------------------------------------------------------------------------------------------                                                                                                                                                                                                                                                                                                                                                                                                                                                                                                                                                                                                          |                       |                       |
+----------------------------------------------------------------------------------------------------------------------------------------------------------------------------------------------------------------------------------------------------------------------------------------------------------------------------------------------------------------------------------------------------------------------------------------------------------------------------------------------------------------------------------------------------------------------------------------------------------------------------------------------------------------------------------------------------------------+-----------------------+-----------------------+
| +----------------------------------------------------------------------------+-----------------------------------------------:+                                                                                                                                                                                                                                                                                                                                                                                                                                                                                                                                                                                |                       |                       |
| | ISBN 978-607-701-024-1                                                     |   ---- ---- ---- ---- ---- ---- ---- ---- ---- |                                                                                                                                                                                                                                                                                                                                                                                                                                                                                                                                                                                |                       |                       |
| | © Derechos Reservados 2013. Archivo Histórico del Municipio de Colima. [*] |   []        []        []        []        []   |                                                                                                                                                                                                                                                                                                                                                                                                                                                                                                                                                                                |                       |                       |
| |                                                                            |   ---- ---- ---- ---- ---- ---- ---- ---- ---- |                                                                                                                                                                                                                                                                                                                                                                                                                                                                                                                                                                                |                       |                       |
| +----------------------------------------------------------------------------+------------------------------------------------+                                                                                                                                                                                                                                                                                                                                                                                                                                                                                                                                                                                |                       |                       |
| |                                                                            |                                                |                                                                                                                                                                                                                                                                                                                                                                                                                                                                                                                                                                                |                       |                       |
| +----------------------------------------------------------------------------+------------------------------------------------+                                                                                                                                                                                                                                                                                                                                                                                                                                                                                                                                                                                |                       |                       |
+----------------------------------------------------------------------------------------------------------------------------------------------------------------------------------------------------------------------------------------------------------------------------------------------------------------------------------------------------------------------------------------------------------------------------------------------------------------------------------------------------------------------------------------------------------------------------------------------------------------------------------------------------------------------------------------------------------------+-----------------------+-----------------------+

636 visitas
