+----------------------------------------------------------------------------------------------------------------------------------------------------------------------------------------------------------------------------------------------------------------------------------------------------------------------------------------------------------------------------------------------------------------------------------------------------------------------------------------------------------------------------------------------------------------------------------------------------------------------------------------------------------------+-----------------------+-----------------------+
| []                                                                                                                                                                                                                                                                                                                                                                                                                                                                                                                                                                                                                                                             |                       |                       |
|                                                                                                                                                                                                                                                                                                                                                                                                                                                                                                                                                                                                                                                                |                       |                       |
| +-----------------------------------+:-------------------------------------:+                                                                                                                                                                                                                                                                                                                                                                                                                                                                                                                                                                                  |                       |                       |
| | []                                | LA VILLA DE COLIMA DE LA NUEVA ESPAÑA |                                                                                                                                                                                                                                                                                                                                                                                                                                                                                                                                                                                  |                       |                       |
| |                                   | SIGLO XVI                             |                                                                                                                                                                                                                                                                                                                                                                                                                                                                                                                                                                                  |                       |                       |
| |                                   |                                       |                                                                                                                                                                                                                                                                                                                                                                                                                                                                                                                                                                                  |                       |                       |
| |                                   | VOLUMEN II      (CAJAS 12-20)         |                                                                                                                                                                                                                                                                                                                                                                                                                                                                                                                                                                                  |                       |                       |
| +-----------------------------------+---------------------------------------+                                                                                                                                                                                                                                                                                                                                                                                                                                                                                                                                                                                  |                       |                       |
+----------------------------------------------------------------------------------------------------------------------------------------------------------------------------------------------------------------------------------------------------------------------------------------------------------------------------------------------------------------------------------------------------------------------------------------------------------------------------------------------------------------------------------------------------------------------------------------------------------------------------------------------------------------+-----------------------+-----------------------+
| +------------------------------------------------------------------------+-------------------------------+-----------------------+                                                                                                                                                                                                                                                                                                                                                                                                                                                                                                                             |                       |                       |
| | Inicio | Búsqueda | Siglas y bibliografía | Créditos | Más información | Vol. I (1-11) Vol. II (12-20) |    [ES]               |                                                                                                                                                                                                                                                                                                                                                                                                                                                                                                                             |                       |                       |
| +------------------------------------------------------------------------+-------------------------------+-----------------------+                                                                                                                                                                                                                                                                                                                                                                                                                                                                                                                             |                       |                       |
+----------------------------------------------------------------------------------------------------------------------------------------------------------------------------------------------------------------------------------------------------------------------------------------------------------------------------------------------------------------------------------------------------------------------------------------------------------------------------------------------------------------------------------------------------------------------------------------------------------------------------------------------------------------+-----------------------+-----------------------+
| Búsqueda rápida                                                                                                                                                                                                                                                                                                                                                                                                                                                                                                                                                                                                                                                |                       |                       |
|                                                                                                                                                                                                                                                                                                                                                                                                                                                                                                                                                                                                                                                                |                       |                       |
| +:-------------------:+-----------------+:----------------------------------------:+----------------:+                                                                                                                                                                                                                                                                                                                                                                                                                                                                                                                                                         |                       |                       |
| | Documento de fecha: |                 | Ubicación física del documento original: | [] [] []        |                                                                                                                                                                                                                                                                                                                                                                                                                                                                                                                                                         |                       |                       |
| |                     |                 |                                          |                 |                                                                                                                                                                                                                                                                                                                                                                                                                                                                                                                                                         |                       |                       |
| | 1570. Julio, 18     |                 | Caja 21, exp. 13, 31 ff.^([9])           |                 |                                                                                                                                                                                                                                                                                                                                                                                                                                                                                                                                                         |                       |                       |
| +---------------------+-----------------+------------------------------------------+-----------------+                                                                                                                                                                                                                                                                                                                                                                                                                                                                                                                                                         |                       |                       |
|                                                                                                                                                                                                                                                                                                                                                                                                                                                                                                                                                                                                                                                                |                       |                       |
|   ------------- ----------------------------------------------------------------------------------------------------------                                                                                                                                                                                                                                                                                                                                                                                                                                                                                                                                     |                       |                       |
|   Resumen:      Juan de Iniesta reclama el servicio prestado por Andrés Jácome, mudo, a Pero López de Herrera, su tutor.                                                                                                                                                                                                                                                                                                                                                                                                                                                                                                                                       |                       |                       |
|   ------------- ----------------------------------------------------------------------------------------------------------                                                                                                                                                                                                                                                                                                                                                                                                                                                                                                                                     |                       |                       |
|                                                                                                                                                                                                                                                                                                                                                                                                                                                                                                                                                                                                                                                                |                       |                       |
|   ----------------------------------- ------------------------------------------------------------------------------------------------------------------------------------------------------------------------------------------------------------------------------------------------------------------------------------------------------------------------------------------------------------------------------------------------------------------------------------------------------------------------------------------------------------------------------------------------------------------------------------------------------------------------ |                       |                       |
|   Contenido:                          Juan de Iniesta, curador de Andrés Jácome, mudo,^([1]) pide ante el alcalde mayor de Colima don Jerónimo Flores que Pero López de Herrera, su tutor,^([2]) “le pague el servicio de tres años y medio, e sobre razón de se haber servido de él, pudiéndole haber puesto a soldada”.                                                                                                                                                                                                                                                                                                                                      |                       |                       |
|                                       Solicita se le mande dar información y que sus testigos sean preguntados a tenor del interrogatorio que anexa.                                                                                                                                                                                                                                                                                                                                                                                                                                                                                                           |                       |                       |
|                                       Preguntas para el examen de los testigos                                                                                                                                                                                                                                                                                                                                                                                                                                                                                                                                                                                 |                       |                       |
|                                       Se pregunta a los testigos si saben que Andrés Jácome, mudo, siempre ha estado y residido en casa de Pero López de Herrera, su tutor, sirviéndole en su casa en todo lo que se le mandaba y sin ausentarse nunca de esa casa; y en otros trabajos que se le encomendaban, como recoger los caballos y recua de su tutor, cargándolos y descargándolos, sobre todo, cuando Pero López de Herrera lo mandaba fuera desta Villa a los Pueblos de Ávalos y al puerto de Zalagua, con su recua.^([3]) Andrés Jácome ahora tiene 24 años de edad y no gana soldada alguna, cuando podría estar ganando 60 u 80 pesos al año.   |                       |                       |
|                                       Para la información declaran García Rodríguez, Diego Morán, Andrés Toscano,^([4]) Martín Ruiz,^([5]) Pero Ruiz de Vilches y Pedro de las Casas, vecinos de Colima.                                                                                                                                                                                                                                                                                                                                                                                                                                                       |                       |                       |
|                                       El 20 de julio, Pero López de Herrera respondía diciendo que hacía tres años que tenía en tutoría a Andrés Jácome y le ha estado dando de comer, cuidándolo como hijo, y curándolo cuando estaba tullido de bubas. Sobre el carácter de Andrés Jácome, dice que es indómito, antojadizo, hombre de muchos movimientos, que no quiso aprender oficio alguno alegando tener hacienda con qué sustentarse; que con frecuencia se le ausentaba e iba y venía a donde gustaba y, en ocasiones. le hurtaba caballos y dineros que vendía y trocaba.^([6])                                                                      |                       |                       |
|                                       Más preguntas para el examen de testigos                                                                                                                                                                                                                                                                                                                                                                                                                                                                                                                                                                                 |                       |                       |
|                                       También López de Herrera presentó un interrogatorio para el examen de sus testigos, entre otros, Melchor Pérez, Francisco Hernández, Juan Núñez de Alvarado y Martín Ruiz de Monjaraz, quien “está retraído en la iglesia desta Villa” y a quien fueron a interrogar a la iglesia.^([7])                                                                                                                                                                                                                                                                                                                                 |                       |                       |
|                                       Éste, entre otras cosas, declaró que, por señas, Jácome le había dicho que había ido a Villa de la Purificación, o que venía de los Pueblos de Ávalos, o de las huertas, y que una vez quiso irse hasta México, llegando a Pátzcuaro, de donde se regresó con Diego de Mendoza, vecino de Colima.                                                                                                                                                                                                                                                                                                                        |                       |                       |
|                                       El 25 de julio, Pero López de Herrera pedía ampliación de término puesto que pretendía aprovecharse de testigos que vivían en los Pueblos de Ávalos, minas de Zacatecas, Guadalajara, Pátzcuaro y México, lo cual la parte contraria decía que era sólo por malicia y para alargar el caso.^([8])                                                                                                                                                                                                                                                                                                                        |                       |                       |
|                                       El 12 de agosto, López de Herrera, en largo escrito, decía tener bien probado el caso, mientras que Juan de Iniesta, curador ad litem, había presentado testimonios aislados y contradictorios. En su escrito pedía también ser pagado de los gastos que había tenido con la tutoría y que él calculaba en unos 200 pesos de oro.                                                                                                                                                                                                                                                                                        |                       |                       |
|                                       El 18 de agosto, el alcalde mayor Jerónimo Flores dictó sentencia: fallaba que Juan Iniesta probó bien su intención y demanda en tanto Pero López de Herrera, en lo que probó y alegó, no dio descargo bastante. Por consiguiente, condenaba a Pero López de Herrera a que, en término de tres días, dé y pague a Andrés Jácome y a Juan de Iniesta 50 pesos de oro común por el tiempo que el mudo le ha servido en su recua y en otras cosas. Las costas las dividía por mitad entre las partes.                                                                                                                       |                       |                       |
|                                       Pero López de Herrera consideró la sentencia como notorio agravio y apeló ante la Real Audiencia, apelación que le concedió el alcalde mayor.                                                                                                                                                                                                                                                                                                                                                                                                                                                                            |                       |                       |
|                                       También Iniesta pedía aclaraciones a la sentencia. Decía que no quedaba claro por ella si los 50 pesos de oro eran por cada año que había servido a López de Herrera Andrés Jácome porque, de lo contrario, “si fuese por todo el tiempo, es un gran daño” para su parte y, en consecuencia, apelaba también a la Real Audiencia de México. Lo que le fue concedido igualmente por el alcalde mayor.                                                                                                                                                                                                                     |                       |                       |
|                                       El 21 de agosto de 1571, Juan de Iniesta, tutor y curador de Andrés Jácome, decía que Pero López, quien había apelado a México, había solamente presentado y traído testimonio de la dicha presentación. De entonces a la fecha, ha pasado más de un año. Pide que Pero López pague los 50 pesos en que fue condenado.                                                                                                                                                                                                                                                                                                   |                       |                       |
|                                       El alcalde mayor Jerónimo Flores dispuso que Iniesta diera fianzas y que se le pagase. Diego Morán fue el fiador de Iniesta.                                                                                                                                                                                                                                                                                                                                                                                                                                                                                             |                       |                       |
|                                       El 22 de agosto, Juan de Iniesta firmó haber recibido 50 pesos en tomines de manos del alcalde mayor para el mudo Andrés Jácome, ante el escribano Blas López y de Diego Mendoza, Melchor Pérez y Juan Preciado, vecinos de Colima.                                                                                                                                                                                                                                                                                                                                                                                      |                       |                       |
|                                                                                                                                                                                                                                                                                                                                                                                                                                                                                                                                                                                                                                                                |                       |                       |
|   ----------------------------------- ------------------------------------------------------------------------------------------------------------------------------------------------------------------------------------------------------------------------------------------------------------------------------------------------------------------------------------------------------------------------------------------------------------------------------------------------------------------------------------------------------------------------------------------------------------------------------------------------------------------------ |                       |                       |
|                                                                                                                                                                                                                                                                                                                                                                                                                                                                                                                                                                                                                                                                |                       |                       |
| (1) Andrés Jácome, hijo de Maese Andrés Jácome de Mónaco -Demónago-, era mudo y hablaba por señas; tuvo un hermano mulato llamado Antón Domínguez, a quien heredó. Creció en casa del vecino Juan Bautista y tuvo diversos tutores y cuidadores de su persona y bienes. Bajo la tutoría de Pero López de Herrera cayó enfermo de bubas. De carácter independiente y antojadizo, escapaba para ir de un lado a otro por su cuenta y riesgo: Villa de Purificación, Pueblos de Ávalos, Pátzcuaro. Fue procesado por robo de dos caballos y dos machos: Romero de Solís, Andariegos… (2001), 222-224.                                                             |                       |                       |
|                                                                                                                                                                                                                                                                                                                                                                                                                                                                                                                                                                                                                                                                |                       |                       |
| (2) Juan de Iniesta El Mozo había sucedido a Pero López de Herrera en la tutoría y curaduría de la persona y bienes del menor.                                                                                                                                                                                                                                                                                                                                                                                                                                                                                                                                 |                       |                       |
|                                                                                                                                                                                                                                                                                                                                                                                                                                                                                                                                                                                                                                                                |                       |                       |
| (3) Noticia interesante sobre las principales rutas que cubría López de Herrera con su recua.                                                                                                                                                                                                                                                                                                                                                                                                                                                                                                                                                                  |                       |                       |
|                                                                                                                                                                                                                                                                                                                                                                                                                                                                                                                                                                                                                                                                |                       |                       |
| (4) Vecino de Colima, al menos desde 1562, Andrés Toscano era originario de Cartaya, en los Reinos de Castilla, sobrino de Catalina Martín Toscano, esposa de Juan Fernández Ladrillero -aunque en otro expediente se declara cuñado de éste- y, quizá, hermano de Francisco Toscano Gorjón. Casó con María de Herrera con la que hubo descendencia. Tenía recua y falleció en Sayula: Romero de Solís, Andariegos… (2001), 549-550.                                                                                                                                                                                                                           |                       |                       |
|                                                                                                                                                                                                                                                                                                                                                                                                                                                                                                                                                                                                                                                                |                       |                       |
| (5) Martín Ruiz, hijo de Juan Ruiz e Isabel Ruiz La Vieja, vecinos de Colima, casó con Juana de Solórzano. Tenía huerta de cacao en Caxitlan y tienda en la Villa de Colima: Romero de Solís, Andariegos… (2001).                                                                                                                                                                                                                                                                                                                                                                                                                                              |                       |                       |
|                                                                                                                                                                                                                                                                                                                                                                                                                                                                                                                                                                                                                                                                |                       |                       |
| (6) Fue enjuiciado por ello: supra, I, reg° 256.                                                                                                                                                                                                                                                                                                                                                                                                                                                                                                                                                                                                               |                       |                       |
|                                                                                                                                                                                                                                                                                                                                                                                                                                                                                                                                                                                                                                                                |                       |                       |
| (7) Es decir, por el derecho de asilo.                                                                                                                                                                                                                                                                                                                                                                                                                                                                                                                                                                                                                         |                       |                       |
|                                                                                                                                                                                                                                                                                                                                                                                                                                                                                                                                                                                                                                                                |                       |                       |
| (8) El que López de Herrera pretendiera ocurrir a otros testigos de diversas regiones de la Nueva España y la Nueva Galicia, es indicio claro que no sólo cubría con su recua las rutas antes mencionadas de la Provincia de Ávalos y el puerto de Salagua, sino también zonas de la Nueva Galicia, como Villa de Purificación, como lo atestigua Ruiz de Monjaraz, sino también Guadalajara, Zacatecas, México y Michoacán.                                                                                                                                                                                                                                   |                       |                       |
|                                                                                                                                                                                                                                                                                                                                                                                                                                                                                                                                                                                                                                                                |                       |                       |
| (9) Antes en Sección B, caja 21, exp. 15.                                                                                                                                                                                                                                                                                                                                                                                                                                                                                                                                                                                                                      |                       |                       |
|                                                                                                                                                                                                                                                                                                                                                                                                                                                                                                                                                                                                                                                                |                       |                       |
|   ---------------------------------------------------------------------------------------------------                                                                                                                                                                                                                                                                                                                                                                                                                                                                                                                                                          |                       |                       |
|    Documento(s) original(es)                                                                                                                                                                                                                                                                                                                                                                                                                                                                                                                                                                                                                                   |                       |                       |
|   --------------------------- ------- ------- ------- ------- ------- ------- ------- ------- -------                                                                                                                                                                                                                                                                                                                                                                                                                                                                                                                                                          |                       |                       |
|               []                []      []      []      []      []      []      []      []      []                                                                                                                                                                                                                                                                                                                                                                                                                                                                                                                                                             |                       |                       |
|               1f                1v      2f      2v      3f      3v      4f      4v      5f      5v                                                                                                                                                                                                                                                                                                                                                                                                                                                                                                                                                             |                       |                       |
|                                                                                                                                                                                                                                                                                                                                                                                                                                                                                                                                                                                                                                                                |                       |                       |
|               []                []      []      []      []      []      []      []      []      []                                                                                                                                                                                                                                                                                                                                                                                                                                                                                                                                                             |                       |                       |
|               6f                7f      7v      8f      8v      9f      9v      10f     10v     11f                                                                                                                                                                                                                                                                                                                                                                                                                                                                                                                                                            |                       |                       |
|                                                                                                                                                                                                                                                                                                                                                                                                                                                                                                                                                                                                                                                                |                       |                       |
|               []                []      []      []      []      []      []      []      []      []                                                                                                                                                                                                                                                                                                                                                                                                                                                                                                                                                             |                       |                       |
|               11v               12f     12v     13f     13v     14f     14v     15f     15v     16f                                                                                                                                                                                                                                                                                                                                                                                                                                                                                                                                                            |                       |                       |
|                                                                                                                                                                                                                                                                                                                                                                                                                                                                                                                                                                                                                                                                |                       |                       |
|               []                []      []      []      []      []      []      []      []      []                                                                                                                                                                                                                                                                                                                                                                                                                                                                                                                                                             |                       |                       |
|               16v               17f     17v     18f     18v     19f     19v     20f     20v     21f                                                                                                                                                                                                                                                                                                                                                                                                                                                                                                                                                            |                       |                       |
|                                                                                                                                                                                                                                                                                                                                                                                                                                                                                                                                                                                                                                                                |                       |                       |
|               []                []      []      []      []      []      []      []      []      []                                                                                                                                                                                                                                                                                                                                                                                                                                                                                                                                                             |                       |                       |
|               21v               22f     22v     23f     23v     24f     24v     25f     25v     26f                                                                                                                                                                                                                                                                                                                                                                                                                                                                                                                                                            |                       |                       |
|                                                                                                                                                                                                                                                                                                                                                                                                                                                                                                                                                                                                                                                                |                       |                       |
|               []                []      []      []      []      []      []      []      []      []                                                                                                                                                                                                                                                                                                                                                                                                                                                                                                                                                             |                       |                       |
|               26v               27f     27v     28f     28v     29f     29v     30f     30v     31f                                                                                                                                                                                                                                                                                                                                                                                                                                                                                                                                                            |                       |                       |
|                                                                                                                                                                                                                                                                                                                                                                                                                                                                                                                                                                                                                                                                |                       |                       |
|               []                                                                                                                                                                                                                                                                                                                                                                                                                                                                                                                                                                                                                                               |                       |                       |
|               31v                                                                                                                                                                                                                                                                                                                                                                                                                                                                                                                                                                                                                                              |                       |                       |
|   ---------------------------------------------------------------------------------------------------                                                                                                                                                                                                                                                                                                                                                                                                                                                                                                                                                          |                       |                       |
+----------------------------------------------------------------------------------------------------------------------------------------------------------------------------------------------------------------------------------------------------------------------------------------------------------------------------------------------------------------------------------------------------------------------------------------------------------------------------------------------------------------------------------------------------------------------------------------------------------------------------------------------------------------+-----------------------+-----------------------+
| +----------------------------------------------------------------------------+-----------------------------------------------:+                                                                                                                                                                                                                                                                                                                                                                                                                                                                                                                                |                       |                       |
| | ISBN 978-607-701-024-1                                                     |   ---- ---- ---- ---- ---- ---- ---- ---- ---- |                                                                                                                                                                                                                                                                                                                                                                                                                                                                                                                                |                       |                       |
| | © Derechos Reservados 2013. Archivo Histórico del Municipio de Colima. [*] |   []        []        []        []        []   |                                                                                                                                                                                                                                                                                                                                                                                                                                                                                                                                |                       |                       |
| |                                                                            |   ---- ---- ---- ---- ---- ---- ---- ---- ---- |                                                                                                                                                                                                                                                                                                                                                                                                                                                                                                                                |                       |                       |
| +----------------------------------------------------------------------------+------------------------------------------------+                                                                                                                                                                                                                                                                                                                                                                                                                                                                                                                                |                       |                       |
| |                                                                            |                                                |                                                                                                                                                                                                                                                                                                                                                                                                                                                                                                                                |                       |                       |
| +----------------------------------------------------------------------------+------------------------------------------------+                                                                                                                                                                                                                                                                                                                                                                                                                                                                                                                                |                       |                       |
+----------------------------------------------------------------------------------------------------------------------------------------------------------------------------------------------------------------------------------------------------------------------------------------------------------------------------------------------------------------------------------------------------------------------------------------------------------------------------------------------------------------------------------------------------------------------------------------------------------------------------------------------------------------+-----------------------+-----------------------+

636 visitas
