+----------------------------------------------------------------------------------------------------------------------------------------------------------------------------------------------------------------------------------------------------------------------------------------------------------------------------------------------------------------------------------------------------------------------------------------------------------------------------------------------------------------------------------------------------------------+-----------------------+-----------------------+
| []                                                                                                                                                                                                                                                                                                                                                                                                                                                                                                                                                             |                       |                       |
|                                                                                                                                                                                                                                                                                                                                                                                                                                                                                                                                                                |                       |                       |
| +-----------------------------------+:-------------------------------------:+                                                                                                                                                                                                                                                                                                                                                                                                                                                                                  |                       |                       |
| | []                                | LA VILLA DE COLIMA DE LA NUEVA ESPAÑA |                                                                                                                                                                                                                                                                                                                                                                                                                                                                                  |                       |                       |
| |                                   | SIGLO XVI                             |                                                                                                                                                                                                                                                                                                                                                                                                                                                                                  |                       |                       |
| |                                   |                                       |                                                                                                                                                                                                                                                                                                                                                                                                                                                                                  |                       |                       |
| |                                   | VOLUMEN II      (CAJAS 12-20)         |                                                                                                                                                                                                                                                                                                                                                                                                                                                                                  |                       |                       |
| +-----------------------------------+---------------------------------------+                                                                                                                                                                                                                                                                                                                                                                                                                                                                                  |                       |                       |
+----------------------------------------------------------------------------------------------------------------------------------------------------------------------------------------------------------------------------------------------------------------------------------------------------------------------------------------------------------------------------------------------------------------------------------------------------------------------------------------------------------------------------------------------------------------+-----------------------+-----------------------+
| +------------------------------------------------------------------------+-------------------------------+-----------------------+                                                                                                                                                                                                                                                                                                                                                                                                                             |                       |                       |
| | Inicio | Búsqueda | Siglas y bibliografía | Créditos | Más información | Vol. I (1-11) Vol. II (12-20) |    [ES]               |                                                                                                                                                                                                                                                                                                                                                                                                                             |                       |                       |
| +------------------------------------------------------------------------+-------------------------------+-----------------------+                                                                                                                                                                                                                                                                                                                                                                                                                             |                       |                       |
+----------------------------------------------------------------------------------------------------------------------------------------------------------------------------------------------------------------------------------------------------------------------------------------------------------------------------------------------------------------------------------------------------------------------------------------------------------------------------------------------------------------------------------------------------------------+-----------------------+-----------------------+
| Búsqueda rápida                                                                                                                                                                                                                                                                                                                                                                                                                                                                                                                                                |                       |                       |
|                                                                                                                                                                                                                                                                                                                                                                                                                                                                                                                                                                |                       |                       |
| +:-------------------:+-----------------+:----------------------------------------:+----------------:+                                                                                                                                                                                                                                                                                                                                                                                                                                                         |                       |                       |
| | Documento de fecha: |                 | Ubicación física del documento original: | [] [] []        |                                                                                                                                                                                                                                                                                                                                                                                                                                                         |                       |                       |
| |                     |                 |                                          |                 |                                                                                                                                                                                                                                                                                                                                                                                                                                                         |                       |                       |
| | 1571. Abril, 10     |                 | Caja 21, exp. 16, 16 ff.^([7])           |                 |                                                                                                                                                                                                                                                                                                                                                                                                                                                         |                       |                       |
| +---------------------+-----------------+------------------------------------------+-----------------+                                                                                                                                                                                                                                                                                                                                                                                                                                                         |                       |                       |
|                                                                                                                                                                                                                                                                                                                                                                                                                                                                                                                                                                |                       |                       |
|   ------------- ----------------------------------------------------------------------------------------------------------------------------------------------------                                                                                                                                                                                                                                                                                                                                                                                           |                       |                       |
|   Resumen:      Diego Fernández de Monroy reclama derechos sobre un pedazo de tierra en Caxitlan que tenía en compañía de los herederos de Juan Bautista, difunto.                                                                                                                                                                                                                                                                                                                                                                                             |                       |                       |
|   ------------- ----------------------------------------------------------------------------------------------------------------------------------------------------                                                                                                                                                                                                                                                                                                                                                                                           |                       |                       |
|                                                                                                                                                                                                                                                                                                                                                                                                                                                                                                                                                                |                       |                       |
|   ----------------------------------- ------------------------------------------------------------------------------------------------------------------------------------------------------------------------------------------------------------------------------------------------------------------------------------------------------------------------------------------------------------------------------------------------------------------------------------------------------------------------------------------------------------------------ |                       |                       |
|   Contenido:                          Ante el alcalde ordinario de la Villa de Colima Cristóbal de Solórzano, Diego Fernández Monroy,^([1]) vecino de Colima, dice que tiene en Caxitlan “un pedazo de tierra en compañía de los herederos de Juan Bautista, difunto, la cual dicha tierra compré de Diego de Mendoza, vecino desta dicha Villa, habrá cuatro años”.                                                                                                                                                                                           |                       |                       |
|                                       Siempre, desde entonces, la han tenido en compañía sin hacer partición, y ahora, “un Fulano Maya,^([2]) marido de la mujer que fue de Bautista, la ha vendido a Pedro de Arévalo. El precio de esta venta ha sido de 50 pesos, por una cuarta parte de la mencionada tierra.                                                                                                                                                                                                                                             |                       |                       |
|                                       Monroy agrega que, como compañero, tenía derechos de compra, y porque la quiere comprar, exhibe ante Su Merced los dichos 50 pesos. Pide que éstos sean depositados en Andrés de Madrid, lo que así fue ordenado por el alcalde Solórzano, mandando a Diego Hernández de Monroy que diera información.                                                                                                                                                                                                                   |                       |                       |
|                                       Éste presentó por testigo a Alonso Miguel, quien declaró que Hernández de Monroy tiene la mitad de dicha tierra que compró de Diego de Mendoza. A la muerte de Bautista, su mitad fue heredada por la mujer e hijos del susodicho. Posteriormente falleció Bartolomé^([3]) —hijo de Bautista—, heredando su madre ese pedazo, que es el que vende a Pedro de Arévalo.                                                                                                                                                    |                       |                       |
|                                       El 2 de junio de 1573, ante el alcalde ordinario Pero López de Herrera, Diego Hernández de Monroy dice que él había presentado esta demanda tiempo atrás, ante Cristóbal de Solórzano, alcalde que fue de Colima, y a la sazón exhibió 50 pesos, que se depositaron en Andrés de Madrid, vecino que fue de esta Villa.^([4])                                                                                                                                                                                             |                       |                       |
|                                       También dice que empezó a dar información sobre el particular. Quiere ahora concluirla. Pide que se le mande a Juan de Arévalo, heredero de Pedro de Arévalo, difunto,^([5]) que le ceda y traspase la escritura de venta de la dicha tierra. Y también, como el depositario Andrés de Madrid ha fallecido, se mande a sus herederos que paguen los pesos que fueron en él depositados y éstos sean colocados en persona llana y abonada.                                                                                |                       |                       |
|                                       El escribano Luis Vélez Cherino notificó los autos y mandamientos del alcalde a Juan Ramírez de Alarcón, albacea de Pedro de Arévalo, a Juan de Arévalo y a Catalina Maldonado, mujer del difunto Andrés de Madrid.                                                                                                                                                                                                                                                                                                      |                       |                       |
|                                       Para la información, Diego Hernández de Monroy presentó por testigos a Diego Morán, Álvaro de Grijalba y Diego de Mendoza.                                                                                                                                                                                                                                                                                                                                                                                               |                       |                       |
|                                       Se anexa la escritura de venta otorgada por Diego de Mendoza en la Villa de Colima el 24 de diciembre de 1565 a favor de Diego Hernández de Monroy, de 100 brazas de tierra en el Valle de Caxitlan, por precio de 150 pesos de oro común. Testigos de la venta fueron Diego Hernández de Saldaña, Francisco López de Avecilla y Diego de Velasco, vecinos de Colima. Pasó ante Miguel Rodríguez, escribano de Su Majestad.                                                                                              |                       |                       |
|                                       El 14 de agosto, Baltasar de Alcalá, en quien se habían depositado los 50 pesos de Diego Hernández de Monroy, pidió ser removido del dicho depósito, y exhibió los mismos.                                                                                                                                                                                                                                                                                                                                               |                       |                       |
|                                       El alcalde Pero López de Herrera, habiendo visto la información y la escritura de venta que otorgara Diego de Mendoza, mandó que Juan de Arévalo, heredero de Pedro de Arévalo, entregara y traspasara el pedazo de tierra que le había vendido Antonio de Maya, a Diego Hernández de Monroy.                                                                                                                                                                                                                            |                       |                       |
|                                       El 13 de septiembre respondía Juan de Arévalo, heredero de su hermano Pedro de Arévalo. Decía que esa tierra no la compró su hermano para sí sino para Juan de Iniesta y, por tanto, con él debe hacerse ese juicio. Pedro de Arévalo, in articulo mortis, le había mandado que diese y entregase la escritura de venta que le hiciera Antonio de Maya, como en efecto así lo cumplió.                                                                                                                                   |                       |                       |
|                                       Monroy contestó que Pedro de Arévalo las compró para sí porque de otro modo así lo diría la escritura de venta que Antonio de Maya había otorgado. Pide que exhiba Juan de Arévalo dicha escritura. Dice que de seis partes que tiene esa tierra, la cuarta parte de ellas son suyas.                                                                                                                                                                                                                                    |                       |                       |
|                                       El 21 de marzo de 1580, Cristóbal Hernández de Tene,^([6]) vecino de Colima, como tutor y curador de los menores de Diego Hernández de Monroy, difunto, decía que en Cristóbal de Silva estaban depositados 50 pesos y 4 tomines que el difunto depositó sobre el pleito de una tierra de Caxitlan que él pretendía suya. Hernández de Tene, en nombre de los dichos menores, apartándose del derecho que tenían a las dichas tierras y al dicho pleito, ahora pedía se le entregasen los dichos 50 pesos y 4 tomines.   |                       |                       |
|                                       El alcalde Juan de Aguilar así lo mandó.                                                                                                                                                                                                                                                                                                                                                                                                                                                                                 |                       |                       |
|                                       Al pie de la foja, el escribano López Avecilla daba fe de cómo Cristóbal Hernández de Tene, tutor y curador de los menores de Diego Hernández de Monroy, recibía el 22 de marzo de 1580, de manos de Cristóbal de Silva, los 50 pesos que el difunto Hernández de Monroy exhibiera para la compra de la tierra en cuestión.                                                                                                                                                                                              |                       |                       |
|                                                                                                                                                                                                                                                                                                                                                                                                                                                                                                                                                                |                       |                       |
|   ----------------------------------- ------------------------------------------------------------------------------------------------------------------------------------------------------------------------------------------------------------------------------------------------------------------------------------------------------------------------------------------------------------------------------------------------------------------------------------------------------------------------------------------------------------------------ |                       |                       |
|                                                                                                                                                                                                                                                                                                                                                                                                                                                                                                                                                                |                       |                       |
| (1) También registrado como Juan Hernández de Monroy.                                                                                                                                                                                                                                                                                                                                                                                                                                                                                                          |                       |                       |
|                                                                                                                                                                                                                                                                                                                                                                                                                                                                                                                                                                |                       |                       |
| (2) Antonio Maya o Amaya se acogió al vecino de Colima Juan Bautista y a su muerte casó con la viuda, Juana Gutiérrez: Romero de Solís, Andariegos… (2001), 319.                                                                                                                                                                                                                                                                                                                                                                                               |                       |                       |
|                                                                                                                                                                                                                                                                                                                                                                                                                                                                                                                                                                |                       |                       |
| (3) Bartolomé Bautista, hijo de Juan Bautista y Juana Gutiérrez. Cuando Juan Bautista murió en 1552, la viuda y sus hijos huérfanos -Bartolomé, Catalina y Francisca Bautista-, se trasladaron a vivir a Guayangareo: supra, I, reg° 40: Romero de Solís, Andariegos… (2001), 60.                                                                                                                                                                                                                                                                              |                       |                       |
|                                                                                                                                                                                                                                                                                                                                                                                                                                                                                                                                                                |                       |                       |
| (4) Poco más adelante, se dice que Andrés de Madrid había fallecido.                                                                                                                                                                                                                                                                                                                                                                                                                                                                                           |                       |                       |
|                                                                                                                                                                                                                                                                                                                                                                                                                                                                                                                                                                |                       |                       |
| (5) También en esos meses falleció Pedro de Arévalo quien, poco antes, había adquirido de Antonio de Maya la tierra en cuestión.                                                                                                                                                                                                                                                                                                                                                                                                                               |                       |                       |
|                                                                                                                                                                                                                                                                                                                                                                                                                                                                                                                                                                |                       |                       |
| (6) El escribano Real Cristóbal Hernández de Tene, casado con Leonor Briceño con la que tuvo descendencia, además de ejercer su oficio de escribano durante muchos años en la Villa de Colima, ocupó otros cargos públicos como regidor y alcalde ordinario: Romero de Solís, Andariegos… (2001).                                                                                                                                                                                                                                                              |                       |                       |
|                                                                                                                                                                                                                                                                                                                                                                                                                                                                                                                                                                |                       |                       |
| (7) Antes en Sección B, caja 21, exp. 11.                                                                                                                                                                                                                                                                                                                                                                                                                                                                                                                      |                       |                       |
|                                                                                                                                                                                                                                                                                                                                                                                                                                                                                                                                                                |                       |                       |
|   ---------------------------------------------------------------------------------------------------                                                                                                                                                                                                                                                                                                                                                                                                                                                          |                       |                       |
|    Documento(s) original(es)                                                                                                                                                                                                                                                                                                                                                                                                                                                                                                                                   |                       |                       |
|   --------------------------- ------- ------- ------- ------- ------- ------- ------- ------- -------                                                                                                                                                                                                                                                                                                                                                                                                                                                          |                       |                       |
|               []                []      []      []      []      []      []      []      []      []                                                                                                                                                                                                                                                                                                                                                                                                                                                             |                       |                       |
|               1f                1v      2f      3f      3v      4f      5f      6f      6v      7f                                                                                                                                                                                                                                                                                                                                                                                                                                                             |                       |                       |
|                                                                                                                                                                                                                                                                                                                                                                                                                                                                                                                                                                |                       |                       |
|               []                []      []      []      []      []      []      []      []      []                                                                                                                                                                                                                                                                                                                                                                                                                                                             |                       |                       |
|               7v                8f      9f      9v      10f     10v     11f     11v     12f     12v                                                                                                                                                                                                                                                                                                                                                                                                                                                            |                       |                       |
|                                                                                                                                                                                                                                                                                                                                                                                                                                                                                                                                                                |                       |                       |
|               []                []      []      []      []      []      []      []                                                                                                                                                                                                                                                                                                                                                                                                                                                                             |                       |                       |
|               13f               13v     14f     14v     15f     15v     16f     16v                                                                                                                                                                                                                                                                                                                                                                                                                                                                            |                       |                       |
|   ---------------------------------------------------------------------------------------------------                                                                                                                                                                                                                                                                                                                                                                                                                                                          |                       |                       |
+----------------------------------------------------------------------------------------------------------------------------------------------------------------------------------------------------------------------------------------------------------------------------------------------------------------------------------------------------------------------------------------------------------------------------------------------------------------------------------------------------------------------------------------------------------------+-----------------------+-----------------------+
| +----------------------------------------------------------------------------+-----------------------------------------------:+                                                                                                                                                                                                                                                                                                                                                                                                                                |                       |                       |
| | ISBN 978-607-701-024-1                                                     |   ---- ---- ---- ---- ---- ---- ---- ---- ---- |                                                                                                                                                                                                                                                                                                                                                                                                                                |                       |                       |
| | © Derechos Reservados 2013. Archivo Histórico del Municipio de Colima. [*] |   []        []        []        []        []   |                                                                                                                                                                                                                                                                                                                                                                                                                                |                       |                       |
| |                                                                            |   ---- ---- ---- ---- ---- ---- ---- ---- ---- |                                                                                                                                                                                                                                                                                                                                                                                                                                |                       |                       |
| +----------------------------------------------------------------------------+------------------------------------------------+                                                                                                                                                                                                                                                                                                                                                                                                                                |                       |                       |
| |                                                                            |                                                |                                                                                                                                                                                                                                                                                                                                                                                                                                |                       |                       |
| +----------------------------------------------------------------------------+------------------------------------------------+                                                                                                                                                                                                                                                                                                                                                                                                                                |                       |                       |
+----------------------------------------------------------------------------------------------------------------------------------------------------------------------------------------------------------------------------------------------------------------------------------------------------------------------------------------------------------------------------------------------------------------------------------------------------------------------------------------------------------------------------------------------------------------+-----------------------+-----------------------+

636 visitas
