+--------------------------------------------------------------------------------------------------------------------------------------------------------------------------------------------------------------------------------------------------------------------------------------------------------------------------------------------------------------------------------------------------------+-----------------------+-----------------------+
| []                                                                                                                                                                                                                                                                                                                                                                                                     |                       |                       |
|                                                                                                                                                                                                                                                                                                                                                                                                        |                       |                       |
| +-----------------------------------+:-------------------------------------:+                                                                                                                                                                                                                                                                                                                          |                       |                       |
| | []                                | LA VILLA DE COLIMA DE LA NUEVA ESPAÑA |                                                                                                                                                                                                                                                                                                                          |                       |                       |
| |                                   | SIGLO XVI                             |                                                                                                                                                                                                                                                                                                                          |                       |                       |
| |                                   |                                       |                                                                                                                                                                                                                                                                                                                          |                       |                       |
| |                                   | VOLUMEN II      (CAJAS 12-20)         |                                                                                                                                                                                                                                                                                                                          |                       |                       |
| +-----------------------------------+---------------------------------------+                                                                                                                                                                                                                                                                                                                          |                       |                       |
+--------------------------------------------------------------------------------------------------------------------------------------------------------------------------------------------------------------------------------------------------------------------------------------------------------------------------------------------------------------------------------------------------------+-----------------------+-----------------------+
| +------------------------------------------------------------------------+-------------------------------+-----------------------+                                                                                                                                                                                                                                                                     |                       |                       |
| | Inicio | Búsqueda | Siglas y bibliografía | Créditos | Más información | Vol. I (1-11) Vol. II (12-20) |    [ES]               |                                                                                                                                                                                                                                                                     |                       |                       |
| +------------------------------------------------------------------------+-------------------------------+-----------------------+                                                                                                                                                                                                                                                                     |                       |                       |
+--------------------------------------------------------------------------------------------------------------------------------------------------------------------------------------------------------------------------------------------------------------------------------------------------------------------------------------------------------------------------------------------------------+-----------------------+-----------------------+
| Búsqueda rápida                                                                                                                                                                                                                                                                                                                                                                                        |                       |                       |
|                                                                                                                                                                                                                                                                                                                                                                                                        |                       |                       |
| +:-------------------:+-----------------+:----------------------------------------:+----------------:+                                                                                                                                                                                                                                                                                                 |                       |                       |
| | Documento de fecha: |                 | Ubicación física del documento original: | [] [] []        |                                                                                                                                                                                                                                                                                                 |                       |                       |
| |                     |                 |                                          |                 |                                                                                                                                                                                                                                                                                                 |                       |                       |
| | S/f.[¿1590?]        |                 | Caja 22, exp. 10, 1 f.                   |                 |                                                                                                                                                                                                                                                                                                 |                       |                       |
| +---------------------+-----------------+------------------------------------------+-----------------+                                                                                                                                                                                                                                                                                                 |                       |                       |
|                                                                                                                                                                                                                                                                                                                                                                                                        |                       |                       |
|   ------------- ----------------------------------------------------------                                                                                                                                                                                                                                                                                                                             |                       |                       |
|   Resumen:      Testimonio trunco prestado por Francisco López Avecilla.                                                                                                                                                                                                                                                                                                                               |                       |                       |
|   ------------- ----------------------------------------------------------                                                                                                                                                                                                                                                                                                                             |                       |                       |
|                                                                                                                                                                                                                                                                                                                                                                                                        |                       |                       |
|   ----------------------------------- ---------------------------------------------------------------------------------------------------------------------------------------------------------------------------------------------------------------------------------------------------------------------------------------------------------------------------------------------------------------- |                       |                       |
|   Contenido:                          “Y por la mesma razón [tiene] este testigo entendido^([1]) que lo propio serán enemigos del dicho Juan Fernández de Ocampo los dichos Gaspar Gómez^([2]) y Juan Fernández, portugués,^([3]) por ser criados del dicho Juan de San Pedro.^([4]) Y este testigo tiene al dicho Esteban de Aguilar^([5]) por muchacho incapaz de decir dicho que sea suficiente”.   |                       |                       |
|                                       “Y esto responde y es la verdad de lo que sabe y pasa, para el juramento que fecho tiene. En el cual se afirmó e ratificó, y lo firmó de su nombre.                                                                                                                                                                                                              |                       |                       |
|                                       Don Rodrigo López de Ribera.^([6]) Francisco López,^([7]) escribano público.                                                                                                                                                                                                                                                                                     |                       |                       |
|                                       Ante mí: Jerónimo Mejía,^([8]) escribano”.                                                                                                                                                                                                                                                                                                                       |                       |                       |
|                                                                                                                                                                                                                                                                                                                                                                                                        |                       |                       |
|   ----------------------------------- ---------------------------------------------------------------------------------------------------------------------------------------------------------------------------------------------------------------------------------------------------------------------------------------------------------------------------------------------------------------- |                       |                       |
|                                                                                                                                                                                                                                                                                                                                                                                                        |                       |                       |
| (1) Este testimonio fragmentado no trae fecha; sin embargo, es mencionado más adelante Rodrigo López de Ribera, quien fue juez de residencia en Colima a fines de 1590 y comienzos de 1591.                                                                                                                                                                                                            |                       |                       |
|                                                                                                                                                                                                                                                                                                                                                                                                        |                       |                       |
| (2) De Gaspar Gómez, en 1590, se dice que era vecino de Colima: supra, III, reg° 505, y un año después, que era residente: supra, III, reg° 492. Romero de Solís, Andariegos… (2001), 170.                                                                                                                                                                                                             |                       |                       |
|                                                                                                                                                                                                                                                                                                                                                                                                        |                       |                       |
| (3) Es la única referencia a Juan Fernández, natural de Portugal; ¿acaso se trata del vecino Juan Fernández Cabral?: Romero de Solís, Andariegos… (2001), 148 y 150.                                                                                                                                                                                                                                   |                       |                       |
|                                                                                                                                                                                                                                                                                                                                                                                                        |                       |                       |
| (4) Se refiere a Juan Ortiz de San Pedro, vecino de Zacatecas, con quien la rica encomendera y vecina de Colima doña Beatriz López tenía negocios. ¿Acaso era hijo suyo como Pedro Ortiz de San Pedro, Jerónimo Ortiz y Gonzalo López de Ayala?: Romero de Solís, Andariegos… (2001), 380-381.                                                                                                         |                       |                       |
|                                                                                                                                                                                                                                                                                                                                                                                                        |                       |                       |
| (5) El vecino de Colima Esteban de Aguilar era hijo de Diego Aguilar del Castillo y María de Cáceres: Romero de Solís, Andariegos… (2001), 7.                                                                                                                                                                                                                                                          |                       |                       |
|                                                                                                                                                                                                                                                                                                                                                                                                        |                       |                       |
| (6) Como se dijo en nota anterior Rodrigo López de Ribera fue juez de residencia del alcalde mayor de Colima García Martínez Tinoco (1589-1590). Al concluir esta comisión fue nombrado alcalde mayor de Amula (1591-1594): Romero de Solís, Andariegos… (2001), 270-271.                                                                                                                              |                       |                       |
|                                                                                                                                                                                                                                                                                                                                                                                                        |                       |                       |
| (7) Francisco López de Avecilla.                                                                                                                                                                                                                                                                                                                                                                       |                       |                       |
|                                                                                                                                                                                                                                                                                                                                                                                                        |                       |                       |
| (8) A la letra, Mexía. Jerónimo Mejía era vecino de Colima desde enero de 1590 y antes lo había sido de Guadalajara. Era hijo de Pedro de Ledesma y Catalina Mejía; casó con Inés de Monroy: Romero de Solís, Andariegos… (2001), 321-322.                                                                                                                                                             |                       |                       |
|                                                                                                                                                                                                                                                                                                                                                                                                        |                       |                       |
|   ---------------------------------------------------------------------------------------------------                                                                                                                                                                                                                                                                                                  |                       |                       |
|    Documento(s) original(es)                                                                                                                                                                                                                                                                                                                                                                           |                       |                       |
|   --------------------------- ------- ------- ------- ------- ------- ------- ------- ------- -------                                                                                                                                                                                                                                                                                                  |                       |                       |
|               []                []                                                                                                                                                                                                                                                                                                                                                                     |                       |                       |
|               1f                1v                                                                                                                                                                                                                                                                                                                                                                     |                       |                       |
|                                                                                                                                                                                                                                                                                                                                                                                                        |                       |                       |
|   ---------------------------------------------------------------------------------------------------                                                                                                                                                                                                                                                                                                  |                       |                       |
+--------------------------------------------------------------------------------------------------------------------------------------------------------------------------------------------------------------------------------------------------------------------------------------------------------------------------------------------------------------------------------------------------------+-----------------------+-----------------------+
| +----------------------------------------------------------------------------+-----------------------------------------------:+                                                                                                                                                                                                                                                                        |                       |                       |
| | ISBN 978-607-701-024-1                                                     |   ---- ---- ---- ---- ---- ---- ---- ---- ---- |                                                                                                                                                                                                                                                                        |                       |                       |
| | © Derechos Reservados 2013. Archivo Histórico del Municipio de Colima. [*] |   []        []        []        []        []   |                                                                                                                                                                                                                                                                        |                       |                       |
| |                                                                            |   ---- ---- ---- ---- ---- ---- ---- ---- ---- |                                                                                                                                                                                                                                                                        |                       |                       |
| +----------------------------------------------------------------------------+------------------------------------------------+                                                                                                                                                                                                                                                                        |                       |                       |
| |                                                                            |                                                |                                                                                                                                                                                                                                                                        |                       |                       |
| +----------------------------------------------------------------------------+------------------------------------------------+                                                                                                                                                                                                                                                                        |                       |                       |
+--------------------------------------------------------------------------------------------------------------------------------------------------------------------------------------------------------------------------------------------------------------------------------------------------------------------------------------------------------------------------------------------------------+-----------------------+-----------------------+

636 visitas
