+--------------------------------------------------------------------------------------------------------------------------------------------------------------------------------------------------------------------------------------------------------------------------------------------------------------------------------------------------------------------------------------------------------------------------------------------------------------------------------------+-----------------------+-----------------------+
| []                                                                                                                                                                                                                                                                                                                                                                                                                                                                                   |                       |                       |
|                                                                                                                                                                                                                                                                                                                                                                                                                                                                                      |                       |                       |
| +-----------------------------------+:-------------------------------------:+                                                                                                                                                                                                                                                                                                                                                                                                        |                       |                       |
| | []                                | LA VILLA DE COLIMA DE LA NUEVA ESPAÑA |                                                                                                                                                                                                                                                                                                                                                                                                        |                       |                       |
| |                                   | SIGLO XVI                             |                                                                                                                                                                                                                                                                                                                                                                                                        |                       |                       |
| |                                   |                                       |                                                                                                                                                                                                                                                                                                                                                                                                        |                       |                       |
| |                                   | VOLUMEN II      (CAJAS 12-20)         |                                                                                                                                                                                                                                                                                                                                                                                                        |                       |                       |
| +-----------------------------------+---------------------------------------+                                                                                                                                                                                                                                                                                                                                                                                                        |                       |                       |
+--------------------------------------------------------------------------------------------------------------------------------------------------------------------------------------------------------------------------------------------------------------------------------------------------------------------------------------------------------------------------------------------------------------------------------------------------------------------------------------+-----------------------+-----------------------+
| +------------------------------------------------------------------------+-------------------------------+-----------------------+                                                                                                                                                                                                                                                                                                                                                   |                       |                       |
| | Inicio | Búsqueda | Siglas y bibliografía | Créditos | Más información | Vol. I (1-11) Vol. II (12-20) |    [ES]               |                                                                                                                                                                                                                                                                                                                                                   |                       |                       |
| +------------------------------------------------------------------------+-------------------------------+-----------------------+                                                                                                                                                                                                                                                                                                                                                   |                       |                       |
+--------------------------------------------------------------------------------------------------------------------------------------------------------------------------------------------------------------------------------------------------------------------------------------------------------------------------------------------------------------------------------------------------------------------------------------------------------------------------------------+-----------------------+-----------------------+
| Búsqueda rápida                                                                                                                                                                                                                                                                                                                                                                                                                                                                      |                       |                       |
|                                                                                                                                                                                                                                                                                                                                                                                                                                                                                      |                       |                       |
| +:-------------------:+-----------------+:----------------------------------------:+----------------:+                                                                                                                                                                                                                                                                                                                                                                               |                       |                       |
| | Documento de fecha: |                 | Ubicación física del documento original: | [] [] []        |                                                                                                                                                                                                                                                                                                                                                                               |                       |                       |
| |                     |                 |                                          |                 |                                                                                                                                                                                                                                                                                                                                                                               |                       |                       |
| | 1580. Octubre, 5    |                 | Caja 23, exp. 2, 3 ff.                   |                 |                                                                                                                                                                                                                                                                                                                                                                               |                       |                       |
| +---------------------+-----------------+------------------------------------------+-----------------+                                                                                                                                                                                                                                                                                                                                                                               |                       |                       |
|                                                                                                                                                                                                                                                                                                                                                                                                                                                                                      |                       |                       |
|   ------------- ---------------------------------------------------------------------------------------------------------------------------------------------                                                                                                                                                                                                                                                                                                                        |                       |                       |
|   Resumen:      Juan de Iniesta contra los bienes de Diego de Velasco, difunto, por cantidad de pesos que debía a la Cofradía de las Ánimas del Purgatorio.                                                                                                                                                                                                                                                                                                                          |                       |                       |
|   ------------- ---------------------------------------------------------------------------------------------------------------------------------------------                                                                                                                                                                                                                                                                                                                        |                       |                       |
|                                                                                                                                                                                                                                                                                                                                                                                                                                                                                      |                       |                       |
|   ----------------------------------- ---------------------------------------------------------------------------------------------------------------------------------------------------------------------------------------------------------------------------------------------------------------------------------------------------------------------------------------------------------------------------------------------------------------------------------------------- |                       |                       |
|   Contenido:                          Juan de Iniesta, vecino de la Villa de Colima y mayordomo de la Cofradía de las Ánimas del Purgatorio, dijo que tiene hecha ejecución en los bienes que se vendieron de Diego de Velasco, difunto, por contía de 42 pesos y 6 tomines.                                                                                                                                                                                                         |                       |                       |
|                                       Suplica que se mande hacer albalá de almoneda de los mismos y se den los pregones conforme a derecho, lo cual le fue concedido.                                                                                                                                                                                                                                                                                                                |                       |                       |
|                                       El mismo día y en la Plaza pública de la Villa, por voz de Gaspar,^([1]) negro, se dio el primer pregón, siendo testigos Cristóbal de Silva y Juan Muñoz, vecinos.                                                                                                                                                                                                                                                                             |                       |                       |
|                                       El 8 de octubre y por voz del negro Baltasar^([2]) se cantó el segundo pregón: testigos fueron los vecinos Juan Muñoz y Juan de Salinas.                                                                                                                                                                                                                                                                                                       |                       |                       |
|                                       El día 11, el negro Juan^([3]) dio el tercero y último pregón de los bienes ejecutados; entre los testigos presentes, el Padre Francisco Ruiz.                                                                                                                                                                                                                                                                                                 |                       |                       |
|                                       Pasados los pregones, Iniesta pidió “avivar la voz del almoneda y hazer trance y remate de los bienes ejecutados y hazerme hazer entero y cumplido pago de los pesos de oro que así tengo ejecutado con costas”.                                                                                                                                                                                                                               |                       |                       |
|                                       El alcalde mayor Gaspar Huerta mandó hacerlo notificar a las partes para que vieran lo que les conviniese.                                                                                                                                                                                                                                                                                                                                     |                       |                       |
|                                       Así lo hizo el escribano Francisco López Avecilla, tanto a Álvaro García, estante en esta Villa, defensor nombrado de los bienes del difunto por la Justicia Mayor de esta Villa y Provincia, como a Diego de Monroy, vecino de ella, procurador de Juana de Medina, viuda de Diego de Velasco, siendo presentes a los dichos autos Cristóbal de Silva, Francisco Ramírez, Juan de Santiago^([4]) y Cristóbal de Monroy, vecinos y estantes.   |                       |                       |
|                                       El alcalde mayor, vistos los autos, procedió a dictar sentencia, mandando avivar la voz de almoneda y hacer trance y remate de los dichos bienes.                                                                                                                                                                                                                                                                                              |                       |                       |
|                                                                                                                                                                                                                                                                                                                                                                                                                                                                                      |                       |                       |
|   ----------------------------------- ---------------------------------------------------------------------------------------------------------------------------------------------------------------------------------------------------------------------------------------------------------------------------------------------------------------------------------------------------------------------------------------------------------------------------------------------- |                       |                       |
|                                                                                                                                                                                                                                                                                                                                                                                                                                                                                      |                       |                       |
| (1) El negro Gaspar que ya apareció en otro expediente: supra, reg° 830, está registrado en Romero de Solís, Padrón de negros… (2007), 15, n° 162.                                                                                                                                                                                                                                                                                                                                   |                       |                       |
|                                                                                                                                                                                                                                                                                                                                                                                                                                                                                      |                       |                       |
| (2) Baltasar está registrado, en: Romero de Solís, Padrón de negros… (2001), 15, n° 163.                                                                                                                                                                                                                                                                                                                                                                                             |                       |                       |
|                                                                                                                                                                                                                                                                                                                                                                                                                                                                                      |                       |                       |
| (3) Quizá se trate de Juan, negro criollo, que tenemos registrado, en: Romero de Solís, Padrón de negros… (2007). 15, n° 160.                                                                                                                                                                                                                                                                                                                                                        |                       |                       |
|                                                                                                                                                                                                                                                                                                                                                                                                                                                                                      |                       |                       |
| (4) El bachiller Juan Rodríguez Santiago, vecino de Colima, estaba casado con Catalina de Monroy: Romero de Solís, Andariegos… (2001), 458-459.                                                                                                                                                                                                                                                                                                                                      |                       |                       |
|                                                                                                                                                                                                                                                                                                                                                                                                                                                                                      |                       |                       |
|   ---------------------------------------------------------------------------------------------------                                                                                                                                                                                                                                                                                                                                                                                |                       |                       |
|    Documento(s) original(es)                                                                                                                                                                                                                                                                                                                                                                                                                                                         |                       |                       |
|   --------------------------- ------- ------- ------- ------- ------- ------- ------- ------- -------                                                                                                                                                                                                                                                                                                                                                                                |                       |                       |
|               []                []      []      []      []      []                                                                                                                                                                                                                                                                                                                                                                                                                   |                       |                       |
|               1f                1v      2f      2v      3f      3v                                                                                                                                                                                                                                                                                                                                                                                                                   |                       |                       |
|                                                                                                                                                                                                                                                                                                                                                                                                                                                                                      |                       |                       |
|   ---------------------------------------------------------------------------------------------------                                                                                                                                                                                                                                                                                                                                                                                |                       |                       |
+--------------------------------------------------------------------------------------------------------------------------------------------------------------------------------------------------------------------------------------------------------------------------------------------------------------------------------------------------------------------------------------------------------------------------------------------------------------------------------------+-----------------------+-----------------------+
| +----------------------------------------------------------------------------+-----------------------------------------------:+                                                                                                                                                                                                                                                                                                                                                      |                       |                       |
| | ISBN 978-607-701-024-1                                                     |   ---- ---- ---- ---- ---- ---- ---- ---- ---- |                                                                                                                                                                                                                                                                                                                                                      |                       |                       |
| | © Derechos Reservados 2013. Archivo Histórico del Municipio de Colima. [*] |   []        []        []        []        []   |                                                                                                                                                                                                                                                                                                                                                      |                       |                       |
| |                                                                            |   ---- ---- ---- ---- ---- ---- ---- ---- ---- |                                                                                                                                                                                                                                                                                                                                                      |                       |                       |
| +----------------------------------------------------------------------------+------------------------------------------------+                                                                                                                                                                                                                                                                                                                                                      |                       |                       |
| |                                                                            |                                                |                                                                                                                                                                                                                                                                                                                                                      |                       |                       |
| +----------------------------------------------------------------------------+------------------------------------------------+                                                                                                                                                                                                                                                                                                                                                      |                       |                       |
+--------------------------------------------------------------------------------------------------------------------------------------------------------------------------------------------------------------------------------------------------------------------------------------------------------------------------------------------------------------------------------------------------------------------------------------------------------------------------------------+-----------------------+-----------------------+

636 visitas
