+-----------------------------------------------------------------------------------------------------------------------------------------------------------------------------------------------------------------------------------------------------------------------------------------------------------------------------------------------------------------------------------------+-----------------------+-----------------------+
| []                                                                                                                                                                                                                                                                                                                                                                                      |                       |                       |
|                                                                                                                                                                                                                                                                                                                                                                                         |                       |                       |
| +-----------------------------------+:-------------------------------------:+                                                                                                                                                                                                                                                                                                           |                       |                       |
| | []                                | LA VILLA DE COLIMA DE LA NUEVA ESPAÑA |                                                                                                                                                                                                                                                                                                           |                       |                       |
| |                                   | SIGLO XVI                             |                                                                                                                                                                                                                                                                                                           |                       |                       |
| |                                   |                                       |                                                                                                                                                                                                                                                                                                           |                       |                       |
| |                                   | VOLUMEN II      (CAJAS 12-20)         |                                                                                                                                                                                                                                                                                                           |                       |                       |
| +-----------------------------------+---------------------------------------+                                                                                                                                                                                                                                                                                                           |                       |                       |
+-----------------------------------------------------------------------------------------------------------------------------------------------------------------------------------------------------------------------------------------------------------------------------------------------------------------------------------------------------------------------------------------+-----------------------+-----------------------+
| +------------------------------------------------------------------------+-------------------------------+-----------------------+                                                                                                                                                                                                                                                      |                       |                       |
| | Inicio | Búsqueda | Siglas y bibliografía | Créditos | Más información | Vol. I (1-11) Vol. II (12-20) |    [ES]               |                                                                                                                                                                                                                                                      |                       |                       |
| +------------------------------------------------------------------------+-------------------------------+-----------------------+                                                                                                                                                                                                                                                      |                       |                       |
+-----------------------------------------------------------------------------------------------------------------------------------------------------------------------------------------------------------------------------------------------------------------------------------------------------------------------------------------------------------------------------------------+-----------------------+-----------------------+
| Búsqueda rápida                                                                                                                                                                                                                                                                                                                                                                         |                       |                       |
|                                                                                                                                                                                                                                                                                                                                                                                         |                       |                       |
| +:-------------------:+-----------------+:----------------------------------------:+----------------:+                                                                                                                                                                                                                                                                                  |                       |                       |
| | Documento de fecha: |                 | Ubicación física del documento original: | [] [] []        |                                                                                                                                                                                                                                                                                  |                       |                       |
| |                     |                 |                                          |                 |                                                                                                                                                                                                                                                                                  |                       |                       |
| | 1592. Marzo, 22     |                 | Caja 24, exp. 13, 8 ff.^([5])            |                 |                                                                                                                                                                                                                                                                                  |                       |                       |
| +---------------------+-----------------+------------------------------------------+-----------------+                                                                                                                                                                                                                                                                                  |                       |                       |
|                                                                                                                                                                                                                                                                                                                                                                                         |                       |                       |
|   ------------- ----------------------------------------------------------                                                                                                                                                                                                                                                                                                              |                       |                       |
|   Resumen:      Juan Ramírez de Alarcón quiere cobrar cantidad de pesos.                                                                                                                                                                                                                                                                                                                |                       |                       |
|   ------------- ----------------------------------------------------------                                                                                                                                                                                                                                                                                                              |                       |                       |
|                                                                                                                                                                                                                                                                                                                                                                                         |                       |                       |
|   ----------------------------------- ------------------------------------------------------------------------------------------------------------------------------------------------------------------------------------------------------------------------------------------------------------------------------------------------------------------------------------------------- |                       |                       |
|   Contenido:                          Ante el alcalde mayor de la Villa y Provincia de Colima, Antonio de Villalobos, Juan Ramírez de Alarcón dijo que él pidió “un mandamiento que está puesto en un proceso de cuentas de los herederos de Juan de Iniesta,^([1]) para cobrar de los bienes del susodicho cuarenta pesos, que se me mandaron pagar”.                                  |                       |                       |
|                                       Por tal mandamiento, debe “cobrar de Álvaro García de Grijalba,^([2]) como depositario de los bienes de Juan de Iniesta”, por razón “de cierto tiempo que me ocupé en el pleito que tratan los herederos sobre el tercio y quinto de los bienes del dicho difunto, como acompañado en la causa” del alcalde mayor García Martínez Tinoco.^([3])   |                       |                       |
|                                       Agrega Juan Ramírez de Alarcón: “Y el dicho Álvaro García de Grijalba [ya] no es depositario de los dichos bienes, sino Juan Rodríguez”.^([4]) Pide que éste se los pague.                                                                                                                                                                        |                       |                       |
|                                       Juan Rodríguez, quien estaba casado con María de Iniesta, apeló del dicho mandamiento.                                                                                                                                                                                                                                                            |                       |                       |
|                                                                                                                                                                                                                                                                                                                                                                                         |                       |                       |
|   ----------------------------------- ------------------------------------------------------------------------------------------------------------------------------------------------------------------------------------------------------------------------------------------------------------------------------------------------------------------------------------------------- |                       |                       |
|                                                                                                                                                                                                                                                                                                                                                                                         |                       |                       |
| (1) No sabemos en qué fecha falleció el vecino de Colima Juan Iniesta El Mozo pero todavía vivía el 23 de mayo de 1591 cuando fue testigo del testamento del alcalde mayor Villaseñor Alarcón: infra, reg° 902.                                                                                                                                                                         |                       |                       |
|                                                                                                                                                                                                                                                                                                                                                                                         |                       |                       |
| (2) El vecino de Colima Álvaro García de Grijalba, hijo de Álvaro de Grijalba y Catalina Ruiz, casó con Ana de Iniesta; ocupó cargos y oficios públicos: Romero de Solís, Andariegos… (2001), 165-166.                                                                                                                                                                                  |                       |                       |
|                                                                                                                                                                                                                                                                                                                                                                                         |                       |                       |
| (3) García Martínez Tinoco fungió de alcalde mayor de Colima en 1589-1590: Romero de Solís, Andariegos… (2001), 316-318.                                                                                                                                                                                                                                                                |                       |                       |
|                                                                                                                                                                                                                                                                                                                                                                                         |                       |                       |
| (4) Juan Rodríguez del Padrón, vecino de Colima y de oficio curandero, como se dice a continuación, estaba casado con María de Iniesta, con quien tuvo descendencia: Romero de Solís, Andariegos… (2001), 450.                                                                                                                                                                          |                       |                       |
|                                                                                                                                                                                                                                                                                                                                                                                         |                       |                       |
| (5) Expediente deteriorado.                                                                                                                                                                                                                                                                                                                                                             |                       |                       |
|                                                                                                                                                                                                                                                                                                                                                                                         |                       |                       |
|   ---------------------------------------------------------------------------------------------------                                                                                                                                                                                                                                                                                   |                       |                       |
|    Documento(s) original(es)                                                                                                                                                                                                                                                                                                                                                            |                       |                       |
|   --------------------------- ------- ------- ------- ------- ------- ------- ------- ------- -------                                                                                                                                                                                                                                                                                   |                       |                       |
|               []                []      []      []      []      []      []      []      []      []                                                                                                                                                                                                                                                                                      |                       |                       |
|               1f                1v      2f      3f      3v      4f      4v      5f      5v      6f                                                                                                                                                                                                                                                                                      |                       |                       |
|                                                                                                                                                                                                                                                                                                                                                                                         |                       |                       |
|               []                []      []      []      []                                                                                                                                                                                                                                                                                                                              |                       |                       |
|               6v                7f      7v      8f      8v                                                                                                                                                                                                                                                                                                                              |                       |                       |
|   ---------------------------------------------------------------------------------------------------                                                                                                                                                                                                                                                                                   |                       |                       |
+-----------------------------------------------------------------------------------------------------------------------------------------------------------------------------------------------------------------------------------------------------------------------------------------------------------------------------------------------------------------------------------------+-----------------------+-----------------------+
| +----------------------------------------------------------------------------+-----------------------------------------------:+                                                                                                                                                                                                                                                         |                       |                       |
| | ISBN 978-607-701-024-1                                                     |   ---- ---- ---- ---- ---- ---- ---- ---- ---- |                                                                                                                                                                                                                                                         |                       |                       |
| | © Derechos Reservados 2013. Archivo Histórico del Municipio de Colima. [*] |   []        []        []        []        []   |                                                                                                                                                                                                                                                         |                       |                       |
| |                                                                            |   ---- ---- ---- ---- ---- ---- ---- ---- ---- |                                                                                                                                                                                                                                                         |                       |                       |
| +----------------------------------------------------------------------------+------------------------------------------------+                                                                                                                                                                                                                                                         |                       |                       |
| |                                                                            |                                                |                                                                                                                                                                                                                                                         |                       |                       |
| +----------------------------------------------------------------------------+------------------------------------------------+                                                                                                                                                                                                                                                         |                       |                       |
+-----------------------------------------------------------------------------------------------------------------------------------------------------------------------------------------------------------------------------------------------------------------------------------------------------------------------------------------------------------------------------------------+-----------------------+-----------------------+

636 visitas
