+-----------------------------------------------------------------------------------------------------------------------------------------------------------------------------------------------------------------------------------------------------------------------------------------------------------------------------------------------------------------------------------------------------------------------------------------------------------------------------+-----------------------+-----------------------+
| []                                                                                                                                                                                                                                                                                                                                                                                                                                                                          |                       |                       |
|                                                                                                                                                                                                                                                                                                                                                                                                                                                                             |                       |                       |
| +-----------------------------------+:-------------------------------------:+                                                                                                                                                                                                                                                                                                                                                                                               |                       |                       |
| | []                                | LA VILLA DE COLIMA DE LA NUEVA ESPAÑA |                                                                                                                                                                                                                                                                                                                                                                                               |                       |                       |
| |                                   | SIGLO XVI                             |                                                                                                                                                                                                                                                                                                                                                                                               |                       |                       |
| |                                   |                                       |                                                                                                                                                                                                                                                                                                                                                                                               |                       |                       |
| |                                   | VOLUMEN II      (CAJAS 12-20)         |                                                                                                                                                                                                                                                                                                                                                                                               |                       |                       |
| +-----------------------------------+---------------------------------------+                                                                                                                                                                                                                                                                                                                                                                                               |                       |                       |
+-----------------------------------------------------------------------------------------------------------------------------------------------------------------------------------------------------------------------------------------------------------------------------------------------------------------------------------------------------------------------------------------------------------------------------------------------------------------------------+-----------------------+-----------------------+
| +------------------------------------------------------------------------+-------------------------------+-----------------------+                                                                                                                                                                                                                                                                                                                                          |                       |                       |
| | Inicio | Búsqueda | Siglas y bibliografía | Créditos | Más información | Vol. I (1-11) Vol. II (12-20) |    [ES]               |                                                                                                                                                                                                                                                                                                                                          |                       |                       |
| +------------------------------------------------------------------------+-------------------------------+-----------------------+                                                                                                                                                                                                                                                                                                                                          |                       |                       |
+-----------------------------------------------------------------------------------------------------------------------------------------------------------------------------------------------------------------------------------------------------------------------------------------------------------------------------------------------------------------------------------------------------------------------------------------------------------------------------+-----------------------+-----------------------+
| Búsqueda rápida                                                                                                                                                                                                                                                                                                                                                                                                                                                             |                       |                       |
|                                                                                                                                                                                                                                                                                                                                                                                                                                                                             |                       |                       |
| +:-------------------:+-----------------+:----------------------------------------:+----------------:+                                                                                                                                                                                                                                                                                                                                                                      |                       |                       |
| | Documento de fecha: |                 | Ubicación física del documento original: | [] [] []        |                                                                                                                                                                                                                                                                                                                                                                      |                       |                       |
| |                     |                 |                                          |                 |                                                                                                                                                                                                                                                                                                                                                                      |                       |                       |
| | 1592. Agosto, 12    |                 | Caja 24, exp. 22, ff. 1-17.^([8])        |                 |                                                                                                                                                                                                                                                                                                                                                                      |                       |                       |
| +---------------------+-----------------+------------------------------------------+-----------------+                                                                                                                                                                                                                                                                                                                                                                      |                       |                       |
|                                                                                                                                                                                                                                                                                                                                                                                                                                                                             |                       |                       |
|   ------------- --------------------------------------------------------------------------------------------------------------------------------------------------------                                                                                                                                                                                                                                                                                                    |                       |                       |
|   Resumen:      El alcalde mayor Antonio de Villalobos contra Juan Ramírez de Alarcón porque, sin ser corregidor, éste apremia a los naturales a que vayan a servirle.                                                                                                                                                                                                                                                                                                      |                       |                       |
|   ------------- --------------------------------------------------------------------------------------------------------------------------------------------------------                                                                                                                                                                                                                                                                                                    |                       |                       |
|                                                                                                                                                                                                                                                                                                                                                                                                                                                                             |                       |                       |
|   ----------------------------------- ------------------------------------------------------------------------------------------------------------------------------------------------------------------------------------------------------------------------------------------------------------------------------------------------------------------------------------------------------------------------------------------------------------------------------------- |                       |                       |
|   Contenido:                          El alcalde mayor de la Villa y Provincia de Colima Antonio de Villalobos dijo que “de ordinario faltan los indios del servicio personal desta Villa de los pueblos de Caxitlan, Çapotlançini,^([1]) Ichpuxiliapan^([2]) y otros, y que la causa es que Juan Ramírez de Alarcón los apremia a que vayan a servirle en su güerta de cacao y otras partes, so color de que es corregidor de los dichos pueblos, sin serlo.               |                       |                       |
|                                       “Y caso que lo hubiese sido, ha mucho tiempo que se cumplió su provisión; y que después de haber cumplido, les ha dado a entender que es corregidor y que han de hacer lo que él les manda siendo el dicho corregidor sin asistencia y no pudiendo usar de jurisdicción, y que en caso que pudiera, ha mucho tiempo que es cumplida su provisión”.                                                                                    |                       |                       |
|                                       Agrega don Antonio de Villalobos: “Con mucha exención,^([3]) los detiene y se sirve allá dellos, en todo lo cual ha cometido graves delitos. Y para remediallo y castigarlo como convenga, hacía e hizo las diligencias siguientes”.                                                                                                                                                                                                  |                       |                       |
|                                       Acto seguido, nombró por intérprete a Juan Sánchez El y se aprestó a oír a los testigos. Quienes declararon, fueron: Juan Pérez, indio mayordomo del pueblo de Zapotlancini, Francisco Juan, indio natural de Espuchiapa,^([4]) y Juan Jiménez, indio alcalde de Caxitlan.                                                                                                                                                            |                       |                       |
|                                       El alcalde mayor mandó poner preso a Juan Ramírez de Alarcón en la cárcel pública de la Villa.                                                                                                                                                                                                                                                                                                                                        |                       |                       |
|                                       El 17 de agosto, el alcalde mayor dijo que, “además de las fuerzas que ha hecho el dicho Juan Ramírez a los dichos indios y maltratamientos, es público que mató a palos a un indio. Y que para averiguar la verdad y proceder en esta causa”, mandaba hacer información.                                                                                                                                                             |                       |                       |
|                                       Información                                                                                                                                                                                                                                                                                                                                                                                                                           |                       |                       |
|                                       El primer testigo que declaró, fue Andrés Toscano, vecino de Colima: habrá seis años, más o menos, que “oyó por público y notorio, pública voz y fama, que Juan Ramírez había dado con un palo a un indio del pueblo de Tecoman, que estaba desyerbándole la güerta con otros indios del dicho pueblo. Y que el dicho indio se había muerto”.^([5])                                                                                   |                       |                       |
|                                       Martín Ruiz y Pero López de Ayala^([6]) también prestaron declaración. Éste último anota que Juan Ramírez “estuvo preso por ello, y después no supo este testigo en que paró la causa”.                                                                                                                                                                                                                                               |                       |                       |
|                                       El 14 de agosto, Juan Ramírez de Alarcón, desde la cárcel, “por mejor decir calabozo”, decía que era “viejo de más de 66 años, y enfermo, y tener muchas haciendas a qué acudir y [que] por mi ausencia y prisión, podrían venir a muncho menoscabo y, en especial, que tengo en la una dellas -que está a seis leguas desta Villa- dos hijas doncellas”.                                                                             |                       |                       |
|                                       Pide que se le mande dar la causa con brevedad para alegar de su justicia.                                                                                                                                                                                                                                                                                                                                                            |                       |                       |
|                                       Vista la petición, el alcalde mayor mandó se le tomase la confesión, “y en cuanto a la dicha cárcel, que ni es cárcel ni calabozo, sino un aposento cubierto de paja tan solamente, porque no hay otro en estas Casas Reales, que, atento a que no tiene techo y que de ordinario se huyen de él los presos, y por esta razón, dé fianzas de cárcel segura”.                                                                          |                       |                       |
|                                       Pedro de Ceballos, vecino y regidor, se hizo su fiador.                                                                                                                                                                                                                                                                                                                                                                               |                       |                       |
|                                       Confesión de Juan Ramírez de Alarcón                                                                                                                                                                                                                                                                                                                                                                                                  |                       |                       |
|                                       Preguntado quién le da indios para los beneficios de las huertas de cacao y sementeras que tiene en Caxitlan, dijo que “trae dos hijos suyos^([7]) en [el] beneficio de las dichas huertas y sementeras, y que ellos son los que los buscan para ello. Y que algunas veces, el señor alcalde mayor le ha hecho merced de mandárselos dar”.                                                                                            |                       |                       |
|                                       Preguntado “qué cantidad de indios ha menester en este año para los dichos beneficios de los desyerbarlos”, etcétera, respondió que son sus hijos quienes “tienen cuenta con el beneficio de sus haciendas y que ellos los traen de los pueblos de la Provincia que dicen de Arévalo, y de otras partes”. Que no se acuerda de la cantidad que se puede gastar cada año y que, además, traen indios de Ixtlahuacan y otros pueblos.   |                       |                       |
|                                       “Preguntado si ha menester para las dichas güertas más de cien indios cada año y para las sementeras más de cincuenta, dijo que sí ha menester la cantidad que se le pregunta”.                                                                                                                                                                                                                                                       |                       |                       |
|                                       Preguntado con qué autoridad han acudido los indios al dicho servicio, responde: “Como los indios son libres, llevan sus hijos [a] los reales y cacao para pedirlos y alquilarlos para el dicho beneficio”.                                                                                                                                                                                                                           |                       |                       |
|                                                                                                                                                                                                                                                                                                                                                                                                                                                                             |                       |                       |
|   ----------------------------------- ------------------------------------------------------------------------------------------------------------------------------------------------------------------------------------------------------------------------------------------------------------------------------------------------------------------------------------------------------------------------------------------------------------------------------------- |                       |                       |
|                                                                                                                                                                                                                                                                                                                                                                                                                                                                             |                       |                       |
| (1) Zapotlancin o Zapotlanejo era pueblo situado en los Valle de Tecoman y Caxitlan: Romero de Solís, Los pueblos de Colima… (2015).                                                                                                                                                                                                                                                                                                                                        |                       |                       |
|                                                                                                                                                                                                                                                                                                                                                                                                                                                                             |                       |                       |
| (2) Espuchiapa, pueblo que estaba a orillas del Río Grande, a seis leguas de la Villa de Colima, antes de llegar a la huertas de Caxitlan: Romero de Solís, Los pueblos de Colima… (2015).                                                                                                                                                                                                                                                                                  |                       |                       |
|                                                                                                                                                                                                                                                                                                                                                                                                                                                                             |                       |                       |
| (3) Exención, “privilegio que uno goza para eximirse de algún cargo u obligación”: Casares (1981), 375. La palabra está documentada por Boyd-Bowman (1971), 390.                                                                                                                                                                                                                                                                                                            |                       |                       |
|                                                                                                                                                                                                                                                                                                                                                                                                                                                                             |                       |                       |
| (4) A la letra: Ispuchtliapa.                                                                                                                                                                                                                                                                                                                                                                                                                                               |                       |                       |
|                                                                                                                                                                                                                                                                                                                                                                                                                                                                             |                       |                       |
| (5) Véase infra, reg° 912.                                                                                                                                                                                                                                                                                                                                                                                                                                                  |                       |                       |
|                                                                                                                                                                                                                                                                                                                                                                                                                                                                             |                       |                       |
| (6) Pedro López de Ayala era vecino de Colima desde 1565: Romero de Solís, Andariegos… (2001), 264.                                                                                                                                                                                                                                                                                                                                                                         |                       |                       |
|                                                                                                                                                                                                                                                                                                                                                                                                                                                                             |                       |                       |
| (7) De seguro, sus hijos García y Gaspar Ramírez de Alarcón.                                                                                                                                                                                                                                                                                                                                                                                                                |                       |                       |
|                                                                                                                                                                                                                                                                                                                                                                                                                                                                             |                       |                       |
| (8) Fojas deterioradas.                                                                                                                                                                                                                                                                                                                                                                                                                                                     |                       |                       |
|                                                                                                                                                                                                                                                                                                                                                                                                                                                                             |                       |                       |
|   ---------------------------------------------------------------------------------------------------                                                                                                                                                                                                                                                                                                                                                                       |                       |                       |
|    Documento(s) original(es)                                                                                                                                                                                                                                                                                                                                                                                                                                                |                       |                       |
|   --------------------------- ------- ------- ------- ------- ------- ------- ------- ------- -------                                                                                                                                                                                                                                                                                                                                                                       |                       |                       |
|               []                []      []      []      []      []      []      []      []      []                                                                                                                                                                                                                                                                                                                                                                          |                       |                       |
|               1f                1v      2f      2v      3f      3v      4f      4v      5f      5v                                                                                                                                                                                                                                                                                                                                                                          |                       |                       |
|                                                                                                                                                                                                                                                                                                                                                                                                                                                                             |                       |                       |
|               []                []      []      []      []      []      []      []      []      []                                                                                                                                                                                                                                                                                                                                                                          |                       |                       |
|               6f                7f      7v      8f      8v      9f      9v      10f     10v     11f                                                                                                                                                                                                                                                                                                                                                                         |                       |                       |
|                                                                                                                                                                                                                                                                                                                                                                                                                                                                             |                       |                       |
|               []                []      []      []      []      []      []      []      []      []                                                                                                                                                                                                                                                                                                                                                                          |                       |                       |
|               11v               12f     13f     13v     14f     14v     15f     15v     16f     17f                                                                                                                                                                                                                                                                                                                                                                         |                       |                       |
|                                                                                                                                                                                                                                                                                                                                                                                                                                                                             |                       |                       |
|               []                                                                                                                                                                                                                                                                                                                                                                                                                                                            |                       |                       |
|               17v                                                                                                                                                                                                                                                                                                                                                                                                                                                           |                       |                       |
|   ---------------------------------------------------------------------------------------------------                                                                                                                                                                                                                                                                                                                                                                       |                       |                       |
+-----------------------------------------------------------------------------------------------------------------------------------------------------------------------------------------------------------------------------------------------------------------------------------------------------------------------------------------------------------------------------------------------------------------------------------------------------------------------------+-----------------------+-----------------------+
| +----------------------------------------------------------------------------+-----------------------------------------------:+                                                                                                                                                                                                                                                                                                                                             |                       |                       |
| | ISBN 978-607-701-024-1                                                     |   ---- ---- ---- ---- ---- ---- ---- ---- ---- |                                                                                                                                                                                                                                                                                                                                             |                       |                       |
| | © Derechos Reservados 2013. Archivo Histórico del Municipio de Colima. [*] |   []        []        []        []        []   |                                                                                                                                                                                                                                                                                                                                             |                       |                       |
| |                                                                            |   ---- ---- ---- ---- ---- ---- ---- ---- ---- |                                                                                                                                                                                                                                                                                                                                             |                       |                       |
| +----------------------------------------------------------------------------+------------------------------------------------+                                                                                                                                                                                                                                                                                                                                             |                       |                       |
| |                                                                            |                                                |                                                                                                                                                                                                                                                                                                                                             |                       |                       |
| +----------------------------------------------------------------------------+------------------------------------------------+                                                                                                                                                                                                                                                                                                                                             |                       |                       |
+-----------------------------------------------------------------------------------------------------------------------------------------------------------------------------------------------------------------------------------------------------------------------------------------------------------------------------------------------------------------------------------------------------------------------------------------------------------------------------+-----------------------+-----------------------+

636 visitas
