+-------------------------------------------------------------------------------------------------------------------------------------------------------------------------------------------------------------------------------------------------------------------------------------------------------------------------------------------------------------------------------------------------+-----------------------+-----------------------+
| []                                                                                                                                                                                                                                                                                                                                                                                              |                       |                       |
|                                                                                                                                                                                                                                                                                                                                                                                                 |                       |                       |
| +-----------------------------------+:-------------------------------------:+                                                                                                                                                                                                                                                                                                                   |                       |                       |
| | []                                | LA VILLA DE COLIMA DE LA NUEVA ESPAÑA |                                                                                                                                                                                                                                                                                                                   |                       |                       |
| |                                   | SIGLO XVI                             |                                                                                                                                                                                                                                                                                                                   |                       |                       |
| |                                   |                                       |                                                                                                                                                                                                                                                                                                                   |                       |                       |
| |                                   | VOLUMEN II      (CAJAS 12-20)         |                                                                                                                                                                                                                                                                                                                   |                       |                       |
| +-----------------------------------+---------------------------------------+                                                                                                                                                                                                                                                                                                                   |                       |                       |
+-------------------------------------------------------------------------------------------------------------------------------------------------------------------------------------------------------------------------------------------------------------------------------------------------------------------------------------------------------------------------------------------------+-----------------------+-----------------------+
| +------------------------------------------------------------------------+-------------------------------+-----------------------+                                                                                                                                                                                                                                                              |                       |                       |
| | Inicio | Búsqueda | Siglas y bibliografía | Créditos | Más información | Vol. I (1-11) Vol. II (12-20) |    [ES]               |                                                                                                                                                                                                                                                              |                       |                       |
| +------------------------------------------------------------------------+-------------------------------+-----------------------+                                                                                                                                                                                                                                                              |                       |                       |
+-------------------------------------------------------------------------------------------------------------------------------------------------------------------------------------------------------------------------------------------------------------------------------------------------------------------------------------------------------------------------------------------------+-----------------------+-----------------------+
| Búsqueda rápida                                                                                                                                                                                                                                                                                                                                                                                 |                       |                       |
|                                                                                                                                                                                                                                                                                                                                                                                                 |                       |                       |
| +:-------------------:+-----------------+:----------------------------------------:+----------------:+                                                                                                                                                                                                                                                                                          |                       |                       |
| | Documento de fecha: |                 | Ubicación física del documento original: | [] [] []        |                                                                                                                                                                                                                                                                                          |                       |                       |
| |                     |                 |                                          |                 |                                                                                                                                                                                                                                                                                          |                       |                       |
| | 1549. Octubre, 29   |                 | Caja 25, exp. 12, f. 14.                 |                 |                                                                                                                                                                                                                                                                                          |                       |                       |
| +---------------------+-----------------+------------------------------------------+-----------------+                                                                                                                                                                                                                                                                                          |                       |                       |
|                                                                                                                                                                                                                                                                                                                                                                                                 |                       |                       |
|   ------------- ----------------------------------------------------------------------------------------------------------------                                                                                                                                                                                                                                                                |                       |                       |
|   Resumen:      Francisco Ayllón vende un pedazo de tierra en términos de Istapa a María de Valenzuela, viuda de Ginés Pinzón.                                                                                                                                                                                                                                                                  |                       |                       |
|   ------------- ----------------------------------------------------------------------------------------------------------------                                                                                                                                                                                                                                                                |                       |                       |
|                                                                                                                                                                                                                                                                                                                                                                                                 |                       |                       |
|   ----------------------------------- --------------------------------------------------------------------------------------------------------------------------------------------------------------------------------------------------------------------------------------------------------------------------------------------------------------------------------------------------------- |                       |                       |
|   Contenido:                          Francisco Ayllón^([1]) vende a María de Valenzuela, mujer que fue de Ginés Pinzón, por cuantía de 60 pesos de tepuzque, un pedazo de tierra que tiene en términos de Istapa,^([2]) cuyos linderos son: de la una parte, tierras de Diego Veedor y, por la otra, tierras de los indios de Istapa, “según que yo la hube de los dichos indios de Istapa”.   |                       |                       |
|                                       Testigos que se hallaron presentes: Juan Ruiz, Juan Fernández Ladrillero y el señor alcalde Juan Pinzón El Mozo, vecinos y estantes.                                                                                                                                                                                                                      |                       |                       |
|                                       Al reverso se lee que Gonzalo de Cáceres vende a Martín Ruiz “las tierras en esta cédula atrás contenida, la cual os doy por dos machos deste año de ochenta [1580], y por un caballo tordillo”.                                                                                                                                                          |                       |                       |
|                                                                                                                                                                                                                                                                                                                                                                                                 |                       |                       |
|   ----------------------------------- --------------------------------------------------------------------------------------------------------------------------------------------------------------------------------------------------------------------------------------------------------------------------------------------------------------------------------------------------------- |                       |                       |
|                                                                                                                                                                                                                                                                                                                                                                                                 |                       |                       |
| (1) El vecino de Colima Francisco Ayllón, natural de Medina del Campo, en 1538, se registró en Sevilla para pasar a Indias en la armada de Pedro de Alvarado, en unión de su hermano Juan. Después se avecindó en Temascaltepec, en Michoacán: Romero de Solís, Andariegos… (2001), 55.                                                                                                         |                       |                       |
|                                                                                                                                                                                                                                                                                                                                                                                                 |                       |                       |
| (2) En el Valle de Caxitlan: infra, reg° 950.                                                                                                                                                                                                                                                                                                                                                   |                       |                       |
|                                                                                                                                                                                                                                                                                                                                                                                                 |                       |                       |
|   ---------------------------------------------------------------------------------------------------                                                                                                                                                                                                                                                                                           |                       |                       |
|    Documento(s) original(es)                                                                                                                                                                                                                                                                                                                                                                    |                       |                       |
|   --------------------------- ------- ------- ------- ------- ------- ------- ------- ------- -------                                                                                                                                                                                                                                                                                           |                       |                       |
|               []                []                                                                                                                                                                                                                                                                                                                                                              |                       |                       |
|               14f               14v                                                                                                                                                                                                                                                                                                                                                             |                       |                       |
|                                                                                                                                                                                                                                                                                                                                                                                                 |                       |                       |
|   ---------------------------------------------------------------------------------------------------                                                                                                                                                                                                                                                                                           |                       |                       |
+-------------------------------------------------------------------------------------------------------------------------------------------------------------------------------------------------------------------------------------------------------------------------------------------------------------------------------------------------------------------------------------------------+-----------------------+-----------------------+
| +----------------------------------------------------------------------------+-----------------------------------------------:+                                                                                                                                                                                                                                                                 |                       |                       |
| | ISBN 978-607-701-024-1                                                     |   ---- ---- ---- ---- ---- ---- ---- ---- ---- |                                                                                                                                                                                                                                                                 |                       |                       |
| | © Derechos Reservados 2013. Archivo Histórico del Municipio de Colima. [*] |   []        []        []        []        []   |                                                                                                                                                                                                                                                                 |                       |                       |
| |                                                                            |   ---- ---- ---- ---- ---- ---- ---- ---- ---- |                                                                                                                                                                                                                                                                 |                       |                       |
| +----------------------------------------------------------------------------+------------------------------------------------+                                                                                                                                                                                                                                                                 |                       |                       |
| |                                                                            |                                                |                                                                                                                                                                                                                                                                 |                       |                       |
| +----------------------------------------------------------------------------+------------------------------------------------+                                                                                                                                                                                                                                                                 |                       |                       |
+-------------------------------------------------------------------------------------------------------------------------------------------------------------------------------------------------------------------------------------------------------------------------------------------------------------------------------------------------------------------------------------------------+-----------------------+-----------------------+

636 visitas
