+----------------------------------------------------------------------------------------------------------------------------------------------------------------------------------------------------------------------------------------------------------------------------------------------------------------------+-----------------------+-----------------------+
| []                                                                                                                                                                                                                                                                                                                   |                       |                       |
|                                                                                                                                                                                                                                                                                                                      |                       |                       |
| +-----------------------------------+:-------------------------------------:+                                                                                                                                                                                                                                        |                       |                       |
| | []                                | LA VILLA DE COLIMA DE LA NUEVA ESPAÑA |                                                                                                                                                                                                                                        |                       |                       |
| |                                   | SIGLO XVI                             |                                                                                                                                                                                                                                        |                       |                       |
| |                                   |                                       |                                                                                                                                                                                                                                        |                       |                       |
| |                                   | VOLUMEN II      (CAJAS 12-20)         |                                                                                                                                                                                                                                        |                       |                       |
| +-----------------------------------+---------------------------------------+                                                                                                                                                                                                                                        |                       |                       |
+----------------------------------------------------------------------------------------------------------------------------------------------------------------------------------------------------------------------------------------------------------------------------------------------------------------------+-----------------------+-----------------------+
| +------------------------------------------------------------------------+-------------------------------+-----------------------+                                                                                                                                                                                   |                       |                       |
| | Inicio | Búsqueda | Siglas y bibliografía | Créditos | Más información | Vol. I (1-11) Vol. II (12-20) |    [ES]               |                                                                                                                                                                                   |                       |                       |
| +------------------------------------------------------------------------+-------------------------------+-----------------------+                                                                                                                                                                                   |                       |                       |
+----------------------------------------------------------------------------------------------------------------------------------------------------------------------------------------------------------------------------------------------------------------------------------------------------------------------+-----------------------+-----------------------+
| Búsqueda rápida                                                                                                                                                                                                                                                                                                      |                       |                       |
|                                                                                                                                                                                                                                                                                                                      |                       |                       |
| +:-------------------:+-----------------+:----------------------------------------:+----------------:+                                                                                                                                                                                                               |                       |                       |
| | Documento de fecha: |                 | Ubicación física del documento original: | [] [] []        |                                                                                                                                                                                                               |                       |                       |
| |                     |                 |                                          |                 |                                                                                                                                                                                                               |                       |                       |
| | 1596. Diciembre, 28 |                 | Caja 25, exp. 27, 1 f.                   |                 |                                                                                                                                                                                                               |                       |                       |
| +---------------------+-----------------+------------------------------------------+-----------------+                                                                                                                                                                                                               |                       |                       |
|                                                                                                                                                                                                                                                                                                                      |                       |                       |
|   ------------- -------------------------------------------------------------------------------------------------------------------                                                                                                                                                                                  |                       |                       |
|   Resumen:      Aceptación por Isabel de Sopuerta de la herencia de Pablo Martín, su marido ya difunto, vecino que fue de Colima.                                                                                                                                                                                    |                       |                       |
|   ------------- -------------------------------------------------------------------------------------------------------------------                                                                                                                                                                                  |                       |                       |
|                                                                                                                                                                                                                                                                                                                      |                       |                       |
|   ----------------------------------- ------------------------------------------------------------------------------------------------------------------------------------------------------------------------------------------------------------------------------------------------------------------------------ |                       |                       |
|   Contenido:                          Isabel de Sopuerta, viuda de Pablo Martín, vecino que fue de Colima, dijo que su esposo falleció en la Ciudad de Valladolid el 8 de noviembre pasado, y en dicho día otorgó testamento ante el escribano Francisco Martínez,^([1]) nombrándola por heredera universal.^([2])   |                       |                       |
|                                       Isabel de Sopuerta acepta la herencia con sus condiciones, legados contenidos en su testamento y con cargo de hacer inventario.                                                                                                                                                |                       |                       |
|                                       Testigos fueron Juan López de Bengoa, Domingo Sánchez y Francisco Briceño, vecinos y estantes en la Villa de Colima.                                                                                                                                                           |                       |                       |
|                                       A su ruego y por ella firmó Juan López Bengoa.                                                                                                                                                                                                                                 |                       |                       |
|                                       Cristóbal Hernández de Tene, escribano real.                                                                                                                                                                                                                                   |                       |                       |
|                                                                                                                                                                                                                                                                                                                      |                       |                       |
|   ----------------------------------- ------------------------------------------------------------------------------------------------------------------------------------------------------------------------------------------------------------------------------------------------------------------------------ |                       |                       |
|                                                                                                                                                                                                                                                                                                                      |                       |                       |
| (1) En el testamento otorgado por Pablo Martín se nombra a este escribano Francisco Martín Alcaraz: supra, III, reg° 519.                                                                                                                                                                                            |                       |                       |
|                                                                                                                                                                                                                                                                                                                      |                       |                       |
| (2) El testamento de Pablo Martín, otorgado en Valladolid el 18 de noviembre de 1596 y no el 8 de noviembre, como aquí se dice: supra, III, reg° 519. De dicho expediente formó parte sin duda esta carta de aceptación que otorga la viuda.                                                                         |                       |                       |
|                                                                                                                                                                                                                                                                                                                      |                       |                       |
|   ---------------------------------------------------------------------------------------------------                                                                                                                                                                                                                |                       |                       |
|    Documento(s) original(es)                                                                                                                                                                                                                                                                                         |                       |                       |
|   --------------------------- ------- ------- ------- ------- ------- ------- ------- ------- -------                                                                                                                                                                                                                |                       |                       |
|               []                []                                                                                                                                                                                                                                                                                   |                       |                       |
|               1f                1v                                                                                                                                                                                                                                                                                   |                       |                       |
|                                                                                                                                                                                                                                                                                                                      |                       |                       |
|   ---------------------------------------------------------------------------------------------------                                                                                                                                                                                                                |                       |                       |
+----------------------------------------------------------------------------------------------------------------------------------------------------------------------------------------------------------------------------------------------------------------------------------------------------------------------+-----------------------+-----------------------+
| +----------------------------------------------------------------------------+-----------------------------------------------:+                                                                                                                                                                                      |                       |                       |
| | ISBN 978-607-701-024-1                                                     |   ---- ---- ---- ---- ---- ---- ---- ---- ---- |                                                                                                                                                                                      |                       |                       |
| | © Derechos Reservados 2013. Archivo Histórico del Municipio de Colima. [*] |   []        []        []        []        []   |                                                                                                                                                                                      |                       |                       |
| |                                                                            |   ---- ---- ---- ---- ---- ---- ---- ---- ---- |                                                                                                                                                                                      |                       |                       |
| +----------------------------------------------------------------------------+------------------------------------------------+                                                                                                                                                                                      |                       |                       |
| |                                                                            |                                                |                                                                                                                                                                                      |                       |                       |
| +----------------------------------------------------------------------------+------------------------------------------------+                                                                                                                                                                                      |                       |                       |
+----------------------------------------------------------------------------------------------------------------------------------------------------------------------------------------------------------------------------------------------------------------------------------------------------------------------+-----------------------+-----------------------+

636 visitas
