+---------------------------------------------------------------------------------------------------------------------------------------------------------------------------------------------------------+-----------------------+-----------------------+
| []                                                                                                                                                                                                      |                       |                       |
|                                                                                                                                                                                                         |                       |                       |
| +-----------------------------------+:-------------------------------------:+                                                                                                                           |                       |                       |
| | []                                | LA VILLA DE COLIMA DE LA NUEVA ESPAÑA |                                                                                                                           |                       |                       |
| |                                   | SIGLO XVI                             |                                                                                                                           |                       |                       |
| |                                   |                                       |                                                                                                                           |                       |                       |
| |                                   | VOLUMEN II      (CAJAS 12-20)         |                                                                                                                           |                       |                       |
| +-----------------------------------+---------------------------------------+                                                                                                                           |                       |                       |
+---------------------------------------------------------------------------------------------------------------------------------------------------------------------------------------------------------+-----------------------+-----------------------+
| +------------------------------------------------------------------------+-------------------------------+-----------------------+                                                                      |                       |                       |
| | Inicio | Búsqueda | Siglas y bibliografía | Créditos | Más información | Vol. I (1-11) Vol. II (12-20) |    [ES]               |                                                                      |                       |                       |
| +------------------------------------------------------------------------+-------------------------------+-----------------------+                                                                      |                       |                       |
+---------------------------------------------------------------------------------------------------------------------------------------------------------------------------------------------------------+-----------------------+-----------------------+
| Búsqueda rápida                                                                                                                                                                                         |                       |                       |
|                                                                                                                                                                                                         |                       |                       |
| +:-------------------:+-----------------+:----------------------------------------:+----------------:+                                                                                                  |                       |                       |
| | Documento de fecha: |                 | Ubicación física del documento original: | [] [] []        |                                                                                                  |                       |                       |
| |                     |                 |                                          |                 |                                                                                                  |                       |                       |
| | 1597                |                 | Caja 25, exp. 28, 1 f.^([1])             |                 |                                                                                                  |                       |                       |
| +---------------------+-----------------+------------------------------------------+-----------------+                                                                                                  |                       |                       |
|                                                                                                                                                                                                         |                       |                       |
|   ------------- -------------------------------------------------------------------------------------------------------------------------------------------------------------                           |                       |                       |
|   Resumen:      Carta de pago de Cristóbal de Silva, diezmero del año de noventa y siete [1597], de los becerros que le entregaron de los menores de Hernando de Solórzano.                             |                       |                       |
|   ------------- -------------------------------------------------------------------------------------------------------------------------------------------------------------                           |                       |                       |
|                                                                                                                                                                                                         |                       |                       |
|   ------------ ---------------------------------------------------------------------------------------------------------------------------------------------------------------------------------------- |                       |                       |
|   Contenido:   Cristóbal de Silva, diezmero de ese año, recibió 180 becerros de Diego Mejía de la Torre, tutor de los menores hijos de Hernando de Solórzano y de doña Francisca de Monroy, difuntos.   |                       |                       |
|   ------------ ---------------------------------------------------------------------------------------------------------------------------------------------------------------------------------------- |                       |                       |
|                                                                                                                                                                                                         |                       |                       |
| (1) Fragmento.                                                                                                                                                                                          |                       |                       |
|                                                                                                                                                                                                         |                       |                       |
|   ---------------------------------------------------------------------------------------------------                                                                                                   |                       |                       |
|    Documento(s) original(es)                                                                                                                                                                            |                       |                       |
|   --------------------------- ------- ------- ------- ------- ------- ------- ------- ------- -------                                                                                                   |                       |                       |
|               []                []                                                                                                                                                                      |                       |                       |
|               1f                1v                                                                                                                                                                      |                       |                       |
|                                                                                                                                                                                                         |                       |                       |
|   ---------------------------------------------------------------------------------------------------                                                                                                   |                       |                       |
+---------------------------------------------------------------------------------------------------------------------------------------------------------------------------------------------------------+-----------------------+-----------------------+
| +----------------------------------------------------------------------------+-----------------------------------------------:+                                                                         |                       |                       |
| | ISBN 978-607-701-024-1                                                     |   ---- ---- ---- ---- ---- ---- ---- ---- ---- |                                                                         |                       |                       |
| | © Derechos Reservados 2013. Archivo Histórico del Municipio de Colima. [*] |   []        []        []        []        []   |                                                                         |                       |                       |
| |                                                                            |   ---- ---- ---- ---- ---- ---- ---- ---- ---- |                                                                         |                       |                       |
| +----------------------------------------------------------------------------+------------------------------------------------+                                                                         |                       |                       |
| |                                                                            |                                                |                                                                         |                       |                       |
| +----------------------------------------------------------------------------+------------------------------------------------+                                                                         |                       |                       |
+---------------------------------------------------------------------------------------------------------------------------------------------------------------------------------------------------------+-----------------------+-----------------------+

636 visitas
