+--------------------------------------------------------------------------------------------------------------------------------------------------------------------------------------------------------------------------------------------------------------------------------------------------------------------------------------------------------------------------------------------------------------------------------------------------------------+-----------------------+-----------------------+
| []                                                                                                                                                                                                                                                                                                                                                                                                                                                           |                       |                       |
|                                                                                                                                                                                                                                                                                                                                                                                                                                                              |                       |                       |
| +-----------------------------------+:-------------------------------------:+                                                                                                                                                                                                                                                                                                                                                                                |                       |                       |
| | []                                | LA VILLA DE COLIMA DE LA NUEVA ESPAÑA |                                                                                                                                                                                                                                                                                                                                                                                |                       |                       |
| |                                   | SIGLO XVI                             |                                                                                                                                                                                                                                                                                                                                                                                |                       |                       |
| |                                   |                                       |                                                                                                                                                                                                                                                                                                                                                                                |                       |                       |
| |                                   | VOLUMEN II      (CAJAS 12-20)         |                                                                                                                                                                                                                                                                                                                                                                                |                       |                       |
| +-----------------------------------+---------------------------------------+                                                                                                                                                                                                                                                                                                                                                                                |                       |                       |
+--------------------------------------------------------------------------------------------------------------------------------------------------------------------------------------------------------------------------------------------------------------------------------------------------------------------------------------------------------------------------------------------------------------------------------------------------------------+-----------------------+-----------------------+
| +------------------------------------------------------------------------+-------------------------------+-----------------------+                                                                                                                                                                                                                                                                                                                           |                       |                       |
| | Inicio | Búsqueda | Siglas y bibliografía | Créditos | Más información | Vol. I (1-11) Vol. II (12-20) |    [ES]               |                                                                                                                                                                                                                                                                                                                           |                       |                       |
| +------------------------------------------------------------------------+-------------------------------+-----------------------+                                                                                                                                                                                                                                                                                                                           |                       |                       |
+--------------------------------------------------------------------------------------------------------------------------------------------------------------------------------------------------------------------------------------------------------------------------------------------------------------------------------------------------------------------------------------------------------------------------------------------------------------+-----------------------+-----------------------+
| Búsqueda rápida                                                                                                                                                                                                                                                                                                                                                                                                                                              |                       |                       |
|                                                                                                                                                                                                                                                                                                                                                                                                                                                              |                       |                       |
| +:-------------------:+-----------------+:----------------------------------------:+----------------:+                                                                                                                                                                                                                                                                                                                                                       |                       |                       |
| | Documento de fecha: |                 | Ubicación física del documento original: | [] [] []        |                                                                                                                                                                                                                                                                                                                                                       |                       |                       |
| |                     |                 |                                          |                 |                                                                                                                                                                                                                                                                                                                                                       |                       |                       |
| | 1597. Mayo, 24      |                 | Caja 25, exp. 40, ff. 39-50.             |                 |                                                                                                                                                                                                                                                                                                                                                       |                       |                       |
| +---------------------+-----------------+------------------------------------------+-----------------+                                                                                                                                                                                                                                                                                                                                                       |                       |                       |
|                                                                                                                                                                                                                                                                                                                                                                                                                                                              |                       |                       |
|   ------------- -------------------------------------------------------------------------------------------------------------------                                                                                                                                                                                                                                                                                                                          |                       |                       |
|   Resumen:      Don Antonio Enríquez contra el alférez García Martínez, por haber dicho ciertas palabras contra la Justicia Real.                                                                                                                                                                                                                                                                                                                            |                       |                       |
|   ------------- -------------------------------------------------------------------------------------------------------------------                                                                                                                                                                                                                                                                                                                          |                       |                       |
|                                                                                                                                                                                                                                                                                                                                                                                                                                                              |                       |                       |
|   ----------------------------------- ---------------------------------------------------------------------------------------------------------------------------------------------------------------------------------------------------------------------------------------------------------------------------------------------------------------------------------------------------------------------------------------------------------------------- |                       |                       |
|   Contenido:                          “En el pueblo de Aguacatitlan, de la Provincia de Colima”, don Antonio Enríquez, Justicia Mayor de ella, procede de oficio contra el alférez real García Martínez, por haber dicho ciertas palabras contra la Justicia Real.                                                                                                                                                                                           |                       |                       |
|                                       Dice don Antonio que, “ayer, en la Villa de Colima, el alférez dijo públicamente ante muchas personas que el dicho Justicia Mayor robaba, y otras palabras desacatadas y contra su honor; y que siendo reprendido de algunas personas del dicho exceso, alborotó la Villa”.                                                                                                                                            |                       |                       |
|                                       Pasó ante Miguel Caballero, escribano.                                                                                                                                                                                                                                                                                                                                                                                 |                       |                       |
|                                       Información.                                                                                                                                                                                                                                                                                                                                                                                                           |                       |                       |
|                                       El 26 de junio siguiente, de nueva cuenta, el Justicia Mayor don Antonio Enríquez procedió contra el alférez real García Martínez, diciendo: “De quince días a esta parte, ha dicho muchas palabras desacatadas” contra él y contra la Real Justicia.                                                                                                                                                                  |                       |                       |
|                                       Y, “porque en el dicho tiempo estaba y hasta hoy ha estado en esta Villa Pedro Gutiérrez de Molina, juez por la Real Audiencia para la averiguación de ciertos capítulos que el dicho García Martínez puso al dicho don Antonio Enríquez. Y porque no pareciese ser torcedor e impedimento con que el dicho García Martínez no pudiese probar los dichos capítulos”, ahora, para su justo castigo abre averiguación.   |                       |                       |
|                                       Información.                                                                                                                                                                                                                                                                                                                                                                                                           |                       |                       |
|                                       Pasaron los autos ante Toribio de Casso, escribano.                                                                                                                                                                                                                                                                                                                                                                    |                       |                       |
|                                       Siguen autos referidos a la ejecución que García Martínez, en nombre del mercader Juan de Mendiola, tiene puesta a la persona y bienes de Diego de Monroy.^([1])                                                                                                                                                                                                                                                       |                       |                       |
|                                                                                                                                                                                                                                                                                                                                                                                                                                                              |                       |                       |
|   ----------------------------------- ---------------------------------------------------------------------------------------------------------------------------------------------------------------------------------------------------------------------------------------------------------------------------------------------------------------------------------------------------------------------------------------------------------------------- |                       |                       |
|                                                                                                                                                                                                                                                                                                                                                                                                                                                              |                       |                       |
| (1) Supra, reg° 983.                                                                                                                                                                                                                                                                                                                                                                                                                                         |                       |                       |
|                                                                                                                                                                                                                                                                                                                                                                                                                                                              |                       |                       |
|   ---------------------------------------------------------------------------------------------------                                                                                                                                                                                                                                                                                                                                                        |                       |                       |
|    Documento(s) original(es)                                                                                                                                                                                                                                                                                                                                                                                                                                 |                       |                       |
|   --------------------------- ------- ------- ------- ------- ------- ------- ------- ------- -------                                                                                                                                                                                                                                                                                                                                                        |                       |                       |
|               []                []      []      []      []      []      []      []      []      []                                                                                                                                                                                                                                                                                                                                                           |                       |                       |
|               39f               39v     40f     40v     41f     41v     42f     42v     43f     43v                                                                                                                                                                                                                                                                                                                                                          |                       |                       |
|                                                                                                                                                                                                                                                                                                                                                                                                                                                              |                       |                       |
|               []                []      []      []      []      []      []      []      []      []                                                                                                                                                                                                                                                                                                                                                           |                       |                       |
|               44f               44v     45f     45v     46f     46v     47f     47v     48f     49f                                                                                                                                                                                                                                                                                                                                                          |                       |                       |
|                                                                                                                                                                                                                                                                                                                                                                                                                                                              |                       |                       |
|               []                []      []                                                                                                                                                                                                                                                                                                                                                                                                                   |                       |                       |
|               49v               50f     50v                                                                                                                                                                                                                                                                                                                                                                                                                  |                       |                       |
|   ---------------------------------------------------------------------------------------------------                                                                                                                                                                                                                                                                                                                                                        |                       |                       |
+--------------------------------------------------------------------------------------------------------------------------------------------------------------------------------------------------------------------------------------------------------------------------------------------------------------------------------------------------------------------------------------------------------------------------------------------------------------+-----------------------+-----------------------+
| +----------------------------------------------------------------------------+-----------------------------------------------:+                                                                                                                                                                                                                                                                                                                              |                       |                       |
| | ISBN 978-607-701-024-1                                                     |   ---- ---- ---- ---- ---- ---- ---- ---- ---- |                                                                                                                                                                                                                                                                                                                              |                       |                       |
| | © Derechos Reservados 2013. Archivo Histórico del Municipio de Colima. [*] |   []        []        []        []        []   |                                                                                                                                                                                                                                                                                                                              |                       |                       |
| |                                                                            |   ---- ---- ---- ---- ---- ---- ---- ---- ---- |                                                                                                                                                                                                                                                                                                                              |                       |                       |
| +----------------------------------------------------------------------------+------------------------------------------------+                                                                                                                                                                                                                                                                                                                              |                       |                       |
| |                                                                            |                                                |                                                                                                                                                                                                                                                                                                                              |                       |                       |
| +----------------------------------------------------------------------------+------------------------------------------------+                                                                                                                                                                                                                                                                                                                              |                       |                       |
+--------------------------------------------------------------------------------------------------------------------------------------------------------------------------------------------------------------------------------------------------------------------------------------------------------------------------------------------------------------------------------------------------------------------------------------------------------------+-----------------------+-----------------------+

636 visitas
