+-------------------------------------------------------------------------------------------------------------------------------------------------------------------------------------------------------------------------------------------------------------------------------------------------------------------------------------------------------------------------------------------------------------------------------------------------------------------------------------------------------------+-----------------------+-----------------------+
| []                                                                                                                                                                                                                                                                                                                                                                                                                                                                                                          |                       |                       |
|                                                                                                                                                                                                                                                                                                                                                                                                                                                                                                             |                       |                       |
| +-----------------------------------+:-------------------------------------:+                                                                                                                                                                                                                                                                                                                                                                                                                               |                       |                       |
| | []                                | LA VILLA DE COLIMA DE LA NUEVA ESPAÑA |                                                                                                                                                                                                                                                                                                                                                                                                                               |                       |                       |
| |                                   | SIGLO XVI                             |                                                                                                                                                                                                                                                                                                                                                                                                                               |                       |                       |
| |                                   |                                       |                                                                                                                                                                                                                                                                                                                                                                                                                               |                       |                       |
| |                                   | VOLUMEN II      (CAJAS 12-20)         |                                                                                                                                                                                                                                                                                                                                                                                                                               |                       |                       |
| +-----------------------------------+---------------------------------------+                                                                                                                                                                                                                                                                                                                                                                                                                               |                       |                       |
+-------------------------------------------------------------------------------------------------------------------------------------------------------------------------------------------------------------------------------------------------------------------------------------------------------------------------------------------------------------------------------------------------------------------------------------------------------------------------------------------------------------+-----------------------+-----------------------+
| +------------------------------------------------------------------------+-------------------------------+-----------------------+                                                                                                                                                                                                                                                                                                                                                                          |                       |                       |
| | Inicio | Búsqueda | Siglas y bibliografía | Créditos | Más información | Vol. I (1-11) Vol. II (12-20) |    [ES]               |                                                                                                                                                                                                                                                                                                                                                                          |                       |                       |
| +------------------------------------------------------------------------+-------------------------------+-----------------------+                                                                                                                                                                                                                                                                                                                                                                          |                       |                       |
+-------------------------------------------------------------------------------------------------------------------------------------------------------------------------------------------------------------------------------------------------------------------------------------------------------------------------------------------------------------------------------------------------------------------------------------------------------------------------------------------------------------+-----------------------+-----------------------+
| Búsqueda rápida                                                                                                                                                                                                                                                                                                                                                                                                                                                                                             |                       |                       |
|                                                                                                                                                                                                                                                                                                                                                                                                                                                                                                             |                       |                       |
| +:-------------------:+-----------------+:----------------------------------------:+----------------:+                                                                                                                                                                                                                                                                                                                                                                                                      |                       |                       |
| | Documento de fecha: |                 | Ubicación física del documento original: | [] [] []        |                                                                                                                                                                                                                                                                                                                                                                                                      |                       |                       |
| |                     |                 |                                          |                 |                                                                                                                                                                                                                                                                                                                                                                                                      |                       |                       |
| | 1598. Abril, 9      |                 | Caja 26, exp. 26, f. 37.                 |                 |                                                                                                                                                                                                                                                                                                                                                                                                      |                       |                       |
| +---------------------+-----------------+------------------------------------------+-----------------+                                                                                                                                                                                                                                                                                                                                                                                                      |                       |                       |
|                                                                                                                                                                                                                                                                                                                                                                                                                                                                                                             |                       |                       |
|   ------------- ----------------------------------------------------------------------------------------------------------------------------------------------------------------                                                                                                                                                                                                                                                                                                                            |                       |                       |
|   Resumen:      Juan Rodríguez de Santiago y Francisco Ortiz, ambos a dos de mancomún, pagarán a Álvaro García de Grijalba, tutor de Francisca de Grijalba, cantidad de pesos.                                                                                                                                                                                                                                                                                                                              |                       |                       |
|   ------------- ----------------------------------------------------------------------------------------------------------------------------------------------------------------                                                                                                                                                                                                                                                                                                                            |                       |                       |
|                                                                                                                                                                                                                                                                                                                                                                                                                                                                                                             |                       |                       |
|   ----------------------------------- --------------------------------------------------------------------------------------------------------------------------------------------------------------------------------------------------------------------------------------------------------------------------------------------------------------------------------------------------------------------------------------------------------------------------------------------------------------------- |                       |                       |
|   Contenido:                          “El bachiller Juan Rodríguez de Santiago, como principal, y Francisco Ortiz, como su fiador y principal pagador”, vecinos ambos de la Villa de Colima, “y ambos a dos de mancomún” se obligan a pagar “a vos, Álvaro García de Grijalba, vecino desta Villa, como tutor y curador de la persona e bienes de Francisca de Grijalba, menor, hija y heredera de Bernaldino de Alcalá, difunto, y de Catalina de Grijalba, sus padres”, a saber, 92 pesos de oro común.   |                       |                       |
|                                       “La paga en reales o en plata a la ley, buena de dar e recibir, o en cacao bueno, contado, de veinte y cuatro^([1]) mil almendras cada carga, a razón de a veinte pesos carga, los cuales son por razón que yo, el dicho bachiller Juan Rodríguez Santiago los debía a los bienes que quedaron de Baltasar de Alcalá y de Francisca de Saldaña, de cosas de su tienda, y por ellos teníades sacado mandamiento ejecutorio y ejecutado en mi persona”.                 |                       |                       |
|                                       “Los cuales noventa y dos pesos os daremos e pagaremos debajo de la dicha mancomunidad”, en el término de un año cumplido primero venidero.                                                                                                                                                                                                                                                                                                                           |                       |                       |
|                                       Testigos: Andrés Ruiz, Diego de Pedraza^([2]) y Andrés de Casso,^([3]) vecinos y estantes.                                                                                                                                                                                                                                                                                                                                                                            |                       |                       |
|                                       Pasó ante el escribano público Toribio de Casso.                                                                                                                                                                                                                                                                                                                                                                                                                      |                       |                       |
|                                                                                                                                                                                                                                                                                                                                                                                                                                                                                                             |                       |                       |
|   ----------------------------------- --------------------------------------------------------------------------------------------------------------------------------------------------------------------------------------------------------------------------------------------------------------------------------------------------------------------------------------------------------------------------------------------------------------------------------------------------------------------- |                       |                       |
|                                                                                                                                                                                                                                                                                                                                                                                                                                                                                                             |                       |                       |
| (1) Cuatro está sobre escrito y entre renglones.                                                                                                                                                                                                                                                                                                                                                                                                                                                            |                       |                       |
|                                                                                                                                                                                                                                                                                                                                                                                                                                                                                                             |                       |                       |
| (2) Del estante Diego de Pedraza no hemos hallado más referencia.                                                                                                                                                                                                                                                                                                                                                                                                                                           |                       |                       |
|                                                                                                                                                                                                                                                                                                                                                                                                                                                                                                             |                       |                       |
| (3) De Andrés de Casso, estante en la Villa de Colima y probable familiar del escribano Toribio de Casso, no tenemos más referencia.                                                                                                                                                                                                                                                                                                                                                                        |                       |                       |
|                                                                                                                                                                                                                                                                                                                                                                                                                                                                                                             |                       |                       |
|   ---------------------------------------------------------------------------------------------------                                                                                                                                                                                                                                                                                                                                                                                                       |                       |                       |
|    Documento(s) original(es)                                                                                                                                                                                                                                                                                                                                                                                                                                                                                |                       |                       |
|   --------------------------- ------- ------- ------- ------- ------- ------- ------- ------- -------                                                                                                                                                                                                                                                                                                                                                                                                       |                       |                       |
|               []                []                                                                                                                                                                                                                                                                                                                                                                                                                                                                          |                       |                       |
|               37f               37v                                                                                                                                                                                                                                                                                                                                                                                                                                                                         |                       |                       |
|                                                                                                                                                                                                                                                                                                                                                                                                                                                                                                             |                       |                       |
|   ---------------------------------------------------------------------------------------------------                                                                                                                                                                                                                                                                                                                                                                                                       |                       |                       |
+-------------------------------------------------------------------------------------------------------------------------------------------------------------------------------------------------------------------------------------------------------------------------------------------------------------------------------------------------------------------------------------------------------------------------------------------------------------------------------------------------------------+-----------------------+-----------------------+
| +----------------------------------------------------------------------------+-----------------------------------------------:+                                                                                                                                                                                                                                                                                                                                                                             |                       |                       |
| | ISBN 978-607-701-024-1                                                     |   ---- ---- ---- ---- ---- ---- ---- ---- ---- |                                                                                                                                                                                                                                                                                                                                                                             |                       |                       |
| | © Derechos Reservados 2013. Archivo Histórico del Municipio de Colima. [*] |   []        []        []        []        []   |                                                                                                                                                                                                                                                                                                                                                                             |                       |                       |
| |                                                                            |   ---- ---- ---- ---- ---- ---- ---- ---- ---- |                                                                                                                                                                                                                                                                                                                                                                             |                       |                       |
| +----------------------------------------------------------------------------+------------------------------------------------+                                                                                                                                                                                                                                                                                                                                                                             |                       |                       |
| |                                                                            |                                                |                                                                                                                                                                                                                                                                                                                                                                             |                       |                       |
| +----------------------------------------------------------------------------+------------------------------------------------+                                                                                                                                                                                                                                                                                                                                                                             |                       |                       |
+-------------------------------------------------------------------------------------------------------------------------------------------------------------------------------------------------------------------------------------------------------------------------------------------------------------------------------------------------------------------------------------------------------------------------------------------------------------------------------------------------------------+-----------------------+-----------------------+

636 visitas
