+--------------------------------------------------------------------------------------------------------------------------------------------------------------------------------------------------------------------------------------------------------------------------------------------------------------------------------------------------------------------------------------------------------------------------------------------------------------------------------------------------------------------------------------------------------------------------------------------------------------------------------------------------------------------------------------------------------------------------------------------------------------------------------------------------------------------------------------------------------------------------------------------------------------------------------------------------------------------------------------------------------------------------------------------------------------------------------------------------------------------------------------------------------------------------------------------------------------------------------------------------------+-----------------------+-----------------------+
| []                                                                                                                                                                                                                                                                                                                                                                                                                                                                                                                                                                                                                                                                                                                                                                                                                                                                                                                                                                                                                                                                                                                                                                                                                                                     |                       |                       |
|                                                                                                                                                                                                                                                                                                                                                                                                                                                                                                                                                                                                                                                                                                                                                                                                                                                                                                                                                                                                                                                                                                                                                                                                                                                        |                       |                       |
| +-----------------------------------+:-------------------------------------:+                                                                                                                                                                                                                                                                                                                                                                                                                                                                                                                                                                                                                                                                                                                                                                                                                                                                                                                                                                                                                                                                                                                                                                          |                       |                       |
| | []                                | LA VILLA DE COLIMA DE LA NUEVA ESPAÑA |                                                                                                                                                                                                                                                                                                                                                                                                                                                                                                                                                                                                                                                                                                                                                                                                                                                                                                                                                                                                                                                                                                                                                                          |                       |                       |
| |                                   | SIGLO XVI                             |                                                                                                                                                                                                                                                                                                                                                                                                                                                                                                                                                                                                                                                                                                                                                                                                                                                                                                                                                                                                                                                                                                                                                                          |                       |                       |
| |                                   |                                       |                                                                                                                                                                                                                                                                                                                                                                                                                                                                                                                                                                                                                                                                                                                                                                                                                                                                                                                                                                                                                                                                                                                                                                          |                       |                       |
| |                                   | VOLUMEN II      (CAJAS 12-20)         |                                                                                                                                                                                                                                                                                                                                                                                                                                                                                                                                                                                                                                                                                                                                                                                                                                                                                                                                                                                                                                                                                                                                                                          |                       |                       |
| +-----------------------------------+---------------------------------------+                                                                                                                                                                                                                                                                                                                                                                                                                                                                                                                                                                                                                                                                                                                                                                                                                                                                                                                                                                                                                                                                                                                                                                          |                       |                       |
+--------------------------------------------------------------------------------------------------------------------------------------------------------------------------------------------------------------------------------------------------------------------------------------------------------------------------------------------------------------------------------------------------------------------------------------------------------------------------------------------------------------------------------------------------------------------------------------------------------------------------------------------------------------------------------------------------------------------------------------------------------------------------------------------------------------------------------------------------------------------------------------------------------------------------------------------------------------------------------------------------------------------------------------------------------------------------------------------------------------------------------------------------------------------------------------------------------------------------------------------------------+-----------------------+-----------------------+
| +------------------------------------------------------------------------+-------------------------------+-----------------------+                                                                                                                                                                                                                                                                                                                                                                                                                                                                                                                                                                                                                                                                                                                                                                                                                                                                                                                                                                                                                                                                                                                     |                       |                       |
| | Inicio | Búsqueda | Siglas y bibliografía | Créditos | Más información | Vol. I (1-11) Vol. II (12-20) |    [ES]               |                                                                                                                                                                                                                                                                                                                                                                                                                                                                                                                                                                                                                                                                                                                                                                                                                                                                                                                                                                                                                                                                                                                     |                       |                       |
| +------------------------------------------------------------------------+-------------------------------+-----------------------+                                                                                                                                                                                                                                                                                                                                                                                                                                                                                                                                                                                                                                                                                                                                                                                                                                                                                                                                                                                                                                                                                                                     |                       |                       |
+--------------------------------------------------------------------------------------------------------------------------------------------------------------------------------------------------------------------------------------------------------------------------------------------------------------------------------------------------------------------------------------------------------------------------------------------------------------------------------------------------------------------------------------------------------------------------------------------------------------------------------------------------------------------------------------------------------------------------------------------------------------------------------------------------------------------------------------------------------------------------------------------------------------------------------------------------------------------------------------------------------------------------------------------------------------------------------------------------------------------------------------------------------------------------------------------------------------------------------------------------------+-----------------------+-----------------------+
| Búsqueda rápida                                                                                                                                                                                                                                                                                                                                                                                                                                                                                                                                                                                                                                                                                                                                                                                                                                                                                                                                                                                                                                                                                                                                                                                                                                        |                       |                       |
|                                                                                                                                                                                                                                                                                                                                                                                                                                                                                                                                                                                                                                                                                                                                                                                                                                                                                                                                                                                                                                                                                                                                                                                                                                                        |                       |                       |
| +:-------------------:+-----------------+:----------------------------------------:+----------------:+                                                                                                                                                                                                                                                                                                                                                                                                                                                                                                                                                                                                                                                                                                                                                                                                                                                                                                                                                                                                                                                                                                                                                 |                       |                       |
| | Documento de fecha: |                 | Ubicación física del documento original: | [] [] []        |                                                                                                                                                                                                                                                                                                                                                                                                                                                                                                                                                                                                                                                                                                                                                                                                                                                                                                                                                                                                                                                                                                                                                 |                       |                       |
| |                     |                 |                                          |                 |                                                                                                                                                                                                                                                                                                                                                                                                                                                                                                                                                                                                                                                                                                                                                                                                                                                                                                                                                                                                                                                                                                                                                 |                       |                       |
| | 1593. Febrero, 20   |                 | Caja 26, exp. 31, ff. 42-45.             |                 |                                                                                                                                                                                                                                                                                                                                                                                                                                                                                                                                                                                                                                                                                                                                                                                                                                                                                                                                                                                                                                                                                                                                                 |                       |                       |
| +---------------------+-----------------+------------------------------------------+-----------------+                                                                                                                                                                                                                                                                                                                                                                                                                                                                                                                                                                                                                                                                                                                                                                                                                                                                                                                                                                                                                                                                                                                                                 |                       |                       |
|                                                                                                                                                                                                                                                                                                                                                                                                                                                                                                                                                                                                                                                                                                                                                                                                                                                                                                                                                                                                                                                                                                                                                                                                                                                        |                       |                       |
|   ------------- -----------------------------------------------------------------------------------------------------------------------                                                                                                                                                                                                                                                                                                                                                                                                                                                                                                                                                                                                                                                                                                                                                                                                                                                                                                                                                                                                                                                                                                                |                       |                       |
|   Resumen:      Escritura del bachiller Grijalba en favor de Andrés Ruiz, del patronazgo de la capellanía de Francisco Ruiz, difunto.                                                                                                                                                                                                                                                                                                                                                                                                                                                                                                                                                                                                                                                                                                                                                                                                                                                                                                                                                                                                                                                                                                                  |                       |                       |
|   ------------- -----------------------------------------------------------------------------------------------------------------------                                                                                                                                                                                                                                                                                                                                                                                                                                                                                                                                                                                                                                                                                                                                                                                                                                                                                                                                                                                                                                                                                                                |                       |                       |
|                                                                                                                                                                                                                                                                                                                                                                                                                                                                                                                                                                                                                                                                                                                                                                                                                                                                                                                                                                                                                                                                                                                                                                                                                                                        |                       |                       |
|   ----------------------------------- ---------------------------------------------------------------------------------------------------------------------------------------------------------------------------------------------------------------------------------------------------------------------------------------------------------------------------------------------------------------------------------------------------------------------------------------------------------------------------------------------------------------------------------------------------------------------------------------------------------------------------------------------------------------------------------------------------------------------------------------------------------------------------------------------------------------------------------------------------------------------------------------------------------------------------------------------------------------------------------------------------------------------------------------------------------------------------------------------------------------------------------------------------------------------------------------------------------------- |                       |                       |
|   Contenido:                          “El bachiller Álvaro de Grijalba, cura e vicario desta dicha Villa [...], dijo que por cuanto Francisco Ruiz, clérigo presbítero, vecino que fue desta dicha Villa ya difunto, por un su testamento debajo de cuya disposición falleció en esta dicha Villa, que otorgó ante Francisco López Avecilla, escribano público que fue en ella, a nueve días del mes de octubre del año pasado de noventa años [1590], en el cual por una cláusula de él dejó instituida una capellanía en la iglesia mayor desta dicha Villa, de cuantía de tres mil pesos de oro común de principal, declarando las misas que se le han de decir y dicen, y dando orden para hacer cierta capilla en la dicha iglesia”,^([1]) claúsula cuyo tenor es el siguiente:                                                                                                                                                                                                                                                                                                                                                                                                                                                                   |                       |                       |
|                                       Cláusula testamentaria                                                                                                                                                                                                                                                                                                                                                                                                                                                                                                                                                                                                                                                                                                                                                                                                                                                                                                                                                                                                                                                                                                                                                                                           |                       |                       |
|                                       del Padre Francisco Ruiz                                                                                                                                                                                                                                                                                                                                                                                                                                                                                                                                                                                                                                                                                                                                                                                                                                                                                                                                                                                                                                                                                                                                                                                         |                       |                       |
|                                       “Iten mando que mis albaceas pidan y supliquen al Reverendísimo Obispo de Mechoacan^([2]) me haga merced de aquel [quicio]^([3])que solía ser capilla del Santísimo Sacramento y está en la iglesia mayor, a un lado de la peana^([4]) a la parte del Evangelio, para labrallo y dedicallo en capilla de Nuestra Señora de la Concepción, a quien siempre he sido devoto, para hacer allí mi enterramiento, y mis albaceas den la limosna que le pareciere a Su Señoría Reverendísima y fuere servido a la fábrica de la iglesia”.                                                                                                                                                                                                                                                                                                                                                                                                                                                                                                                                                                                                                                                                               |                       |                       |
|                                       Habida tal merced, albaceas, patrón y administrador procederán a edificar allí una “capilla lo más decente y bien obrada que se pudiere”, donde “pongan un altar con su retablo de la Concepción e imagen de Nuestra Señora de bulto, como mejor les pareciere y con tal orden que, desde el cuerpo de la iglesia, se puedan ver y oír las misas que allí se celebraren, y en esta capilla se sepulte mi cuerpo y en este altar se digan las misas, ansí cantadas de aniversario como rezadas por mi capellán que por ánima se dijeren.                                                                                                                                                                                                                                                                                                                                                                                                                                                                                                                                                                                                                                                                          |                       |                       |
|                                       “Para la celebración dellas y ornato de la dicha capilla se guarde aquí en lugar decente y seguro la caja de mi ornamento y los que más se hicieren y fueren menester, y el platón, candeleros, tijeras de plata y la cruz y relicario y imágenes atrás referidas.                                                                                                                                                                                                                                                                                                                                                                                                                                                                                                                                                                                                                                                                                                                                                                                                                                                                                                                                               |                       |                       |
|                                       “Y no habiendo lugar de dárseme el dicho lugar o edificando a la iglesia en diferente modo en que está, el patrón y capellán hagan labrar una capilla en la parte que les pareciere más decente y [...] se haga una lámpara de plata y se compre aceite para que siempre arda delante de la imagen de la Virgen gloriosa”.                                                                                                                                                                                                                                                                                                                                                                                                                                                                                                                                                                                                                                                                                                                                                                                                                                                                                       |                       |                       |
|                                       “Iten declaro que yo instituí una capellanía de dos mil pesos de principal sobre la Estancia de Montitlan y labor de La Albarrada, y nombré por capellán della a Francisco de Ávila,^([5]) mi ahijado, hijo de Francisco Hernández y de Inés Díaz, para que a título della se ordenase como más largo se contiene en la escritura que dello otorgué ante Francisco López, escribano público desta Villa.                                                                                                                                                                                                                                                                                                                                                                                                                                                                                                                                                                                                                                                                                                                                                                                                         |                       |                       |
|                                       “Es mi voluntad se añada a estos dos mil pesos otros mil pesos y que la capellanía sea de tres mil pesos de principal, que son doscientos trece pesos y siete tomines de renta, con cargo que el capellán rece por mi ánima tres misas cada semana perpetuamente: una, a la Concepción de Nuestra Señora, la otra por las Ánimas de requiem, y la otra conforme al día en que la dijere, saliendo con su responso sobre mi sepultura que, aunque en la institución de la dicha capellanía declaré se habían de decir en la Ermita de Nuestra Señora, mi voluntad es [que] se recen en la dicha capilla donde mi cuerpo ha de ser sepultado. Y en el inter que el dicho Francisco de Ávila a quien nombro capellán, es sacerdote, la sirva mi ahijado Luis Vela de Grijalba, sacerdote; y si acaso el dicho Francisco de Ávila no fuere sacerdote o faltare por muerte, ausencia o proveimiento de otro beneficio o prebenda, sea capellán que desde luego le llamo y nombro el dicho mi ahijado Luis de Grijalba. Y faltando entrambos a dos, el patrón nombre el capellán que le pareciere, con cargo que no lo pueda ser ninguno que esté proveído en beneficio o prebendado desta dicha iglesia o de otra”.   |                       |                       |
|                                       Nombro por patrón de la dicha capellanía al bachiller Álvaro de Grijalba, vicario y beneficiado desta Villa y, después de sus días, a la persona que él nombrare y así sucesivamente vayan nombrando patrón; y si alguna vez quedare sin nombrarse, el que en aquel tiempo fuere Obispo de este obispado lo sea para proveer como tal patrón, lo que convenga al nombramiento de capellán, administrador y lo demás necesario.”                                                                                                                                                                                                                                                                                                                                                                                                                                                                                                                                                                                                                                                                                                                                                                                  |                       |                       |
|                                       “Y por administrador de mis haciendas nombro a Pedro de Almodóvar,^([6]) vecino desta Villa, porque le he criado y tenido amor de hijo, al cual ruego y encargo acepte la dicha administración”.                                                                                                                                                                                                                                                                                                                                                                                                                                                                                                                                                                                                                                                                                                                                                                                                                                                                                                                                                                                                                 |                       |                       |
|                                       Por tanto, el bachiller Grijalba, como patrón que es de dicha capellanía y en virtud del poder que tiene dado por el Padre Francisco Ruiz, difunto, “señala y nombra por patrón a Andrés Ruiz, hijo de Constanza Ruiz, hermana del dicho Francisco Ruiz, difunto, y vecino que es desta dicha Villa, al cual, juntamente con el dicho nombramiento de tal patrón” y su mejor cumplimiento, le otorga todo su poder cumplido y bastante.                                                                                                                                                                                                                                                                                                                                                                                                                                                                                                                                                                                                                                                                                                                                                                          |                       |                       |
|                                       Testigos: Alonso Carrillo de Guzmán y Antonio Carrillo de Guzmán, vecinos.                                                                                                                                                                                                                                                                                                                                                                                                                                                                                                                                                                                                                                                                                                                                                                                                                                                                                                                                                                                                                                                                                                                                       |                       |                       |
|                                       Pasó ante el escribano público Toribio de Casso.                                                                                                                                                                                                                                                                                                                                                                                                                                                                                                                                                                                                                                                                                                                                                                                                                                                                                                                                                                                                                                                                                                                                                                 |                       |                       |
|                                                                                                                                                                                                                                                                                                                                                                                                                                                                                                                                                                                                                                                                                                                                                                                                                                                                                                                                                                                                                                                                                                                                                                                                                                                        |                       |                       |
|   ----------------------------------- ---------------------------------------------------------------------------------------------------------------------------------------------------------------------------------------------------------------------------------------------------------------------------------------------------------------------------------------------------------------------------------------------------------------------------------------------------------------------------------------------------------------------------------------------------------------------------------------------------------------------------------------------------------------------------------------------------------------------------------------------------------------------------------------------------------------------------------------------------------------------------------------------------------------------------------------------------------------------------------------------------------------------------------------------------------------------------------------------------------------------------------------------------------------------------------------------------------------- |                       |                       |
|                                                                                                                                                                                                                                                                                                                                                                                                                                                                                                                                                                                                                                                                                                                                                                                                                                                                                                                                                                                                                                                                                                                                                                                                                                                        |                       |                       |
| (1) Véase, supra, reg° 1013.                                                                                                                                                                                                                                                                                                                                                                                                                                                                                                                                                                                                                                                                                                                                                                                                                                                                                                                                                                                                                                                                                                                                                                                                                           |                       |                       |
|                                                                                                                                                                                                                                                                                                                                                                                                                                                                                                                                                                                                                                                                                                                                                                                                                                                                                                                                                                                                                                                                                                                                                                                                                                                        |                       |                       |
| (2) Cuando se otorgó este testamento, en 1590, la sede michoacana estaba vacante, hasta que fue trasladado el dominico fray Alonso Guerra -obispo de Río de la Plata- en 1592, quien murió en 1596: Romero de Solís, Clérigos. encomenderos, mercaderes y arrieros… (2008), 32.                                                                                                                                                                                                                                                                                                                                                                                                                                                                                                                                                                                                                                                                                                                                                                                                                                                                                                                                                                        |                       |                       |
|                                                                                                                                                                                                                                                                                                                                                                                                                                                                                                                                                                                                                                                                                                                                                                                                                                                                                                                                                                                                                                                                                                                                                                                                                                                        |                       |                       |
| (3) Así parece decir.                                                                                                                                                                                                                                                                                                                                                                                                                                                                                                                                                                                                                                                                                                                                                                                                                                                                                                                                                                                                                                                                                                                                                                                                                                  |                       |                       |
|                                                                                                                                                                                                                                                                                                                                                                                                                                                                                                                                                                                                                                                                                                                                                                                                                                                                                                                                                                                                                                                                                                                                                                                                                                                        |                       |                       |
| (4) Entre otras acepciones de la palabra peana, “tarima que hay delante del altar, arrimada a él”: Casares (1981), 631. Se entiende que el Padre Ruiz señala al lugar inmediato sobre el lado del Evangelio a la tarima del altar mayor, a saber, mirando de frente el altar mayor, a su izquierda.                                                                                                                                                                                                                                                                                                                                                                                                                                                                                                                                                                                                                                                                                                                                                                                                                                                                                                                                                    |                       |                       |
|                                                                                                                                                                                                                                                                                                                                                                                                                                                                                                                                                                                                                                                                                                                                                                                                                                                                                                                                                                                                                                                                                                                                                                                                                                                        |                       |                       |
| (5) Francisco de Ávila, vecino de Colima de la última década del siglo XVI, era hijo de los vecinos Francisco Hernández e Inés Díaz de Ocampo: Romero de Solís, Andariegos… (2001), 52.                                                                                                                                                                                                                                                                                                                                                                                                                                                                                                                                                                                                                                                                                                                                                                                                                                                                                                                                                                                                                                                                |                       |                       |
|                                                                                                                                                                                                                                                                                                                                                                                                                                                                                                                                                                                                                                                                                                                                                                                                                                                                                                                                                                                                                                                                                                                                                                                                                                                        |                       |                       |
| (6) Pedro de Almodóvar El Mozo, también nombrado Pedro López de Almodóvar El Mozo: Romero de Solís, Andariegos… (2001), 26-29.                                                                                                                                                                                                                                                                                                                                                                                                                                                                                                                                                                                                                                                                                                                                                                                                                                                                                                                                                                                                                                                                                                                         |                       |                       |
|                                                                                                                                                                                                                                                                                                                                                                                                                                                                                                                                                                                                                                                                                                                                                                                                                                                                                                                                                                                                                                                                                                                                                                                                                                                        |                       |                       |
|   ---------------------------------------------------------------------------------------------------                                                                                                                                                                                                                                                                                                                                                                                                                                                                                                                                                                                                                                                                                                                                                                                                                                                                                                                                                                                                                                                                                                                                                  |                       |                       |
|    Documento(s) original(es)                                                                                                                                                                                                                                                                                                                                                                                                                                                                                                                                                                                                                                                                                                                                                                                                                                                                                                                                                                                                                                                                                                                                                                                                                           |                       |                       |
|   --------------------------- ------- ------- ------- ------- ------- ------- ------- ------- -------                                                                                                                                                                                                                                                                                                                                                                                                                                                                                                                                                                                                                                                                                                                                                                                                                                                                                                                                                                                                                                                                                                                                                  |                       |                       |
|               []                []      []      []      []      []      []      []                                                                                                                                                                                                                                                                                                                                                                                                                                                                                                                                                                                                                                                                                                                                                                                                                                                                                                                                                                                                                                                                                                                                                                     |                       |                       |
|               42f               42v     43f     43v     44f     44v     45f     45v                                                                                                                                                                                                                                                                                                                                                                                                                                                                                                                                                                                                                                                                                                                                                                                                                                                                                                                                                                                                                                                                                                                                                                    |                       |                       |
|                                                                                                                                                                                                                                                                                                                                                                                                                                                                                                                                                                                                                                                                                                                                                                                                                                                                                                                                                                                                                                                                                                                                                                                                                                                        |                       |                       |
|   ---------------------------------------------------------------------------------------------------                                                                                                                                                                                                                                                                                                                                                                                                                                                                                                                                                                                                                                                                                                                                                                                                                                                                                                                                                                                                                                                                                                                                                  |                       |                       |
+--------------------------------------------------------------------------------------------------------------------------------------------------------------------------------------------------------------------------------------------------------------------------------------------------------------------------------------------------------------------------------------------------------------------------------------------------------------------------------------------------------------------------------------------------------------------------------------------------------------------------------------------------------------------------------------------------------------------------------------------------------------------------------------------------------------------------------------------------------------------------------------------------------------------------------------------------------------------------------------------------------------------------------------------------------------------------------------------------------------------------------------------------------------------------------------------------------------------------------------------------------+-----------------------+-----------------------+
| +----------------------------------------------------------------------------+-----------------------------------------------:+                                                                                                                                                                                                                                                                                                                                                                                                                                                                                                                                                                                                                                                                                                                                                                                                                                                                                                                                                                                                                                                                                                                        |                       |                       |
| | ISBN 978-607-701-024-1                                                     |   ---- ---- ---- ---- ---- ---- ---- ---- ---- |                                                                                                                                                                                                                                                                                                                                                                                                                                                                                                                                                                                                                                                                                                                                                                                                                                                                                                                                                                                                                                                                                                                        |                       |                       |
| | © Derechos Reservados 2013. Archivo Histórico del Municipio de Colima. [*] |   []        []        []        []        []   |                                                                                                                                                                                                                                                                                                                                                                                                                                                                                                                                                                                                                                                                                                                                                                                                                                                                                                                                                                                                                                                                                                                        |                       |                       |
| |                                                                            |   ---- ---- ---- ---- ---- ---- ---- ---- ---- |                                                                                                                                                                                                                                                                                                                                                                                                                                                                                                                                                                                                                                                                                                                                                                                                                                                                                                                                                                                                                                                                                                                        |                       |                       |
| +----------------------------------------------------------------------------+------------------------------------------------+                                                                                                                                                                                                                                                                                                                                                                                                                                                                                                                                                                                                                                                                                                                                                                                                                                                                                                                                                                                                                                                                                                                        |                       |                       |
| |                                                                            |                                                |                                                                                                                                                                                                                                                                                                                                                                                                                                                                                                                                                                                                                                                                                                                                                                                                                                                                                                                                                                                                                                                                                                                        |                       |                       |
| +----------------------------------------------------------------------------+------------------------------------------------+                                                                                                                                                                                                                                                                                                                                                                                                                                                                                                                                                                                                                                                                                                                                                                                                                                                                                                                                                                                                                                                                                                                        |                       |                       |
+--------------------------------------------------------------------------------------------------------------------------------------------------------------------------------------------------------------------------------------------------------------------------------------------------------------------------------------------------------------------------------------------------------------------------------------------------------------------------------------------------------------------------------------------------------------------------------------------------------------------------------------------------------------------------------------------------------------------------------------------------------------------------------------------------------------------------------------------------------------------------------------------------------------------------------------------------------------------------------------------------------------------------------------------------------------------------------------------------------------------------------------------------------------------------------------------------------------------------------------------------------+-----------------------+-----------------------+

636 visitas
