+----------------------------------------------------------------------------------------------------------------------------------------------------------------------------------------------------------------------------------------------------------------------------------------------------------------------------+-----------------------+-----------------------+
| []                                                                                                                                                                                                                                                                                                                         |                       |                       |
|                                                                                                                                                                                                                                                                                                                            |                       |                       |
| +-----------------------------------+:-------------------------------------:+                                                                                                                                                                                                                                              |                       |                       |
| | []                                | LA VILLA DE COLIMA DE LA NUEVA ESPAÑA |                                                                                                                                                                                                                                              |                       |                       |
| |                                   | SIGLO XVI                             |                                                                                                                                                                                                                                              |                       |                       |
| |                                   |                                       |                                                                                                                                                                                                                                              |                       |                       |
| |                                   | VOLUMEN II      (CAJAS 12-20)         |                                                                                                                                                                                                                                              |                       |                       |
| +-----------------------------------+---------------------------------------+                                                                                                                                                                                                                                              |                       |                       |
+----------------------------------------------------------------------------------------------------------------------------------------------------------------------------------------------------------------------------------------------------------------------------------------------------------------------------+-----------------------+-----------------------+
| +------------------------------------------------------------------------+-------------------------------+-----------------------+                                                                                                                                                                                         |                       |                       |
| | Inicio | Búsqueda | Siglas y bibliografía | Créditos | Más información | Vol. I (1-11) Vol. II (12-20) |    [ES]               |                                                                                                                                                                                         |                       |                       |
| +------------------------------------------------------------------------+-------------------------------+-----------------------+                                                                                                                                                                                         |                       |                       |
+----------------------------------------------------------------------------------------------------------------------------------------------------------------------------------------------------------------------------------------------------------------------------------------------------------------------------+-----------------------+-----------------------+
| Búsqueda rápida                                                                                                                                                                                                                                                                                                            |                       |                       |
|                                                                                                                                                                                                                                                                                                                            |                       |                       |
| +:-------------------:+-----------------+:----------------------------------------:+----------------:+                                                                                                                                                                                                                     |                       |                       |
| | Documento de fecha: |                 | Ubicación física del documento original: | [] [] []        |                                                                                                                                                                                                                     |                       |                       |
| |                     |                 |                                          |                 |                                                                                                                                                                                                                     |                       |                       |
| | 1598. Junio, 29     |                 | Caja 26, exp. 48, f. 74 fte.             |                 |                                                                                                                                                                                                                     |                       |                       |
| +---------------------+-----------------+------------------------------------------+-----------------+                                                                                                                                                                                                                     |                       |                       |
|                                                                                                                                                                                                                                                                                                                            |                       |                       |
|   ------------- -------------------------------------------------------------------------------------------------------------                                                                                                                                                                                              |                       |                       |
|   Resumen:      Compra de 347 potros que hace Antonio Gómez Maya, vecino de Toluca, a Cristóbal de Silva, vecino de Colima.                                                                                                                                                                                                |                       |                       |
|   ------------- -------------------------------------------------------------------------------------------------------------                                                                                                                                                                                              |                       |                       |
|                                                                                                                                                                                                                                                                                                                            |                       |                       |
|   ----------------------------------- ------------------------------------------------------------------------------------------------------------------------------------------------------------------------------------------------------------------------------------------------------------------------------------ |                       |                       |
|   Contenido:                          Antonio Gómez Maya, estante en esta Villa de Colima y vecino de la Villa de Toluca, se obliga a pagar a Cristóbal de Silva, vecino de Colima, la cantidad de 1,561 pesos y 4 tomines de oro común, por razón de 347 potros de a dos y a tres años, a 4 pesos 4 tomines cada potro.   |                       |                       |
|                                       Pagará para el día de carnestolendas del próximo año de 1599.^([1])                                                                                                                                                                                                                  |                       |                       |
|                                       Testigos: Juan Ramírez de Alarcón, Pedro de Valdés^([2]) y Andrés Fernández, vecinos y estantes.                                                                                                                                                                                     |                       |                       |
|                                       Pasó ante el escribano público Toribio de Casso.                                                                                                                                                                                                                                     |                       |                       |
|                                                                                                                                                                                                                                                                                                                            |                       |                       |
|   ----------------------------------- ------------------------------------------------------------------------------------------------------------------------------------------------------------------------------------------------------------------------------------------------------------------------------------ |                       |                       |
|                                                                                                                                                                                                                                                                                                                            |                       |                       |
| (1) Carnestolendas o carnaval, o sea, los días precedentes al miércoles de ceniza.                                                                                                                                                                                                                                         |                       |                       |
|                                                                                                                                                                                                                                                                                                                            |                       |                       |
| (2) Pedro de Valdés, vecino de Colima desde 1596, era hijo del alcalde mayor Felipe de Valdés, y casó con una hija natural del Padre Diego Ruiz, también vecino de Colima. En 1598 fue teniente de alcalde mayor: Romero de Solís, Andariegos… (2001), 564-565.                                                            |                       |                       |
|                                                                                                                                                                                                                                                                                                                            |                       |                       |
|   ---------------------------------------------------------------------------------------------------                                                                                                                                                                                                                      |                       |                       |
|    Documento(s) original(es)                                                                                                                                                                                                                                                                                               |                       |                       |
|   --------------------------- ------- ------- ------- ------- ------- ------- ------- ------- -------                                                                                                                                                                                                                      |                       |                       |
|               []                                                                                                                                                                                                                                                                                                           |                       |                       |
|               74f                                                                                                                                                                                                                                                                                                          |                       |                       |
|                                                                                                                                                                                                                                                                                                                            |                       |                       |
|   ---------------------------------------------------------------------------------------------------                                                                                                                                                                                                                      |                       |                       |
+----------------------------------------------------------------------------------------------------------------------------------------------------------------------------------------------------------------------------------------------------------------------------------------------------------------------------+-----------------------+-----------------------+
| +----------------------------------------------------------------------------+-----------------------------------------------:+                                                                                                                                                                                            |                       |                       |
| | ISBN 978-607-701-024-1                                                     |   ---- ---- ---- ---- ---- ---- ---- ---- ---- |                                                                                                                                                                                            |                       |                       |
| | © Derechos Reservados 2013. Archivo Histórico del Municipio de Colima. [*] |   []        []        []        []        []   |                                                                                                                                                                                            |                       |                       |
| |                                                                            |   ---- ---- ---- ---- ---- ---- ---- ---- ---- |                                                                                                                                                                                            |                       |                       |
| +----------------------------------------------------------------------------+------------------------------------------------+                                                                                                                                                                                            |                       |                       |
| |                                                                            |                                                |                                                                                                                                                                                            |                       |                       |
| +----------------------------------------------------------------------------+------------------------------------------------+                                                                                                                                                                                            |                       |                       |
+----------------------------------------------------------------------------------------------------------------------------------------------------------------------------------------------------------------------------------------------------------------------------------------------------------------------------+-----------------------+-----------------------+

636 visitas
