+-----------------------------------------------------------------------------------------------------------------------------------------------------------------------------------------------------------------------------------------------------------------------------------------+-----------------------+-----------------------+
| []                                                                                                                                                                                                                                                                                      |                       |                       |
|                                                                                                                                                                                                                                                                                         |                       |                       |
| +-----------------------------------+:-------------------------------------:+                                                                                                                                                                                                           |                       |                       |
| | []                                | LA VILLA DE COLIMA DE LA NUEVA ESPAÑA |                                                                                                                                                                                                           |                       |                       |
| |                                   | SIGLO XVI                             |                                                                                                                                                                                                           |                       |                       |
| |                                   |                                       |                                                                                                                                                                                                           |                       |                       |
| |                                   | VOLUMEN II      (CAJAS 12-20)         |                                                                                                                                                                                                           |                       |                       |
| +-----------------------------------+---------------------------------------+                                                                                                                                                                                                           |                       |                       |
+-----------------------------------------------------------------------------------------------------------------------------------------------------------------------------------------------------------------------------------------------------------------------------------------+-----------------------+-----------------------+
| +------------------------------------------------------------------------+-------------------------------+-----------------------+                                                                                                                                                      |                       |                       |
| | Inicio | Búsqueda | Siglas y bibliografía | Créditos | Más información | Vol. I (1-11) Vol. II (12-20) |    [ES]               |                                                                                                                                                      |                       |                       |
| +------------------------------------------------------------------------+-------------------------------+-----------------------+                                                                                                                                                      |                       |                       |
+-----------------------------------------------------------------------------------------------------------------------------------------------------------------------------------------------------------------------------------------------------------------------------------------+-----------------------+-----------------------+
| Búsqueda rápida                                                                                                                                                                                                                                                                         |                       |                       |
|                                                                                                                                                                                                                                                                                         |                       |                       |
| +:-------------------:+-----------------+:----------------------------------------:+----------------:+                                                                                                                                                                                  |                       |                       |
| | Documento de fecha: |                 | Ubicación física del documento original: | [] [] []        |                                                                                                                                                                                  |                       |                       |
| |                     |                 |                                          |                 |                                                                                                                                                                                  |                       |                       |
| | 1598. Septiembre, 6 |                 | Caja 26, exp. 74, f. 113.^([3])          |                 |                                                                                                                                                                                  |                       |                       |
| +---------------------+-----------------+------------------------------------------+-----------------+                                                                                                                                                                                  |                       |                       |
|                                                                                                                                                                                                                                                                                         |                       |                       |
|   ------------- -----------------------------------------------------------------------                                                                                                                                                                                                 |                       |                       |
|   Resumen:      Poder que otorga García Martínez a Mateo de Zárate y Jusepe de Celis.                                                                                                                                                                                                   |                       |                       |
|   ------------- -----------------------------------------------------------------------                                                                                                                                                                                                 |                       |                       |
|                                                                                                                                                                                                                                                                                         |                       |                       |
|   ----------------------------------- ------------------------------------------------------------------------------------------------------------------------------------------------------------------------------------------------------------------------------------------------- |                       |                       |
|   Contenido:                          García Martínez, alférez real de la Villa de Colima, otorgó todo su poder a Mateo de Zárate,^([1]) vecino de la Ciudad de México, y a Jusepe de Celis,^([2]) procurador de la Audiencia Real della y a cada uno y cualquiera dellos in solidum.   |                       |                       |
|                                       Testigos fueron: el alcalde ordinario Cristóbal Hernández de Tene, Juan Fernández de Tene y el Padre Martín de Heredia, Beneficiado de esta Villa, vecinos.                                                                                       |                       |                       |
|                                       Pasó ante el escribano público Toribio de Casso.                                                                                                                                                                                                  |                       |                       |
|                                                                                                                                                                                                                                                                                         |                       |                       |
|   ----------------------------------- ------------------------------------------------------------------------------------------------------------------------------------------------------------------------------------------------------------------------------------------------- |                       |                       |
|                                                                                                                                                                                                                                                                                         |                       |                       |
| (1) El mercader de la Ciudad de México Mateo de Zárate, a la sazón estante en la Villa de Colima, tuvo lazos comerciales con varios vecinos de esta Villa: Romero de Solís, Andariegos… (2001), 616-617.                                                                                |                       |                       |
|                                                                                                                                                                                                                                                                                         |                       |                       |
| (2) De Jusepe o José de Celis, procurador en la Real Audiencia de México, sólo tenemos esta referencia.                                                                                                                                                                                 |                       |                       |
|                                                                                                                                                                                                                                                                                         |                       |                       |
| (3) El texto del poder está impreso y escritos a mano los datos específicos.                                                                                                                                                                                                            |                       |                       |
|                                                                                                                                                                                                                                                                                         |                       |                       |
|   ---------------------------------------------------------------------------------------------------                                                                                                                                                                                   |                       |                       |
|    Documento(s) original(es)                                                                                                                                                                                                                                                            |                       |                       |
|   --------------------------- ------- ------- ------- ------- ------- ------- ------- ------- -------                                                                                                                                                                                   |                       |                       |
|               []                []                                                                                                                                                                                                                                                      |                       |                       |
|              113f              113v                                                                                                                                                                                                                                                     |                       |                       |
|                                                                                                                                                                                                                                                                                         |                       |                       |
|   ---------------------------------------------------------------------------------------------------                                                                                                                                                                                   |                       |                       |
+-----------------------------------------------------------------------------------------------------------------------------------------------------------------------------------------------------------------------------------------------------------------------------------------+-----------------------+-----------------------+
| +----------------------------------------------------------------------------+-----------------------------------------------:+                                                                                                                                                         |                       |                       |
| | ISBN 978-607-701-024-1                                                     |   ---- ---- ---- ---- ---- ---- ---- ---- ---- |                                                                                                                                                         |                       |                       |
| | © Derechos Reservados 2013. Archivo Histórico del Municipio de Colima. [*] |   []        []        []        []        []   |                                                                                                                                                         |                       |                       |
| |                                                                            |   ---- ---- ---- ---- ---- ---- ---- ---- ---- |                                                                                                                                                         |                       |                       |
| +----------------------------------------------------------------------------+------------------------------------------------+                                                                                                                                                         |                       |                       |
| |                                                                            |                                                |                                                                                                                                                         |                       |                       |
| +----------------------------------------------------------------------------+------------------------------------------------+                                                                                                                                                         |                       |                       |
+-----------------------------------------------------------------------------------------------------------------------------------------------------------------------------------------------------------------------------------------------------------------------------------------+-----------------------+-----------------------+

636 visitas
