+----------------------------------------------------------------------------------------------------------------------------------------------------------------------------------------------------------------------------------------------------------------------------------------------------------------------------------------------------------------------------------------------------------------------------------------------------------------------------------------------------------------------------------------------------------------------------------------------------------------------------------------------------------------------------------------------------------+-----------------------+-----------------------+
| []                                                                                                                                                                                                                                                                                                                                                                                                                                                                                                                                                                                                                                                                                                       |                       |                       |
|                                                                                                                                                                                                                                                                                                                                                                                                                                                                                                                                                                                                                                                                                                          |                       |                       |
| +-----------------------------------+:-------------------------------------:+                                                                                                                                                                                                                                                                                                                                                                                                                                                                                                                                                                                                                            |                       |                       |
| | []                                | LA VILLA DE COLIMA DE LA NUEVA ESPAÑA |                                                                                                                                                                                                                                                                                                                                                                                                                                                                                                                                                                                                                            |                       |                       |
| |                                   | SIGLO XVI                             |                                                                                                                                                                                                                                                                                                                                                                                                                                                                                                                                                                                                                            |                       |                       |
| |                                   |                                       |                                                                                                                                                                                                                                                                                                                                                                                                                                                                                                                                                                                                                            |                       |                       |
| |                                   | VOLUMEN II      (CAJAS 12-20)         |                                                                                                                                                                                                                                                                                                                                                                                                                                                                                                                                                                                                                            |                       |                       |
| +-----------------------------------+---------------------------------------+                                                                                                                                                                                                                                                                                                                                                                                                                                                                                                                                                                                                                            |                       |                       |
+----------------------------------------------------------------------------------------------------------------------------------------------------------------------------------------------------------------------------------------------------------------------------------------------------------------------------------------------------------------------------------------------------------------------------------------------------------------------------------------------------------------------------------------------------------------------------------------------------------------------------------------------------------------------------------------------------------+-----------------------+-----------------------+
| +------------------------------------------------------------------------+-------------------------------+-----------------------+                                                                                                                                                                                                                                                                                                                                                                                                                                                                                                                                                                       |                       |                       |
| | Inicio | Búsqueda | Siglas y bibliografía | Créditos | Más información | Vol. I (1-11) Vol. II (12-20) |    [ES]               |                                                                                                                                                                                                                                                                                                                                                                                                                                                                                                                                                                       |                       |                       |
| +------------------------------------------------------------------------+-------------------------------+-----------------------+                                                                                                                                                                                                                                                                                                                                                                                                                                                                                                                                                                       |                       |                       |
+----------------------------------------------------------------------------------------------------------------------------------------------------------------------------------------------------------------------------------------------------------------------------------------------------------------------------------------------------------------------------------------------------------------------------------------------------------------------------------------------------------------------------------------------------------------------------------------------------------------------------------------------------------------------------------------------------------+-----------------------+-----------------------+
| Búsqueda rápida                                                                                                                                                                                                                                                                                                                                                                                                                                                                                                                                                                                                                                                                                          |                       |                       |
|                                                                                                                                                                                                                                                                                                                                                                                                                                                                                                                                                                                                                                                                                                          |                       |                       |
| +:-------------------:+-----------------+:----------------------------------------:+----------------:+                                                                                                                                                                                                                                                                                                                                                                                                                                                                                                                                                                                                   |                       |                       |
| | Documento de fecha: |                 | Ubicación física del documento original: | [] [] []        |                                                                                                                                                                                                                                                                                                                                                                                                                                                                                                                                                                                                   |                       |                       |
| |                     |                 |                                          |                 |                                                                                                                                                                                                                                                                                                                                                                                                                                                                                                                                                                                                   |                       |                       |
| | 1597. Agosto, 30    |                 | Caja 26, exp. 83, 14 ff.^([7])           |                 |                                                                                                                                                                                                                                                                                                                                                                                                                                                                                                                                                                                                   |                       |                       |
| +---------------------+-----------------+------------------------------------------+-----------------+                                                                                                                                                                                                                                                                                                                                                                                                                                                                                                                                                                                                   |                       |                       |
|                                                                                                                                                                                                                                                                                                                                                                                                                                                                                                                                                                                                                                                                                                          |                       |                       |
|   ------------- -------------------------------------------------------------------------------------------------------------------------------                                                                                                                                                                                                                                                                                                                                                                                                                                                                                                                                                          |                       |                       |
|   Resumen:      Diego Mexía de la Torre reclama la tutela de sus sobrinos, hijos de Hernando de Solórzano, su hermano, y Francisca de Monroy.                                                                                                                                                                                                                                                                                                                                                                                                                                                                                                                                                            |                       |                       |
|   ------------- -------------------------------------------------------------------------------------------------------------------------------                                                                                                                                                                                                                                                                                                                                                                                                                                                                                                                                                          |                       |                       |
|                                                                                                                                                                                                                                                                                                                                                                                                                                                                                                                                                                                                                                                                                                          |                       |                       |
|   ----------------------------------- ------------------------------------------------------------------------------------------------------------------------------------------------------------------------------------------------------------------------------------------------------------------------------------------------------------------------------------------------------------------------------------------------------------------------------------------------------------------------------------------------------------------------------------------------------------------------------------------------------------------------------------------------------------------ |                       |                       |
|   Contenido:                          Ante el Justicia Mayor don Antonio Enríquez, el vecino de Colima Diego Mejía^([1]) de la Torre dijo que, habiendo fallecido, su hermano Hernando de Solórzano dejó tres hijos menores -a saber: Antonio,^([2]) Hernando y Cristóbal^([3])-, habidos durante su matrimonio con doña Francisca de Monroy, quien luego también murió.                                                                                                                                                                                                                                                                                                                                 |                       |                       |
|                                       Ésta, “en el testamento debaxo cuya dispuciçion murió, por ser los dichos sus hijos y del dicho mi hermano menores, me nombró y señaló por su tutor y curador de sus personas y bienes”.                                                                                                                                                                                                                                                                                                                                                                                                                                                                           |                       |                       |
|                                       Sin embargo, a pesar de ser por la dicha cláusula su legítimo tutor “y por no ser esto notorio a la Justicia, en perjuicio de los dichos menores, [ésta] nombró por su curador a Cristóbal Hernández de Tene, el cual, en perjuicio de los dichos bienes, ha pedido se le vendan cierta estancia y ganados”.                                                                                                                                                                                                                                                                                                                                                       |                       |                       |
|                                       Diego Mejía de la Torre pide ser declarado tutor y curador de los dichos menores y anular el nombramiento discernido en favor de Cristóbal Hernández de Tene, así como los diversos actos realizados por éste “en lo tocante a los bienes de los dichos menores”.                                                                                                                                                                                                                                                                                                                                                                                                  |                       |                       |
|                                       El 3 de septiembre, por un nuevo escrito, Diego Mejía de la Torre decía que en respuesta a su demanda, Cristóbal Hernández de Tene alegaba que “yo lo hacía por ser deudor a los dichos mis sobrinos” y “por escureser [sic]^([4]) cierta venta de estancia que mi hermano Hernando de Solórzano, que Dios haya, me hizo y que, por estas causas, no debo ser yo tutor de los dichos mis sobrinos”.                                                                                                                                                                                                                                                                |                       |                       |
|                                       Respondiendo a ello, Diego Mejía de la Torre decía que él les tenía hecha escritura de obligación del dicho censo a sus sobrinos y que, por el contrario, Cristóbal Hernández de Tene “les dejó rematar unas casas que valían seiscientos pesos por trescientos y cincuenta, todo por dalla a un deudo suyo, y hará rematar la estancia [...]entre sus amigos”, pues “ha venido a mi noticia que [...] quiere vender la dicha estancia y hace traer en pregones con las vacas de hierro que hay en la dicha estancia”.                                                                                                                                             |                       |                       |
|                                       El 22 de abril de 1598 y ante el alcalde Felipe de Valdés, Diego Mejía de la Torre como “tutor y curador de las personas y bienes de Antonio, y Hernando y Cristóbal de Solórzano, menores hijos y herederos de Hernando de Solórzano, mi hermano, y de doña Francisca de Monroy, sus padres difuntos”, decía que en la administración de los bienes de sus menores “entendieron Diego Pérez de Espinosa como albacea de la dicha difunta, y Cristóbal Hernández de Tene como curador dellos, y el uno y el otro tienen obligación a darme cuenta lo que fue a su cargo, y yo pueda recebir en administración lo que fuere y perteneciere a los dichos menores”.   |                       |                       |
|                                       Pide se les notifique que “me den la dicha cuenta con pago y me entreguen todos los bienes, títulos, recaudos, papeles y escrituras que pertenezcan a los dichos menores, para que yo me pueda hacer cargo con claridad jurídicamente, y pido justicia”.                                                                                                                                                                                                                                                                                                                                                                                                           |                       |                       |
|                                       Al día siguiente y ante el escribano Toribio de Casso, Diego Mejía de la Torre otorgaba en su nombre y en el de los menores poder cumplido y bastante al bachiller Juan Rodríguez Santiago, vecino de esta Villa.                                                                                                                                                                                                                                                                                                                                                                                                                                                  |                       |                       |
|                                       Testigos a ello fueron los vecinos Juan de Aguilar,^([5]) Juan de Monroy y Juan de la Vega.                                                                                                                                                                                                                                                                                                                                                                                                                                                                                                                                                                        |                       |                       |
|                                       Diego Pérez de Espinosa, a propósito de dar cuentas “del albaceazgo de doña Francisca de Monroy”, respondió que, “a pedimiento de Cristóbal Hernández de Tene, como tutor y curador que a la sazón era, yo las di ante don Antonio Enríquez, Justicia Mayor que fue desta Villa, y en las dichas cuentas alcancé en muchos pesos de oro que yo había gastado y pagado por mandamientos y recaudos que presenté, como de las cuentas y autos parecerán y sólo no entregué los papeles por no habérseme pedido, los cuales traigo ante V.m. para darlos y entregarlos por el dicho inventario, porque de lo demás estoy dado por libre”.                             |                       |                       |
|                                       En foja suelta, se lee en el anverso: “Carta de pago de Cristóbal de Silva de siete apreciaduras^([6]) de potros y potrancas de los menores”.                                                                                                                                                                                                                                                                                                                                                                                                                                                                                                                      |                       |                       |
|                                       Y a la vuelta: “Recibí del señor Diego Mejía de la Torre, tutor de los hijos de Hernando de Solórzano y de doña Francisca, dos pesos y dos tomines de las siete apreciaduras de potros y potrancas del año de noventa y siete [1597] del diezmo.                                                                                                                                                                                                                                                                                                                                                                                                                   |                       |                       |
|                                       [Rúbrica].Cristóbal de Silva”.                                                                                                                                                                                                                                                                                                                                                                                                                                                                                                                                                                                                                                     |                       |                       |
|                                                                                                                                                                                                                                                                                                                                                                                                                                                                                                                                                                                                                                                                                                          |                       |                       |
|   ----------------------------------- ------------------------------------------------------------------------------------------------------------------------------------------------------------------------------------------------------------------------------------------------------------------------------------------------------------------------------------------------------------------------------------------------------------------------------------------------------------------------------------------------------------------------------------------------------------------------------------------------------------------------------------------------------------------ |                       |                       |
|                                                                                                                                                                                                                                                                                                                                                                                                                                                                                                                                                                                                                                                                                                          |                       |                       |
| (1) A la letra, Mexía.                                                                                                                                                                                                                                                                                                                                                                                                                                                                                                                                                                                                                                                                                   |                       |                       |
|                                                                                                                                                                                                                                                                                                                                                                                                                                                                                                                                                                                                                                                                                                          |                       |                       |
| (2) El vecino de Colima Antonio de Solórzano casó con Mariana de Moscoso, hija de Juan de Salinas y Leonor de Moscoso: Romero de Solís, Andariegos… (2001), 525-526.                                                                                                                                                                                                                                                                                                                                                                                                                                                                                                                                     |                       |                       |
|                                                                                                                                                                                                                                                                                                                                                                                                                                                                                                                                                                                                                                                                                                          |                       |                       |
| (3) Cristóbal de Solórzano El Mozo, a fines de la primera década del siglo XVII, casó con Francisca de Nava, hija de Antonio Carrillo de Guzmán y María de Grijalba, viuda de Joaquín Jiménez: Romero de Solís, Andariegos… (2001), 526.                                                                                                                                                                                                                                                                                                                                                                                                                                                                 |                       |                       |
|                                                                                                                                                                                                                                                                                                                                                                                                                                                                                                                                                                                                                                                                                                          |                       |                       |
| (4) El verbo escurecer está documentado por Boyd-Bowman (1971), 370.                                                                                                                                                                                                                                                                                                                                                                                                                                                                                                                                                                                                                                     |                       |                       |
|                                                                                                                                                                                                                                                                                                                                                                                                                                                                                                                                                                                                                                                                                                          |                       |                       |
| (5) Juan de Aguilar Solórzano El Mozo.                                                                                                                                                                                                                                                                                                                                                                                                                                                                                                                                                                                                                                                                   |                       |                       |
|                                                                                                                                                                                                                                                                                                                                                                                                                                                                                                                                                                                                                                                                                                          |                       |                       |
| (6) Apreciadura, de “apreciar” o “poner precio”: Casares (1981), 63; véase, Boyd-Bowman (1971), 73.                                                                                                                                                                                                                                                                                                                                                                                                                                                                                                                                                                                                      |                       |                       |
|                                                                                                                                                                                                                                                                                                                                                                                                                                                                                                                                                                                                                                                                                                          |                       |                       |
| (7) Muy deterioradas las ff. 1-8.                                                                                                                                                                                                                                                                                                                                                                                                                                                                                                                                                                                                                                                                        |                       |                       |
|                                                                                                                                                                                                                                                                                                                                                                                                                                                                                                                                                                                                                                                                                                          |                       |                       |
|   ---------------------------------------------------------------------------------------------------                                                                                                                                                                                                                                                                                                                                                                                                                                                                                                                                                                                                    |                       |                       |
|    Documento(s) original(es)                                                                                                                                                                                                                                                                                                                                                                                                                                                                                                                                                                                                                                                                             |                       |                       |
|   --------------------------- ------- ------- ------- ------- ------- ------- ------- ------- -------                                                                                                                                                                                                                                                                                                                                                                                                                                                                                                                                                                                                    |                       |                       |
|               []                []      []      []      []      []      []      []      []      []                                                                                                                                                                                                                                                                                                                                                                                                                                                                                                                                                                                                       |                       |                       |
|               1f                1v      2f      3f      3v      4f      5f      6f      6v      7f                                                                                                                                                                                                                                                                                                                                                                                                                                                                                                                                                                                                       |                       |                       |
|                                                                                                                                                                                                                                                                                                                                                                                                                                                                                                                                                                                                                                                                                                          |                       |                       |
|               []                []      []      []      []      []      []      []      []      []                                                                                                                                                                                                                                                                                                                                                                                                                                                                                                                                                                                                       |                       |                       |
|               8f                8v      9f      9v      10f     10v     11f     11v     12f     13f                                                                                                                                                                                                                                                                                                                                                                                                                                                                                                                                                                                                      |                       |                       |
|                                                                                                                                                                                                                                                                                                                                                                                                                                                                                                                                                                                                                                                                                                          |                       |                       |
|               []                []                                                                                                                                                                                                                                                                                                                                                                                                                                                                                                                                                                                                                                                                       |                       |                       |
|               14f               14v                                                                                                                                                                                                                                                                                                                                                                                                                                                                                                                                                                                                                                                                      |                       |                       |
|   ---------------------------------------------------------------------------------------------------                                                                                                                                                                                                                                                                                                                                                                                                                                                                                                                                                                                                    |                       |                       |
+----------------------------------------------------------------------------------------------------------------------------------------------------------------------------------------------------------------------------------------------------------------------------------------------------------------------------------------------------------------------------------------------------------------------------------------------------------------------------------------------------------------------------------------------------------------------------------------------------------------------------------------------------------------------------------------------------------+-----------------------+-----------------------+
| +----------------------------------------------------------------------------+-----------------------------------------------:+                                                                                                                                                                                                                                                                                                                                                                                                                                                                                                                                                                          |                       |                       |
| | ISBN 978-607-701-024-1                                                     |   ---- ---- ---- ---- ---- ---- ---- ---- ---- |                                                                                                                                                                                                                                                                                                                                                                                                                                                                                                                                                                          |                       |                       |
| | © Derechos Reservados 2013. Archivo Histórico del Municipio de Colima. [*] |   []        []        []        []        []   |                                                                                                                                                                                                                                                                                                                                                                                                                                                                                                                                                                          |                       |                       |
| |                                                                            |   ---- ---- ---- ---- ---- ---- ---- ---- ---- |                                                                                                                                                                                                                                                                                                                                                                                                                                                                                                                                                                          |                       |                       |
| +----------------------------------------------------------------------------+------------------------------------------------+                                                                                                                                                                                                                                                                                                                                                                                                                                                                                                                                                                          |                       |                       |
| |                                                                            |                                                |                                                                                                                                                                                                                                                                                                                                                                                                                                                                                                                                                                          |                       |                       |
| +----------------------------------------------------------------------------+------------------------------------------------+                                                                                                                                                                                                                                                                                                                                                                                                                                                                                                                                                                          |                       |                       |
+----------------------------------------------------------------------------------------------------------------------------------------------------------------------------------------------------------------------------------------------------------------------------------------------------------------------------------------------------------------------------------------------------------------------------------------------------------------------------------------------------------------------------------------------------------------------------------------------------------------------------------------------------------------------------------------------------------+-----------------------+-----------------------+

636 visitas
