+----------------------------------------------------------------------------------------------------------------------------------------------------------------------------------------------------------------------------------------------------------------------------------------------------------------------------------------------------------------------------------------------------------------------------------------------------------------------------------------------------------------------------------------------------------------------------------------------------------------------------------------------------------------------------------------------------------------------------------------------------------------------------------------------------------------------------------------------------------------------------------------------------------------------------------------------------------------------------------------------------------------------------------------------------------------------------------------------+-----------------------+-----------------------+
| []                                                                                                                                                                                                                                                                                                                                                                                                                                                                                                                                                                                                                                                                                                                                                                                                                                                                                                                                                                                                                                                                                           |                       |                       |
|                                                                                                                                                                                                                                                                                                                                                                                                                                                                                                                                                                                                                                                                                                                                                                                                                                                                                                                                                                                                                                                                                              |                       |                       |
| +-----------------------------------+:-------------------------------------:+                                                                                                                                                                                                                                                                                                                                                                                                                                                                                                                                                                                                                                                                                                                                                                                                                                                                                                                                                                                                                |                       |                       |
| | []                                | LA VILLA DE COLIMA DE LA NUEVA ESPAÑA |                                                                                                                                                                                                                                                                                                                                                                                                                                                                                                                                                                                                                                                                                                                                                                                                                                                                                                                                                                                                                |                       |                       |
| |                                   | SIGLO XVI                             |                                                                                                                                                                                                                                                                                                                                                                                                                                                                                                                                                                                                                                                                                                                                                                                                                                                                                                                                                                                                                |                       |                       |
| |                                   |                                       |                                                                                                                                                                                                                                                                                                                                                                                                                                                                                                                                                                                                                                                                                                                                                                                                                                                                                                                                                                                                                |                       |                       |
| |                                   | VOLUMEN II      (CAJAS 12-20)         |                                                                                                                                                                                                                                                                                                                                                                                                                                                                                                                                                                                                                                                                                                                                                                                                                                                                                                                                                                                                                |                       |                       |
| +-----------------------------------+---------------------------------------+                                                                                                                                                                                                                                                                                                                                                                                                                                                                                                                                                                                                                                                                                                                                                                                                                                                                                                                                                                                                                |                       |                       |
+----------------------------------------------------------------------------------------------------------------------------------------------------------------------------------------------------------------------------------------------------------------------------------------------------------------------------------------------------------------------------------------------------------------------------------------------------------------------------------------------------------------------------------------------------------------------------------------------------------------------------------------------------------------------------------------------------------------------------------------------------------------------------------------------------------------------------------------------------------------------------------------------------------------------------------------------------------------------------------------------------------------------------------------------------------------------------------------------+-----------------------+-----------------------+
| +------------------------------------------------------------------------+-------------------------------+-----------------------+                                                                                                                                                                                                                                                                                                                                                                                                                                                                                                                                                                                                                                                                                                                                                                                                                                                                                                                                                           |                       |                       |
| | Inicio | Búsqueda | Siglas y bibliografía | Créditos | Más información | Vol. I (1-11) Vol. II (12-20) |    [ES]               |                                                                                                                                                                                                                                                                                                                                                                                                                                                                                                                                                                                                                                                                                                                                                                                                                                                                                                                                                           |                       |                       |
| +------------------------------------------------------------------------+-------------------------------+-----------------------+                                                                                                                                                                                                                                                                                                                                                                                                                                                                                                                                                                                                                                                                                                                                                                                                                                                                                                                                                           |                       |                       |
+----------------------------------------------------------------------------------------------------------------------------------------------------------------------------------------------------------------------------------------------------------------------------------------------------------------------------------------------------------------------------------------------------------------------------------------------------------------------------------------------------------------------------------------------------------------------------------------------------------------------------------------------------------------------------------------------------------------------------------------------------------------------------------------------------------------------------------------------------------------------------------------------------------------------------------------------------------------------------------------------------------------------------------------------------------------------------------------------+-----------------------+-----------------------+
| Búsqueda rápida                                                                                                                                                                                                                                                                                                                                                                                                                                                                                                                                                                                                                                                                                                                                                                                                                                                                                                                                                                                                                                                                              |                       |                       |
|                                                                                                                                                                                                                                                                                                                                                                                                                                                                                                                                                                                                                                                                                                                                                                                                                                                                                                                                                                                                                                                                                              |                       |                       |
| +:-------------------:+-----------------+:----------------------------------------:+----------------:+                                                                                                                                                                                                                                                                                                                                                                                                                                                                                                                                                                                                                                                                                                                                                                                                                                                                                                                                                                                       |                       |                       |
| | Documento de fecha: |                 | Ubicación física del documento original: | [] [] []        |                                                                                                                                                                                                                                                                                                                                                                                                                                                                                                                                                                                                                                                                                                                                                                                                                                                                                                                                                                                       |                       |                       |
| |                     |                 |                                          |                 |                                                                                                                                                                                                                                                                                                                                                                                                                                                                                                                                                                                                                                                                                                                                                                                                                                                                                                                                                                                       |                       |                       |
| | 1597. Diciembre, 18 |                 | Caja 26, exp. 86, 22 ff.^([7])           |                 |                                                                                                                                                                                                                                                                                                                                                                                                                                                                                                                                                                                                                                                                                                                                                                                                                                                                                                                                                                                       |                       |                       |
| +---------------------+-----------------+------------------------------------------+-----------------+                                                                                                                                                                                                                                                                                                                                                                                                                                                                                                                                                                                                                                                                                                                                                                                                                                                                                                                                                                                       |                       |                       |
|                                                                                                                                                                                                                                                                                                                                                                                                                                                                                                                                                                                                                                                                                                                                                                                                                                                                                                                                                                                                                                                                                              |                       |                       |
|   ------------- --------------------------------------------------------------------------------------------------------------------------------------------------------------------------------------------------------                                                                                                                                                                                                                                                                                                                                                                                                                                                                                                                                                                                                                                                                                                                                                                                                                                                                     |                       |                       |
|   Resumen:      De oficio, contra Alonso Ximénez, Joaquín Ximénez y Antonio Carrillo de Guzmán, sobre haber hecho resistencia a la Real Justicia viniendo tras de Juan Cuello para le prender en esta Villa de Colima.                                                                                                                                                                                                                                                                                                                                                                                                                                                                                                                                                                                                                                                                                                                                                                                                                                                                       |                       |                       |
|   ------------- --------------------------------------------------------------------------------------------------------------------------------------------------------------------------------------------------------                                                                                                                                                                                                                                                                                                                                                                                                                                                                                                                                                                                                                                                                                                                                                                                                                                                                     |                       |                       |
|                                                                                                                                                                                                                                                                                                                                                                                                                                                                                                                                                                                                                                                                                                                                                                                                                                                                                                                                                                                                                                                                                              |                       |                       |
|   ----------------------------------- ------------------------------------------------------------------------------------------------------------------------------------------------------------------------------------------------------------------------------------------------------------------------------------------------------------------------------------------------------------------------------------------------------------------------------------------------------------------------------------------------------------------------------------------------------------------------------------------------------------------------------------------------------------------------------------------------------------------------------------------------------------------------------------------------------------------------------------------------------------------------------------------------------------------------------------------------------------------------------------------------------------------------------------------------------ |                       |                       |
|   Contenido:                          “Juan Fernández de Tene, regidor y alcalde ordinario de Colima, dijo que por cuanto hoy [...], habrá media hora poco más o menos, se le descomedió Juan Cuello”,^([1]) cuando le quiso “prender por una pendencia que tenía en su presencia con Gaspar Román, vecino desta Villa, estando presente el teniente de la Justicia Mayor della”.^([2])                                                                                                                                                                                                                                                                                                                                                                                                                                                                                                                                                                                                                                                                                                      |                       |                       |
|                                       Agrega que Cuello “echó mano contra el dicho alcalde ordinario a su espada y con ella en la mano [...], echó a huir derecho a la iglesia y, en el camino, salió Alonso Jiménez,^([3]) y echó mano a la espada, y no sólo no lo detuvo a dicho Juan Cuello pero echó mano contra el dicho alcalde”.                                                                                                                                                                                                                                                                                                                                                                                                                                                                                                                                                                                                                                                                                                                                                     |                       |                       |
|                                       Mandó hacer información.                                                                                                                                                                                                                                                                                                                                                                                                                                                                                                                                                                                                                                                                                                                                                                                                                                                                                                                                                                                                                               |                       |                       |
|                                       Información                                                                                                                                                                                                                                                                                                                                                                                                                                                                                                                                                                                                                                                                                                                                                                                                                                                                                                                                                                                                                                            |                       |                       |
|                                       Juan Ruiz de Ribera, bajo juramento, declaró que “estando este testigo en el patio de las casas de Cristóbal de Silva, oyó ruido y alboroto grande” en la calle. “Este testigo entendió que era pendencia de negros”. Salió afuera y vio luego a Pedro Gómez Machorro, teniente de Justicia Mayor, y a Juan Fernández de Tene, regidor y alcalde ordinario, “que estaban tratando paz entre Gaspar Román y Juan Cuello, que eran los que reñían”. Vio que el alcalde Fernández de Tene mandó a Juan Cuello que se acercase, “y como vio que no venía, dijo: «Negros, echalde [sic] mano ahí», y «Aquí del Rey, acudan». Y llegándose al dicho Juan Cuello el dicho alcalde ordinario y un negro de Gaspar Román,^([4]) el dicho Juan Cuello echó mano a la espada y la desenvainó, y se tuvo y hizo defensa con ella, y tiró una cuchillada al dicho negro, el cual se hizo a un lado y la dejó caer, y revolvió huyendo con su espada desenvainada en la mano y yendo el dicho alcalde tras de él y el dicho teniente apellidando: «Aquí del Rey».    |                       |                       |
|                                       “En llegando a la esquina de la Plaza -agrega Ruiz de Ribera-, de las casas de Alonso Carrillo salieron de golpe cinco o seis hombres, el uno fue Alonso Jiménez y Joaquín Jiménez y Antonio Carrillo y otras personas”. Alonso Jiménez echó mano a su espada y dejó pasar huyendo al dicho Juan Cello y detuvo al dicho alcalde ordinario allí, quedándose todos allí parados, dando voces todos ellos, y el dicho alcalde ordinario dijo: «Seánme testigos que echa mano contra la Justicia». Luego llegó allí el dicho teniente y les dijo que se fueran a sus casas, pues se lo habían mandado, que se haría justicia al que la pidiese y a esto respondieron todos a una e dijeron: «Váyase él nora mala». Pero este testigo no sabe cuál lo dijo distintamente. Y en este interim el dicho Cuello se fue corriendo a la iglesia y se metió en ella”. El alcalde ordinario se retiró entonces a las casas de la morada de este testigo; Alonso y Joaquín Jiménez se retiraron y Antonio Carrillo “le vio venir con el dicho alcalde ordinario”.   |                       |                       |
|                                       Pedro Moreno, negro de Gaspar Román, dijo que esta mañana saliendo su amo Gaspar Román de su casa a la misa, “vio que estaba allí una india acechando en su casa”. Gaspar Román mandó a este testigo “la metiese dentro de su casa, que quería saber qué era”. Luego, “estando Gaspar Román en su casa, le dijeron que Juan Cuello andaba en la calle buscando a la dicha india, y luego que lo supo, salió a la calle y viendo en ella al dicho Juan Cuello le dijo: «¿Qué es, señor Cuello, rondando la casa para buscar una india?». A lo cual respondió el dicho Juan Cuello: «Señor, yo no rondo la casa ni busco india, y cuando la buscara, la sacaba». Y en esto el dicho Gaspar Román se fue hacia el dicho Juan Cuello y llegó Pedro Gómez Machorro, teniente, y Juan Fernández de Tene, alcalde ordinario, y los apartaron y le mandaron al dicho Juan Cuello se fuese de allí.                                                                                                                                                             |                       |                       |
|                                       “Y luego dijo ciertas palabras el dicho Juan Cuello, por lo cual el dicho alcalde ordinario le mandó prender al dicho Juan Cuello, y mirando a este testigo, el dicho Juan Cuello echó a huir hacia la Plaza. Y llegando a la esquina de Cristóbal de Silva, el dicho Juan Cuello echó mano a la espada contra este testigo y le tiró una estocada, y este testigo dejó caer el capote y se salvó della, y el dicho echó a huir”.                                                                                                                                                                                                                                                                                                                                                                                                                                                                                                                                                                                                                      |                       |                       |
|                                       Este testigo y el alcalde ordinario fueron tras él “y en llegando a la esquina de Alonso Carrillo, que es a la entrada de la Plaza, salió allí Antonio Carrillo y Joaquín Jiménez y Alonso Jiménez, y desde la dicha esquina, se vinieron hacia el dicho alcalde ordinario que iba gritando a voces: «Aquí del Rey, prendan a [...]».^([5]) Y le dejaron pasar. Y el dicho Alonso Jiménez echó mano a la espada, viniendo derecho al dicho alcalde ordinario”. Juan Cuello “se fue la calle arriba hacia la iglesia y se volvió este testigo de allí por el alboroto que allí había”.                                                                                                                                                                                                                                                                                                                                                                                                                                                                  |                       |                       |
|                                       Vista la información, Juan Fernández de Tene dio mandamiento de prisión contra Antonio Carrillo, Joaquín Jiménez y Alonso Jiménez, pero como a éste lo prendió el teniente Gómez Machorro, ordenó “se le requiera [para que] se lo remita, atento a que es primer juez desta causa”.                                                                                                                                                                                                                                                                                                                                                                                                                                                                                                                                                                                                                                                                                                                                                                   |                       |                       |
|                                       Notificado Gómez Machorro contestó que “no tenía preso a Alonso Jiménez” y que “por ver que es mozo y había alborotado en la Plaza, para evitar que no hubiera más, le mandó tener la casa de Joaquín Jiménez, su hermano, por cárcel”.                                                                                                                                                                                                                                                                                                                                                                                                                                                                                                                                                                                                                                                                                                                                                                                                                |                       |                       |
|                                       Acto seguido, se dio mandamiento contra Alonso Jiménez y Juan Cuello “para ponerlos en la cárcel pública desta Villa, y contra Antonio Carrillo y Joaquín Jiménez, para ponerlos en las Casas del Cabildo por cárcel”.^([6])                                                                                                                                                                                                                                                                                                                                                                                                                                                                                                                                                                                                                                                                                                                                                                                                                           |                       |                       |
|                                       El 19 de diciembre, Antonio Carrillo, Joaquín y Alonso Jiménez, declaraban: “Tenemos a V.m. por odioso y sospechoso en las causas porque nos tiene presos, por causas que aclararemos a su tiempo”.                                                                                                                                                                                                                                                                                                                                                                                                                                                                                                                                                                                                                                                                                                                                                                                                                                                    |                       |                       |
|                                       El alcalde Juan Fernández de Tene respondió que estaba presto de acompañarse. Luego, dijo que se acompañaba con Diego Pérez de Espinosa, y le mandó que se presentara y “acepte y jure, según derecho”.                                                                                                                                                                                                                                                                                                                                                                                                                                                                                                                                                                                                                                                                                                                                                                                                                                                |                       |                       |
|                                       El 24 de diciembre de 1597, el alcalde Alonso García Nomparte dictó sentencia condenando a Alonso Jiménez en 3 pesos de oro y a dos meses de destierro de esta Villa de Colima y a una legua a la redonda de ella, y en las armas con que dilinquió; y a Antonio Carrillo de Guzmán y Joaquín Jiménez, en tres pesos de oro.                                                                                                                                                                                                                                                                                                                                                                                                                                                                                                                                                                                                                                                                                                                           |                       |                       |
|                                       El mismo día, los presos apelaron ante Pedro Gómez Machorro, teniente de Justicia Mayor, de la sentencia dictada por Alonso García Nomparte.                                                                                                                                                                                                                                                                                                                                                                                                                                                                                                                                                                                                                                                                                                                                                                                                                                                                                                           |                       |                       |
|                                       De inmediato, Gómez Machorro recibió la apelación y dictó sentencia: condenaba a Alonso Jiménez a cuatro pesos, la mitad para la Cámara de Su Majestad, y la otra, para la obra de las Casas Reales; y a Antonio Carrillo y Joaquín Jiménez, los absolvía, pero a todos tres los condenaba a las costas del proceso.                                                                                                                                                                                                                                                                                                                                                                                                                                                                                                                                                                                                                                                                                                                                   |                       |                       |
|                                                                                                                                                                                                                                                                                                                                                                                                                                                                                                                                                                                                                                                                                                                                                                                                                                                                                                                                                                                                                                                                                              |                       |                       |
|   ----------------------------------- ------------------------------------------------------------------------------------------------------------------------------------------------------------------------------------------------------------------------------------------------------------------------------------------------------------------------------------------------------------------------------------------------------------------------------------------------------------------------------------------------------------------------------------------------------------------------------------------------------------------------------------------------------------------------------------------------------------------------------------------------------------------------------------------------------------------------------------------------------------------------------------------------------------------------------------------------------------------------------------------------------------------------------------------------------ |                       |                       |
|                                                                                                                                                                                                                                                                                                                                                                                                                                                                                                                                                                                                                                                                                                                                                                                                                                                                                                                                                                                                                                                                                              |                       |                       |
| (1) O Juan Coello, vecino de Colima: Romero de Solís, Andariegos… (2001), 116-117.                                                                                                                                                                                                                                                                                                                                                                                                                                                                                                                                                                                                                                                                                                                                                                                                                                                                                                                                                                                                           |                       |                       |
|                                                                                                                                                                                                                                                                                                                                                                                                                                                                                                                                                                                                                                                                                                                                                                                                                                                                                                                                                                                                                                                                                              |                       |                       |
| (2) Lo era a la sazón Pedro Gómez Machorro como se asegura más adelante; véase: Romero de Solís, Conquistas e instituciones de gobierno… (2007), 231.                                                                                                                                                                                                                                                                                                                                                                                                                                                                                                                                                                                                                                                                                                                                                                                                                                                                                                                                        |                       |                       |
|                                                                                                                                                                                                                                                                                                                                                                                                                                                                                                                                                                                                                                                                                                                                                                                                                                                                                                                                                                                                                                                                                              |                       |                       |
| (3) A la letra, Ximénez. El vecino de Colima Alonso Jiménez era tal vez hijo del también vecino y encomendero Martín Jiménez, y hermano de Joaquín Jiménez y Juan Jiménez El Mozo: Romero de Solís, Andariegos… (2001), 227.                                                                                                                                                                                                                                                                                                                                                                                                                                                                                                                                                                                                                                                                                                                                                                                                                                                                 |                       |                       |
|                                                                                                                                                                                                                                                                                                                                                                                                                                                                                                                                                                                                                                                                                                                                                                                                                                                                                                                                                                                                                                                                                              |                       |                       |
| (4) Este negro que se llamaba Pedro Moreno como se precisa en su declaración, está registrado en: Romero de Solís, Padrón de negros… (2007), 17, n° 215.                                                                                                                                                                                                                                                                                                                                                                                                                                                                                                                                                                                                                                                                                                                                                                                                                                                                                                                                     |                       |                       |
|                                                                                                                                                                                                                                                                                                                                                                                                                                                                                                                                                                                                                                                                                                                                                                                                                                                                                                                                                                                                                                                                                              |                       |                       |
| (5) Está roto el papel.                                                                                                                                                                                                                                                                                                                                                                                                                                                                                                                                                                                                                                                                                                                                                                                                                                                                                                                                                                                                                                                                      |                       |                       |
|                                                                                                                                                                                                                                                                                                                                                                                                                                                                                                                                                                                                                                                                                                                                                                                                                                                                                                                                                                                                                                                                                              |                       |                       |
| (6) Desconocemos el motivo para que a unos se les pusiera en la cárcel pública y a otros en las Casas Reales, ya que no fungían en ese año de 1597 oficio alguno en la Justicia y Regimiento de la Villa: Romero de Solís, Conquistas e instituciones de gobierno… (2007), 342.                                                                                                                                                                                                                                                                                                                                                                                                                                                                                                                                                                                                                                                                                                                                                                                                              |                       |                       |
|                                                                                                                                                                                                                                                                                                                                                                                                                                                                                                                                                                                                                                                                                                                                                                                                                                                                                                                                                                                                                                                                                              |                       |                       |
| (7) Algunas fojas están deterioradas.                                                                                                                                                                                                                                                                                                                                                                                                                                                                                                                                                                                                                                                                                                                                                                                                                                                                                                                                                                                                                                                        |                       |                       |
|                                                                                                                                                                                                                                                                                                                                                                                                                                                                                                                                                                                                                                                                                                                                                                                                                                                                                                                                                                                                                                                                                              |                       |                       |
|   ---------------------------------------------------------------------------------------------------                                                                                                                                                                                                                                                                                                                                                                                                                                                                                                                                                                                                                                                                                                                                                                                                                                                                                                                                                                                        |                       |                       |
|    Documento(s) original(es)                                                                                                                                                                                                                                                                                                                                                                                                                                                                                                                                                                                                                                                                                                                                                                                                                                                                                                                                                                                                                                                                 |                       |                       |
|   --------------------------- ------- ------- ------- ------- ------- ------- ------- ------- -------                                                                                                                                                                                                                                                                                                                                                                                                                                                                                                                                                                                                                                                                                                                                                                                                                                                                                                                                                                                        |                       |                       |
|               []                []      []      []      []      []      []      []      []      []                                                                                                                                                                                                                                                                                                                                                                                                                                                                                                                                                                                                                                                                                                                                                                                                                                                                                                                                                                                           |                       |                       |
|               1f                1v      2f      2v      3f      3v      4f      5f      6f      7f                                                                                                                                                                                                                                                                                                                                                                                                                                                                                                                                                                                                                                                                                                                                                                                                                                                                                                                                                                                           |                       |                       |
|                                                                                                                                                                                                                                                                                                                                                                                                                                                                                                                                                                                                                                                                                                                                                                                                                                                                                                                                                                                                                                                                                              |                       |                       |
|               []                []      []      []      []      []      []      []      []      []                                                                                                                                                                                                                                                                                                                                                                                                                                                                                                                                                                                                                                                                                                                                                                                                                                                                                                                                                                                           |                       |                       |
|               7v                8f      8v      9f      9v      10f     10v     11f     11v     12f                                                                                                                                                                                                                                                                                                                                                                                                                                                                                                                                                                                                                                                                                                                                                                                                                                                                                                                                                                                          |                       |                       |
|                                                                                                                                                                                                                                                                                                                                                                                                                                                                                                                                                                                                                                                                                                                                                                                                                                                                                                                                                                                                                                                                                              |                       |                       |
|               []                []      []      []      []      []      []      []      []      []                                                                                                                                                                                                                                                                                                                                                                                                                                                                                                                                                                                                                                                                                                                                                                                                                                                                                                                                                                                           |                       |                       |
|               12v               13f     13v     14f     14v     15f     15v     16f     16v     17f                                                                                                                                                                                                                                                                                                                                                                                                                                                                                                                                                                                                                                                                                                                                                                                                                                                                                                                                                                                          |                       |                       |
|                                                                                                                                                                                                                                                                                                                                                                                                                                                                                                                                                                                                                                                                                                                                                                                                                                                                                                                                                                                                                                                                                              |                       |                       |
|               []                []      []      []      []      []      []      []      []      []                                                                                                                                                                                                                                                                                                                                                                                                                                                                                                                                                                                                                                                                                                                                                                                                                                                                                                                                                                                           |                       |                       |
|               17v               18f     18v     19f     19v     20f     20v     21f     21v     22f                                                                                                                                                                                                                                                                                                                                                                                                                                                                                                                                                                                                                                                                                                                                                                                                                                                                                                                                                                                          |                       |                       |
|   ---------------------------------------------------------------------------------------------------                                                                                                                                                                                                                                                                                                                                                                                                                                                                                                                                                                                                                                                                                                                                                                                                                                                                                                                                                                                        |                       |                       |
+----------------------------------------------------------------------------------------------------------------------------------------------------------------------------------------------------------------------------------------------------------------------------------------------------------------------------------------------------------------------------------------------------------------------------------------------------------------------------------------------------------------------------------------------------------------------------------------------------------------------------------------------------------------------------------------------------------------------------------------------------------------------------------------------------------------------------------------------------------------------------------------------------------------------------------------------------------------------------------------------------------------------------------------------------------------------------------------------+-----------------------+-----------------------+
| +----------------------------------------------------------------------------+-----------------------------------------------:+                                                                                                                                                                                                                                                                                                                                                                                                                                                                                                                                                                                                                                                                                                                                                                                                                                                                                                                                                              |                       |                       |
| | ISBN 978-607-701-024-1                                                     |   ---- ---- ---- ---- ---- ---- ---- ---- ---- |                                                                                                                                                                                                                                                                                                                                                                                                                                                                                                                                                                                                                                                                                                                                                                                                                                                                                                                                                              |                       |                       |
| | © Derechos Reservados 2013. Archivo Histórico del Municipio de Colima. [*] |   []        []        []        []        []   |                                                                                                                                                                                                                                                                                                                                                                                                                                                                                                                                                                                                                                                                                                                                                                                                                                                                                                                                                              |                       |                       |
| |                                                                            |   ---- ---- ---- ---- ---- ---- ---- ---- ---- |                                                                                                                                                                                                                                                                                                                                                                                                                                                                                                                                                                                                                                                                                                                                                                                                                                                                                                                                                              |                       |                       |
| +----------------------------------------------------------------------------+------------------------------------------------+                                                                                                                                                                                                                                                                                                                                                                                                                                                                                                                                                                                                                                                                                                                                                                                                                                                                                                                                                              |                       |                       |
| |                                                                            |                                                |                                                                                                                                                                                                                                                                                                                                                                                                                                                                                                                                                                                                                                                                                                                                                                                                                                                                                                                                                              |                       |                       |
| +----------------------------------------------------------------------------+------------------------------------------------+                                                                                                                                                                                                                                                                                                                                                                                                                                                                                                                                                                                                                                                                                                                                                                                                                                                                                                                                                              |                       |                       |
+----------------------------------------------------------------------------------------------------------------------------------------------------------------------------------------------------------------------------------------------------------------------------------------------------------------------------------------------------------------------------------------------------------------------------------------------------------------------------------------------------------------------------------------------------------------------------------------------------------------------------------------------------------------------------------------------------------------------------------------------------------------------------------------------------------------------------------------------------------------------------------------------------------------------------------------------------------------------------------------------------------------------------------------------------------------------------------------------+-----------------------+-----------------------+

636 visitas
