+-------------------------------------------------------------------------------------------------------------------------------------------------------------------------------------------------------------------------------------------------------------------------------------------------------------------------------------------------------------------------------------------------------------------------------------------------------------------------------------------------------------------------------------------------------------------------------------------------------------------------------------------------------------------------------------------------------------------------------------------------+-----------------------+-----------------------+
| []                                                                                                                                                                                                                                                                                                                                                                                                                                                                                                                                                                                                                                                                                                                                              |                       |                       |
|                                                                                                                                                                                                                                                                                                                                                                                                                                                                                                                                                                                                                                                                                                                                                 |                       |                       |
| +-----------------------------------+:-------------------------------------:+                                                                                                                                                                                                                                                                                                                                                                                                                                                                                                                                                                                                                                                                   |                       |                       |
| | []                                | LA VILLA DE COLIMA DE LA NUEVA ESPAÑA |                                                                                                                                                                                                                                                                                                                                                                                                                                                                                                                                                                                                                                                                   |                       |                       |
| |                                   | SIGLO XVI                             |                                                                                                                                                                                                                                                                                                                                                                                                                                                                                                                                                                                                                                                                   |                       |                       |
| |                                   |                                       |                                                                                                                                                                                                                                                                                                                                                                                                                                                                                                                                                                                                                                                                   |                       |                       |
| |                                   | VOLUMEN II      (CAJAS 12-20)         |                                                                                                                                                                                                                                                                                                                                                                                                                                                                                                                                                                                                                                                                   |                       |                       |
| +-----------------------------------+---------------------------------------+                                                                                                                                                                                                                                                                                                                                                                                                                                                                                                                                                                                                                                                                   |                       |                       |
+-------------------------------------------------------------------------------------------------------------------------------------------------------------------------------------------------------------------------------------------------------------------------------------------------------------------------------------------------------------------------------------------------------------------------------------------------------------------------------------------------------------------------------------------------------------------------------------------------------------------------------------------------------------------------------------------------------------------------------------------------+-----------------------+-----------------------+
| +------------------------------------------------------------------------+-------------------------------+-----------------------+                                                                                                                                                                                                                                                                                                                                                                                                                                                                                                                                                                                                              |                       |                       |
| | Inicio | Búsqueda | Siglas y bibliografía | Créditos | Más información | Vol. I (1-11) Vol. II (12-20) |    [ES]               |                                                                                                                                                                                                                                                                                                                                                                                                                                                                                                                                                                                                              |                       |                       |
| +------------------------------------------------------------------------+-------------------------------+-----------------------+                                                                                                                                                                                                                                                                                                                                                                                                                                                                                                                                                                                                              |                       |                       |
+-------------------------------------------------------------------------------------------------------------------------------------------------------------------------------------------------------------------------------------------------------------------------------------------------------------------------------------------------------------------------------------------------------------------------------------------------------------------------------------------------------------------------------------------------------------------------------------------------------------------------------------------------------------------------------------------------------------------------------------------------+-----------------------+-----------------------+
| Búsqueda rápida                                                                                                                                                                                                                                                                                                                                                                                                                                                                                                                                                                                                                                                                                                                                 |                       |                       |
|                                                                                                                                                                                                                                                                                                                                                                                                                                                                                                                                                                                                                                                                                                                                                 |                       |                       |
| +:-------------------:+-----------------+:----------------------------------------:+----------------:+                                                                                                                                                                                                                                                                                                                                                                                                                                                                                                                                                                                                                                          |                       |                       |
| | Documento de fecha: |                 | Ubicación física del documento original: | [] [] []        |                                                                                                                                                                                                                                                                                                                                                                                                                                                                                                                                                                                                                                          |                       |                       |
| |                     |                 |                                          |                 |                                                                                                                                                                                                                                                                                                                                                                                                                                                                                                                                                                                                                                          |                       |                       |
| | 1561. Junio, 9      |                 | Caja 26, exp. 99, ff. 32-42.             |                 |                                                                                                                                                                                                                                                                                                                                                                                                                                                                                                                                                                                                                                          |                       |                       |
| +---------------------+-----------------+------------------------------------------+-----------------+                                                                                                                                                                                                                                                                                                                                                                                                                                                                                                                                                                                                                                          |                       |                       |
|                                                                                                                                                                                                                                                                                                                                                                                                                                                                                                                                                                                                                                                                                                                                                 |                       |                       |
|   ------------- ------------------------------------------------------------------------------------------------------------------------------------------------------------                                                                                                                                                                                                                                                                                                                                                                                                                                                                                                                                                                    |                       |                       |
|   Resumen:      Pedro de Vivanco reclama la parte de herencia que le corresponde a su mujer Catalina de Arévalo, según concierto suscrito por Francisco Preciado, difunto.                                                                                                                                                                                                                                                                                                                                                                                                                                                                                                                                                                      |                       |                       |
|   ------------- ------------------------------------------------------------------------------------------------------------------------------------------------------------                                                                                                                                                                                                                                                                                                                                                                                                                                                                                                                                                                    |                       |                       |
|                                                                                                                                                                                                                                                                                                                                                                                                                                                                                                                                                                                                                                                                                                                                                 |                       |                       |
|   ----------------------------------- --------------------------------------------------------------------------------------------------------------------------------------------------------------------------------------------------------------------------------------------------------------------------------------------------------------------------------------------------------------------------------------------------------------------------------------------------------------------------------------------------------------------------------------------------------------------------------------------------------------------------------------------------------------------------------------------------------- |                       |                       |
|   Contenido:                          Ante el alcalde mayor Diego Núñez de Guzmán, “Pedro de Vivanco, en nombre e como conjunta persona que soy de Catalina de Arévalo, mi legítima mujer, parezco ante V.m. y digo que Francisco Preciado, difunto, por vía de concierto y transacción, se concertó conmigo y con la dicha Catalina de Arévalo, mi mujer, sobre ciertos pleitos que entre nosotros se trataba; y entre otras condiciones fue una en el dicho concierto que, después de sus días del dicho Francisco Preciado, sucediese la dicha Catalina de Arévalo, mi mujer, en la parte igual que les cupiese como a cada uno de los herederos que dejase, según consta por el dicho concierto y transacción, de que hago presentación”.   |                       |                       |
|                                       Por tanto, concluía Vivanco, “pido a V.m., en los dichos nombres, me mande entregar y meter en posesión en tanta parte de los bienes del dicho difunto, como le puede caber y pertenecer a cada uno de los dichos herederos”.                                                                                                                                                                                                                                                                                                                                                                                                                                                                             |                       |                       |
|                                       El alcalde mayor ordenó notificar de esta petición a los herederos de Francisco Preciado.                                                                                                                                                                                                                                                                                                                                                                                                                                                                                                                                                                                                                 |                       |                       |
|                                       El escribano Diego Veedor, de este modo, notificó a Juan de Segovia, vecino de esta Villa de Colima, como marido y conjunta persona de María de Arévalo, siendo testigos Francisco Pérez y Pedro de Bobadilla.                                                                                                                                                                                                                                                                                                                                                                                                                                                                                            |                       |                       |
|                                       También fue notificado Juan Núñez de Alvarado, marido y conjunta persona de Isabel de Arévalo, siendo testigos Hernando de Grijalba y el licenciado Monroy.                                                                                                                                                                                                                                                                                                                                                                                                                                                                                                                                               |                       |                       |
|                                       Fue notificado también Juan Preciado, siendo testigos Alonso Miguel y Pedro de Figueroa.                                                                                                                                                                                                                                                                                                                                                                                                                                                                                                                                                                                                                  |                       |                       |
|                                       No pudo ser hallado Pedro de Granada, tutor y curador de los menores hijos de Francisco Preciado, porque “no está en esta Villa”, según asegura Pedro de Vivanco en nuevo escrito al alcalde mayor.                                                                                                                                                                                                                                                                                                                                                                                                                                                                                                       |                       |                       |
|                                       Pero agrega: “en ella reside Juan de Segovia, que tiene su poder”. Por lo cual, “a Su Señoría pido y suplico le mande parecer ante sí y le mande que con juramento declare si es verdad y si ha usado del dicho poder; y declarado, V.m. le mande le notifiquen el auto y autos desta causa”.                                                                                                                                                                                                                                                                                                                                                                                                             |                       |                       |
|                                       Así lo dispuso el alcalde mayor.                                                                                                                                                                                                                                                                                                                                                                                                                                                                                                                                                                                                                                                                          |                       |                       |
|                                       Se anexa carta poder otorgada por Pedro de Granada, vecino de Colima, tutor y curador de las personas y bienes de los menores hijos de Francisco Preciado, en favor de Juan de Segovia; dicho poder fue dado en la Villa de Colima el 25 de julio de 1559, siendo testigos de ello los vecinos Diego de Almodóvar, Juan Núñez de Alvarado y Juan Ladrillero.^([1])                                                                                                                                                                                                                                                                                                                                        |                       |                       |
|                                       Pasó ante Juan de Iniesta,^([2]) escribano nombrado.                                                                                                                                                                                                                                                                                                                                                                                                                                                                                                                                                                                                                                                      |                       |                       |
|                                       El alcalde mayor mandó a las partes a hacer “balance de la dicha herencia que quedó del dicho difunto y se le acuda al dicho Pedro de Vivanco con la parte que le pertenece como a heredero por su mujer”.                                                                                                                                                                                                                                                                                                                                                                                                                                                                                                |                       |                       |
|                                       No obstante, los alegatos de Juan de Segovia y Pedro de Granada y la apelación interpuesta, el alcalde mayor se afirmó en su auto, y las partes se asentaron “e se hizo balance de los bienes que quedaron del dicho Francisco Preciado, en la forma e manera siguiente”.^([3])                                                                                                                                                                                                                                                                                                                                                                                                                           |                       |                       |
|                                       La parte de Catalina de Arévalo fue valuada, por una primera partida, en 531 pesos y un tomín; más, 36 pesos; sumando un total de 567 pesos y un tomín.                                                                                                                                                                                                                                                                                                                                                                                                                                                                                                                                                   |                       |                       |
|                                                                                                                                                                                                                                                                                                                                                                                                                                                                                                                                                                                                                                                                                                                                                 |                       |                       |
|   ----------------------------------- --------------------------------------------------------------------------------------------------------------------------------------------------------------------------------------------------------------------------------------------------------------------------------------------------------------------------------------------------------------------------------------------------------------------------------------------------------------------------------------------------------------------------------------------------------------------------------------------------------------------------------------------------------------------------------------------------------- |                       |                       |
|                                                                                                                                                                                                                                                                                                                                                                                                                                                                                                                                                                                                                                                                                                                                                 |                       |                       |
| (1) Así aparece escrito en la carta poder; se trata del vecino Juan Fernández Ladrillero.                                                                                                                                                                                                                                                                                                                                                                                                                                                                                                                                                                                                                                                       |                       |                       |
|                                                                                                                                                                                                                                                                                                                                                                                                                                                                                                                                                                                                                                                                                                                                                 |                       |                       |
| (2) Se trata de Juan de Iniesta El Mozo.                                                                                                                                                                                                                                                                                                                                                                                                                                                                                                                                                                                                                                                                                                        |                       |                       |
|                                                                                                                                                                                                                                                                                                                                                                                                                                                                                                                                                                                                                                                                                                                                                 |                       |                       |
| (3) El monto global de la herencia por repartir quedó calculada en 12,234 pesos, 5 tomines y 10 granos de oro, tocando a los seis herederos e hijos legítimos de Francisco Preciado y Elvira de Arévalo, la mitad de los mismos, a saber: 6,117 pesos, 3 tomines y 3 granos de oro. La otra mitad de la masa hereditaria corresponde a los hijos de su anterior mujer, Luisa Gómez, vecinos de Molina de Aragón: Romero de Solís, Andariegos… (2001), 172.                                                                                                                                                                                                                                                                                      |                       |                       |
|                                                                                                                                                                                                                                                                                                                                                                                                                                                                                                                                                                                                                                                                                                                                                 |                       |                       |
|   ---------------------------------------------------------------------------------------------------                                                                                                                                                                                                                                                                                                                                                                                                                                                                                                                                                                                                                                           |                       |                       |
|    Documento(s) original(es)                                                                                                                                                                                                                                                                                                                                                                                                                                                                                                                                                                                                                                                                                                                    |                       |                       |
|   --------------------------- ------- ------- ------- ------- ------- ------- ------- ------- -------                                                                                                                                                                                                                                                                                                                                                                                                                                                                                                                                                                                                                                           |                       |                       |
|               []                []      []      []      []      []      []      []      []      []                                                                                                                                                                                                                                                                                                                                                                                                                                                                                                                                                                                                                                              |                       |                       |
|               32f               32v     33f     33v     34f     34v     35f     35v     36f     36v                                                                                                                                                                                                                                                                                                                                                                                                                                                                                                                                                                                                                                             |                       |                       |
|                                                                                                                                                                                                                                                                                                                                                                                                                                                                                                                                                                                                                                                                                                                                                 |                       |                       |
|               []                []      []      []      []      []      []      []      []      []                                                                                                                                                                                                                                                                                                                                                                                                                                                                                                                                                                                                                                              |                       |                       |
|               37f               37v     38f     39f     39v     40f     40v     41f     41v     42f                                                                                                                                                                                                                                                                                                                                                                                                                                                                                                                                                                                                                                             |                       |                       |
|                                                                                                                                                                                                                                                                                                                                                                                                                                                                                                                                                                                                                                                                                                                                                 |                       |                       |
|               []                                                                                                                                                                                                                                                                                                                                                                                                                                                                                                                                                                                                                                                                                                                                |                       |                       |
|               42v                                                                                                                                                                                                                                                                                                                                                                                                                                                                                                                                                                                                                                                                                                                               |                       |                       |
|   ---------------------------------------------------------------------------------------------------                                                                                                                                                                                                                                                                                                                                                                                                                                                                                                                                                                                                                                           |                       |                       |
+-------------------------------------------------------------------------------------------------------------------------------------------------------------------------------------------------------------------------------------------------------------------------------------------------------------------------------------------------------------------------------------------------------------------------------------------------------------------------------------------------------------------------------------------------------------------------------------------------------------------------------------------------------------------------------------------------------------------------------------------------+-----------------------+-----------------------+
| +----------------------------------------------------------------------------+-----------------------------------------------:+                                                                                                                                                                                                                                                                                                                                                                                                                                                                                                                                                                                                                 |                       |                       |
| | ISBN 978-607-701-024-1                                                     |   ---- ---- ---- ---- ---- ---- ---- ---- ---- |                                                                                                                                                                                                                                                                                                                                                                                                                                                                                                                                                                                                                 |                       |                       |
| | © Derechos Reservados 2013. Archivo Histórico del Municipio de Colima. [*] |   []        []        []        []        []   |                                                                                                                                                                                                                                                                                                                                                                                                                                                                                                                                                                                                                 |                       |                       |
| |                                                                            |   ---- ---- ---- ---- ---- ---- ---- ---- ---- |                                                                                                                                                                                                                                                                                                                                                                                                                                                                                                                                                                                                                 |                       |                       |
| +----------------------------------------------------------------------------+------------------------------------------------+                                                                                                                                                                                                                                                                                                                                                                                                                                                                                                                                                                                                                 |                       |                       |
| |                                                                            |                                                |                                                                                                                                                                                                                                                                                                                                                                                                                                                                                                                                                                                                                 |                       |                       |
| +----------------------------------------------------------------------------+------------------------------------------------+                                                                                                                                                                                                                                                                                                                                                                                                                                                                                                                                                                                                                 |                       |                       |
+-------------------------------------------------------------------------------------------------------------------------------------------------------------------------------------------------------------------------------------------------------------------------------------------------------------------------------------------------------------------------------------------------------------------------------------------------------------------------------------------------------------------------------------------------------------------------------------------------------------------------------------------------------------------------------------------------------------------------------------------------+-----------------------+-----------------------+

636 visitas
