+-----------------------------------------------------------------------------------------------------------------------------------------------------------------------------------------------------------------------------------------------------------------------------------------------------------------------------------------------------------------------------------+-----------------------+-----------------------+
| []                                                                                                                                                                                                                                                                                                                                                                                |                       |                       |
|                                                                                                                                                                                                                                                                                                                                                                                   |                       |                       |
| +-----------------------------------+:-------------------------------------:+                                                                                                                                                                                                                                                                                                     |                       |                       |
| | []                                | LA VILLA DE COLIMA DE LA NUEVA ESPAÑA |                                                                                                                                                                                                                                                                                                     |                       |                       |
| |                                   | SIGLO XVI                             |                                                                                                                                                                                                                                                                                                     |                       |                       |
| |                                   |                                       |                                                                                                                                                                                                                                                                                                     |                       |                       |
| |                                   | VOLUMEN II      (CAJAS 12-20)         |                                                                                                                                                                                                                                                                                                     |                       |                       |
| +-----------------------------------+---------------------------------------+                                                                                                                                                                                                                                                                                                     |                       |                       |
+-----------------------------------------------------------------------------------------------------------------------------------------------------------------------------------------------------------------------------------------------------------------------------------------------------------------------------------------------------------------------------------+-----------------------+-----------------------+
| +------------------------------------------------------------------------+-------------------------------+-----------------------+                                                                                                                                                                                                                                                |                       |                       |
| | Inicio | Búsqueda | Siglas y bibliografía | Créditos | Más información | Vol. I (1-11) Vol. II (12-20) |    [ES]               |                                                                                                                                                                                                                                                |                       |                       |
| +------------------------------------------------------------------------+-------------------------------+-----------------------+                                                                                                                                                                                                                                                |                       |                       |
+-----------------------------------------------------------------------------------------------------------------------------------------------------------------------------------------------------------------------------------------------------------------------------------------------------------------------------------------------------------------------------------+-----------------------+-----------------------+
| Búsqueda rápida                                                                                                                                                                                                                                                                                                                                                                   |                       |                       |
|                                                                                                                                                                                                                                                                                                                                                                                   |                       |                       |
| +:-------------------:+-----------------+:----------------------------------------:+----------------:+                                                                                                                                                                                                                                                                            |                       |                       |
| | Documento de fecha: |                 | Ubicación física del documento original: | [] [] []        |                                                                                                                                                                                                                                                                            |                       |                       |
| |                     |                 |                                          |                 |                                                                                                                                                                                                                                                                            |                       |                       |
| | 1564. Mayo, 10      |                 | Caja 26, exp. 99, ff. 66-75.             |                 |                                                                                                                                                                                                                                                                            |                       |                       |
| +---------------------+-----------------+------------------------------------------+-----------------+                                                                                                                                                                                                                                                                            |                       |                       |
|                                                                                                                                                                                                                                                                                                                                                                                   |                       |                       |
|   ------------- --------------------------------------------------------------------------------------------------------                                                                                                                                                                                                                                                          |                       |                       |
|   Resumen:      Juan Núñez de Alvarado da cuentas de la tutela y curaduría de los menores hijos de Francisco Preciado.                                                                                                                                                                                                                                                            |                       |                       |
|   ------------- --------------------------------------------------------------------------------------------------------                                                                                                                                                                                                                                                          |                       |                       |
|                                                                                                                                                                                                                                                                                                                                                                                   |                       |                       |
|   ----------------------------------- ------------------------------------------------------------------------------------------------------------------------------------------------------------------------------------------------------------------------------------------------------------------------------------------------------------------------------------------- |                       |                       |
|   Contenido:                          El alcalde ordinario de la Villa de Colima Luis de Grijalba dijo que “por cuanto Juan Núñez, vecino desta Villa, ha sido el tutor de los menores hijos de Francisco Preciado, difunto, más de un año, e no ha dado cuenta, e porque conviene a los dichos menores el dicho Juan Núñez la dé con pago”, mandó que así el tutor lo hiciera.   |                       |                       |
|                                       El escribano de Su Majestad Juan Gómez de Segovia^([1]) así se lo notificó, quien respondió que estaba presto de hacerlo.                                                                                                                                                                                                                   |                       |                       |
|                                       Testigos fueron los vecinos Bernaldino Cola y Diego Veedor.                                                                                                                                                                                                                                                                                 |                       |                       |
|                                       Luego, el alcalde Luis de Grijalba dispuso que Diego Veedor fuera tutor de los dichos menores para las tales cuentas, lo cual éste aceptó.                                                                                                                                                                                                  |                       |                       |
|                                       Juan Núñez presentó cuentas.                                                                                                                                                                                                                                                                                                                |                       |                       |
|                                       Cargos y descargos.                                                                                                                                                                                                                                                                                                                         |                       |                       |
|                                                                                                                                                                                                                                                                                                                                                                                   |                       |                       |
|   ----------------------------------- ------------------------------------------------------------------------------------------------------------------------------------------------------------------------------------------------------------------------------------------------------------------------------------------------------------------------------------------- |                       |                       |
|                                                                                                                                                                                                                                                                                                                                                                                   |                       |                       |
| (1) Por lo general es nombrado Juan de Segovia.                                                                                                                                                                                                                                                                                                                                   |                       |                       |
|                                                                                                                                                                                                                                                                                                                                                                                   |                       |                       |
|   ---------------------------------------------------------------------------------------------------                                                                                                                                                                                                                                                                             |                       |                       |
|    Documento(s) original(es)                                                                                                                                                                                                                                                                                                                                                      |                       |                       |
|   --------------------------- ------- ------- ------- ------- ------- ------- ------- ------- -------                                                                                                                                                                                                                                                                             |                       |                       |
|               []                []      []      []      []      []      []      []      []      []                                                                                                                                                                                                                                                                                |                       |                       |
|               66f               66v     67f     67v     68f     68v     69f     69v     70f     70v                                                                                                                                                                                                                                                                               |                       |                       |
|                                                                                                                                                                                                                                                                                                                                                                                   |                       |                       |
|               []                []      []      []      []      []      []      []      []      []                                                                                                                                                                                                                                                                                |                       |                       |
|               71f               71v     72f     72v     73f     73v     74f     74v     75f     75v                                                                                                                                                                                                                                                                               |                       |                       |
|   ---------------------------------------------------------------------------------------------------                                                                                                                                                                                                                                                                             |                       |                       |
+-----------------------------------------------------------------------------------------------------------------------------------------------------------------------------------------------------------------------------------------------------------------------------------------------------------------------------------------------------------------------------------+-----------------------+-----------------------+
| +----------------------------------------------------------------------------+-----------------------------------------------:+                                                                                                                                                                                                                                                   |                       |                       |
| | ISBN 978-607-701-024-1                                                     |   ---- ---- ---- ---- ---- ---- ---- ---- ---- |                                                                                                                                                                                                                                                   |                       |                       |
| | © Derechos Reservados 2013. Archivo Histórico del Municipio de Colima. [*] |   []        []        []        []        []   |                                                                                                                                                                                                                                                   |                       |                       |
| |                                                                            |   ---- ---- ---- ---- ---- ---- ---- ---- ---- |                                                                                                                                                                                                                                                   |                       |                       |
| +----------------------------------------------------------------------------+------------------------------------------------+                                                                                                                                                                                                                                                   |                       |                       |
| |                                                                            |                                                |                                                                                                                                                                                                                                                   |                       |                       |
| +----------------------------------------------------------------------------+------------------------------------------------+                                                                                                                                                                                                                                                   |                       |                       |
+-----------------------------------------------------------------------------------------------------------------------------------------------------------------------------------------------------------------------------------------------------------------------------------------------------------------------------------------------------------------------------------+-----------------------+-----------------------+

636 visitas
