+--------------------------------------------------------------------------------------------------------------------------------------------------------------------------------------------------------------------------------------------------------------------------------------------------------------------------------------------------------------------------------------------------------------------------------------------------------------------------------------------------------------------------------------------------------------------------------------------------------------------------------------------------------------------------------------------------------------------------------------------------------------------------------------------------------------------------------------------------------------------------------------------------------------------------------------------------------------------------------------------------------------------------------------------------------------+-----------------------+-----------------------+
| []                                                                                                                                                                                                                                                                                                                                                                                                                                                                                                                                                                                                                                                                                                                                                                                                                                                                                                                                                                                                                                                           |                       |                       |
|                                                                                                                                                                                                                                                                                                                                                                                                                                                                                                                                                                                                                                                                                                                                                                                                                                                                                                                                                                                                                                                              |                       |                       |
| +-----------------------------------+:-------------------------------------:+                                                                                                                                                                                                                                                                                                                                                                                                                                                                                                                                                                                                                                                                                                                                                                                                                                                                                                                                                                                |                       |                       |
| | []                                | LA VILLA DE COLIMA DE LA NUEVA ESPAÑA |                                                                                                                                                                                                                                                                                                                                                                                                                                                                                                                                                                                                                                                                                                                                                                                                                                                                                                                                                                                |                       |                       |
| |                                   | SIGLO XVI                             |                                                                                                                                                                                                                                                                                                                                                                                                                                                                                                                                                                                                                                                                                                                                                                                                                                                                                                                                                                                |                       |                       |
| |                                   |                                       |                                                                                                                                                                                                                                                                                                                                                                                                                                                                                                                                                                                                                                                                                                                                                                                                                                                                                                                                                                                |                       |                       |
| |                                   | VOLUMEN II      (CAJAS 12-20)         |                                                                                                                                                                                                                                                                                                                                                                                                                                                                                                                                                                                                                                                                                                                                                                                                                                                                                                                                                                                |                       |                       |
| +-----------------------------------+---------------------------------------+                                                                                                                                                                                                                                                                                                                                                                                                                                                                                                                                                                                                                                                                                                                                                                                                                                                                                                                                                                                |                       |                       |
+--------------------------------------------------------------------------------------------------------------------------------------------------------------------------------------------------------------------------------------------------------------------------------------------------------------------------------------------------------------------------------------------------------------------------------------------------------------------------------------------------------------------------------------------------------------------------------------------------------------------------------------------------------------------------------------------------------------------------------------------------------------------------------------------------------------------------------------------------------------------------------------------------------------------------------------------------------------------------------------------------------------------------------------------------------------+-----------------------+-----------------------+
| +------------------------------------------------------------------------+-------------------------------+-----------------------+                                                                                                                                                                                                                                                                                                                                                                                                                                                                                                                                                                                                                                                                                                                                                                                                                                                                                                                           |                       |                       |
| | Inicio | Búsqueda | Siglas y bibliografía | Créditos | Más información | Vol. I (1-11) Vol. II (12-20) |    [ES]               |                                                                                                                                                                                                                                                                                                                                                                                                                                                                                                                                                                                                                                                                                                                                                                                                                                                                                                                           |                       |                       |
| +------------------------------------------------------------------------+-------------------------------+-----------------------+                                                                                                                                                                                                                                                                                                                                                                                                                                                                                                                                                                                                                                                                                                                                                                                                                                                                                                                           |                       |                       |
+--------------------------------------------------------------------------------------------------------------------------------------------------------------------------------------------------------------------------------------------------------------------------------------------------------------------------------------------------------------------------------------------------------------------------------------------------------------------------------------------------------------------------------------------------------------------------------------------------------------------------------------------------------------------------------------------------------------------------------------------------------------------------------------------------------------------------------------------------------------------------------------------------------------------------------------------------------------------------------------------------------------------------------------------------------------+-----------------------+-----------------------+
| Búsqueda rápida                                                                                                                                                                                                                                                                                                                                                                                                                                                                                                                                                                                                                                                                                                                                                                                                                                                                                                                                                                                                                                              |                       |                       |
|                                                                                                                                                                                                                                                                                                                                                                                                                                                                                                                                                                                                                                                                                                                                                                                                                                                                                                                                                                                                                                                              |                       |                       |
| +:-------------------:+-----------------+:----------------------------------------:+----------------:+                                                                                                                                                                                                                                                                                                                                                                                                                                                                                                                                                                                                                                                                                                                                                                                                                                                                                                                                                       |                       |                       |
| | Documento de fecha: |                 | Ubicación física del documento original: | [] [] []        |                                                                                                                                                                                                                                                                                                                                                                                                                                                                                                                                                                                                                                                                                                                                                                                                                                                                                                                                                       |                       |                       |
| |                     |                 |                                          |                 |                                                                                                                                                                                                                                                                                                                                                                                                                                                                                                                                                                                                                                                                                                                                                                                                                                                                                                                                                       |                       |                       |
| | 1586. Noviembre, 26 |                 | Caja 29, exp. 4, ff. 1fte.-3vta.         |                 |                                                                                                                                                                                                                                                                                                                                                                                                                                                                                                                                                                                                                                                                                                                                                                                                                                                                                                                                                       |                       |                       |
| +---------------------+-----------------+------------------------------------------+-----------------+                                                                                                                                                                                                                                                                                                                                                                                                                                                                                                                                                                                                                                                                                                                                                                                                                                                                                                                                                       |                       |                       |
|                                                                                                                                                                                                                                                                                                                                                                                                                                                                                                                                                                                                                                                                                                                                                                                                                                                                                                                                                                                                                                                              |                       |                       |
|   ------------- ------------------------------------------------------------------------------------------------------------------------------------------------------------------------------------------------------------------------------------------------------------------------------                                                                                                                                                                                                                                                                                                                                                                                                                                                                                                                                                                                                                                                                                                                                                               |                       |                       |
|   Resumen:      Provisión real en que por ella se manda a Álvaro de Paredes el presente alcalde mayor por el rey nuestro señor de la Villa de Colima que meta en posesión a don Martín indio del pueblo de Alimancia de una huerta de cacao y que conozca de sus causas en este año de 1586.                                                                                                                                                                                                                                                                                                                                                                                                                                                                                                                                                                                                                                                                                                                                                                 |                       |                       |
|   ------------- ------------------------------------------------------------------------------------------------------------------------------------------------------------------------------------------------------------------------------------------------------------------------------                                                                                                                                                                                                                                                                                                                                                                                                                                                                                                                                                                                                                                                                                                                                                               |                       |                       |
|                                                                                                                                                                                                                                                                                                                                                                                                                                                                                                                                                                                                                                                                                                                                                                                                                                                                                                                                                                                                                                                              |                       |                       |
|   ----------------------------------- ---------------------------------------------------------------------------------------------------------------------------------------------------------------------------------------------------------------------------------------------------------------------------------------------------------------------------------------------------------------------------------------------------------------------------------------------------------------------------------------------------------------------------------------------------------------------------------------------------------------------------------------------------------------------------------------------------------------------------------------------------------------------------------------------------------------------------------------------------------------------------------------------------------------------------------------------------------------------------------------------------------------------- |                       |                       |
|   Contenido:                          Provisión real a favor del indio D. Martín para que se le restituya una huerta que se había apropiado el justicia y presbítero de Alima.                                                                                                                                                                                                                                                                                                                                                                                                                                                                                                                                                                                                                                                                                                                                                                                                                                                                               |                       |                       |
|                                       Dada al alcalde mayor de la Villa de Colima y su lugarteniente el 26 de noviembre de 1586 en la que señala que ante el Presidente y Oidores de la Real Audiencia y Chancillería de la Ciudad de México pareció el licenciado Eugenio de Palafox, fiscal en la Audiencia por la defensa de don Martín, indio principal del pueblo de Alimansi de esa dicha provincia “diciendo que por haberse querido venir a agraviar ante nos el dicho indio, por agravios que un guarda antes teniente del dicho su pueblo y el beneficiado le habían fecho al dicho indio y a los demás el dicho teniente e le había fecho cierto proceso y condenadale en seis años de destierro.                                                                                                                                                                                                                                                                                                                                                 |                       |                       |
|                                       Y en ochenta pesos por las cuales le había vendido y rematado una hacienda y huerta de cacao que tenía a menos precio valiendo como valía mil pesos.                                                                                                                                                                                                                                                                                                                                                                                                                                                                                                                                                                                                                                                                                                                                                                                                                                                                   |                       |                       |
|                                       Y el remate se había fecho en un sobrino del dicho beneficiado para que el dicho beneficiado las viese y tenía despojado al dicho indio y porque en la dicha condenación y remate había habido pasión y notorio agravio apelaba la sentencia del dicho teniente.                                                                                                                                                                                                                                                                                                                                                                                                                                                                                                                                                                                                                                                                                                                                                       |                       |                       |
|                                       Y de todo lo que después della se había fecho y actuado y nos suplicó le mandase mandar nuestra Real Provisión para que al dicho don Martín se le volviere y restituyese la dicha huerta y hacienda ante todas cosas y que nos el dicho alcalde mayor viesades el dicho proceso y justicia y desagraviasedes al dicho don Martín como la merced fuese lo cual visto por los dichos mis Presidente e Oidores fue acordado que debían [ ] guardar esta carta en la dicha razón e nos tuvimos lo por bien porque nos mandamos que luego que nos fuese mostrada pase al dicho pueblo de Alimansi y a la parte y lugar donde está la dicha huerta y hacienda que así se le tomó y vendió al dicho don Martín y estando en ella se la volváis y sepáis volver y restituir para que la tenga y posea según y cómo la tenía y poseía antes y al tiempo que por el dicho teniente se le quitara vendiera y rematara y todo fecho toméis en nos el proceso o procesos que se hicieron y fulminaron contra el dicho don Martín.   |                       |                       |
|                                       Y por cuya causa se le hizo la dicha venta y destierro del dicho pueblo sobre ello le hagáis entero cumplimiento de justicia desagraviándole de aquello en que lo estuviere que para ello y tomar vara de la mía justicia, siendo fuera de vuestra jurisdicción nada más poder cumplido en forma cual de derecho se requiere e non fagades en real por alguna manera so pena de la mía merced y de cien pesos [ ] para la mía cámara”.                                                                                                                                                                                                                                                                                                                                                                                                                                                                                                                                                                                 |                       |                       |
|                                       En 1587 fue presentada esta provisión real siendo testigo el escribano público Francisco López, ante Cristóbal de Silva señor justicia mayor de la Villa de Colima, quien la puso sobre su cabeza en señal de obediencia.                                                                                                                                                                                                                                                                                                                                                                                                                                                                                                                                                                                                                                                                                                                                                                                              |                       |                       |
|                                       Posesión de la huerta de cacao a don Martín.                                                                                                                                                                                                                                                                                                                                                                                                                                                                                                                                                                                                                                                                                                                                                                                                                                                                                                                                                                           |                       |                       |
|                                       El 7 de septiembre de 1587 el alcalde mayor de la Villa de Colima, Álvaro de Paredes Valero, presente en el pueblo de Alimanci o Alilmancia, de la provincia de Motines, ante el escribano de Su Majestad Baltasar de Alcalá, “habiendo venido a este dicho pueblo a atender y cumplir lo que Su Majestad le manda por esta real Provisión fecha desta parte, en que por ella le manda entrar posesión de una guerta de cacao a don Martín, indio, natural de este dicho pueblo”. Fuese luego a dicha huerta, situada junto al pueblo, y metió en ella al dicho don Martín “todo lo cual pasó mediante Cristóbal Preciado, indio intérprete.                                                                                                                                                                                                                                                                                                                                                                           |                       |                       |
|                                       Siendo testigos Francisco Gómez [ ] e Hernando de Alfaro, clérigo presbítero beneficiado desta provincia general, Diego Acosta, mulato, Diego Iniesta, alcalde del dicho pueblo e Juan Ruis”.                                                                                                                                                                                                                                                                                                                                                                                                                                                                                                                                                                                                                                                                                                                                                                                                                          |                       |                       |
|                                                                                                                                                                                                                                                                                                                                                                                                                                                                                                                                                                                                                                                                                                                                                                                                                                                                                                                                                                                                                                                              |                       |                       |
|   ----------------------------------- ---------------------------------------------------------------------------------------------------------------------------------------------------------------------------------------------------------------------------------------------------------------------------------------------------------------------------------------------------------------------------------------------------------------------------------------------------------------------------------------------------------------------------------------------------------------------------------------------------------------------------------------------------------------------------------------------------------------------------------------------------------------------------------------------------------------------------------------------------------------------------------------------------------------------------------------------------------------------------------------------------------------------- |                       |                       |
|                                                                                                                                                                                                                                                                                                                                                                                                                                                                                                                                                                                                                                                                                                                                                                                                                                                                                                                                                                                                                                                              |                       |                       |
|   ---------------------------------------------------------------------------------------------------                                                                                                                                                                                                                                                                                                                                                                                                                                                                                                                                                                                                                                                                                                                                                                                                                                                                                                                                                        |                       |                       |
|    Documento(s) original(es)                                                                                                                                                                                                                                                                                                                                                                                                                                                                                                                                                                                                                                                                                                                                                                                                                                                                                                                                                                                                                                 |                       |                       |
|   --------------------------- ------- ------- ------- ------- ------- ------- ------- ------- -------                                                                                                                                                                                                                                                                                                                                                                                                                                                                                                                                                                                                                                                                                                                                                                                                                                                                                                                                                        |                       |                       |
|               []                []      []      []      []                                                                                                                                                                                                                                                                                                                                                                                                                                                                                                                                                                                                                                                                                                                                                                                                                                                                                                                                                                                                   |                       |                       |
|               1f                2f      2v      3f      3v                                                                                                                                                                                                                                                                                                                                                                                                                                                                                                                                                                                                                                                                                                                                                                                                                                                                                                                                                                                                   |                       |                       |
|                                                                                                                                                                                                                                                                                                                                                                                                                                                                                                                                                                                                                                                                                                                                                                                                                                                                                                                                                                                                                                                              |                       |                       |
|   ---------------------------------------------------------------------------------------------------                                                                                                                                                                                                                                                                                                                                                                                                                                                                                                                                                                                                                                                                                                                                                                                                                                                                                                                                                        |                       |                       |
+--------------------------------------------------------------------------------------------------------------------------------------------------------------------------------------------------------------------------------------------------------------------------------------------------------------------------------------------------------------------------------------------------------------------------------------------------------------------------------------------------------------------------------------------------------------------------------------------------------------------------------------------------------------------------------------------------------------------------------------------------------------------------------------------------------------------------------------------------------------------------------------------------------------------------------------------------------------------------------------------------------------------------------------------------------------+-----------------------+-----------------------+
| +----------------------------------------------------------------------------+-----------------------------------------------:+                                                                                                                                                                                                                                                                                                                                                                                                                                                                                                                                                                                                                                                                                                                                                                                                                                                                                                                              |                       |                       |
| | ISBN 978-607-701-024-1                                                     |   ---- ---- ---- ---- ---- ---- ---- ---- ---- |                                                                                                                                                                                                                                                                                                                                                                                                                                                                                                                                                                                                                                                                                                                                                                                                                                                                                                                              |                       |                       |
| | © Derechos Reservados 2013. Archivo Histórico del Municipio de Colima. [*] |   []        []        []        []        []   |                                                                                                                                                                                                                                                                                                                                                                                                                                                                                                                                                                                                                                                                                                                                                                                                                                                                                                                              |                       |                       |
| |                                                                            |   ---- ---- ---- ---- ---- ---- ---- ---- ---- |                                                                                                                                                                                                                                                                                                                                                                                                                                                                                                                                                                                                                                                                                                                                                                                                                                                                                                                              |                       |                       |
| +----------------------------------------------------------------------------+------------------------------------------------+                                                                                                                                                                                                                                                                                                                                                                                                                                                                                                                                                                                                                                                                                                                                                                                                                                                                                                                              |                       |                       |
| |                                                                            |                                                |                                                                                                                                                                                                                                                                                                                                                                                                                                                                                                                                                                                                                                                                                                                                                                                                                                                                                                                              |                       |                       |
| +----------------------------------------------------------------------------+------------------------------------------------+                                                                                                                                                                                                                                                                                                                                                                                                                                                                                                                                                                                                                                                                                                                                                                                                                                                                                                                              |                       |                       |
+--------------------------------------------------------------------------------------------------------------------------------------------------------------------------------------------------------------------------------------------------------------------------------------------------------------------------------------------------------------------------------------------------------------------------------------------------------------------------------------------------------------------------------------------------------------------------------------------------------------------------------------------------------------------------------------------------------------------------------------------------------------------------------------------------------------------------------------------------------------------------------------------------------------------------------------------------------------------------------------------------------------------------------------------------------------+-----------------------+-----------------------+

636 visitas
