+---------------------------------------------------------------------------------------------------------------------------------------------------------------------------------------------------------------------------------------------------------------------------------------------------------------------------------------------------------------------------+-----------------------+-----------------------+
| []                                                                                                                                                                                                                                                                                                                                                                        |                       |                       |
|                                                                                                                                                                                                                                                                                                                                                                           |                       |                       |
| +-----------------------------------+:-------------------------------------:+                                                                                                                                                                                                                                                                                             |                       |                       |
| | []                                | LA VILLA DE COLIMA DE LA NUEVA ESPAÑA |                                                                                                                                                                                                                                                                                             |                       |                       |
| |                                   | SIGLO XVI                             |                                                                                                                                                                                                                                                                                             |                       |                       |
| |                                   |                                       |                                                                                                                                                                                                                                                                                             |                       |                       |
| |                                   | VOLUMEN II      (CAJAS 12-20)         |                                                                                                                                                                                                                                                                                             |                       |                       |
| +-----------------------------------+---------------------------------------+                                                                                                                                                                                                                                                                                             |                       |                       |
+---------------------------------------------------------------------------------------------------------------------------------------------------------------------------------------------------------------------------------------------------------------------------------------------------------------------------------------------------------------------------+-----------------------+-----------------------+
| +------------------------------------------------------------------------+-------------------------------+-----------------------+                                                                                                                                                                                                                                        |                       |                       |
| | Inicio | Búsqueda | Siglas y bibliografía | Créditos | Más información | Vol. I (1-11) Vol. II (12-20) |    [ES]               |                                                                                                                                                                                                                                        |                       |                       |
| +------------------------------------------------------------------------+-------------------------------+-----------------------+                                                                                                                                                                                                                                        |                       |                       |
+---------------------------------------------------------------------------------------------------------------------------------------------------------------------------------------------------------------------------------------------------------------------------------------------------------------------------------------------------------------------------+-----------------------+-----------------------+
| Búsqueda rápida                                                                                                                                                                                                                                                                                                                                                           |                       |                       |
|                                                                                                                                                                                                                                                                                                                                                                           |                       |                       |
| +:-------------------:+-----------------+:----------------------------------------:+----------------:+                                                                                                                                                                                                                                                                    |                       |                       |
| | Documento de fecha: |                 | Ubicación física del documento original: | [] [] []        |                                                                                                                                                                                                                                                                    |                       |                       |
| |                     |                 |                                          |                 |                                                                                                                                                                                                                                                                    |                       |                       |
| | Sin Año. Abril, 26  |                 | Caja 29, exp. 6, 5fte.-6fte.             |                 |                                                                                                                                                                                                                                                                    |                       |                       |
| +---------------------+-----------------+------------------------------------------+-----------------+                                                                                                                                                                                                                                                                    |                       |                       |
|                                                                                                                                                                                                                                                                                                                                                                           |                       |                       |
|   ------------- -------------------------------------------------------------------------------------------------------                                                                                                                                                                                                                                                   |                       |                       |
|   Resumen:      Memoria para que los pueblos de indios de la provincia de Colima paguen en dineros el tributo al Rey.                                                                                                                                                                                                                                                     |                       |                       |
|   ------------- -------------------------------------------------------------------------------------------------------                                                                                                                                                                                                                                                   |                       |                       |
|                                                                                                                                                                                                                                                                                                                                                                           |                       |                       |
|   ----------------------------------- ----------------------------------------------------------------------------------------------------------------------------------------------------------------------------------------------------------------------------------------------------------------------------------------------------------------------------------- |                       |                       |
|   Contenido:                          El alcalde mayor de la Villa de Colima, Álvaro de Paredes mandó dar el 26 de abril en cumplimiento a lo mandado, una memoria de los pueblos de indios de la provincia y su jurisdicción para que den y paguen en dineros el tributo a Su Majestad, siendo escribano público Francisco López Avecilla.                               |                       |                       |
|                                       Luego parecieron los alcaldes y mayordomos de los pueblos de Juluapa y Sanpalmani y Sacualpa y Tepetlita, a quienes mediante el intérprete Juan Cruz dijeron que “estaban puestos de hacer y cumplir lo que Su Majestad manda e que real serán e la hay visto que cada uno de los dichos pueblos están obligados de dar y pagar”.   |                       |                       |
|                                       E después de lo susodicho el 2 de mayo en cargo de lo proveído y mandado por el dicho alcalde mayor parecieron presentes los alcaldes y mayordomos de los pueblos de Tecoman y Tecolapa.                                                                                                                                            |                       |                       |
|                                                                                                                                                                                                                                                                                                                                                                           |                       |                       |
|   ----------------------------------- ----------------------------------------------------------------------------------------------------------------------------------------------------------------------------------------------------------------------------------------------------------------------------------------------------------------------------------- |                       |                       |
|                                                                                                                                                                                                                                                                                                                                                                           |                       |                       |
|   ---------------------------------------------------------------------------------------------------                                                                                                                                                                                                                                                                     |                       |                       |
|    Documento(s) original(es)                                                                                                                                                                                                                                                                                                                                              |                       |                       |
|   --------------------------- ------- ------- ------- ------- ------- ------- ------- ------- -------                                                                                                                                                                                                                                                                     |                       |                       |
|               []                []      []                                                                                                                                                                                                                                                                                                                                |                       |                       |
|               5f                5v      6f                                                                                                                                                                                                                                                                                                                                |                       |                       |
|                                                                                                                                                                                                                                                                                                                                                                           |                       |                       |
|   ---------------------------------------------------------------------------------------------------                                                                                                                                                                                                                                                                     |                       |                       |
+---------------------------------------------------------------------------------------------------------------------------------------------------------------------------------------------------------------------------------------------------------------------------------------------------------------------------------------------------------------------------+-----------------------+-----------------------+
| +----------------------------------------------------------------------------+-----------------------------------------------:+                                                                                                                                                                                                                                           |                       |                       |
| | ISBN 978-607-701-024-1                                                     |   ---- ---- ---- ---- ---- ---- ---- ---- ---- |                                                                                                                                                                                                                                           |                       |                       |
| | © Derechos Reservados 2013. Archivo Histórico del Municipio de Colima. [*] |   []        []        []        []        []   |                                                                                                                                                                                                                                           |                       |                       |
| |                                                                            |   ---- ---- ---- ---- ---- ---- ---- ---- ---- |                                                                                                                                                                                                                                           |                       |                       |
| +----------------------------------------------------------------------------+------------------------------------------------+                                                                                                                                                                                                                                           |                       |                       |
| |                                                                            |                                                |                                                                                                                                                                                                                                           |                       |                       |
| +----------------------------------------------------------------------------+------------------------------------------------+                                                                                                                                                                                                                                           |                       |                       |
+---------------------------------------------------------------------------------------------------------------------------------------------------------------------------------------------------------------------------------------------------------------------------------------------------------------------------------------------------------------------------+-----------------------+-----------------------+

636 visitas
