+------------------------------------------------------------------------------------------------------------------------------------------------------------------------------------------------------------------------------------------------------------------------------------------------------------------------------------------------------------------------------------------------------------------------------------------------------------------------------------------------------------------------------------------------------------------------------------------------------------------------------------+-----------------------+-----------------------+
| []                                                                                                                                                                                                                                                                                                                                                                                                                                                                                                                                                                                                                                 |                       |                       |
|                                                                                                                                                                                                                                                                                                                                                                                                                                                                                                                                                                                                                                    |                       |                       |
| +-----------------------------------+:-------------------------------------:+                                                                                                                                                                                                                                                                                                                                                                                                                                                                                                                                                      |                       |                       |
| | []                                | LA VILLA DE COLIMA DE LA NUEVA ESPAÑA |                                                                                                                                                                                                                                                                                                                                                                                                                                                                                                                                                      |                       |                       |
| |                                   | SIGLO XVI                             |                                                                                                                                                                                                                                                                                                                                                                                                                                                                                                                                                      |                       |                       |
| |                                   |                                       |                                                                                                                                                                                                                                                                                                                                                                                                                                                                                                                                                      |                       |                       |
| |                                   | VOLUMEN II      (CAJAS 12-20)         |                                                                                                                                                                                                                                                                                                                                                                                                                                                                                                                                                      |                       |                       |
| +-----------------------------------+---------------------------------------+                                                                                                                                                                                                                                                                                                                                                                                                                                                                                                                                                      |                       |                       |
+------------------------------------------------------------------------------------------------------------------------------------------------------------------------------------------------------------------------------------------------------------------------------------------------------------------------------------------------------------------------------------------------------------------------------------------------------------------------------------------------------------------------------------------------------------------------------------------------------------------------------------+-----------------------+-----------------------+
| +------------------------------------------------------------------------+-------------------------------+-----------------------+                                                                                                                                                                                                                                                                                                                                                                                                                                                                                                 |                       |                       |
| | Inicio | Búsqueda | Siglas y bibliografía | Créditos | Más información | Vol. I (1-11) Vol. II (12-20) |    [ES]               |                                                                                                                                                                                                                                                                                                                                                                                                                                                                                                 |                       |                       |
| +------------------------------------------------------------------------+-------------------------------+-----------------------+                                                                                                                                                                                                                                                                                                                                                                                                                                                                                                 |                       |                       |
+------------------------------------------------------------------------------------------------------------------------------------------------------------------------------------------------------------------------------------------------------------------------------------------------------------------------------------------------------------------------------------------------------------------------------------------------------------------------------------------------------------------------------------------------------------------------------------------------------------------------------------+-----------------------+-----------------------+
| Búsqueda rápida                                                                                                                                                                                                                                                                                                                                                                                                                                                                                                                                                                                                                    |                       |                       |
|                                                                                                                                                                                                                                                                                                                                                                                                                                                                                                                                                                                                                                    |                       |                       |
| +:-------------------:+-----------------+:----------------------------------------:+----------------:+                                                                                                                                                                                                                                                                                                                                                                                                                                                                                                                             |                       |                       |
| | Documento de fecha: |                 | Ubicación física del documento original: | [] [] []        |                                                                                                                                                                                                                                                                                                                                                                                                                                                                                                                             |                       |                       |
| |                     |                 |                                          |                 |                                                                                                                                                                                                                                                                                                                                                                                                                                                                                                                             |                       |                       |
| | 1587. Abril, 17     |                 | Caja 30, exp. 7, 14 ff.                  |                 |                                                                                                                                                                                                                                                                                                                                                                                                                                                                                                                             |                       |                       |
| +---------------------+-----------------+------------------------------------------+-----------------+                                                                                                                                                                                                                                                                                                                                                                                                                                                                                                                             |                       |                       |
|                                                                                                                                                                                                                                                                                                                                                                                                                                                                                                                                                                                                                                    |                       |                       |
|   ------------- ------------------------------------------------------------------------------------------------------------------------------------------------------------------------                                                                                                                                                                                                                                                                                                                                                                                                                                           |                       |                       |
|   Resumen:      Diego de Contreras vecino de la Villa de Colima se querella criminalmente contra Juan de Aguilar, Gonzalo López de Ayala, Cristóbal Preciado y de los demás cómplices.                                                                                                                                                                                                                                                                                                                                                                                                                                             |                       |                       |
|   ------------- ------------------------------------------------------------------------------------------------------------------------------------------------------------------------                                                                                                                                                                                                                                                                                                                                                                                                                                           |                       |                       |
|                                                                                                                                                                                                                                                                                                                                                                                                                                                                                                                                                                                                                                    |                       |                       |
|   ----------------------------------- -------------------------------------------------------------------------------------------------------------------------------------------------------------------------------------------------------------------------------------------------------------------------------------------------------------------------------------------------------------------------------------------------------------------------------------------------------------------------------------------------------------------------------------------------------------------------------------------- |                       |                       |
|   Contenido:                          Explica el motivo y dice que tenía hecha querella anterior por el hurto y despojo de ganado de la Estancia e bienes de Diego de Mendoza que tenía a cargo por lo que habían preso a Juan de Aguilar y su hermano y estando presos en la cárcel pública quisieron poner “en mi persona macula […] aliándose, aconsejándose y persuadiéndose unos a otros, determinaron publicar y han publicado en munchas partes y lugares delante de munchas personas que yo era ladrón y puto e cometía el pecado e nefando haciendo en la dicha publicidad por si e por sus deudos y aliados y amigos…”   |                       |                       |
|                                       Señala que en el pueblo de Tlapistlan se hicieron las injurias públicas diciendo que había de estar muerto, que “yo había de estar ahorcado o quemado”. Declara el día de Todos los Santos por el año de 1584.                                                                                                                                                                                                                                                                                                                                                                               |                       |                       |
|                                       Por tal motivo pidió se siga la causa pues le han causado grave daño.                                                                                                                                                                                                                                                                                                                                                                                                                                                                                                                        |                       |                       |
|                                       Lo firma Diego de Contreras.                                                                                                                                                                                                                                                                                                                                                                                                                                                                                                                                                                 |                       |                       |
|                                       El alcalde manda se prosiga con la causa.                                                                                                                                                                                                                                                                                                                                                                                                                                                                                                                                                    |                       |                       |
|                                       Se toman declaraciones de testigos.                                                                                                                                                                                                                                                                                                                                                                                                                                                                                                                                                          |                       |                       |
|                                       Francisco López, escribano público.^([1])                                                                                                                                                                                                                                                                                                                                                                                                                                                                                                                                                    |                       |                       |
|                                                                                                                                                                                                                                                                                                                                                                                                                                                                                                                                                                                                                                    |                       |                       |
|   ----------------------------------- -------------------------------------------------------------------------------------------------------------------------------------------------------------------------------------------------------------------------------------------------------------------------------------------------------------------------------------------------------------------------------------------------------------------------------------------------------------------------------------------------------------------------------------------------------------------------------------------- |                       |                       |
|                                                                                                                                                                                                                                                                                                                                                                                                                                                                                                                                                                                                                                    |                       |                       |
| (1) Trunco.                                                                                                                                                                                                                                                                                                                                                                                                                                                                                                                                                                                                                        |                       |                       |
|                                                                                                                                                                                                                                                                                                                                                                                                                                                                                                                                                                                                                                    |                       |                       |
|   ---------------------------------------------------------------------------------------------------                                                                                                                                                                                                                                                                                                                                                                                                                                                                                                                              |                       |                       |
|    Documento(s) original(es)                                                                                                                                                                                                                                                                                                                                                                                                                                                                                                                                                                                                       |                       |                       |
|   --------------------------- ------- ------- ------- ------- ------- ------- ------- ------- -------                                                                                                                                                                                                                                                                                                                                                                                                                                                                                                                              |                       |                       |
|               []                []      []      []      []      []      []      []      []      []                                                                                                                                                                                                                                                                                                                                                                                                                                                                                                                                 |                       |                       |
|               1f                1v      2f      3f      3v      4f      4v      5f      5v      6f                                                                                                                                                                                                                                                                                                                                                                                                                                                                                                                                 |                       |                       |
|                                                                                                                                                                                                                                                                                                                                                                                                                                                                                                                                                                                                                                    |                       |                       |
|               []                []      []      []      []      []      []      []      []      []                                                                                                                                                                                                                                                                                                                                                                                                                                                                                                                                 |                       |                       |
|               7f                7v      8f      8v      9f      9v      10f     10v     11f     11v                                                                                                                                                                                                                                                                                                                                                                                                                                                                                                                                |                       |                       |
|                                                                                                                                                                                                                                                                                                                                                                                                                                                                                                                                                                                                                                    |                       |                       |
|               []                []      []      []                                                                                                                                                                                                                                                                                                                                                                                                                                                                                                                                                                                 |                       |                       |
|               12f               13f     14f     14v                                                                                                                                                                                                                                                                                                                                                                                                                                                                                                                                                                                |                       |                       |
|   ---------------------------------------------------------------------------------------------------                                                                                                                                                                                                                                                                                                                                                                                                                                                                                                                              |                       |                       |
+------------------------------------------------------------------------------------------------------------------------------------------------------------------------------------------------------------------------------------------------------------------------------------------------------------------------------------------------------------------------------------------------------------------------------------------------------------------------------------------------------------------------------------------------------------------------------------------------------------------------------------+-----------------------+-----------------------+
| +----------------------------------------------------------------------------+-----------------------------------------------:+                                                                                                                                                                                                                                                                                                                                                                                                                                                                                                    |                       |                       |
| | ISBN 978-607-701-024-1                                                     |   ---- ---- ---- ---- ---- ---- ---- ---- ---- |                                                                                                                                                                                                                                                                                                                                                                                                                                                                                                    |                       |                       |
| | © Derechos Reservados 2013. Archivo Histórico del Municipio de Colima. [*] |   []        []        []        []        []   |                                                                                                                                                                                                                                                                                                                                                                                                                                                                                                    |                       |                       |
| |                                                                            |   ---- ---- ---- ---- ---- ---- ---- ---- ---- |                                                                                                                                                                                                                                                                                                                                                                                                                                                                                                    |                       |                       |
| +----------------------------------------------------------------------------+------------------------------------------------+                                                                                                                                                                                                                                                                                                                                                                                                                                                                                                    |                       |                       |
| |                                                                            |                                                |                                                                                                                                                                                                                                                                                                                                                                                                                                                                                                    |                       |                       |
| +----------------------------------------------------------------------------+------------------------------------------------+                                                                                                                                                                                                                                                                                                                                                                                                                                                                                                    |                       |                       |
+------------------------------------------------------------------------------------------------------------------------------------------------------------------------------------------------------------------------------------------------------------------------------------------------------------------------------------------------------------------------------------------------------------------------------------------------------------------------------------------------------------------------------------------------------------------------------------------------------------------------------------+-----------------------+-----------------------+

636 visitas
