+-------------------------------------------------------------------------------------------------------------------------------------------------------------------------------------------------------------------------------------------------------------------------------------------------------------------------------------------------------------------------------------------------------------------------------------------------------------------------------------------------------------------------------------------------------------------------------------------------------------------------------------------------------------------------------------------------------------------------------------------------------------------------------------------------------------------------------------------------------+-----------------------+-----------------------+
| []                                                                                                                                                                                                                                                                                                                                                                                                                                                                                                                                                                                                                                                                                                                                                                                                                                                    |                       |                       |
|                                                                                                                                                                                                                                                                                                                                                                                                                                                                                                                                                                                                                                                                                                                                                                                                                                                       |                       |                       |
| +-----------------------------------+:-------------------------------------:+                                                                                                                                                                                                                                                                                                                                                                                                                                                                                                                                                                                                                                                                                                                                                                         |                       |                       |
| | []                                | LA VILLA DE COLIMA DE LA NUEVA ESPAÑA |                                                                                                                                                                                                                                                                                                                                                                                                                                                                                                                                                                                                                                                                                                                                                                         |                       |                       |
| |                                   | SIGLO XVI                             |                                                                                                                                                                                                                                                                                                                                                                                                                                                                                                                                                                                                                                                                                                                                                                         |                       |                       |
| |                                   |                                       |                                                                                                                                                                                                                                                                                                                                                                                                                                                                                                                                                                                                                                                                                                                                                                         |                       |                       |
| |                                   | VOLUMEN II      (CAJAS 12-20)         |                                                                                                                                                                                                                                                                                                                                                                                                                                                                                                                                                                                                                                                                                                                                                                         |                       |                       |
| +-----------------------------------+---------------------------------------+                                                                                                                                                                                                                                                                                                                                                                                                                                                                                                                                                                                                                                                                                                                                                                         |                       |                       |
+-------------------------------------------------------------------------------------------------------------------------------------------------------------------------------------------------------------------------------------------------------------------------------------------------------------------------------------------------------------------------------------------------------------------------------------------------------------------------------------------------------------------------------------------------------------------------------------------------------------------------------------------------------------------------------------------------------------------------------------------------------------------------------------------------------------------------------------------------------+-----------------------+-----------------------+
| +------------------------------------------------------------------------+---------------------------+-----------------------+                                                                                                                                                                                                                                                                                                                                                                                                                                                                                                                                                                                                                                                                                                                        |                       |                       |
| | Inicio | Búsqueda | Siglas y bibliografía | Créditos | Más información | (consulta las cajas 1-11) |    [ES]               |                                                                                                                                                                                                                                                                                                                                                                                                                                                                                                                                                                                                                                                                                                                        |                       |                       |
| +------------------------------------------------------------------------+---------------------------+-----------------------+                                                                                                                                                                                                                                                                                                                                                                                                                                                                                                                                                                                                                                                                                                                        |                       |                       |
+-------------------------------------------------------------------------------------------------------------------------------------------------------------------------------------------------------------------------------------------------------------------------------------------------------------------------------------------------------------------------------------------------------------------------------------------------------------------------------------------------------------------------------------------------------------------------------------------------------------------------------------------------------------------------------------------------------------------------------------------------------------------------------------------------------------------------------------------------------+-----------------------+-----------------------+
| Búsqueda rápida                                                                                                                                                                                                                                                                                                                                                                                                                                                                                                                                                                                                                                                                                                                                                                                                                                       |                       |                       |
|                                                                                                                                                                                                                                                                                                                                                                                                                                                                                                                                                                                                                                                                                                                                                                                                                                                       |                       |                       |
| +:-------------------:+-----------------+:----------------------------------------:+----------------:+                                                                                                                                                                                                                                                                                                                                                                                                                                                                                                                                                                                                                                                                                                                                                |                       |                       |
| | Documento de fecha: |                 | Ubicación física del documento original: | [] [] []        |                                                                                                                                                                                                                                                                                                                                                                                                                                                                                                                                                                                                                                                                                                                                                |                       |                       |
| |                     |                 |                                          |                 |                                                                                                                                                                                                                                                                                                                                                                                                                                                                                                                                                                                                                                                                                                                                                |                       |                       |
| | 1591. Junio, 18     |                 | Caja 12, exp. 4, 3 ff.                   |                 |                                                                                                                                                                                                                                                                                                                                                                                                                                                                                                                                                                                                                                                                                                                                                |                       |                       |
| +---------------------+-----------------+------------------------------------------+-----------------+                                                                                                                                                                                                                                                                                                                                                                                                                                                                                                                                                                                                                                                                                                                                                |                       |                       |
|                                                                                                                                                                                                                                                                                                                                                                                                                                                                                                                                                                                                                                                                                                                                                                                                                                                       |                       |                       |
|   ------------- --------------------------------------------------------------------------------------------------------------------------------------------------                                                                                                                                                                                                                                                                                                                                                                                                                                                                                                                                                                                                                                                                                    |                       |                       |
|   Resumen:      Isabel Pinzón, india natural del pueblo de San Francisco, pide a la Justicia de la Villa de Colima que le devuelva un caballo que le fue hurtado                                                                                                                                                                                                                                                                                                                                                                                                                                                                                                                                                                                                                                                                                      |                       |                       |
|   ------------- --------------------------------------------------------------------------------------------------------------------------------------------------                                                                                                                                                                                                                                                                                                                                                                                                                                                                                                                                                                                                                                                                                    |                       |                       |
|                                                                                                                                                                                                                                                                                                                                                                                                                                                                                                                                                                                                                                                                                                                                                                                                                                                       |                       |                       |
|   ----------------------------------- --------------------------------------------------------------------------------------------------------------------------------------------------------------------------------------------------------------------------------------------------------------------------------------------------------------------------------------------------------------------------------------------------------------------------------------------------------------------------------------------------------------------------------------------------------------------------------------------------------------------------------------------------------------------------------------------------------------------------------------------------------------------------------------------------------------- |                       |                       |
|   Contenido:                          Ante Gaspar Román, teniente de alcalde mayor de la Villa y Provincia de Colima, “Isabel Pinzón, india, natural del pueblo de San Francisco”,^([64]) compareció y dijo:                                                                                                                                                                                                                                                                                                                                                                                                                                                                                                                                                                                                                                          |                       |                       |
|                                       “Es venido a mi noticia que un caballo mío, bayo, del hierro del Padre Francisco Ruiz,^([65]) mandó V.m. que fuere depositado por abello^([66]) hallado en el campo con unos ladrones que estas tales personas me lo hurtaron, y todo este tiempo he andado en busca de él y mis hijos, por lo consiguiente; y el dicho caballo no tiene culpa. Y ansí, pido y suplico al oficio de V.m., me mande volver el dicho caballo mío, libre y sin costas y, si necesario fuere, presento dos o tres testigos que digan y aclaren con juramento cómo el caballo es mío. Yo, como pobre india, me ampare V.m. como lo mandan las ordenanzas del Rey, mi Señor, que, con brevedad, me despache el oficio de V.m., de lo que pido justicia, y juro a Dios que mi demanda es verdadera y no con malicia. Isabel Pinzón”.   |                       |                       |
|                                       Gaspar Román, entonces, mandó que Isabel Pinzón diera información, con testigos.                                                                                                                                                                                                                                                                                                                                                                                                                                                                                                                                                                                                                                                                                                                                |                       |                       |
|                                       Información                                                                                                                                                                                                                                                                                                                                                                                                                                                                                                                                                                                                                                                                                                                                                                                                     |                       |                       |
|                                       Isabel Pinzón, ese mismo día, presentó por testigo a Francisco Hernández, indio, quien por medio de Juan Martín Hernández,^([67]) intérprete, dijo conocer a Isabel de muchos años a esta parte y que sabía que el caballo era de ella “porque este testigo se lo ha conocido de un año a esta parte, que lo hubo de un negro del alcalde mayor Álvaro de Paredes, que fue en esta Villa, y como tal suyo, lo ha habido y poseído la dicha india”; y así es ampliamente sabido “en esta comarca de las personas que lo han visto”. El testigo dijo tener 30 años de edad.                                                                                                                                                                                                                                       |                       |                       |
|                                       El segundo testigo presentado por Isabel Pinzón fue Juan Vázquez, indio natural y alcalde del pueblo de San Francisco quien, mediante el intérprete, declaró conocer a Isabel de muchos años atrás y tiene por cierto que el caballo es de su propiedad porque “siempre se lo ha visto poseer”. Dijo también que, “de pocos días a esta parte”, había sabido “que le habían hurtado su caballo, y así han andado en busca de él y no lo han hallado, hasta que supo agora que estaba en poder de la Justicia. Y de que es suyo, no pone duda porque lo es y este testigo lo tiene por tal”. El acta agrega: “Y no supo decir la edad que tiene, mas de que por su aspecto parece tener más de cincuenta años”.                                                                                                  |                       |                       |
|                                       Marta Hernández, india natural de México y vecina del pueblo de San Francisco,^([68]) fue presentada por testigo. Mediante el intérprete, dijo conocer de muchos años a Isabel y que también consideraba el caballo como de su propiedad, “y en ello no pone duda por habérselo visto siempre poseer por suyo, y no sabe que lo haya vendido”.                                                                                                                                                                                                                                                                                                                                                                                                                                                                  |                       |                       |
|                                       Recibida la información, Gaspar Román ordenó que, “dando una fianza”, se le entregara el caballo, con la condición que “cada cuando que por el dicho señor teniente o por otro juez que de la causa deba conocer, le fuere pedido el dicho caballo por parecer otra persona a decir ser suyo, volverá el dicho caballo y estará a derecho”.                                                                                                                                                                                                                                                                                                                                                                                                                                                                     |                       |                       |
|                                       Isabel Pinzón nombró por fiador a Juan Martín Hernández, vecino de la Villa, quien estaba presente y aceptó el encargo. Fueron testigos: Bartolomé de Hermosa,^([69]) Martín de Guzmán Patiño^([70]) y Juan Ruiz,^([71]) vecinos de Colima.                                                                                                                                                                                                                                                                                                                                                                                                                                                                                                                                                                     |                       |                       |
|                                                                                                                                                                                                                                                                                                                                                                                                                                                                                                                                                                                                                                                                                                                                                                                                                                                       |                       |                       |
|   ----------------------------------- --------------------------------------------------------------------------------------------------------------------------------------------------------------------------------------------------------------------------------------------------------------------------------------------------------------------------------------------------------------------------------------------------------------------------------------------------------------------------------------------------------------------------------------------------------------------------------------------------------------------------------------------------------------------------------------------------------------------------------------------------------------------------------------------------------------- |                       |                       |
|                                                                                                                                                                                                                                                                                                                                                                                                                                                                                                                                                                                                                                                                                                                                                                                                                                                       |                       |                       |
| (64) San Francisco Almoloyan, situado a la vera de la Villa de Colima.                                                                                                                                                                                                                                                                                                                                                                                                                                                                                                                                                                                                                                                                                                                                                                                |                       |                       |
|                                                                                                                                                                                                                                                                                                                                                                                                                                                                                                                                                                                                                                                                                                                                                                                                                                                       |                       |                       |
| (65) Este clérigo había fallecido meses antes, en 1590: infra, IV, regº 1015, después de jaber vivido en la Villa y su provincia desde 1550, cuando fue cura de Motines (1550-1554), luego lo fue de Tecolapa, a mediados de los cincuenta y más tarde entre 1575-1578, desde donde atendía los Pueblos de Arévalo: supra, I, regº 259. Ejerció el ministerio también en Tamazula (1566-1567, 1571). Más datos, en: Romero de Solís, Andariegos... (2001), 471-473.                                                                                                                                                                                                                                                                                                                                                                                   |                       |                       |
|                                                                                                                                                                                                                                                                                                                                                                                                                                                                                                                                                                                                                                                                                                                                                                                                                                                       |                       |                       |
| (66) Por “haberlo”.                                                                                                                                                                                                                                                                                                                                                                                                                                                                                                                                                                                                                                                                                                                                                                                                                                   |                       |                       |
|                                                                                                                                                                                                                                                                                                                                                                                                                                                                                                                                                                                                                                                                                                                                                                                                                                                       |                       |                       |
| (67) Este vecino de Colima, en 1591, también fue alguacil mayor de la Villa de Colima y alguacil de la residencia tomada al alcalde mayor García Martínez Tinoco: infra, regº 432 y 493.                                                                                                                                                                                                                                                                                                                                                                                                                                                                                                                                                                                                                                                              |                       |                       |
|                                                                                                                                                                                                                                                                                                                                                                                                                                                                                                                                                                                                                                                                                                                                                                                                                                                       |                       |                       |
| (68) Marta Hernández, originaria de México, es un caso más de varios que se hallan documentados acerca de indios naturales procedentes de otras regiones de la Nueva España, Nueva Galicia e incluso de Guatemala, que habían emigrado a Colima y su provincia: véase, Romero de Solís, El alguacil, en sus rondas... (1999), donde tratamos de modo particular del alguacil Cristóbal Guerrero que se amancebó con Constanza, india guatemalteca: supra, II, regº 377.                                                                                                                                                                                                                                                                                                                                                                               |                       |                       |
|                                                                                                                                                                                                                                                                                                                                                                                                                                                                                                                                                                                                                                                                                                                                                                                                                                                       |                       |                       |
| (69) Aunque su presencia en Colima está documentada desde 1590: infra, regº 691, se le registra por vecino a partir de 1591, fecha de nuestro expediente. Casó con Catalina Mexía, viuda de Pedro de las Casas, y tenía una huerta en el Valle de Caxitlan: infra, regº 493 y IV, regº 903. Romero de Solís, Andariegos... (2001), 195.                                                                                                                                                                                                                                                                                                                                                                                                                                                                                                               |                       |                       |
|                                                                                                                                                                                                                                                                                                                                                                                                                                                                                                                                                                                                                                                                                                                                                                                                                                                       |                       |                       |
| (70) De este vecino ya dimos alguna noticia biográfica: supra, II, regº 274.                                                                                                                                                                                                                                                                                                                                                                                                                                                                                                                                                                                                                                                                                                                                                                          |                       |                       |
|                                                                                                                                                                                                                                                                                                                                                                                                                                                                                                                                                                                                                                                                                                                                                                                                                                                       |                       |                       |
| (71) Quizá, el vecino Juan Ruiz de Haro.                                                                                                                                                                                                                                                                                                                                                                                                                                                                                                                                                                                                                                                                                                                                                                                                              |                       |                       |
|                                                                                                                                                                                                                                                                                                                                                                                                                                                                                                                                                                                                                                                                                                                                                                                                                                                       |                       |                       |
|   ---------------------------------------------------------------------------------------------------                                                                                                                                                                                                                                                                                                                                                                                                                                                                                                                                                                                                                                                                                                                                                 |                       |                       |
|    Documento(s) original(es)                                                                                                                                                                                                                                                                                                                                                                                                                                                                                                                                                                                                                                                                                                                                                                                                                          |                       |                       |
|   --------------------------- ------- ------- ------- ------- ------- ------- ------- ------- -------                                                                                                                                                                                                                                                                                                                                                                                                                                                                                                                                                                                                                                                                                                                                                 |                       |                       |
|               []                []      []      []      []      []                                                                                                                                                                                                                                                                                                                                                                                                                                                                                                                                                                                                                                                                                                                                                                                    |                       |                       |
|               1f                1v      2f      2v      3f      3v                                                                                                                                                                                                                                                                                                                                                                                                                                                                                                                                                                                                                                                                                                                                                                                    |                       |                       |
|                                                                                                                                                                                                                                                                                                                                                                                                                                                                                                                                                                                                                                                                                                                                                                                                                                                       |                       |                       |
|   ---------------------------------------------------------------------------------------------------                                                                                                                                                                                                                                                                                                                                                                                                                                                                                                                                                                                                                                                                                                                                                 |                       |                       |
+-------------------------------------------------------------------------------------------------------------------------------------------------------------------------------------------------------------------------------------------------------------------------------------------------------------------------------------------------------------------------------------------------------------------------------------------------------------------------------------------------------------------------------------------------------------------------------------------------------------------------------------------------------------------------------------------------------------------------------------------------------------------------------------------------------------------------------------------------------+-----------------------+-----------------------+
| +----------------------------------------------------------------------------+------------------------------------------------+                                                                                                                                                                                                                                                                                                                                                                                                                                                                                                                                                                                                                                                                                                                       |                       |                       |
| | ISBN 978-607-701-024-1                                                     |   ---- ---- ---- ---- ---- ---- ---- ---- ---- |                                                                                                                                                                                                                                                                                                                                                                                                                                                                                                                                                                                                                                                                                                                       |                       |                       |
| | © Derechos Reservados 2013. Archivo Histórico del Municipio de Colima. [*] |   []        []        []        []        []   |                                                                                                                                                                                                                                                                                                                                                                                                                                                                                                                                                                                                                                                                                                                       |                       |                       |
| |                                                                            |   ---- ---- ---- ---- ---- ---- ---- ---- ---- |                                                                                                                                                                                                                                                                                                                                                                                                                                                                                                                                                                                                                                                                                                                       |                       |                       |
| +----------------------------------------------------------------------------+------------------------------------------------+                                                                                                                                                                                                                                                                                                                                                                                                                                                                                                                                                                                                                                                                                                                       |                       |                       |
| |                                                                            |                                                |                                                                                                                                                                                                                                                                                                                                                                                                                                                                                                                                                                                                                                                                                                                       |                       |                       |
| +----------------------------------------------------------------------------+------------------------------------------------+                                                                                                                                                                                                                                                                                                                                                                                                                                                                                                                                                                                                                                                                                                                       |                       |                       |
+-------------------------------------------------------------------------------------------------------------------------------------------------------------------------------------------------------------------------------------------------------------------------------------------------------------------------------------------------------------------------------------------------------------------------------------------------------------------------------------------------------------------------------------------------------------------------------------------------------------------------------------------------------------------------------------------------------------------------------------------------------------------------------------------------------------------------------------------------------+-----------------------+-----------------------+

615 visitas
