+------------------------------------------------------------------------------------------------------------------------------------------------------------------------------------------------------------------------------------------------------------------------------------------------------------------------------------------------------------------------------------------------------------------------------------------------------------------------------------------------------------------------------------------------------------------------------------------------------------------------------------------------------------------------------------------------------------------------------------------+-----------------------+-----------------------+
| []                                                                                                                                                                                                                                                                                                                                                                                                                                                                                                                                                                                                                                                                                                                                       |                       |                       |
|                                                                                                                                                                                                                                                                                                                                                                                                                                                                                                                                                                                                                                                                                                                                          |                       |                       |
| +-----------------------------------+:-------------------------------------:+                                                                                                                                                                                                                                                                                                                                                                                                                                                                                                                                                                                                                                                            |                       |                       |
| | []                                | LA VILLA DE COLIMA DE LA NUEVA ESPAÑA |                                                                                                                                                                                                                                                                                                                                                                                                                                                                                                                                                                                                                                                            |                       |                       |
| |                                   | SIGLO XVI                             |                                                                                                                                                                                                                                                                                                                                                                                                                                                                                                                                                                                                                                                            |                       |                       |
| |                                   |                                       |                                                                                                                                                                                                                                                                                                                                                                                                                                                                                                                                                                                                                                                            |                       |                       |
| |                                   | VOLUMEN II      (CAJAS 12-20)         |                                                                                                                                                                                                                                                                                                                                                                                                                                                                                                                                                                                                                                                            |                       |                       |
| +-----------------------------------+---------------------------------------+                                                                                                                                                                                                                                                                                                                                                                                                                                                                                                                                                                                                                                                            |                       |                       |
+------------------------------------------------------------------------------------------------------------------------------------------------------------------------------------------------------------------------------------------------------------------------------------------------------------------------------------------------------------------------------------------------------------------------------------------------------------------------------------------------------------------------------------------------------------------------------------------------------------------------------------------------------------------------------------------------------------------------------------------+-----------------------+-----------------------+
| +------------------------------------------------------------------------+---------------------------+-----------------------+                                                                                                                                                                                                                                                                                                                                                                                                                                                                                                                                                                                                           |                       |                       |
| | Inicio | Búsqueda | Siglas y bibliografía | Créditos | Más información | (consulta las cajas 1-11) |    [ES]               |                                                                                                                                                                                                                                                                                                                                                                                                                                                                                                                                                                                                           |                       |                       |
| +------------------------------------------------------------------------+---------------------------+-----------------------+                                                                                                                                                                                                                                                                                                                                                                                                                                                                                                                                                                                                           |                       |                       |
+------------------------------------------------------------------------------------------------------------------------------------------------------------------------------------------------------------------------------------------------------------------------------------------------------------------------------------------------------------------------------------------------------------------------------------------------------------------------------------------------------------------------------------------------------------------------------------------------------------------------------------------------------------------------------------------------------------------------------------------+-----------------------+-----------------------+
| Búsqueda rápida                                                                                                                                                                                                                                                                                                                                                                                                                                                                                                                                                                                                                                                                                                                          |                       |                       |
|                                                                                                                                                                                                                                                                                                                                                                                                                                                                                                                                                                                                                                                                                                                                          |                       |                       |
| +:-------------------:+-----------------+:----------------------------------------:+----------------:+                                                                                                                                                                                                                                                                                                                                                                                                                                                                                                                                                                                                                                   |                       |                       |
| | Documento de fecha: |                 | Ubicación física del documento original: | [] [] []        |                                                                                                                                                                                                                                                                                                                                                                                                                                                                                                                                                                                                                                   |                       |                       |
| |                     |                 |                                          |                 |                                                                                                                                                                                                                                                                                                                                                                                                                                                                                                                                                                                                                                   |                       |                       |
| | 1590. Noviembre, 3  |                 | Caja 12, exp. 5, 8 ff.                   |                 |                                                                                                                                                                                                                                                                                                                                                                                                                                                                                                                                                                                                                                   |                       |                       |
| +---------------------+-----------------+------------------------------------------+-----------------+                                                                                                                                                                                                                                                                                                                                                                                                                                                                                                                                                                                                                                   |                       |                       |
|                                                                                                                                                                                                                                                                                                                                                                                                                                                                                                                                                                                                                                                                                                                                          |                       |                       |
|   ------------- ---------------------------------------------------------------------------------------------------------------------------------------------------                                                                                                                                                                                                                                                                                                                                                                                                                                                                                                                                                                      |                       |                       |
|   Resumen:      Jerónimo Mejía, vecino de Guadalajara, en nombre y con poder de Sebastián de Vera, contra Diego Álvarez, mestizo, por una cédula de plazo vencido                                                                                                                                                                                                                                                                                                                                                                                                                                                                                                                                                                        |                       |                       |
|   ------------- ---------------------------------------------------------------------------------------------------------------------------------------------------                                                                                                                                                                                                                                                                                                                                                                                                                                                                                                                                                                      |                       |                       |
|                                                                                                                                                                                                                                                                                                                                                                                                                                                                                                                                                                                                                                                                                                                                          |                       |                       |
|   ----------------------------------- -------------------------------------------------------------------------------------------------------------------------------------------------------------------------------------------------------------------------------------------------------------------------------------------------------------------------------------------------------------------------------------------------------------------------------------------------------------------------------------------------------------------------------------------------------------------------------------------------------------------------------------------------------------------------------------------------- |                       |                       |
|   Contenido:                          “Cristóbal de Silva, alcalde ordinario desta Villa de Colima de la Nueva España, por el Rey Nuestro Señor, a los corregidores, alcaldes mayores e ordinarios, e otras cualesquier justicias e jueces de Su Majestad, ansí desta Nueva España como del Nuevo Reino de Galicia, a quien Dios Nuestro Señor guarde y conserve en su santo servicio.                                                                                                                                                                                                                                                                                                                                                   |                       |                       |
|                                       “Me encomiendo en Vuestras Mercedes y les hago, señores, saber cómo Jerónimo Mejía, vecino de la ciudad de Guadalajara, en nombre y poder de Sebastián de Vera, cesonario de Alonso de Acuña,^([72]) por su ejecución, presentó ante mí una cédula de cincuenta pesos de oro común, firmada de Diego Álvarez, mestizo, que solía residir en el pueblo de Izatlan^([73]) y, al presente, vive en esta dicha Villa.^([74]) Su fecha de la dicha cédula, en el dicho pueblo, [es] a postrero día del mes de noviembre de ochenta y cuatro años [1584], y firmada, ansimismo, de dos testigos, el uno Hernando de Altopica^([75]) y el otro de Juan de Valderrábano,^([76]) para que la reconociese.   |                       |                       |
|                                       “E yo cometí el dicho reconocimiento a Francisco López Avecilla, escribano público desta Villa, y, en cumplimiento de lo por mí mandado, fue a que el dicho Diego Álvarez reconociese la dicha cédula y firma della y con juramento, que para ello [se] le tomó, el dicho Diego Álvarez negó la dicha firma, diciendo no ser suya ni deber la dicha deuda.                                                                                                                                                                                                                                                                                                                                         |                       |                       |
|                                       “Y por el dicho Jerónimo Mejía visto, por otra su petición, me pidió e suplicó que, atento a que el dicho Diego había negado la dicha firma, que a su derecho convenía le diese mi carta de justicia”.                                                                                                                                                                                                                                                                                                                                                                                                                                                                                             |                       |                       |
|                                       El 20 de noviembre del mismo año, en la ciudad de Guadalajara, Sebastián Vera^([77]) presentó esta carta de justicia ante Diego de Solís, alcalde ordinario, pidiendo que la mandase guardar y cumplir. Pasó ante el escribano Rodrigo Hernández Cordero.^([78])                                                                                                                                                                                                                                                                                                                                                                                                                                   |                       |                       |
|                                       Se incluía el poder de Alonso de Acuña, vecino de Guadalajara, fechado el 8 de octubre de 1590, otorgado ante el Padre Bernaldino de Ledesma,^([79]) Juan Toledano y Diego de Cepeda, vecinos y estantes de Guadalajara, ante el escribano Francisco de Cepeda, en favor de Sebastián de Vera, vecino de Guadalajara, para que recibiera y cobrare de Diego Álvarez, residente en la Villa de Colima, de él y de sus bienes, cincuenta pesos de oro común por razón de “una cédula firmada de su nombre y ante testigos”.                                                                                                                                                                          |                       |                       |
|                                       Era anexado igualmente el poder otorgado por Sebastián de Vera ante el escribano Francisco de Cepeda, y Alonso de Llerena, Sebastián de Morales y Hernando de Altopica, como testigos, el 3 de octubre de 1590, a favor del dicho Jerónimo Mejía.                                                                                                                                                                                                                                                                                                                                                                                                                                                  |                       |                       |
|                                       El tenor de la cédula mencionada, de 30 de noviembre de 1584, era el siguiente:                                                                                                                                                                                                                                                                                                                                                                                                                                                                                                                                                                                                                    |                       |                       |
|                                       Cédula                                                                                                                                                                                                                                                                                                                                                                                                                                                                                                                                                                                                                                                                                             |                       |                       |
|                                       “Digo yo, Diego Álvarez, estante en este pueblo de Izatlan de la Nueva España, que debo y me obligo de dar y pagar [...] a vos, Alonso de Acuña y a Francisco Rodríguez, su hermano, vecinos de la ciudad de Guadalajara [...], cincuenta pesos de oro común en plata [...], los cuales debo [...], de que me los distes^([80]) en mercaderías y ropa de vuestra tienda”.                                                                                                                                                                                                                                                                                                                          |                       |                       |
|                                       Fueron testigos de esta cédula, Hernando de Altopica^([81]) y Alonso González, estantes en dicho pueblo de Izatlan. Firma Juan de Valderrábano.                                                                                                                                                                                                                                                                                                                                                                                                                                                                                                                                                    |                       |                       |
|                                       Sebastián Vera, para la comprobación de la firma, presentó el 20 de noviembre de 1590, ante la Justicia de Guadalajara, a Juan de Valderrábano, quien dijo tener 49 años de edad. Este testigo vio hacer y otorgar la cédula a Diego Álvarez, y vio también firmarla, “donde dice Diego Álvarez”.                                                                                                                                                                                                                                                                                                                                                                                                  |                       |                       |
|                                       Por su parte, Altopica, testigo también presentado por Sebastián de Vera, y vecino de Compostela, dijo que él, en persona, había redactado la cédula y vio cómo Diego Álvarez la firmó por su propia mano. Aseguró tener más de 26 años de edad.                                                                                                                                                                                                                                                                                                                                                                                                                                                   |                       |                       |
|                                       El 24 de diciembre de 1590, ante Cristóbal de Silva, alcalde ordinario de la Villa de Colima, Jerónimo Mejía dijo que los testigos instrumentales “reconocieron, por mandado de Diego de Solís, alcalde ordinario de la ciudad de Guadalajara, y ante Rodrigo Hernández Cordero, escribano público y del Cabildo de la dicha ciudad”, la cédula y la firma de Diego Álvarez, mestizo.                                                                                                                                                                                                                                                                                                              |                       |                       |
|                                       Presentó, pues, los autos originales, y pedía que vistos, el alcalde ordinario “pronuncie su auto, dando por reconocida y comprobada la dicha cédula”, y dé mandamiento ejecutorio contra la persona y bienes de Álvarez.                                                                                                                                                                                                                                                                                                                                                                                                                                                                          |                       |                       |
|                                       El alcalde así lo hizo.                                                                                                                                                                                                                                                                                                                                                                                                                                                                                                                                                                                                                                                                            |                       |                       |
|                                                                                                                                                                                                                                                                                                                                                                                                                                                                                                                                                                                                                                                                                                                                          |                       |                       |
|   ----------------------------------- -------------------------------------------------------------------------------------------------------------------------------------------------------------------------------------------------------------------------------------------------------------------------------------------------------------------------------------------------------------------------------------------------------------------------------------------------------------------------------------------------------------------------------------------------------------------------------------------------------------------------------------------------------------------------------------------------- |                       |                       |
|                                                                                                                                                                                                                                                                                                                                                                                                                                                                                                                                                                                                                                                                                                                                          |                       |                       |
| (72) No tenemos identificado a Alonso de Acuña, vecino de Guadalajara, de quien tampoco se hallan referencias en Hillerkuss (1997). Más adelante se dice que era mercader, tenía tienda en Guadalajara, y un hermano suyo se llamaba Francisco Rodríguez.                                                                                                                                                                                                                                                                                                                                                                                                                                                                                |                       |                       |
|                                                                                                                                                                                                                                                                                                                                                                                                                                                                                                                                                                                                                                                                                                                                          |                       |                       |
| (73) Etzatlan.                                                                                                                                                                                                                                                                                                                                                                                                                                                                                                                                                                                                                                                                                                                           |                       |                       |
|                                                                                                                                                                                                                                                                                                                                                                                                                                                                                                                                                                                                                                                                                                                                          |                       |                       |
| (74) Este mestizo, en 1590, estaba avecindado en Colima y era cuñado de Juan de Salinas: infra, regº 425; IV, regº 778, aunque hay otras referencias cronológicas anteriores que no precisan su calidad: Romero de Solís, Andariegos... (2001), 35-36.                                                                                                                                                                                                                                                                                                                                                                                                                                                                                   |                       |                       |
|                                                                                                                                                                                                                                                                                                                                                                                                                                                                                                                                                                                                                                                                                                                                          |                       |                       |
| (75) No deja de resultar un tanto extraño este apellido que tampoco se encuentra en el Diccionario etimológico comparado de los apellidos españoles, hispanoamericanos y filipinos (1995), de Gutierre Tibón. Posiblemente el vecino de Compostela Hernando de Altopica era pariente del Padre Juan de Altopica Verdugo, cura en las minas del Espíritu Santo, situadas a legua y media de Compostela: Hillerkuss (1997), 68 quien remite por única referencia a José Francisco Román Gutiérrez, Sociedad y evangelización en Nueca Galicia... (1993), 270: Acuña (1987), 90 y 93.                                                                                                                                                       |                       |                       |
|                                                                                                                                                                                                                                                                                                                                                                                                                                                                                                                                                                                                                                                                                                                                          |                       |                       |
| (76) Este testigo —Juan de Valderrábano— posiblemente sea Juan de Valderrábano Quiñones, quien en 1571 fue corregidor de Jiquilpan y juez comisionado de bienes de difuntos en Colima y su provincia: supra, II, regº 402; infra, regº 561.                                                                                                                                                                                                                                                                                                                                                                                                                                                                                              |                       |                       |
|                                                                                                                                                                                                                                                                                                                                                                                                                                                                                                                                                                                                                                                                                                                                          |                       |                       |
| (77) Vecino de Guadalajara y miembro de la prominente familia de los Vera. AQU                                                                                                                                                                                                                                                                                                                                                                                                                                                                                                                                                                                                                                                           |                       |                       |
|                                                                                                                                                                                                                                                                                                                                                                                                                                                                                                                                                                                                                                                                                                                                          |                       |                       |
| (78) AQU Importante escribano público y del Cabildo de Gudalajar, del que se han publicado sus protocolos:                                                                                                                                                                                                                                                                                                                                                                                                                                                                                                                                                                                                                               |                       |                       |
|                                                                                                                                                                                                                                                                                                                                                                                                                                                                                                                                                                                                                                                                                                                                          |                       |                       |
| (79) Hijo legítimo de Pedro de Ledesma y Catalina Mexía, hermano asimismo del Padre Pedro de Ledesma, cura de Zapotlan y de Jerónimo Mejía, quien presentara la cédula en cuestión para su cobro: Romero de Solís, Andariegos... (2001), 241.                                                                                                                                                                                                                                                                                                                                                                                                                                                                                            |                       |                       |
|                                                                                                                                                                                                                                                                                                                                                                                                                                                                                                                                                                                                                                                                                                                                          |                       |                       |
| (80) Por “disteis”.                                                                                                                                                                                                                                                                                                                                                                                                                                                                                                                                                                                                                                                                                                                      |                       |                       |
|                                                                                                                                                                                                                                                                                                                                                                                                                                                                                                                                                                                                                                                                                                                                          |                       |                       |
| (81) No es registrado por Hillerkuss (1997).                                                                                                                                                                                                                                                                                                                                                                                                                                                                                                                                                                                                                                                                                             |                       |                       |
|                                                                                                                                                                                                                                                                                                                                                                                                                                                                                                                                                                                                                                                                                                                                          |                       |                       |
|   ---------------------------------------------------------------------------------------------------                                                                                                                                                                                                                                                                                                                                                                                                                                                                                                                                                                                                                                    |                       |                       |
|    Documento(s) original(es)                                                                                                                                                                                                                                                                                                                                                                                                                                                                                                                                                                                                                                                                                                             |                       |                       |
|   --------------------------- ------- ------- ------- ------- ------- ------- ------- ------- -------                                                                                                                                                                                                                                                                                                                                                                                                                                                                                                                                                                                                                                    |                       |                       |
|               []                []      []      []      []      []      []      []      []      []                                                                                                                                                                                                                                                                                                                                                                                                                                                                                                                                                                                                                                       |                       |                       |
|               1f                1v      2f      3f      3v      4f      4v      5f      5v      6f                                                                                                                                                                                                                                                                                                                                                                                                                                                                                                                                                                                                                                       |                       |                       |
|                                                                                                                                                                                                                                                                                                                                                                                                                                                                                                                                                                                                                                                                                                                                          |                       |                       |
|               []                []      []      []      []                                                                                                                                                                                                                                                                                                                                                                                                                                                                                                                                                                                                                                                                               |                       |                       |
|               6v                7f      7v      8f      8v                                                                                                                                                                                                                                                                                                                                                                                                                                                                                                                                                                                                                                                                               |                       |                       |
|   ---------------------------------------------------------------------------------------------------                                                                                                                                                                                                                                                                                                                                                                                                                                                                                                                                                                                                                                    |                       |                       |
+------------------------------------------------------------------------------------------------------------------------------------------------------------------------------------------------------------------------------------------------------------------------------------------------------------------------------------------------------------------------------------------------------------------------------------------------------------------------------------------------------------------------------------------------------------------------------------------------------------------------------------------------------------------------------------------------------------------------------------------+-----------------------+-----------------------+
| +----------------------------------------------------------------------------+------------------------------------------------+                                                                                                                                                                                                                                                                                                                                                                                                                                                                                                                                                                                                          |                       |                       |
| | ISBN 978-607-701-024-1                                                     |   ---- ---- ---- ---- ---- ---- ---- ---- ---- |                                                                                                                                                                                                                                                                                                                                                                                                                                                                                                                                                                                                          |                       |                       |
| | © Derechos Reservados 2013. Archivo Histórico del Municipio de Colima. [*] |   []        []        []        []        []   |                                                                                                                                                                                                                                                                                                                                                                                                                                                                                                                                                                                                          |                       |                       |
| |                                                                            |   ---- ---- ---- ---- ---- ---- ---- ---- ---- |                                                                                                                                                                                                                                                                                                                                                                                                                                                                                                                                                                                                          |                       |                       |
| +----------------------------------------------------------------------------+------------------------------------------------+                                                                                                                                                                                                                                                                                                                                                                                                                                                                                                                                                                                                          |                       |                       |
| |                                                                            |                                                |                                                                                                                                                                                                                                                                                                                                                                                                                                                                                                                                                                                                          |                       |                       |
| +----------------------------------------------------------------------------+------------------------------------------------+                                                                                                                                                                                                                                                                                                                                                                                                                                                                                                                                                                                                          |                       |                       |
+------------------------------------------------------------------------------------------------------------------------------------------------------------------------------------------------------------------------------------------------------------------------------------------------------------------------------------------------------------------------------------------------------------------------------------------------------------------------------------------------------------------------------------------------------------------------------------------------------------------------------------------------------------------------------------------------------------------------------------------+-----------------------+-----------------------+

615 visitas
