+--------------------------------------------------------------------------------------------------------------------------------------------------------------------------------------------------------------------------------------------------------------------------------------------------------------------------------------------------------------------------------------------------------------------------------------------------------------------------+-----------------------+-----------------------+
| []                                                                                                                                                                                                                                                                                                                                                                                                                                                                       |                       |                       |
|                                                                                                                                                                                                                                                                                                                                                                                                                                                                          |                       |                       |
| +-----------------------------------+:-------------------------------------:+                                                                                                                                                                                                                                                                                                                                                                                            |                       |                       |
| | []                                | LA VILLA DE COLIMA DE LA NUEVA ESPAÑA |                                                                                                                                                                                                                                                                                                                                                                                            |                       |                       |
| |                                   | SIGLO XVI                             |                                                                                                                                                                                                                                                                                                                                                                                            |                       |                       |
| |                                   |                                       |                                                                                                                                                                                                                                                                                                                                                                                            |                       |                       |
| |                                   | VOLUMEN II      (CAJAS 12-20)         |                                                                                                                                                                                                                                                                                                                                                                                            |                       |                       |
| +-----------------------------------+---------------------------------------+                                                                                                                                                                                                                                                                                                                                                                                            |                       |                       |
+--------------------------------------------------------------------------------------------------------------------------------------------------------------------------------------------------------------------------------------------------------------------------------------------------------------------------------------------------------------------------------------------------------------------------------------------------------------------------+-----------------------+-----------------------+
| +------------------------------------------------------------------------+---------------------------+-----------------------+                                                                                                                                                                                                                                                                                                                                           |                       |                       |
| | Inicio | Búsqueda | Siglas y bibliografía | Créditos | Más información | (consulta las cajas 1-11) |    [ES]               |                                                                                                                                                                                                                                                                                                                                           |                       |                       |
| +------------------------------------------------------------------------+---------------------------+-----------------------+                                                                                                                                                                                                                                                                                                                                           |                       |                       |
+--------------------------------------------------------------------------------------------------------------------------------------------------------------------------------------------------------------------------------------------------------------------------------------------------------------------------------------------------------------------------------------------------------------------------------------------------------------------------+-----------------------+-----------------------+
| Búsqueda rápida                                                                                                                                                                                                                                                                                                                                                                                                                                                          |                       |                       |
|                                                                                                                                                                                                                                                                                                                                                                                                                                                                          |                       |                       |
| +:-------------------:+-----------------+:----------------------------------------:+----------------:+                                                                                                                                                                                                                                                                                                                                                                   |                       |                       |
| | Documento de fecha: |                 | Ubicación física del documento original: | [] [] []        |                                                                                                                                                                                                                                                                                                                                                                   |                       |                       |
| |                     |                 |                                          |                 |                                                                                                                                                                                                                                                                                                                                                                   |                       |                       |
| | 1595. Octubre, 29   |                 | Caja 12, exp. 8, ff. 41 vta-42 vta.      |                 |                                                                                                                                                                                                                                                                                                                                                                   |                       |                       |
| |                     |                 |                                          |                 |                                                                                                                                                                                                                                                                                                                                                                   |                       |                       |
| |                     |                 | Nota(s): Antes ff. 29 vta-30 vta.        |                 |                                                                                                                                                                                                                                                                                                                                                                   |                       |                       |
| +---------------------+-----------------+------------------------------------------+-----------------+                                                                                                                                                                                                                                                                                                                                                                   |                       |                       |
|                                                                                                                                                                                                                                                                                                                                                                                                                                                                          |                       |                       |
|   ------------- ------------------------------------------------------------------------------------------------------------------------------------------------------------------                                                                                                                                                                                                                                                                                       |                       |                       |
|   Resumen:      Diego Arias Arellano y Mariana de Cáceres, su esposa, otorgan poder al escribano Toribio de Casso para que compre para ellos la mitad de la Huerta de San Miguel                                                                                                                                                                                                                                                                                         |                       |                       |
|   ------------- ------------------------------------------------------------------------------------------------------------------------------------------------------------------                                                                                                                                                                                                                                                                                       |                       |                       |
|                                                                                                                                                                                                                                                                                                                                                                                                                                                                          |                       |                       |
|   ----------------------------------- ---------------------------------------------------------------------------------------------------------------------------------------------------------------------------------------------------------------------------------------------------------------------------------------------------------------------------------------------------------------------------------------------------------------------------------- |                       |                       |
|   Contenido:                          Diego Arias Arellano y su esposa, doña Mariana de Cáceres,^([327]) vecinos de la Villa de Colima, otorgan carta poder a “vos, Toribio de Casso,^([328]) escribano público y del Cabildo desta Villa”, para que pueda “comprar y compréis de Jhoan de Valencia y de Isabel de Aguilar,^([329]) su mujer [...], la mitad de la huerta de cacao, llamada de San Miguel, que es en el Valle de Alima, que tiene en compañía de nos”.   |                       |                       |
|                                       La parte de la mencionada huerta que les pertenece, la recibieron “en dote y casamiento” de Diego de Aguilar del Castillo y de doña María de Cáceres, sus padres.                                                                                                                                                                                                                                                                  |                       |                       |
|                                       Testigos: Juan Fernández de Tene, Hernando de Alvarado^([330]) y Francisco Briceño,^([331]) vecinos de Colima.                                                                                                                                                                                                                                                                                                                     |                       |                       |
|                                       Escribano: Cristóbal Hernández de Tene.                                                                                                                                                                                                                                                                                                                                                                                            |                       |                       |
|                                                                                                                                                                                                                                                                                                                                                                                                                                                                          |                       |                       |
|   ----------------------------------- ---------------------------------------------------------------------------------------------------------------------------------------------------------------------------------------------------------------------------------------------------------------------------------------------------------------------------------------------------------------------------------------------------------------------------------- |                       |                       |
|                                                                                                                                                                                                                                                                                                                                                                                                                                                                          |                       |                       |
| (327) Hija legítima de Diego Aguilar del Castillo y María de Cáceres.                                                                                                                                                                                                                                                                                                                                                                                                    |                       |                       |
|                                                                                                                                                                                                                                                                                                                                                                                                                                                                          |                       |                       |
| (328) Vecino quien por años ejerció el oficio de escribano en la Villa de Colima. Casó con Francisca de Carvajal, hija legítima de Rodrigo de Carvajal y Francisca Figueroa , su segunda esposa. A partir de 1591 fue escribano público y del Cabildo de la Villa y en 1599 fue alcalde ordinario: Romero de Solís, Andariegos... (2001), 97.                                                                                                                            |                       |                       |
|                                                                                                                                                                                                                                                                                                                                                                                                                                                                          |                       |                       |
| (329) También llamada Isabel del Castillo, era hija legítima de Diego Aguilar del Castillo y María de Cáceres. Ésta, tiempo después, demandaría a su yerno Juan de Valencia por afrentas de palabra: infra, IV, regº 856.                                                                                                                                                                                                                                                |                       |                       |
|                                                                                                                                                                                                                                                                                                                                                                                                                                                                          |                       |                       |
| (330) Hernando de Alvarado, vecino de Colima desde 1575, era hijo legítimo de Juan Núñez de Alvarado e Isabel de Arévalo. Hermano de Juan Núñez y Francisco Núñez (o Preciado), alias Pillo. Casó con Francisca del Castillo: Romero de Solís, Andariegos... (2001), 34-35.                                                                                                                                                                                              |                       |                       |
|                                                                                                                                                                                                                                                                                                                                                                                                                                                                          |                       |                       |
| (331) Quizá Francisco Briceño, hijo de Juan Fernández de Ocampo y nieto del conquistador Juan Fernández El Viejo, fuera mestizo. Su vecindad en Colima está documentada desde 1592. Curiosamente, todavía en 1622, cuando presenta su Inventario de bienes, era soltero. A partir de 1600 fue alguacil mayor de Colima, oficio que le compró su padre y que ejerció por más de dos décadas: Romero de Solís, Andariegos... (2001), 71.                                   |                       |                       |
|                                                                                                                                                                                                                                                                                                                                                                                                                                                                          |                       |                       |
|   ---------------------------------------------------------------------------------------------------                                                                                                                                                                                                                                                                                                                                                                    |                       |                       |
|    Documento(s) original(es)                                                                                                                                                                                                                                                                                                                                                                                                                                             |                       |                       |
|   --------------------------- ------- ------- ------- ------- ------- ------- ------- ------- -------                                                                                                                                                                                                                                                                                                                                                                    |                       |                       |
|               []                []      []                                                                                                                                                                                                                                                                                                                                                                                                                               |                       |                       |
|               41v               42f     42v                                                                                                                                                                                                                                                                                                                                                                                                                              |                       |                       |
|                                                                                                                                                                                                                                                                                                                                                                                                                                                                          |                       |                       |
|   ---------------------------------------------------------------------------------------------------                                                                                                                                                                                                                                                                                                                                                                    |                       |                       |
+--------------------------------------------------------------------------------------------------------------------------------------------------------------------------------------------------------------------------------------------------------------------------------------------------------------------------------------------------------------------------------------------------------------------------------------------------------------------------+-----------------------+-----------------------+
| +----------------------------------------------------------------------------+------------------------------------------------+                                                                                                                                                                                                                                                                                                                                          |                       |                       |
| | ISBN 978-607-701-024-1                                                     |   ---- ---- ---- ---- ---- ---- ---- ---- ---- |                                                                                                                                                                                                                                                                                                                                          |                       |                       |
| | © Derechos Reservados 2013. Archivo Histórico del Municipio de Colima. [*] |   []        []        []        []        []   |                                                                                                                                                                                                                                                                                                                                          |                       |                       |
| |                                                                            |   ---- ---- ---- ---- ---- ---- ---- ---- ---- |                                                                                                                                                                                                                                                                                                                                          |                       |                       |
| +----------------------------------------------------------------------------+------------------------------------------------+                                                                                                                                                                                                                                                                                                                                          |                       |                       |
| |                                                                            |                                                |                                                                                                                                                                                                                                                                                                                                          |                       |                       |
| +----------------------------------------------------------------------------+------------------------------------------------+                                                                                                                                                                                                                                                                                                                                          |                       |                       |
+--------------------------------------------------------------------------------------------------------------------------------------------------------------------------------------------------------------------------------------------------------------------------------------------------------------------------------------------------------------------------------------------------------------------------------------------------------------------------+-----------------------+-----------------------+

615 visitas
