+----------------------------------------------------------------------------------------------------------------------------------------------------------------------------------------------------------------------------------------------------------------------------------------------------------------+-----------------------+-----------------------+
| []                                                                                                                                                                                                                                                                                                             |                       |                       |
|                                                                                                                                                                                                                                                                                                                |                       |                       |
| +-----------------------------------+:-------------------------------------:+                                                                                                                                                                                                                                  |                       |                       |
| | []                                | LA VILLA DE COLIMA DE LA NUEVA ESPAÑA |                                                                                                                                                                                                                                  |                       |                       |
| |                                   | SIGLO XVI                             |                                                                                                                                                                                                                                  |                       |                       |
| |                                   |                                       |                                                                                                                                                                                                                                  |                       |                       |
| |                                   | VOLUMEN II      (CAJAS 12-20)         |                                                                                                                                                                                                                                  |                       |                       |
| +-----------------------------------+---------------------------------------+                                                                                                                                                                                                                                  |                       |                       |
+----------------------------------------------------------------------------------------------------------------------------------------------------------------------------------------------------------------------------------------------------------------------------------------------------------------+-----------------------+-----------------------+
| +------------------------------------------------------------------------+---------------------------+-----------------------+                                                                                                                                                                                 |                       |                       |
| | Inicio | Búsqueda | Siglas y bibliografía | Créditos | Más información | (consulta las cajas 1-11) |    [ES]               |                                                                                                                                                                                 |                       |                       |
| +------------------------------------------------------------------------+---------------------------+-----------------------+                                                                                                                                                                                 |                       |                       |
+----------------------------------------------------------------------------------------------------------------------------------------------------------------------------------------------------------------------------------------------------------------------------------------------------------------+-----------------------+-----------------------+
| Búsqueda rápida                                                                                                                                                                                                                                                                                                |                       |                       |
|                                                                                                                                                                                                                                                                                                                |                       |                       |
| +:-------------------:+-----------------+:----------------------------------------:+----------------:+                                                                                                                                                                                                         |                       |                       |
| | Documento de fecha: |                 | Ubicación física del documento original: | [] [] []        |                                                                                                                                                                                                         |                       |                       |
| |                     |                 |                                          |                 |                                                                                                                                                                                                         |                       |                       |
| | 1595. Noviembre, 14 |                 | Caja 12, exp. 8, f. 75                   |                 |                                                                                                                                                                                                         |                       |                       |
| |                     |                 |                                          |                 |                                                                                                                                                                                                         |                       |                       |
| |                     |                 | Nota(s): Antes ff. 60 fte y vta.         |                 |                                                                                                                                                                                                         |                       |                       |
| +---------------------+-----------------+------------------------------------------+-----------------+                                                                                                                                                                                                         |                       |                       |
|                                                                                                                                                                                                                                                                                                                |                       |                       |
|   ------------- ------------------------------------------                                                                                                                                                                                                                                                     |                       |                       |
|   Resumen:      Poder de Gaspar Román a Toribio de Casso                                                                                                                                                                                                                                                       |                       |                       |
|   ------------- ------------------------------------------                                                                                                                                                                                                                                                     |                       |                       |
|                                                                                                                                                                                                                                                                                                                |                       |                       |
|   ----------------------------------- -----------------------------------------------------------------------------------------------------------------                                                                                                                                                        |                       |                       |
|   Contenido:                          Gaspar Román, vecino de Colima, otorga poder a Toribio de Casso, escribano público y del Cabildo de esta Villa.                                                                                                                                                          |                       |                       |
|                                       Testigos: Juan Fernández de Tene, Domingo Sánchez y Antonio de Campos,^([344]) vecinos de esta Villa.                                                                                                                                                                    |                       |                       |
|                                       Escribano: Cristóbal Hernández de Tene.                                                                                                                                                                                                                                  |                       |                       |
|                                                                                                                                                                                                                                                                                                                |                       |                       |
|   ----------------------------------- -----------------------------------------------------------------------------------------------------------------                                                                                                                                                        |                       |                       |
|                                                                                                                                                                                                                                                                                                                |                       |                       |
| (344) Más adelante, se le registra como Antonio de Campo: infra, regº 477. Quizá se trate del vecino Antonio de Ocampo, quien estaba casado con María de Alcalá, hija del escribano Baltasar de Alcalá y Francisca de Saldaña. Fue alcalde orsdinario en 1596: Romero de Solís, Andariegos... (2001), 367-368. |                       |                       |
|                                                                                                                                                                                                                                                                                                                |                       |                       |
|   ---------------------------------------------------------------------------------------------------                                                                                                                                                                                                          |                       |                       |
|    Documento(s) original(es)                                                                                                                                                                                                                                                                                   |                       |                       |
|   --------------------------- ------- ------- ------- ------- ------- ------- ------- ------- -------                                                                                                                                                                                                          |                       |                       |
|               []                []                                                                                                                                                                                                                                                                             |                       |                       |
|               75f               75v                                                                                                                                                                                                                                                                            |                       |                       |
|                                                                                                                                                                                                                                                                                                                |                       |                       |
|   ---------------------------------------------------------------------------------------------------                                                                                                                                                                                                          |                       |                       |
+----------------------------------------------------------------------------------------------------------------------------------------------------------------------------------------------------------------------------------------------------------------------------------------------------------------+-----------------------+-----------------------+
| +----------------------------------------------------------------------------+------------------------------------------------+                                                                                                                                                                                |                       |                       |
| | ISBN 978-607-701-024-1                                                     |   ---- ---- ---- ---- ---- ---- ---- ---- ---- |                                                                                                                                                                                |                       |                       |
| | © Derechos Reservados 2013. Archivo Histórico del Municipio de Colima. [*] |   []        []        []        []        []   |                                                                                                                                                                                |                       |                       |
| |                                                                            |   ---- ---- ---- ---- ---- ---- ---- ---- ---- |                                                                                                                                                                                |                       |                       |
| +----------------------------------------------------------------------------+------------------------------------------------+                                                                                                                                                                                |                       |                       |
| |                                                                            |                                                |                                                                                                                                                                                |                       |                       |
| +----------------------------------------------------------------------------+------------------------------------------------+                                                                                                                                                                                |                       |                       |
+----------------------------------------------------------------------------------------------------------------------------------------------------------------------------------------------------------------------------------------------------------------------------------------------------------------+-----------------------+-----------------------+

615 visitas
