+---------------------------------------------------------------------------------------------------------------------------------+-----------------------+-----------------------+
| []                                                                                                                              |                       |                       |
|                                                                                                                                 |                       |                       |
| +-----------------------------------+:-------------------------------------:+                                                   |                       |                       |
| | []                                | LA VILLA DE COLIMA DE LA NUEVA ESPAÑA |                                                   |                       |                       |
| |                                   | SIGLO XVI                             |                                                   |                       |                       |
| |                                   |                                       |                                                   |                       |                       |
| |                                   | VOLUMEN II      (CAJAS 12-20)         |                                                   |                       |                       |
| +-----------------------------------+---------------------------------------+                                                   |                       |                       |
+---------------------------------------------------------------------------------------------------------------------------------+-----------------------+-----------------------+
| +------------------------------------------------------------------------+---------------------------+-----------------------+  |                       |                       |
| | Inicio | Búsqueda | Siglas y bibliografía | Créditos | Más información | (consulta las cajas 1-11) |    [ES]               |  |                       |                       |
| +------------------------------------------------------------------------+---------------------------+-----------------------+  |                       |                       |
+---------------------------------------------------------------------------------------------------------------------------------+-----------------------+-----------------------+
| Búsqueda rápida                                                                                                                 |                       |                       |
|                                                                                                                                 |                       |                       |
| +:-------------------:+-----------------+:----------------------------------------:+----------------:+                          |                       |                       |
| | Documento de fecha: |                 | Ubicación física del documento original: | [] [] []        |                          |                       |                       |
| |                     |                 |                                          |                 |                          |                       |                       |
| | 1595. Octubre, 8    |                 | Caja 12, exp. 8, f. 82                   |                 |                          |                       |                       |
| |                     |                 |                                          |                 |                          |                       |                       |
| |                     |                 | Nota(s): Antes ff. 68 fte y vta.         |                 |                          |                       |                       |
| +---------------------+-----------------+------------------------------------------+-----------------+                          |                       |                       |
|                                                                                                                                 |                       |                       |
|   ------------- ----------------------------------------------------------------------                                          |                       |                       |
|   Resumen:      Antonio de Velasco otorga poder al bachiller Juan Rodríguez Santiago                                            |                       |                       |
|   ------------- ----------------------------------------------------------------------                                          |                       |                       |
|                                                                                                                                 |                       |                       |
|   ----------------------------------- ------------------------------------------------------------------------------            |                       |                       |
|   Contenido:                          Testigos: Juan de Labayen, Domingo Sánchez y Juan Coello, vecinos de Colima.              |                       |                       |
|                                       Escribano: Cristóbal Hernández de Tene.                                                   |                       |                       |
|                                                                                                                                 |                       |                       |
|   ----------------------------------- ------------------------------------------------------------------------------            |                       |                       |
|                                                                                                                                 |                       |                       |
|   ---------------------------------------------------------------------------------------------------                           |                       |                       |
|    Documento(s) original(es)                                                                                                    |                       |                       |
|   --------------------------- ------- ------- ------- ------- ------- ------- ------- ------- -------                           |                       |                       |
|               []                []                                                                                              |                       |                       |
|               82f               82v                                                                                             |                       |                       |
|                                                                                                                                 |                       |                       |
|   ---------------------------------------------------------------------------------------------------                           |                       |                       |
+---------------------------------------------------------------------------------------------------------------------------------+-----------------------+-----------------------+
| +----------------------------------------------------------------------------+------------------------------------------------+ |                       |                       |
| | ISBN 978-607-701-024-1                                                     |   ---- ---- ---- ---- ---- ---- ---- ---- ---- | |                       |                       |
| | © Derechos Reservados 2013. Archivo Histórico del Municipio de Colima. [*] |   []        []        []        []        []   | |                       |                       |
| |                                                                            |   ---- ---- ---- ---- ---- ---- ---- ---- ---- | |                       |                       |
| +----------------------------------------------------------------------------+------------------------------------------------+ |                       |                       |
| |                                                                            |                                                | |                       |                       |
| +----------------------------------------------------------------------------+------------------------------------------------+ |                       |                       |
+---------------------------------------------------------------------------------------------------------------------------------+-----------------------+-----------------------+

615 visitas
