+----------------------------------------------------------------------------------------------------------------------------------------------------------------------------------------------------------------------------------------------------------------------------------------------------------------------------+-----------------------+-----------------------+
| []                                                                                                                                                                                                                                                                                                                         |                       |                       |
|                                                                                                                                                                                                                                                                                                                            |                       |                       |
| +-----------------------------------+:-------------------------------------:+                                                                                                                                                                                                                                              |                       |                       |
| | []                                | LA VILLA DE COLIMA DE LA NUEVA ESPAÑA |                                                                                                                                                                                                                                              |                       |                       |
| |                                   | SIGLO XVI                             |                                                                                                                                                                                                                                              |                       |                       |
| |                                   |                                       |                                                                                                                                                                                                                                              |                       |                       |
| |                                   | VOLUMEN II      (CAJAS 12-20)         |                                                                                                                                                                                                                                              |                       |                       |
| +-----------------------------------+---------------------------------------+                                                                                                                                                                                                                                              |                       |                       |
+----------------------------------------------------------------------------------------------------------------------------------------------------------------------------------------------------------------------------------------------------------------------------------------------------------------------------+-----------------------+-----------------------+
| +------------------------------------------------------------------------+---------------------------+-----------------------+                                                                                                                                                                                             |                       |                       |
| | Inicio | Búsqueda | Siglas y bibliografía | Créditos | Más información | (consulta las cajas 1-11) |    [ES]               |                                                                                                                                                                                             |                       |                       |
| +------------------------------------------------------------------------+---------------------------+-----------------------+                                                                                                                                                                                             |                       |                       |
+----------------------------------------------------------------------------------------------------------------------------------------------------------------------------------------------------------------------------------------------------------------------------------------------------------------------------+-----------------------+-----------------------+
| Búsqueda rápida                                                                                                                                                                                                                                                                                                            |                       |                       |
|                                                                                                                                                                                                                                                                                                                            |                       |                       |
| +:-------------------:+-----------------+:----------------------------------------:+----------------:+                                                                                                                                                                                                                     |                       |                       |
| | Documento de fecha: |                 | Ubicación física del documento original: | [] [] []        |                                                                                                                                                                                                                     |                       |                       |
| |                     |                 |                                          |                 |                                                                                                                                                                                                                     |                       |                       |
| | 1590. Marzo, 7      |                 | Caja 13, exp. 10, 1 f.                   |                 |                                                                                                                                                                                                                     |                       |                       |
| +---------------------+-----------------+------------------------------------------+-----------------+                                                                                                                                                                                                                     |                       |                       |
|                                                                                                                                                                                                                                                                                                                            |                       |                       |
|   ------------- ------------------------------------------------------------------------------------------------------------------------------------------                                                                                                                                                                 |                       |                       |
|   Resumen:      El escribano Francisco López Avecilla pide a Juan Fernández de Ocampo adelante dineros en cuenta de sus derechos para la compra de papel                                                                                                                                                                   |                       |                       |
|   ------------- ------------------------------------------------------------------------------------------------------------------------------------------                                                                                                                                                                 |                       |                       |
|                                                                                                                                                                                                                                                                                                                            |                       |                       |
|   ----------------------------------- ------------------------------------------------------------------------------------------------------------------------------------------------------------------------------------------------------------------------------------------------------------------------------------ |                       |                       |
|   Contenido:                          Ante Francisco López Avecilla, escribano público de la Villa de Colima y su Provincia, el vecino de Colima Juan Fernández de Ocampo “presentó esta Real Compulsoria del Rey Nuestro Señor”, pidiendo su cumplimiento y que se hiciera el traslado del pleito y causa que se sigue.   |                       |                       |
|                                       López Avecilla puso sobre su cabeza la Real Compulsoria, pero pidió que Fernández de Ocampo adelante dinero “en cuenta de mis derechos”, para la compra de papel. Testigos: Juan de Monroy y Juan Bautista de Quirós, vecinos de Colima.                                             |                       |                       |
|                                                                                                                                                                                                                                                                                                                            |                       |                       |
|   ----------------------------------- ------------------------------------------------------------------------------------------------------------------------------------------------------------------------------------------------------------------------------------------------------------------------------------ |                       |                       |
|                                                                                                                                                                                                                                                                                                                            |                       |                       |
|   ---------------------------------------------------------------------------------------------------                                                                                                                                                                                                                      |                       |                       |
|    Documento(s) original(es)                                                                                                                                                                                                                                                                                               |                       |                       |
|   --------------------------- ------- ------- ------- ------- ------- ------- ------- ------- -------                                                                                                                                                                                                                      |                       |                       |
|               []                []                                                                                                                                                                                                                                                                                         |                       |                       |
|               1f                1v                                                                                                                                                                                                                                                                                         |                       |                       |
|                                                                                                                                                                                                                                                                                                                            |                       |                       |
|   ---------------------------------------------------------------------------------------------------                                                                                                                                                                                                                      |                       |                       |
+----------------------------------------------------------------------------------------------------------------------------------------------------------------------------------------------------------------------------------------------------------------------------------------------------------------------------+-----------------------+-----------------------+
| +----------------------------------------------------------------------------+------------------------------------------------+                                                                                                                                                                                            |                       |                       |
| | ISBN 978-607-701-024-1                                                     |   ---- ---- ---- ---- ---- ---- ---- ---- ---- |                                                                                                                                                                                            |                       |                       |
| | © Derechos Reservados 2013. Archivo Histórico del Municipio de Colima. [*] |   []        []        []        []        []   |                                                                                                                                                                                            |                       |                       |
| |                                                                            |   ---- ---- ---- ---- ---- ---- ---- ---- ---- |                                                                                                                                                                                            |                       |                       |
| +----------------------------------------------------------------------------+------------------------------------------------+                                                                                                                                                                                            |                       |                       |
| |                                                                            |                                                |                                                                                                                                                                                            |                       |                       |
| +----------------------------------------------------------------------------+------------------------------------------------+                                                                                                                                                                                            |                       |                       |
+----------------------------------------------------------------------------------------------------------------------------------------------------------------------------------------------------------------------------------------------------------------------------------------------------------------------------+-----------------------+-----------------------+

615 visitas
