+---------------------------------------------------------------------------------------------------------------------------------------------------------------------------------------------------------------------------------------------------------------------------------------------------------------------------------------------------------------------------------------------------------------------------------------------------------------------------------------------------------------------------------------------------------------------------------------------+-----------------------+-----------------------+
| []                                                                                                                                                                                                                                                                                                                                                                                                                                                                                                                                                                                          |                       |                       |
|                                                                                                                                                                                                                                                                                                                                                                                                                                                                                                                                                                                             |                       |                       |
| +-----------------------------------+:-------------------------------------:+                                                                                                                                                                                                                                                                                                                                                                                                                                                                                                               |                       |                       |
| | []                                | LA VILLA DE COLIMA DE LA NUEVA ESPAÑA |                                                                                                                                                                                                                                                                                                                                                                                                                                                                                                               |                       |                       |
| |                                   | SIGLO XVI                             |                                                                                                                                                                                                                                                                                                                                                                                                                                                                                                               |                       |                       |
| |                                   |                                       |                                                                                                                                                                                                                                                                                                                                                                                                                                                                                                               |                       |                       |
| |                                   | VOLUMEN II      (CAJAS 12-20)         |                                                                                                                                                                                                                                                                                                                                                                                                                                                                                                               |                       |                       |
| +-----------------------------------+---------------------------------------+                                                                                                                                                                                                                                                                                                                                                                                                                                                                                                               |                       |                       |
+---------------------------------------------------------------------------------------------------------------------------------------------------------------------------------------------------------------------------------------------------------------------------------------------------------------------------------------------------------------------------------------------------------------------------------------------------------------------------------------------------------------------------------------------------------------------------------------------+-----------------------+-----------------------+
| +------------------------------------------------------------------------+---------------------------+-----------------------+                                                                                                                                                                                                                                                                                                                                                                                                                                                              |                       |                       |
| | Inicio | Búsqueda | Siglas y bibliografía | Créditos | Más información | (consulta las cajas 1-11) |    [ES]               |                                                                                                                                                                                                                                                                                                                                                                                                                                                              |                       |                       |
| +------------------------------------------------------------------------+---------------------------+-----------------------+                                                                                                                                                                                                                                                                                                                                                                                                                                                              |                       |                       |
+---------------------------------------------------------------------------------------------------------------------------------------------------------------------------------------------------------------------------------------------------------------------------------------------------------------------------------------------------------------------------------------------------------------------------------------------------------------------------------------------------------------------------------------------------------------------------------------------+-----------------------+-----------------------+
| Búsqueda rápida                                                                                                                                                                                                                                                                                                                                                                                                                                                                                                                                                                             |                       |                       |
|                                                                                                                                                                                                                                                                                                                                                                                                                                                                                                                                                                                             |                       |                       |
| +:-------------------:+-----------------+:----------------------------------------:+----------------:+                                                                                                                                                                                                                                                                                                                                                                                                                                                                                      |                       |                       |
| | Documento de fecha: |                 | Ubicación física del documento original: | [] [] []        |                                                                                                                                                                                                                                                                                                                                                                                                                                                                                      |                       |                       |
| |                     |                 |                                          |                 |                                                                                                                                                                                                                                                                                                                                                                                                                                                                                      |                       |                       |
| | 1597. Diciembre, 31 |                 | Caja 13, exp. 29, 6 ff.^([453])          |                 |                                                                                                                                                                                                                                                                                                                                                                                                                                                                                      |                       |                       |
| +---------------------+-----------------+------------------------------------------+-----------------+                                                                                                                                                                                                                                                                                                                                                                                                                                                                                      |                       |                       |
|                                                                                                                                                                                                                                                                                                                                                                                                                                                                                                                                                                                             |                       |                       |
|   ------------- ----------------------------------------------------------------------------------------------------------------------------------------------------                                                                                                                                                                                                                                                                                                                                                                                                                        |                       |                       |
|   Resumen:      El alcaide de la Villa pide se haga información sobre un caballo que en él fue depositado y que Pedro y Juan de Aguilar llevaron al Valle de Alima                                                                                                                                                                                                                                                                                                                                                                                                                          |                       |                       |
|   ------------- ----------------------------------------------------------------------------------------------------------------------------------------------------                                                                                                                                                                                                                                                                                                                                                                                                                        |                       |                       |
|                                                                                                                                                                                                                                                                                                                                                                                                                                                                                                                                                                                             |                       |                       |
|   ----------------------------------- ----------------------------------------------------------------------------------------------------------------------------------------------------------------------------------------------------------------------------------------------------------------------------------------------------------------------------------------------------------------------------------------------------------------------------------------------------------------------------------------------------------------------------------------------------- |                       |                       |
|   Contenido:                          “Joan de Espinosa, teniente de alguacil mayor y alcaide de la cárcel pública desta Villa, digo que, habiendo V.m. preso a Esteban de Aguilar, al tiempo de la dicha prisión, V.m. le quitó un caballo bayo con ciertos fierros, el cual V.m. depositó en mí.                                                                                                                                                                                                                                                                                          |                       |                       |
|                                       “Y teniéndolo yo en la sabana y ejidos desta Villa, ha faltado.                                                                                                                                                                                                                                                                                                                                                                                                                                                                                       |                       |                       |
|                                       “Y ha venido a mi noticia que Pedro y Juan de Aguilar, hijos de Joan de Aguilar Solórzano, lo llevaron en su poder al Valle de Alima, donde el dicho su padre tiene su hacienda.                                                                                                                                                                                                                                                                                                                                                                      |                       |                       |
|                                       “Y para descargo mío, tengo necesidad [que] V.m. me reciba información para que en ningún tiempo se me pida, y los dichos sean castigados conforme a derecho”.                                                                                                                                                                                                                                                                                                                                                                                        |                       |                       |
|                                       Pedro Gómez Machorro, justicia mayor de la Villa y Provincia de Colima, dispuso que se recibiese la información.                                                                                                                                                                                                                                                                                                                                                                                                                                      |                       |                       |
|                                       Juan de Espinosa presentó, entonces, por testigo a Álvaro Fernández, cirujano, estante en esta Villa de Colima, el cual declaró que el lunes pasado, que se contaron 29 días de diciembre, vio a Pedro y Juan de Aguilar “irse hacia el Valle de Alima, y llevaban un caballo bayo, cuatralbo, con tres fierros de un lado y el del medio una Ese, y del otro lado el fierro de Juan de Aguilar”. El cirujano dijo tener más de 30 años de edad.                                                                                                      |                       |                       |
|                                       El 19 de enero de 1598, el justicia mayor tomó la confesión a Pedro de Aguilar,^([451]) preso a la sazón en la cárcel pública de la Villa, a quien había detenido el teniente de alguacil mayor, Juan de Espinosa. El justicia mayor se trasladó a la cárcel.                                                                                                                                                                                                                                                                                         |                       |                       |
|                                       El detenido dijo tener 22 años de edad, y que “su oficio es servir a Juan de Aguilar, su padre”. Declaró que el lunes 29 de diciembre, en efecto, viajó hacia el Valle de Alima, en compañía de su hermano Francisco de Aguilar,^([452]) quien llevaba un caballo bayo “a poder del dicho Juan de Aguilar, su padre, el cual le tiene”, y que este confesante “no le llevó ni le cogió de la sabana”. No supo decir, empero, quién había tomado el caballo.                                                                                           |                       |                       |
|                                       Viendo esta confesión y que Pedro de Aguilar era menor de edad, Pedro Gómez Machorro designó por su defensor a Juan Ruiz de Haro, vecino de la Villa de Colima, quien al ser notificado por Toribio de Casso, escribano público, contestó estar impedido para el dicho oficio.                                                                                                                                                                                                                                                                        |                       |                       |
|                                       Ante esto, el justicia mayor dispuso que Pedro de Aguilar “dé fianza de que pasado mañana martes se volverá a la cárcel y prisión en que está” y sea suelto entretanto de la prisión.                                                                                                                                                                                                                                                                                                                                                                 |                       |                       |
|                                       Diego Pérez de Espinosa se constituyó en fiador y depositario de Pedro de Aguilar.                                                                                                                                                                                                                                                                                                                                                                                                                                                                    |                       |                       |
|                                       El 29 de enero, Pedro Gómez Machorro mandaba al alcaide que si no estaba en la cárcel Pedro de Aguilar, se notifique a su fiador, Diego Pérez de Espinosa, que nombre casa y procurador conocido en esta audiencia con quien se sigan los autos de esta causa.                                                                                                                                                                                                                                                                                        |                       |                       |
|                                       El alcaide declaró que desde que Diego Pérez de Espinosa recibió en fiado a Pedro de Aguilar, éste no ha vuelto a la cárcel. Testigos: Pedro de Ceballos y el Beneficiado Heredia, vecinos ambos de Colima.                                                                                                                                                                                                                                                                                                                                           |                       |                       |
|                                       Al día siguiente, el justicia mayor hacía e hizo culpa y cargo y cabeza de proceso de la culpa contra Pedro de Aguilar, a quien notificó el auto el escribano Toribio de Casso, estando presente el alcalde ordinario Cristóbal Hernández de Tene.                                                                                                                                                                                                                                                                                                    |                       |                       |
|                                       El 13 de febrero, el justicia mayor dictó sentencia, condenando a Pedro de Aguilar y Diego Pérez de Espinosa, su fiador, a seis pesos de oro común, a repartir de la siguiente manera: “la tercia parte para la Cámara Real de Su Majestad, y la otra a las obras de las Casas Reales desta dicha Villa, y la otra a gastos de correos ordinarios a la Ciudad de México con avisos al señor Visorrey sobre la jornada que el capitán Sebastián Vizcaíno, por mandado de Su Señoría Ilustrísima, hizo a dar socorro y aviso a las naos de la China”.   |                       |                       |
|                                       Además condenaba a ambos a las costas del proceso y a que, si en algún momento alguien exigiera su derecho sobre el caballo, se le diese el mismo o su valor. Se especifican las costas.                                                                                                                                                                                                                                                                                                                                                              |                       |                       |
|                                                                                                                                                                                                                                                                                                                                                                                                                                                                                                                                                                                             |                       |                       |
|   ----------------------------------- ----------------------------------------------------------------------------------------------------------------------------------------------------------------------------------------------------------------------------------------------------------------------------------------------------------------------------------------------------------------------------------------------------------------------------------------------------------------------------------------------------------------------------------------------------- |                       |                       |
|                                                                                                                                                                                                                                                                                                                                                                                                                                                                                                                                                                                             |                       |                       |
| (451) También registrado como Pedro Santos de Aguilar o Pedro Santos de Solórzano: infra, III, regº 545; IV, regº 1066 y AHMC/B, caja 20, exp. 7, pos. 33. Era hijo legítimo de Juan de Aguilar Solórzano El Mozo y María de Pantoja.                                                                                                                                                                                                                                                                                                                                                       |                       |                       |
|                                                                                                                                                                                                                                                                                                                                                                                                                                                                                                                                                                                             |                       |                       |
| (452) Hijo legítimo de Juan de Aguilar Solórzano El Mozo y María de Pantoja.                                                                                                                                                                                                                                                                                                                                                                                                                                                                                                                |                       |                       |
|                                                                                                                                                                                                                                                                                                                                                                                                                                                                                                                                                                                             |                       |                       |
| (453) Antes en caja 13, exp. 15.                                                                                                                                                                                                                                                                                                                                                                                                                                                                                                                                                            |                       |                       |
|                                                                                                                                                                                                                                                                                                                                                                                                                                                                                                                                                                                             |                       |                       |
|   ---------------------------------------------------------------------------------------------------                                                                                                                                                                                                                                                                                                                                                                                                                                                                                       |                       |                       |
|    Documento(s) original(es)                                                                                                                                                                                                                                                                                                                                                                                                                                                                                                                                                                |                       |                       |
|   --------------------------- ------- ------- ------- ------- ------- ------- ------- ------- -------                                                                                                                                                                                                                                                                                                                                                                                                                                                                                       |                       |                       |
|               []                []      []      []      []      []      []      []      []      []                                                                                                                                                                                                                                                                                                                                                                                                                                                                                          |                       |                       |
|               1f                1v      2f      2v      3f      3v      4f      4v      5f      5v                                                                                                                                                                                                                                                                                                                                                                                                                                                                                          |                       |                       |
|                                                                                                                                                                                                                                                                                                                                                                                                                                                                                                                                                                                             |                       |                       |
|               []                                                                                                                                                                                                                                                                                                                                                                                                                                                                                                                                                                            |                       |                       |
|               6f                                                                                                                                                                                                                                                                                                                                                                                                                                                                                                                                                                            |                       |                       |
|   ---------------------------------------------------------------------------------------------------                                                                                                                                                                                                                                                                                                                                                                                                                                                                                       |                       |                       |
+---------------------------------------------------------------------------------------------------------------------------------------------------------------------------------------------------------------------------------------------------------------------------------------------------------------------------------------------------------------------------------------------------------------------------------------------------------------------------------------------------------------------------------------------------------------------------------------------+-----------------------+-----------------------+
| +----------------------------------------------------------------------------+------------------------------------------------+                                                                                                                                                                                                                                                                                                                                                                                                                                                             |                       |                       |
| | ISBN 978-607-701-024-1                                                     |   ---- ---- ---- ---- ---- ---- ---- ---- ---- |                                                                                                                                                                                                                                                                                                                                                                                                                                                             |                       |                       |
| | © Derechos Reservados 2013. Archivo Histórico del Municipio de Colima. [*] |   []        []        []        []        []   |                                                                                                                                                                                                                                                                                                                                                                                                                                                             |                       |                       |
| |                                                                            |   ---- ---- ---- ---- ---- ---- ---- ---- ---- |                                                                                                                                                                                                                                                                                                                                                                                                                                                             |                       |                       |
| +----------------------------------------------------------------------------+------------------------------------------------+                                                                                                                                                                                                                                                                                                                                                                                                                                                             |                       |                       |
| |                                                                            |                                                |                                                                                                                                                                                                                                                                                                                                                                                                                                                             |                       |                       |
| +----------------------------------------------------------------------------+------------------------------------------------+                                                                                                                                                                                                                                                                                                                                                                                                                                                             |                       |                       |
+---------------------------------------------------------------------------------------------------------------------------------------------------------------------------------------------------------------------------------------------------------------------------------------------------------------------------------------------------------------------------------------------------------------------------------------------------------------------------------------------------------------------------------------------------------------------------------------------+-----------------------+-----------------------+

615 visitas
