+---------------------------------------------------------------------------------------------------------------------------------------------------------------------------------------------------------------------------------------------------------------------------------------------------------------------------------------------------------------------------------------------------------------------------------------------------------------------------------------------------------------------------------------------------------------------------------------------------------------------------------------------------------------------------------------------------------------------------------------------------------------------------------------------------------------------------------------------------------------------------------------------------------------------------------------------------------------------------------------------------------------------------------------------------------------------+-----------------------+-----------------------+
| []                                                                                                                                                                                                                                                                                                                                                                                                                                                                                                                                                                                                                                                                                                                                                                                                                                                                                                                                                                                                                                                                  |                       |                       |
|                                                                                                                                                                                                                                                                                                                                                                                                                                                                                                                                                                                                                                                                                                                                                                                                                                                                                                                                                                                                                                                                     |                       |                       |
| +-----------------------------------+:-------------------------------------:+                                                                                                                                                                                                                                                                                                                                                                                                                                                                                                                                                                                                                                                                                                                                                                                                                                                                                                                                                                                       |                       |                       |
| | []                                | LA VILLA DE COLIMA DE LA NUEVA ESPAÑA |                                                                                                                                                                                                                                                                                                                                                                                                                                                                                                                                                                                                                                                                                                                                                                                                                                                                                                                                                                                       |                       |                       |
| |                                   | SIGLO XVI                             |                                                                                                                                                                                                                                                                                                                                                                                                                                                                                                                                                                                                                                                                                                                                                                                                                                                                                                                                                                                       |                       |                       |
| |                                   |                                       |                                                                                                                                                                                                                                                                                                                                                                                                                                                                                                                                                                                                                                                                                                                                                                                                                                                                                                                                                                                       |                       |                       |
| |                                   | VOLUMEN II      (CAJAS 12-20)         |                                                                                                                                                                                                                                                                                                                                                                                                                                                                                                                                                                                                                                                                                                                                                                                                                                                                                                                                                                                       |                       |                       |
| +-----------------------------------+---------------------------------------+                                                                                                                                                                                                                                                                                                                                                                                                                                                                                                                                                                                                                                                                                                                                                                                                                                                                                                                                                                                       |                       |                       |
+---------------------------------------------------------------------------------------------------------------------------------------------------------------------------------------------------------------------------------------------------------------------------------------------------------------------------------------------------------------------------------------------------------------------------------------------------------------------------------------------------------------------------------------------------------------------------------------------------------------------------------------------------------------------------------------------------------------------------------------------------------------------------------------------------------------------------------------------------------------------------------------------------------------------------------------------------------------------------------------------------------------------------------------------------------------------+-----------------------+-----------------------+
| +------------------------------------------------------------------------+---------------------------+-----------------------+                                                                                                                                                                                                                                                                                                                                                                                                                                                                                                                                                                                                                                                                                                                                                                                                                                                                                                                                      |                       |                       |
| | Inicio | Búsqueda | Siglas y bibliografía | Créditos | Más información | (consulta las cajas 1-11) |    [ES]               |                                                                                                                                                                                                                                                                                                                                                                                                                                                                                                                                                                                                                                                                                                                                                                                                                                                                                                                                      |                       |                       |
| +------------------------------------------------------------------------+---------------------------+-----------------------+                                                                                                                                                                                                                                                                                                                                                                                                                                                                                                                                                                                                                                                                                                                                                                                                                                                                                                                                      |                       |                       |
+---------------------------------------------------------------------------------------------------------------------------------------------------------------------------------------------------------------------------------------------------------------------------------------------------------------------------------------------------------------------------------------------------------------------------------------------------------------------------------------------------------------------------------------------------------------------------------------------------------------------------------------------------------------------------------------------------------------------------------------------------------------------------------------------------------------------------------------------------------------------------------------------------------------------------------------------------------------------------------------------------------------------------------------------------------------------+-----------------------+-----------------------+
| Búsqueda rápida                                                                                                                                                                                                                                                                                                                                                                                                                                                                                                                                                                                                                                                                                                                                                                                                                                                                                                                                                                                                                                                     |                       |                       |
|                                                                                                                                                                                                                                                                                                                                                                                                                                                                                                                                                                                                                                                                                                                                                                                                                                                                                                                                                                                                                                                                     |                       |                       |
| +:-------------------:+-----------------+:----------------------------------------:+----------------:+                                                                                                                                                                                                                                                                                                                                                                                                                                                                                                                                                                                                                                                                                                                                                                                                                                                                                                                                                              |                       |                       |
| | Documento de fecha: |                 | Ubicación física del documento original: | [] [] []        |                                                                                                                                                                                                                                                                                                                                                                                                                                                                                                                                                                                                                                                                                                                                                                                                                                                                                                                                                              |                       |                       |
| |                     |                 |                                          |                 |                                                                                                                                                                                                                                                                                                                                                                                                                                                                                                                                                                                                                                                                                                                                                                                                                                                                                                                                                              |                       |                       |
| | 1598. Julio, 14     |                 | Caja 14, exp. 8, 3 ff.                   |                 |                                                                                                                                                                                                                                                                                                                                                                                                                                                                                                                                                                                                                                                                                                                                                                                                                                                                                                                                                              |                       |                       |
| +---------------------+-----------------+------------------------------------------+-----------------+                                                                                                                                                                                                                                                                                                                                                                                                                                                                                                                                                                                                                                                                                                                                                                                                                                                                                                                                                              |                       |                       |
|                                                                                                                                                                                                                                                                                                                                                                                                                                                                                                                                                                                                                                                                                                                                                                                                                                                                                                                                                                                                                                                                     |                       |                       |
|   ------------- ---------------------------------------------------------------------------------------------------------------------------------------------------------------------------                                                                                                                                                                                                                                                                                                                                                                                                                                                                                                                                                                                                                                                                                                                                                                                                                                                                         |                       |                       |
|   Resumen:      Francisco Juárez, oficial sastre y vecino de Colima, pide se le reciba información de su calidad de mestizo, porque se le ha mandado empadronar por indio y pagar tributo                                                                                                                                                                                                                                                                                                                                                                                                                                                                                                                                                                                                                                                                                                                                                                                                                                                                           |                       |                       |
|   ------------- ---------------------------------------------------------------------------------------------------------------------------------------------------------------------------                                                                                                                                                                                                                                                                                                                                                                                                                                                                                                                                                                                                                                                                                                                                                                                                                                                                         |                       |                       |
|                                                                                                                                                                                                                                                                                                                                                                                                                                                                                                                                                                                                                                                                                                                                                                                                                                                                                                                                                                                                                                                                     |                       |                       |
|   ----------------------------------- ----------------------------------------------------------------------------------------------------------------------------------------------------------------------------------------------------------------------------------------------------------------------------------------------------------------------------------------------------------------------------------------------------------------------------------------------------------------------------------------------------------------------------------------------------------------------------------------------------------------------------------------------------------------------------------------------------------------------------------------------------------------------------------------------------------------------------------------------------------------------------------------------------------------------------------------------------------------------------------------------------------------------------- |                       |                       |
|   Contenido:                          Ante el alcalde mayor de Colima don Felipe de Valdés se presentó la siguiente petición:                                                                                                                                                                                                                                                                                                                                                                                                                                                                                                                                                                                                                                                                                                                                                                                                                                                                                                                                       |                       |                       |
|                                       “Francisco Juárez, oficial sastre, vecino desta Villa,^([472]) digo que ha más de veinte años yo resido en esta Villa y siempre he estado en opinión de mestizo por ser conocido hijo de Hernando de Aguilera,^([473]) español, vecino de México, y de Madalena Juárez, india natural de la dicha Ciudad.                                                                                                                                                                                                                                                                                                                                                                                                                                                                                                                                                                                                                                                                                                                     |                       |                       |
|                                       “Y ahora ha venido a mi noticia que V.m. ha mandado empadronarme por indio para pagar el tributo a Su Magestad que los indios son obligados a pagar en esta Nueva España.                                                                                                                                                                                                                                                                                                                                                                                                                                                                                                                                                                                                                                                                                                                                                                                                                                                     |                       |                       |
|                                       “Y para que conste a V.m. y a los que le sucedieren en el oficio de alcalde mayor ser yo hombre libre y exento de pagar el dicho tributo, tengo necesidad de dar información [de] ser tal mestizo, hijo de español, yo el que refiero.                                                                                                                                                                                                                                                                                                                                                                                                                                                                                                                                                                                                                                                                                                                                                                                        |                       |                       |
|                                       “A V.m. pido y suplico, me mande recibir la dicha información, que estoy presto de dar y, dada que baste, V.m. me dé por libre de lo que se me pide; y de la dicha información, se me dé testimonio para en guarda de mi derecho”.                                                                                                                                                                                                                                                                                                                                                                                                                                                                                                                                                                                                                                                                                                                                                                                            |                       |                       |
|                                       El alcalde así lo dispuso.                                                                                                                                                                                                                                                                                                                                                                                                                                                                                                                                                                                                                                                                                                                                                                                                                                                                                                                                                                                                    |                       |                       |
|                                       Entonces, el sastre presentó por testigo a Alonso Carrillo de Guzmán, vecino de la Villa, quien declaró: “Este testigo ha sido criado y vecino en la Ciudad de México, y conoció en ella a Hernando de Aguilera, cuñado deste testigo en la dicha Ciudad, el cual tenía en su casa al dicho Francisco Juárez, que le presenta por testigo, recién nacido en su casa del dicho Hernando de Aguilera de una india que tenía en su casa. Y se supo y fue público en la dicha Ciudad que el dicho Francisco Juárez era hijo de un mozo español que el dicho Hernando de Aguilera tenía en su casa. Y siendo después de edad de siete o ocho años, poco más o menos, Antonio Carrillo de Guzmán, hermano deste testigo, le trujo a esta Villa, y se lo dio el dicho Hernando de Aguilera para que le criase. Y ansí le criaron en esta Villa, este testigo y el dicho su hermano. Y por esta razón, este testigo le tiene por mestizo y no por indio, pues es hijo de español y de india”. Carrillo afirmó tener más de 50 años.   |                       |                       |
|                                       Francisco Juárez, a continuación, presentó por testigo a Antonio Carrillo de Guzmán, vecino también de la Villa, quien dijo tener más de 40 años de edad. Declaró que “habrá más de veinte años que en la Ciudad de México, Hernando de Aguilera que es difunto al presente, era cuñado deste testigo, recién casado con hermana suya, [y] le dio al dicho Francisco Juárez, que le presenta por testigo, para que le trujese a esta dicha Villa y le criase; y le dijo que se trujese aquel mestizuelo y lo criase. Y ansí este testigo le trajo y crió en esta Villa y le ha tratado y visto tratarse como mestizo, y cree que debía de ser hijo de un hombre español, que el dicho Hernando de Aguilera tenía en su casa, y de una india. Y este testigo le ha tenido y tiene por mestizo y se ha tratado así, y hablado y habla la lengua española, y esto es lo que sabe”.                                                                                                                                               |                       |                       |
|                                       Juan Agustín de la Puerta fue el tercer testigo presentado por Francisco Juárez. Dijo ser de más de 30 años de edad y ser vecino de Colima. Declaró que conoce al sastre desde hace muchos años, desde que este testigo vive en la Villa de Colima, y que siempre se le ha tratado por mestizo y nunca por indio; que ha oído decir a Alonso Carrillo de Guzmán que Francisco Juárez es hijo de español y de india, que “habla la lengua española, y tratar con españoles, y ser comedido y bien criado, y buen hijo. Y este testigo lo cree que es hijo de español por su buen modo de proceder”.                                                                                                                                                                                                                                                                                                                                                                                                                            |                       |                       |
|                                       El 23 de julio, el alcalde mayor, vista la información dada por el sastre, declaraba al mismo “por mestizo y libre del dicho tributo”, y mandó que se le diera un traslado de estos autos debidamente autorizado para en guarda de su derecho, lo que hizo el escribano Toribio de Casso.                                                                                                                                                                                                                                                                                                                                                                                                                                                                                                                                                                                                                                                                                                                                     |                       |                       |
|                                                                                                                                                                                                                                                                                                                                                                                                                                                                                                                                                                                                                                                                                                                                                                                                                                                                                                                                                                                                                                                                     |                       |                       |
|   ----------------------------------- ----------------------------------------------------------------------------------------------------------------------------------------------------------------------------------------------------------------------------------------------------------------------------------------------------------------------------------------------------------------------------------------------------------------------------------------------------------------------------------------------------------------------------------------------------------------------------------------------------------------------------------------------------------------------------------------------------------------------------------------------------------------------------------------------------------------------------------------------------------------------------------------------------------------------------------------------------------------------------------------------------------------------------- |                       |                       |
|                                                                                                                                                                                                                                                                                                                                                                                                                                                                                                                                                                                                                                                                                                                                                                                                                                                                                                                                                                                                                                                                     |                       |                       |
| (472) No hemos hallado más referencias a este vecino, sastre natural de la Ciudad de México.                                                                                                                                                                                                                                                                                                                                                                                                                                                                                                                                                                                                                                                                                                                                                                                                                                                                                                                                                                        |                       |                       |
|                                                                                                                                                                                                                                                                                                                                                                                                                                                                                                                                                                                                                                                                                                                                                                                                                                                                                                                                                                                                                                                                     |                       |                       |
| (473) Como luego se dirá, Hernando de Aguilera, vecino de México, estaba casado con una hermana de los Carrillo de Guzmán. Quizá este hijo mestizo lo tuvo antes de casarse con la Carrillo. Tal vez fue hijo de este matrimonio Jerónimo de Aguilera, quien fuera procurador de la Villa de Colima: supra, regº 440.                                                                                                                                                                                                                                                                                                                                                                                                                                                                                                                                                                                                                                                                                                                                               |                       |                       |
|                                                                                                                                                                                                                                                                                                                                                                                                                                                                                                                                                                                                                                                                                                                                                                                                                                                                                                                                                                                                                                                                     |                       |                       |
|   ---------------------------------------------------------------------------------------------------                                                                                                                                                                                                                                                                                                                                                                                                                                                                                                                                                                                                                                                                                                                                                                                                                                                                                                                                                               |                       |                       |
|    Documento(s) original(es)                                                                                                                                                                                                                                                                                                                                                                                                                                                                                                                                                                                                                                                                                                                                                                                                                                                                                                                                                                                                                                        |                       |                       |
|   --------------------------- ------- ------- ------- ------- ------- ------- ------- ------- -------                                                                                                                                                                                                                                                                                                                                                                                                                                                                                                                                                                                                                                                                                                                                                                                                                                                                                                                                                               |                       |                       |
|               []                []      []      []      []                                                                                                                                                                                                                                                                                                                                                                                                                                                                                                                                                                                                                                                                                                                                                                                                                                                                                                                                                                                                          |                       |                       |
|               1f                1v      2f      2v      3f                                                                                                                                                                                                                                                                                                                                                                                                                                                                                                                                                                                                                                                                                                                                                                                                                                                                                                                                                                                                          |                       |                       |
|                                                                                                                                                                                                                                                                                                                                                                                                                                                                                                                                                                                                                                                                                                                                                                                                                                                                                                                                                                                                                                                                     |                       |                       |
|   ---------------------------------------------------------------------------------------------------                                                                                                                                                                                                                                                                                                                                                                                                                                                                                                                                                                                                                                                                                                                                                                                                                                                                                                                                                               |                       |                       |
+---------------------------------------------------------------------------------------------------------------------------------------------------------------------------------------------------------------------------------------------------------------------------------------------------------------------------------------------------------------------------------------------------------------------------------------------------------------------------------------------------------------------------------------------------------------------------------------------------------------------------------------------------------------------------------------------------------------------------------------------------------------------------------------------------------------------------------------------------------------------------------------------------------------------------------------------------------------------------------------------------------------------------------------------------------------------+-----------------------+-----------------------+
| +----------------------------------------------------------------------------+------------------------------------------------+                                                                                                                                                                                                                                                                                                                                                                                                                                                                                                                                                                                                                                                                                                                                                                                                                                                                                                                                     |                       |                       |
| | ISBN 978-607-701-024-1                                                     |   ---- ---- ---- ---- ---- ---- ---- ---- ---- |                                                                                                                                                                                                                                                                                                                                                                                                                                                                                                                                                                                                                                                                                                                                                                                                                                                                                                                                     |                       |                       |
| | © Derechos Reservados 2013. Archivo Histórico del Municipio de Colima. [*] |   []        []        []        []        []   |                                                                                                                                                                                                                                                                                                                                                                                                                                                                                                                                                                                                                                                                                                                                                                                                                                                                                                                                     |                       |                       |
| |                                                                            |   ---- ---- ---- ---- ---- ---- ---- ---- ---- |                                                                                                                                                                                                                                                                                                                                                                                                                                                                                                                                                                                                                                                                                                                                                                                                                                                                                                                                     |                       |                       |
| +----------------------------------------------------------------------------+------------------------------------------------+                                                                                                                                                                                                                                                                                                                                                                                                                                                                                                                                                                                                                                                                                                                                                                                                                                                                                                                                     |                       |                       |
| |                                                                            |                                                |                                                                                                                                                                                                                                                                                                                                                                                                                                                                                                                                                                                                                                                                                                                                                                                                                                                                                                                                     |                       |                       |
| +----------------------------------------------------------------------------+------------------------------------------------+                                                                                                                                                                                                                                                                                                                                                                                                                                                                                                                                                                                                                                                                                                                                                                                                                                                                                                                                     |                       |                       |
+---------------------------------------------------------------------------------------------------------------------------------------------------------------------------------------------------------------------------------------------------------------------------------------------------------------------------------------------------------------------------------------------------------------------------------------------------------------------------------------------------------------------------------------------------------------------------------------------------------------------------------------------------------------------------------------------------------------------------------------------------------------------------------------------------------------------------------------------------------------------------------------------------------------------------------------------------------------------------------------------------------------------------------------------------------------------+-----------------------+-----------------------+

615 visitas
