+-----------------------------------------------------------------------------------------------------------------------------------------------------------------------------------------------------------------------------------------------------------------------------------------------------------------------------------------------------------------------------------------------------------------------------+-----------------------+-----------------------+
| []                                                                                                                                                                                                                                                                                                                                                                                                                          |                       |                       |
|                                                                                                                                                                                                                                                                                                                                                                                                                             |                       |                       |
| +-----------------------------------+:-------------------------------------:+                                                                                                                                                                                                                                                                                                                                               |                       |                       |
| | []                                | LA VILLA DE COLIMA DE LA NUEVA ESPAÑA |                                                                                                                                                                                                                                                                                                                                               |                       |                       |
| |                                   | SIGLO XVI                             |                                                                                                                                                                                                                                                                                                                                               |                       |                       |
| |                                   |                                       |                                                                                                                                                                                                                                                                                                                                               |                       |                       |
| |                                   | VOLUMEN II      (CAJAS 12-20)         |                                                                                                                                                                                                                                                                                                                                               |                       |                       |
| +-----------------------------------+---------------------------------------+                                                                                                                                                                                                                                                                                                                                               |                       |                       |
+-----------------------------------------------------------------------------------------------------------------------------------------------------------------------------------------------------------------------------------------------------------------------------------------------------------------------------------------------------------------------------------------------------------------------------+-----------------------+-----------------------+
| +------------------------------------------------------------------------+---------------------------+-----------------------+                                                                                                                                                                                                                                                                                              |                       |                       |
| | Inicio | Búsqueda | Siglas y bibliografía | Créditos | Más información | (consulta las cajas 1-11) |    [ES]               |                                                                                                                                                                                                                                                                                              |                       |                       |
| +------------------------------------------------------------------------+---------------------------+-----------------------+                                                                                                                                                                                                                                                                                              |                       |                       |
+-----------------------------------------------------------------------------------------------------------------------------------------------------------------------------------------------------------------------------------------------------------------------------------------------------------------------------------------------------------------------------------------------------------------------------+-----------------------+-----------------------+
| Búsqueda rápida                                                                                                                                                                                                                                                                                                                                                                                                             |                       |                       |
|                                                                                                                                                                                                                                                                                                                                                                                                                             |                       |                       |
| +:-------------------:+-----------------+:----------------------------------------:+----------------:+                                                                                                                                                                                                                                                                                                                      |                       |                       |
| | Documento de fecha: |                 | Ubicación física del documento original: | [] [] []        |                                                                                                                                                                                                                                                                                                                      |                       |                       |
| |                     |                 |                                          |                 |                                                                                                                                                                                                                                                                                                                      |                       |                       |
| | 1596. Septiembre, 6 |                 | Caja 15, exp. 3, 4 ff.                   |                 |                                                                                                                                                                                                                                                                                                                      |                       |                       |
| +---------------------+-----------------+------------------------------------------+-----------------+                                                                                                                                                                                                                                                                                                                      |                       |                       |
|                                                                                                                                                                                                                                                                                                                                                                                                                             |                       |                       |
|   ------------- -------------------------------------------------------------------------------------------------------------                                                                                                                                                                                                                                                                                               |                       |                       |
|   Resumen:      Diego Mejía de la Torre contra su hermano Alonso de Aguilar, por razón de la mitad de la Huerta de Xicotlan                                                                                                                                                                                                                                                                                                 |                       |                       |
|   ------------- -------------------------------------------------------------------------------------------------------------                                                                                                                                                                                                                                                                                               |                       |                       |
|                                                                                                                                                                                                                                                                                                                                                                                                                             |                       |                       |
|   ----------------------------------- ------------------------------------------------------------------------------------------------------------------------------------------------------------------------------------------------------------------------------------------------------------------------------------------------------------------------------------------------------------------------------------- |                       |                       |
|   Contenido:                          Ante Antonio de Ocampo, alcalde ordinario, Diego Mejía de la Torre se querella criminalmente de su hermano Alonso de Aguilar,^([512]) vecinos ambos de Colima.                                                                                                                                                                                                                        |                       |                       |
|                                       De la información que mandó hacer el alcalde, se desprende que estando Alonso de Aguilar en casa del escribano Cristóbal Hernández de Tene, éste le recomendó que se pusiera en paz con su hermano Diego. Y para ello, le hiciera entrega de la mitad de la Huerta de Xicotlan. Alonso, entonces, dio facultad al escribano para concertar el negocio y, después, salió de la casa.   |                       |                       |
|                                       Al poco tiempo, se oyeron ruidos en la calle y el escribano salió a ver lo que acontecía, viendo cómo se estaban acuchillando Alonso de Aguilar y Diego Mejía de la Torre.                                                                                                                                                                                                            |                       |                       |
|                                       Inmediatamente, Cristóbal Hernández de Tene tomó su espada y los puso en paz, aunque siguieron alegando ambos hermanos “razones de pesadumbre”. Diego le decía a su hermano que iba a castigarle por haber cobrado dos veces una deuda de su madre. Alonso respondió llamando a su hermano ladrón y bellaco.                                                                          |                       |                       |
|                                       El alcalde ordenó que ambos tuvieran sus casas por cárcel, hasta que la causa fuese vista.                                                                                                                                                                                                                                                                                            |                       |                       |
|                                       El 7 de septiembre, empero, los dos hermanos firmaban juntos una petición afirmando que ya habían hecho amistad y, por consiguiente, pedían su libertad.                                                                                                                                                                                                                              |                       |                       |
|                                       El alcalde dispuso que, mediante fianzas, pudieran salir de la prisión en que se hallaban. El bachiller Juan Rodríguez de Santiago se presentó por fiador de ambos hermanos.^([513])                                                                                                                                                                                                  |                       |                       |
|                                                                                                                                                                                                                                                                                                                                                                                                                             |                       |                       |
|   ----------------------------------- ------------------------------------------------------------------------------------------------------------------------------------------------------------------------------------------------------------------------------------------------------------------------------------------------------------------------------------------------------------------------------------- |                       |                       |
|                                                                                                                                                                                                                                                                                                                                                                                                                             |                       |                       |
| (512) Eran hermanos de madre, a saber, Ana Martel. Alonso era hijo del conquistador Juan de Aguilar, en tanto que Diego lo era de Melchor Pérez de la Torre.                                                                                                                                                                                                                                                                |                       |                       |
|                                                                                                                                                                                                                                                                                                                                                                                                                             |                       |                       |
| (513) El siguiente auto, fechado el 19 de marzo de 1605, es del justicia mayor Pedro de Morales quien mandaba poner presos a los dos hermanos.                                                                                                                                                                                                                                                                              |                       |                       |
|                                                                                                                                                                                                                                                                                                                                                                                                                             |                       |                       |
|   ---------------------------------------------------------------------------------------------------                                                                                                                                                                                                                                                                                                                       |                       |                       |
|    Documento(s) original(es)                                                                                                                                                                                                                                                                                                                                                                                                |                       |                       |
|   --------------------------- ------- ------- ------- ------- ------- ------- ------- ------- -------                                                                                                                                                                                                                                                                                                                       |                       |                       |
|               []                []      []      []      []      []      []                                                                                                                                                                                                                                                                                                                                                  |                       |                       |
|               1f                1v      2f      2v      3f      4f      4v                                                                                                                                                                                                                                                                                                                                                  |                       |                       |
|                                                                                                                                                                                                                                                                                                                                                                                                                             |                       |                       |
|   ---------------------------------------------------------------------------------------------------                                                                                                                                                                                                                                                                                                                       |                       |                       |
+-----------------------------------------------------------------------------------------------------------------------------------------------------------------------------------------------------------------------------------------------------------------------------------------------------------------------------------------------------------------------------------------------------------------------------+-----------------------+-----------------------+
| +----------------------------------------------------------------------------+------------------------------------------------+                                                                                                                                                                                                                                                                                             |                       |                       |
| | ISBN 978-607-701-024-1                                                     |   ---- ---- ---- ---- ---- ---- ---- ---- ---- |                                                                                                                                                                                                                                                                                             |                       |                       |
| | © Derechos Reservados 2013. Archivo Histórico del Municipio de Colima. [*] |   []        []        []        []        []   |                                                                                                                                                                                                                                                                                             |                       |                       |
| |                                                                            |   ---- ---- ---- ---- ---- ---- ---- ---- ---- |                                                                                                                                                                                                                                                                                             |                       |                       |
| +----------------------------------------------------------------------------+------------------------------------------------+                                                                                                                                                                                                                                                                                             |                       |                       |
| |                                                                            |                                                |                                                                                                                                                                                                                                                                                             |                       |                       |
| +----------------------------------------------------------------------------+------------------------------------------------+                                                                                                                                                                                                                                                                                             |                       |                       |
+-----------------------------------------------------------------------------------------------------------------------------------------------------------------------------------------------------------------------------------------------------------------------------------------------------------------------------------------------------------------------------------------------------------------------------+-----------------------+-----------------------+

615 visitas
