+-----------------------------------------------------------------------------------------------------------------------------------------------------------------------------------------------------------------------------------------------------------------------------------------------------------------------------------------------------------------------------------------------------------------------------------------------------------------------------------------------------------------------------------------------------+-----------------------+-----------------------+
| []                                                                                                                                                                                                                                                                                                                                                                                                                                                                                                                                                  |                       |                       |
|                                                                                                                                                                                                                                                                                                                                                                                                                                                                                                                                                     |                       |                       |
| +-----------------------------------+:-------------------------------------:+                                                                                                                                                                                                                                                                                                                                                                                                                                                                       |                       |                       |
| | []                                | LA VILLA DE COLIMA DE LA NUEVA ESPAÑA |                                                                                                                                                                                                                                                                                                                                                                                                                                                                       |                       |                       |
| |                                   | SIGLO XVI                             |                                                                                                                                                                                                                                                                                                                                                                                                                                                                       |                       |                       |
| |                                   |                                       |                                                                                                                                                                                                                                                                                                                                                                                                                                                                       |                       |                       |
| |                                   | VOLUMEN II      (CAJAS 12-20)         |                                                                                                                                                                                                                                                                                                                                                                                                                                                                       |                       |                       |
| +-----------------------------------+---------------------------------------+                                                                                                                                                                                                                                                                                                                                                                                                                                                                       |                       |                       |
+-----------------------------------------------------------------------------------------------------------------------------------------------------------------------------------------------------------------------------------------------------------------------------------------------------------------------------------------------------------------------------------------------------------------------------------------------------------------------------------------------------------------------------------------------------+-----------------------+-----------------------+
| +------------------------------------------------------------------------+---------------------------+-----------------------+                                                                                                                                                                                                                                                                                                                                                                                                                      |                       |                       |
| | Inicio | Búsqueda | Siglas y bibliografía | Créditos | Más información | (consulta las cajas 1-11) |    [ES]               |                                                                                                                                                                                                                                                                                                                                                                                                                      |                       |                       |
| +------------------------------------------------------------------------+---------------------------+-----------------------+                                                                                                                                                                                                                                                                                                                                                                                                                      |                       |                       |
+-----------------------------------------------------------------------------------------------------------------------------------------------------------------------------------------------------------------------------------------------------------------------------------------------------------------------------------------------------------------------------------------------------------------------------------------------------------------------------------------------------------------------------------------------------+-----------------------+-----------------------+
| Búsqueda rápida                                                                                                                                                                                                                                                                                                                                                                                                                                                                                                                                     |                       |                       |
|                                                                                                                                                                                                                                                                                                                                                                                                                                                                                                                                                     |                       |                       |
| +:-------------------:+-----------------+:----------------------------------------:+----------------:+                                                                                                                                                                                                                                                                                                                                                                                                                                              |                       |                       |
| | Documento de fecha: |                 | Ubicación física del documento original: | [] [] []        |                                                                                                                                                                                                                                                                                                                                                                                                                                              |                       |                       |
| |                     |                 |                                          |                 |                                                                                                                                                                                                                                                                                                                                                                                                                                              |                       |                       |
| | 1568. Mayo, 10      |                 | Caja 15, exp. 5, 4 ff.                   |                 |                                                                                                                                                                                                                                                                                                                                                                                                                                              |                       |                       |
| +---------------------+-----------------+------------------------------------------+-----------------+                                                                                                                                                                                                                                                                                                                                                                                                                                              |                       |                       |
|                                                                                                                                                                                                                                                                                                                                                                                                                                                                                                                                                     |                       |                       |
|   ------------- ------------------------------------------------------------------------------------------------------------------------------------------------------------------------------                                                                                                                                                                                                                                                                                                                                                      |                       |                       |
|   Resumen:      Antonio de Carvajal, siendo alguacil de la Villa, hizo cierta ejecución en los bienes de Beatriz López y Diego de Mendoza, de lo cual pide recaudos y costas que se le deben                                                                                                                                                                                                                                                                                                                                                        |                       |                       |
|   ------------- ------------------------------------------------------------------------------------------------------------------------------------------------------------------------------                                                                                                                                                                                                                                                                                                                                                      |                       |                       |
|                                                                                                                                                                                                                                                                                                                                                                                                                                                                                                                                                     |                       |                       |
|   ----------------------------------- ------------------------------------------------------------------------------------------------------------------------------------------------------------------------------------------------------------------------------------------------------------------------------------------------------------------------------------------------------------------------------------------------------------------------------------------------------------------------------------------------------------- |                       |                       |
|   Contenido:                          Antonio de Carvajal,^([516]) cuando fue alguacil mayor de la Villa de Colima, había hecho ejecución, a pedimento de Juan de Munguía, en nombre de Antonio de Ávila^([517]) y de los menores de Alonso Castillo Maldonado, difunto, en los bienes de doña Beatriz López y Diego de Mendoza, por cuantía de mil treinta pesos, de los cuales se hizo trance y remate, y las partes fueron pagadas, según consta por los recaudos que obran en poder del escribano Juan Vázquez, quien no los quiere entregar.   |                       |                       |
|                                       Ahora, Antonio de Carvajal pide al alcalde Juan Fernández El Viejo que mande al escribano que los exhiba y se le paguen a él las costas contra los bienes de Beatriz López.                                                                                                                                                                                                                                                                                                                                   |                       |                       |
|                                       El alcalde mandó que Carvajal diera información. Éste presentó por testigos a Bartolomé de Ávila, hermano del mencionado Antonio de Ávila, y al escribano Juan Vázquez.                                                                                                                                                                                                                                                                                                                                       |                       |                       |
|                                       El alcalde, vista la información, dio mandamiento contra los bienes de Beatriz López.                                                                                                                                                                                                                                                                                                                                                                                                                         |                       |                       |
|                                                                                                                                                                                                                                                                                                                                                                                                                                                                                                                                                     |                       |                       |
|   ----------------------------------- ------------------------------------------------------------------------------------------------------------------------------------------------------------------------------------------------------------------------------------------------------------------------------------------------------------------------------------------------------------------------------------------------------------------------------------------------------------------------------------------------------------- |                       |                       |
|                                                                                                                                                                                                                                                                                                                                                                                                                                                                                                                                                     |                       |                       |
| (516) Vecino de Colima ya en 1557, cuando aparece fungiendo como alguacil mayor: supra, I, regº 64. Repitió en este oficio en los años de 1563, 1564, 1566 y 1568. Casó con Juana Jiménez: Romero de Solís, Andariegos... (2001), 93-95. Según Thomas Hillerkuss, era hijo de Antonio de Carvajal e Isabel de Sosa, sucediendo a su padre en la encomienda de Zacatlan. Con el tiempo compró minas en Amaxaque, Xocotlan y Chimaltitlan, las cuales heredó su hijo Rodrigo de Carvajal a su muerte hacia 1607): Hillerkuss (1997), 224-225,         |                       |                       |
|                                                                                                                                                                                                                                                                                                                                                                                                                                                                                                                                                     |                       |                       |
| (517) No hemos localizado ulteriores noticias de Ávila en los expedientes del Archivo de la Villa de Colima. Quizá se trate de un hijo del conquistador homónimo y Juana López; casó en México con Isabel de Salazar: Hillerkuss (1997), 126-127. Según se dice más adelante tenía un hermano llamado Bartolomé quien no es registrado por Hillerkuss.                                                                                                                                                                                              |                       |                       |
|                                                                                                                                                                                                                                                                                                                                                                                                                                                                                                                                                     |                       |                       |
|   ---------------------------------------------------------------------------------------------------                                                                                                                                                                                                                                                                                                                                                                                                                                               |                       |                       |
|    Documento(s) original(es)                                                                                                                                                                                                                                                                                                                                                                                                                                                                                                                        |                       |                       |
|   --------------------------- ------- ------- ------- ------- ------- ------- ------- ------- -------                                                                                                                                                                                                                                                                                                                                                                                                                                               |                       |                       |
|               []                []      []      []      []                                                                                                                                                                                                                                                                                                                                                                                                                                                                                          |                       |                       |
|               1f                2f      2v      3f      4f                                                                                                                                                                                                                                                                                                                                                                                                                                                                                          |                       |                       |
|                                                                                                                                                                                                                                                                                                                                                                                                                                                                                                                                                     |                       |                       |
|   ---------------------------------------------------------------------------------------------------                                                                                                                                                                                                                                                                                                                                                                                                                                               |                       |                       |
+-----------------------------------------------------------------------------------------------------------------------------------------------------------------------------------------------------------------------------------------------------------------------------------------------------------------------------------------------------------------------------------------------------------------------------------------------------------------------------------------------------------------------------------------------------+-----------------------+-----------------------+
| +----------------------------------------------------------------------------+------------------------------------------------+                                                                                                                                                                                                                                                                                                                                                                                                                     |                       |                       |
| | ISBN 978-607-701-024-1                                                     |   ---- ---- ---- ---- ---- ---- ---- ---- ---- |                                                                                                                                                                                                                                                                                                                                                                                                                     |                       |                       |
| | © Derechos Reservados 2013. Archivo Histórico del Municipio de Colima. [*] |   []        []        []        []        []   |                                                                                                                                                                                                                                                                                                                                                                                                                     |                       |                       |
| |                                                                            |   ---- ---- ---- ---- ---- ---- ---- ---- ---- |                                                                                                                                                                                                                                                                                                                                                                                                                     |                       |                       |
| +----------------------------------------------------------------------------+------------------------------------------------+                                                                                                                                                                                                                                                                                                                                                                                                                     |                       |                       |
| |                                                                            |                                                |                                                                                                                                                                                                                                                                                                                                                                                                                     |                       |                       |
| +----------------------------------------------------------------------------+------------------------------------------------+                                                                                                                                                                                                                                                                                                                                                                                                                     |                       |                       |
+-----------------------------------------------------------------------------------------------------------------------------------------------------------------------------------------------------------------------------------------------------------------------------------------------------------------------------------------------------------------------------------------------------------------------------------------------------------------------------------------------------------------------------------------------------+-----------------------+-----------------------+

615 visitas
