+-----------------------------------------------------------------------------------------------------------------------------------+-----------------------+-----------------------+
| []                                                                                                                                |                       |                       |
|                                                                                                                                   |                       |                       |
| +-----------------------------------+:-------------------------------------:+                                                     |                       |                       |
| | []                                | LA VILLA DE COLIMA DE LA NUEVA ESPAÑA |                                                     |                       |                       |
| |                                   | SIGLO XVI                             |                                                     |                       |                       |
| |                                   |                                       |                                                     |                       |                       |
| |                                   | VOLUMEN II      (CAJAS 12-20)         |                                                     |                       |                       |
| +-----------------------------------+---------------------------------------+                                                     |                       |                       |
+-----------------------------------------------------------------------------------------------------------------------------------+-----------------------+-----------------------+
| +------------------------------------------------------------------------+---------------------------+-----------------------+    |                       |                       |
| | Inicio | Búsqueda | Siglas y bibliografía | Créditos | Más información | (consulta las cajas 1-11) |    [ES]               |    |                       |                       |
| +------------------------------------------------------------------------+---------------------------+-----------------------+    |                       |                       |
+-----------------------------------------------------------------------------------------------------------------------------------+-----------------------+-----------------------+
| Búsqueda rápida                                                                                                                   |                       |                       |
|                                                                                                                                   |                       |                       |
| +:-------------------:+-----------------+:----------------------------------------:+----------------:+                            |                       |                       |
| | Documento de fecha: |                 | Ubicación física del documento original: | [] [] []        |                            |                       |                       |
| |                     |                 |                                          |                 |                            |                       |                       |
| | S/f                 |                 | Caja 15, exp. 17, ff. 2 vta-3.           |                 |                            |                       |                       |
| +---------------------+-----------------+------------------------------------------+-----------------+                            |                       |                       |
|                                                                                                                                   |                       |                       |
|   ------------- -----------------------------------------------------------                                                       |                       |                       |
|   Resumen:      Poder general de Pero de Almodóvar en favor de Juan López                                                         |                       |                       |
|   ------------- -----------------------------------------------------------                                                       |                       |                       |
|                                                                                                                                   |                       |                       |
|   ----------------------------------- ------------------------------------------------------------------------------------------- |                       |                       |
|   Contenido:                          Pero de Almodóvar otorga poder general a Juan López, vecinos ambos de la Villa de Colima.   |                       |                       |
|                                                                                                                                   |                       |                       |
|   ----------------------------------- ------------------------------------------------------------------------------------------- |                       |                       |
|                                                                                                                                   |                       |                       |
|   ---------------------------------------------------------------------------------------------------                             |                       |                       |
|    Documento(s) original(es)                                                                                                      |                       |                       |
|   --------------------------- ------- ------- ------- ------- ------- ------- ------- ------- -------                             |                       |                       |
|               []                []      []                                                                                        |                       |                       |
|               2v                3f      3v                                                                                        |                       |                       |
|                                                                                                                                   |                       |                       |
|   ---------------------------------------------------------------------------------------------------                             |                       |                       |
+-----------------------------------------------------------------------------------------------------------------------------------+-----------------------+-----------------------+
| +----------------------------------------------------------------------------+------------------------------------------------+   |                       |                       |
| | ISBN 978-607-701-024-1                                                     |   ---- ---- ---- ---- ---- ---- ---- ---- ---- |   |                       |                       |
| | © Derechos Reservados 2013. Archivo Histórico del Municipio de Colima. [*] |   []        []        []        []        []   |   |                       |                       |
| |                                                                            |   ---- ---- ---- ---- ---- ---- ---- ---- ---- |   |                       |                       |
| +----------------------------------------------------------------------------+------------------------------------------------+   |                       |                       |
| |                                                                            |                                                |   |                       |                       |
| +----------------------------------------------------------------------------+------------------------------------------------+   |                       |                       |
+-----------------------------------------------------------------------------------------------------------------------------------+-----------------------+-----------------------+

615 visitas
