+--------------------------------------------------------------------------------------------------------------------------------------------------------------------------------------------------------------------------------------------------------------------------------------------------------------------------------+-----------------------+-----------------------+
| []                                                                                                                                                                                                                                                                                                                             |                       |                       |
|                                                                                                                                                                                                                                                                                                                                |                       |                       |
| +-----------------------------------+:-------------------------------------:+                                                                                                                                                                                                                                                  |                       |                       |
| | []                                | LA VILLA DE COLIMA DE LA NUEVA ESPAÑA |                                                                                                                                                                                                                                                  |                       |                       |
| |                                   | SIGLO XVI                             |                                                                                                                                                                                                                                                  |                       |                       |
| |                                   |                                       |                                                                                                                                                                                                                                                  |                       |                       |
| |                                   | VOLUMEN II      (CAJAS 12-20)         |                                                                                                                                                                                                                                                  |                       |                       |
| +-----------------------------------+---------------------------------------+                                                                                                                                                                                                                                                  |                       |                       |
+--------------------------------------------------------------------------------------------------------------------------------------------------------------------------------------------------------------------------------------------------------------------------------------------------------------------------------+-----------------------+-----------------------+
| +------------------------------------------------------------------------+---------------------------+-----------------------+                                                                                                                                                                                                 |                       |                       |
| | Inicio | Búsqueda | Siglas y bibliografía | Créditos | Más información | (consulta las cajas 1-11) |    [ES]               |                                                                                                                                                                                                 |                       |                       |
| +------------------------------------------------------------------------+---------------------------+-----------------------+                                                                                                                                                                                                 |                       |                       |
+--------------------------------------------------------------------------------------------------------------------------------------------------------------------------------------------------------------------------------------------------------------------------------------------------------------------------------+-----------------------+-----------------------+
| Búsqueda rápida                                                                                                                                                                                                                                                                                                                |                       |                       |
|                                                                                                                                                                                                                                                                                                                                |                       |                       |
| +:-------------------:+-----------------+:----------------------------------------:+----------------:+                                                                                                                                                                                                                         |                       |                       |
| | Documento de fecha: |                 | Ubicación física del documento original: | [] [] []        |                                                                                                                                                                                                                         |                       |                       |
| |                     |                 |                                          |                 |                                                                                                                                                                                                                         |                       |                       |
| | 1580. Mayo, 6       |                 | Caja 16, exp. 3, ff. 5-6.                |                 |                                                                                                                                                                                                                         |                       |                       |
| +---------------------+-----------------+------------------------------------------+-----------------+                                                                                                                                                                                                                         |                       |                       |
|                                                                                                                                                                                                                                                                                                                                |                       |                       |
|   ------------- --------------------------------------------------------------------------------------------------------------------------------------------------------------                                                                                                                                                 |                       |                       |
|   Resumen:      Antón Falero con poder de Pedro de Narváez, mineros ambos en las minas de Chimaltitlan, vende al vecino de Colima Juan de Velasco una pieza de negro esclavo                                                                                                                                                   |                       |                       |
|   ------------- --------------------------------------------------------------------------------------------------------------------------------------------------------------                                                                                                                                                 |                       |                       |
|                                                                                                                                                                                                                                                                                                                                |                       |                       |
|   ----------------------------------- ---------------------------------------------------------------------------------------------------------------------------------------------------------------------------------------------------------------------------------------------------------------------------------------- |                       |                       |
|   Contenido:                          Poder general que da Pedro Narváez^([576]) a Antón Falero,^([577]) mineros vecinos de las minas de Chimaltitlan,^([578]) en el Reino de la Nueva Galicia.                                                                                                                                |                       |                       |
|                                       Días después, el 27 de mayo, Antón Falero en virtud de este poder vendía a Juan de Velasco, vecino de la Villa de Colima, un negro esclavo, que se dice Juan, criollo, de 22 años de edad, por precio de trescientos cincuenta pesos de oro común de a ocho reales de plata cada peso.   |                       |                       |
|                                                                                                                                                                                                                                                                                                                                |                       |                       |
|   ----------------------------------- ---------------------------------------------------------------------------------------------------------------------------------------------------------------------------------------------------------------------------------------------------------------------------------------- |                       |                       |
|                                                                                                                                                                                                                                                                                                                                |                       |                       |
| (576)                                                                                                                                                                                                                                                                                                                          |                       |                       |
|                                                                                                                                                                                                                                                                                                                                |                       |                       |
| (577) Luego pasó a formar parte como regidor del primer cabildo de la Villa de Lagos: Hillerkuss (2001), 107.                                                                                                                                                                                                                  |                       |                       |
|                                                                                                                                                                                                                                                                                                                                |                       |                       |
| (578) Minas de Chimaltitan: AQU                                                                                                                                                                                                                                                                                                |                       |                       |
|                                                                                                                                                                                                                                                                                                                                |                       |                       |
|   ---------------------------------------------------------------------------------------------------                                                                                                                                                                                                                          |                       |                       |
|    Documento(s) original(es)                                                                                                                                                                                                                                                                                                   |                       |                       |
|   --------------------------- ------- ------- ------- ------- ------- ------- ------- ------- -------                                                                                                                                                                                                                          |                       |                       |
|               []                []      []      []                                                                                                                                                                                                                                                                             |                       |                       |
|               5f                5v      6f      6v                                                                                                                                                                                                                                                                             |                       |                       |
|                                                                                                                                                                                                                                                                                                                                |                       |                       |
|   ---------------------------------------------------------------------------------------------------                                                                                                                                                                                                                          |                       |                       |
+--------------------------------------------------------------------------------------------------------------------------------------------------------------------------------------------------------------------------------------------------------------------------------------------------------------------------------+-----------------------+-----------------------+
| +----------------------------------------------------------------------------+------------------------------------------------+                                                                                                                                                                                                |                       |                       |
| | ISBN 978-607-701-024-1                                                     |   ---- ---- ---- ---- ---- ---- ---- ---- ---- |                                                                                                                                                                                                |                       |                       |
| | © Derechos Reservados 2013. Archivo Histórico del Municipio de Colima. [*] |   []        []        []        []        []   |                                                                                                                                                                                                |                       |                       |
| |                                                                            |   ---- ---- ---- ---- ---- ---- ---- ---- ---- |                                                                                                                                                                                                |                       |                       |
| +----------------------------------------------------------------------------+------------------------------------------------+                                                                                                                                                                                                |                       |                       |
| |                                                                            |                                                |                                                                                                                                                                                                |                       |                       |
| +----------------------------------------------------------------------------+------------------------------------------------+                                                                                                                                                                                                |                       |                       |
+--------------------------------------------------------------------------------------------------------------------------------------------------------------------------------------------------------------------------------------------------------------------------------------------------------------------------------+-----------------------+-----------------------+

615 visitas
