+--------------------------------------------------------------------------------------------------------------------------------------------------------------------------------------------------------------------------------------------------------------------------------------------------------------------------------------------------------------------------------------------------------------------------------------------------------------------------------------------------------------------------------------------------------------------------------------------------------------------------------------+-----------------------+-----------------------+
| []                                                                                                                                                                                                                                                                                                                                                                                                                                                                                                                                                                                                                                   |                       |                       |
|                                                                                                                                                                                                                                                                                                                                                                                                                                                                                                                                                                                                                                      |                       |                       |
| +-----------------------------------+:-------------------------------------:+                                                                                                                                                                                                                                                                                                                                                                                                                                                                                                                                                        |                       |                       |
| | []                                | LA VILLA DE COLIMA DE LA NUEVA ESPAÑA |                                                                                                                                                                                                                                                                                                                                                                                                                                                                                                                                                        |                       |                       |
| |                                   | SIGLO XVI                             |                                                                                                                                                                                                                                                                                                                                                                                                                                                                                                                                                        |                       |                       |
| |                                   |                                       |                                                                                                                                                                                                                                                                                                                                                                                                                                                                                                                                                        |                       |                       |
| |                                   | VOLUMEN II      (CAJAS 12-20)         |                                                                                                                                                                                                                                                                                                                                                                                                                                                                                                                                                        |                       |                       |
| +-----------------------------------+---------------------------------------+                                                                                                                                                                                                                                                                                                                                                                                                                                                                                                                                                        |                       |                       |
+--------------------------------------------------------------------------------------------------------------------------------------------------------------------------------------------------------------------------------------------------------------------------------------------------------------------------------------------------------------------------------------------------------------------------------------------------------------------------------------------------------------------------------------------------------------------------------------------------------------------------------------+-----------------------+-----------------------+
| +------------------------------------------------------------------------+---------------------------+-----------------------+                                                                                                                                                                                                                                                                                                                                                                                                                                                                                                       |                       |                       |
| | Inicio | Búsqueda | Siglas y bibliografía | Créditos | Más información | (consulta las cajas 1-11) |    [ES]               |                                                                                                                                                                                                                                                                                                                                                                                                                                                                                                       |                       |                       |
| +------------------------------------------------------------------------+---------------------------+-----------------------+                                                                                                                                                                                                                                                                                                                                                                                                                                                                                                       |                       |                       |
+--------------------------------------------------------------------------------------------------------------------------------------------------------------------------------------------------------------------------------------------------------------------------------------------------------------------------------------------------------------------------------------------------------------------------------------------------------------------------------------------------------------------------------------------------------------------------------------------------------------------------------------+-----------------------+-----------------------+
| Búsqueda rápida                                                                                                                                                                                                                                                                                                                                                                                                                                                                                                                                                                                                                      |                       |                       |
|                                                                                                                                                                                                                                                                                                                                                                                                                                                                                                                                                                                                                                      |                       |                       |
| +:-------------------:+-----------------+:----------------------------------------:+----------------:+                                                                                                                                                                                                                                                                                                                                                                                                                                                                                                                               |                       |                       |
| | Documento de fecha: |                 | Ubicación física del documento original: | [] [] []        |                                                                                                                                                                                                                                                                                                                                                                                                                                                                                                                               |                       |                       |
| |                     |                 |                                          |                 |                                                                                                                                                                                                                                                                                                                                                                                                                                                                                                                               |                       |                       |
| | 1580. Junio, 8      |                 | Caja 16, exp. 3, ff. 57-58.              |                 |                                                                                                                                                                                                                                                                                                                                                                                                                                                                                                                               |                       |                       |
| +---------------------+-----------------+------------------------------------------+-----------------+                                                                                                                                                                                                                                                                                                                                                                                                                                                                                                                               |                       |                       |
|                                                                                                                                                                                                                                                                                                                                                                                                                                                                                                                                                                                                                                      |                       |                       |
|   ------------- --------------------------------------------------------------------------------------------------------------------------------------                                                                                                                                                                                                                                                                                                                                                                                                                                                                               |                       |                       |
|   Resumen:      Carta de venta de un censo que extienden Gonzalo López de Ayala y Juliana de Bobadilla, su mujer, en favor de Cristóbal de Solórzano                                                                                                                                                                                                                                                                                                                                                                                                                                                                                 |                       |                       |
|   ------------- --------------------------------------------------------------------------------------------------------------------------------------                                                                                                                                                                                                                                                                                                                                                                                                                                                                               |                       |                       |
|                                                                                                                                                                                                                                                                                                                                                                                                                                                                                                                                                                                                                                      |                       |                       |
|   ----------------------------------- ---------------------------------------------------------------------------------------------------------------------------------------------------------------------------------------------------------------------------------------------------------------------------------------------------------------------------------------------------------------------------------------------------------------------------------------------------------------------------------------------------------------------------------------------------------------------------------------------- |                       |                       |
|   Contenido:                          Gonzalo López de Ayala y Juliana de Bobadilla,^([606]) su mujer, vecinos de Colima, dicen que, por cuanto Martín Ruiz de Monjaraz, vecino de Colima, se obligó a dar y pagar cuarenta y dos pesos y seis tomines de oro común, en cada un año, por dos escrituras públicas: la una, de quinientos pesos de principal, y la otra, de cien pesos del dicho oro de principal, el cual dicho censo está impuesto sobre la renta y heredad de cacao que llaman la Huerta de Mexcala, en esta Provincia de Colima, estando obligado a pagarlo a Martín de Monjaraz^([607]) y a Gonzalo de Cáceres.   |                       |                       |
|                                       Agrega que el dicho Gonzalo la dio y traspasó, ante Diego Veedor, escribano, en 27 de septiembre de 1561 años, una de ellas; y la otra, ante Baltasar de Alcalá, en 25 de junio de 1564, en favor de ellos, a saber, Gonzalo López de Ayala y de Juliana de Bobadilla.                                                                                                                                                                                                                                                                                                                         |                       |                       |
|                                       Ahora, ambos a dos otorgan esta carta de venta del dicho censo, en favor de Cristóbal de Solórzano, vecino de Colima, por precio de seiscientos pesos.                                                                                                                                                                                                                                                                                                                                                                                                                                         |                       |                       |
|                                                                                                                                                                                                                                                                                                                                                                                                                                                                                                                                                                                                                                      |                       |                       |
|   ----------------------------------- ---------------------------------------------------------------------------------------------------------------------------------------------------------------------------------------------------------------------------------------------------------------------------------------------------------------------------------------------------------------------------------------------------------------------------------------------------------------------------------------------------------------------------------------------------------------------------------------------- |                       |                       |
|                                                                                                                                                                                                                                                                                                                                                                                                                                                                                                                                                                                                                                      |                       |                       |
| (606) Hija legítima de Pedro de Bobadilla y Francisca Ruiz de Monjaraz: infra, regº 647. Casó con Gonzalo López de Ayala El Mozo: supra, II, regº 398.                                                                                                                                                                                                                                                                                                                                                                                                                                                                               |                       |                       |
|                                                                                                                                                                                                                                                                                                                                                                                                                                                                                                                                                                                                                                      |                       |                       |
| (607) Se refiere a Martín de Monjaraz El Viejo, abuelo y tutor de Gonzalo de Cáceres, para esa fecha ya difunto.                                                                                                                                                                                                                                                                                                                                                                                                                                                                                                                     |                       |                       |
|                                                                                                                                                                                                                                                                                                                                                                                                                                                                                                                                                                                                                                      |                       |                       |
|   ---------------------------------------------------------------------------------------------------                                                                                                                                                                                                                                                                                                                                                                                                                                                                                                                                |                       |                       |
|    Documento(s) original(es)                                                                                                                                                                                                                                                                                                                                                                                                                                                                                                                                                                                                         |                       |                       |
|   --------------------------- ------- ------- ------- ------- ------- ------- ------- ------- -------                                                                                                                                                                                                                                                                                                                                                                                                                                                                                                                                |                       |                       |
|               []                []      []      []                                                                                                                                                                                                                                                                                                                                                                                                                                                                                                                                                                                   |                       |                       |
|               57f               57v     58f     58v                                                                                                                                                                                                                                                                                                                                                                                                                                                                                                                                                                                  |                       |                       |
|                                                                                                                                                                                                                                                                                                                                                                                                                                                                                                                                                                                                                                      |                       |                       |
|   ---------------------------------------------------------------------------------------------------                                                                                                                                                                                                                                                                                                                                                                                                                                                                                                                                |                       |                       |
+--------------------------------------------------------------------------------------------------------------------------------------------------------------------------------------------------------------------------------------------------------------------------------------------------------------------------------------------------------------------------------------------------------------------------------------------------------------------------------------------------------------------------------------------------------------------------------------------------------------------------------------+-----------------------+-----------------------+
| +----------------------------------------------------------------------------+------------------------------------------------+                                                                                                                                                                                                                                                                                                                                                                                                                                                                                                      |                       |                       |
| | ISBN 978-607-701-024-1                                                     |   ---- ---- ---- ---- ---- ---- ---- ---- ---- |                                                                                                                                                                                                                                                                                                                                                                                                                                                                                                      |                       |                       |
| | © Derechos Reservados 2013. Archivo Histórico del Municipio de Colima. [*] |   []        []        []        []        []   |                                                                                                                                                                                                                                                                                                                                                                                                                                                                                                      |                       |                       |
| |                                                                            |   ---- ---- ---- ---- ---- ---- ---- ---- ---- |                                                                                                                                                                                                                                                                                                                                                                                                                                                                                                      |                       |                       |
| +----------------------------------------------------------------------------+------------------------------------------------+                                                                                                                                                                                                                                                                                                                                                                                                                                                                                                      |                       |                       |
| |                                                                            |                                                |                                                                                                                                                                                                                                                                                                                                                                                                                                                                                                      |                       |                       |
| +----------------------------------------------------------------------------+------------------------------------------------+                                                                                                                                                                                                                                                                                                                                                                                                                                                                                                      |                       |                       |
+--------------------------------------------------------------------------------------------------------------------------------------------------------------------------------------------------------------------------------------------------------------------------------------------------------------------------------------------------------------------------------------------------------------------------------------------------------------------------------------------------------------------------------------------------------------------------------------------------------------------------------------+-----------------------+-----------------------+

615 visitas
