+------------------------------------------------------------------------------------------------------------------------------------------------------------------------------------------------------------------------------------------------------------------------------------------------------------------------------------------------------------------+-----------------------+-----------------------+
| []                                                                                                                                                                                                                                                                                                                                                               |                       |                       |
|                                                                                                                                                                                                                                                                                                                                                                  |                       |                       |
| +-----------------------------------+:-------------------------------------:+                                                                                                                                                                                                                                                                                    |                       |                       |
| | []                                | LA VILLA DE COLIMA DE LA NUEVA ESPAÑA |                                                                                                                                                                                                                                                                                    |                       |                       |
| |                                   | SIGLO XVI                             |                                                                                                                                                                                                                                                                                    |                       |                       |
| |                                   |                                       |                                                                                                                                                                                                                                                                                    |                       |                       |
| |                                   | VOLUMEN II      (CAJAS 12-20)         |                                                                                                                                                                                                                                                                                    |                       |                       |
| +-----------------------------------+---------------------------------------+                                                                                                                                                                                                                                                                                    |                       |                       |
+------------------------------------------------------------------------------------------------------------------------------------------------------------------------------------------------------------------------------------------------------------------------------------------------------------------------------------------------------------------+-----------------------+-----------------------+
| +------------------------------------------------------------------------+---------------------------+-----------------------+                                                                                                                                                                                                                                   |                       |                       |
| | Inicio | Búsqueda | Siglas y bibliografía | Créditos | Más información | (consulta las cajas 1-11) |    [ES]               |                                                                                                                                                                                                                                   |                       |                       |
| +------------------------------------------------------------------------+---------------------------+-----------------------+                                                                                                                                                                                                                                   |                       |                       |
+------------------------------------------------------------------------------------------------------------------------------------------------------------------------------------------------------------------------------------------------------------------------------------------------------------------------------------------------------------------+-----------------------+-----------------------+
| Búsqueda rápida                                                                                                                                                                                                                                                                                                                                                  |                       |                       |
|                                                                                                                                                                                                                                                                                                                                                                  |                       |                       |
| +:-------------------:+-----------------+:----------------------------------------:+----------------:+                                                                                                                                                                                                                                                           |                       |                       |
| | Documento de fecha: |                 | Ubicación física del documento original: | [] [] []        |                                                                                                                                                                                                                                                           |                       |                       |
| |                     |                 |                                          |                 |                                                                                                                                                                                                                                                           |                       |                       |
| | 1579. Enero, 7      |                 | Caja 17, exp. 4, 1 f.                    |                 |                                                                                                                                                                                                                                                           |                       |                       |
| +---------------------+-----------------+------------------------------------------+-----------------+                                                                                                                                                                                                                                                           |                       |                       |
|                                                                                                                                                                                                                                                                                                                                                                  |                       |                       |
|   ------------- ---------------------------------------------------------------------------------------------------------------                                                                                                                                                                                                                                  |                       |                       |
|   Resumen:      Miguel de Torres y Catalina de Arévalo, su mujer, piden dineros para pagar costas de escribano y procuradores                                                                                                                                                                                                                                    |                       |                       |
|   ------------- ---------------------------------------------------------------------------------------------------------------                                                                                                                                                                                                                                  |                       |                       |
|                                                                                                                                                                                                                                                                                                                                                                  |                       |                       |
|   ----------------------------------- -------------------------------------------------------------------------------------------------------------------------------------------------------------------------------------------------------------------------------------------------------------------------------------------------------------------------- |                       |                       |
|   Contenido:                          Ante el alcalde ordinario Juan de Aguilar, Cristóbal Hernández de Tene, con poder de Miguel de Torres y Catalina de Arévalo, su esposa, pide 50 pesos “para pagar costas de escribano e procuradores que han seguido la causa de los dichos mis partes, contra los demás herederos” de los bienes de Francisco Preciado.   |                       |                       |
|                                       El alcalde, visto el proceso de cuentas, mandó que se le diera ese dinero.                                                                                                                                                                                                                                                 |                       |                       |
|                                                                                                                                                                                                                                                                                                                                                                  |                       |                       |
|   ----------------------------------- -------------------------------------------------------------------------------------------------------------------------------------------------------------------------------------------------------------------------------------------------------------------------------------------------------------------------- |                       |                       |
|                                                                                                                                                                                                                                                                                                                                                                  |                       |                       |
|   ---------------------------------------------------------------------------------------------------                                                                                                                                                                                                                                                            |                       |                       |
|    Documento(s) original(es)                                                                                                                                                                                                                                                                                                                                     |                       |                       |
|   --------------------------- ------- ------- ------- ------- ------- ------- ------- ------- -------                                                                                                                                                                                                                                                            |                       |                       |
|               []                []                                                                                                                                                                                                                                                                                                                               |                       |                       |
|               1f                1v                                                                                                                                                                                                                                                                                                                               |                       |                       |
|                                                                                                                                                                                                                                                                                                                                                                  |                       |                       |
|   ---------------------------------------------------------------------------------------------------                                                                                                                                                                                                                                                            |                       |                       |
+------------------------------------------------------------------------------------------------------------------------------------------------------------------------------------------------------------------------------------------------------------------------------------------------------------------------------------------------------------------+-----------------------+-----------------------+
| +----------------------------------------------------------------------------+------------------------------------------------+                                                                                                                                                                                                                                  |                       |                       |
| | ISBN 978-607-701-024-1                                                     |   ---- ---- ---- ---- ---- ---- ---- ---- ---- |                                                                                                                                                                                                                                  |                       |                       |
| | © Derechos Reservados 2013. Archivo Histórico del Municipio de Colima. [*] |   []        []        []        []        []   |                                                                                                                                                                                                                                  |                       |                       |
| |                                                                            |   ---- ---- ---- ---- ---- ---- ---- ---- ---- |                                                                                                                                                                                                                                  |                       |                       |
| +----------------------------------------------------------------------------+------------------------------------------------+                                                                                                                                                                                                                                  |                       |                       |
| |                                                                            |                                                |                                                                                                                                                                                                                                  |                       |                       |
| +----------------------------------------------------------------------------+------------------------------------------------+                                                                                                                                                                                                                                  |                       |                       |
+------------------------------------------------------------------------------------------------------------------------------------------------------------------------------------------------------------------------------------------------------------------------------------------------------------------------------------------------------------------+-----------------------+-----------------------+

615 visitas
