+--------------------------------------------------------------------------------------------------------------------------------------------------------------------------------------------------------------------------------------------------------------------------------------------------------------------------------------------------------------------------------------------------------------------+-----------------------+-----------------------+
| []                                                                                                                                                                                                                                                                                                                                                                                                                 |                       |                       |
|                                                                                                                                                                                                                                                                                                                                                                                                                    |                       |                       |
| +-----------------------------------+:-------------------------------------:+                                                                                                                                                                                                                                                                                                                                      |                       |                       |
| | []                                | LA VILLA DE COLIMA DE LA NUEVA ESPAÑA |                                                                                                                                                                                                                                                                                                                                      |                       |                       |
| |                                   | SIGLO XVI                             |                                                                                                                                                                                                                                                                                                                                      |                       |                       |
| |                                   |                                       |                                                                                                                                                                                                                                                                                                                                      |                       |                       |
| |                                   | VOLUMEN II      (CAJAS 12-20)         |                                                                                                                                                                                                                                                                                                                                      |                       |                       |
| +-----------------------------------+---------------------------------------+                                                                                                                                                                                                                                                                                                                                      |                       |                       |
+--------------------------------------------------------------------------------------------------------------------------------------------------------------------------------------------------------------------------------------------------------------------------------------------------------------------------------------------------------------------------------------------------------------------+-----------------------+-----------------------+
| +------------------------------------------------------------------------+---------------------------+-----------------------+                                                                                                                                                                                                                                                                                     |                       |                       |
| | Inicio | Búsqueda | Siglas y bibliografía | Créditos | Más información | (consulta las cajas 1-11) |    [ES]               |                                                                                                                                                                                                                                                                                     |                       |                       |
| +------------------------------------------------------------------------+---------------------------+-----------------------+                                                                                                                                                                                                                                                                                     |                       |                       |
+--------------------------------------------------------------------------------------------------------------------------------------------------------------------------------------------------------------------------------------------------------------------------------------------------------------------------------------------------------------------------------------------------------------------+-----------------------+-----------------------+
| Búsqueda rápida                                                                                                                                                                                                                                                                                                                                                                                                    |                       |                       |
|                                                                                                                                                                                                                                                                                                                                                                                                                    |                       |                       |
| +:-------------------:+-----------------+:----------------------------------------:+----------------:+                                                                                                                                                                                                                                                                                                             |                       |                       |
| | Documento de fecha: |                 | Ubicación física del documento original: | [] [] []        |                                                                                                                                                                                                                                                                                                             |                       |                       |
| |                     |                 |                                          |                 |                                                                                                                                                                                                                                                                                                             |                       |                       |
| | 1583. Abril, 10     |                 | Caja 17, exp. 16, 11 ff.                 |                 |                                                                                                                                                                                                                                                                                                             |                       |                       |
| +---------------------+-----------------+------------------------------------------+-----------------+                                                                                                                                                                                                                                                                                                             |                       |                       |
|                                                                                                                                                                                                                                                                                                                                                                                                                    |                       |                       |
|   ------------- ----------------------------------------------------------------------------------------------------------                                                                                                                                                                                                                                                                                         |                       |                       |
|   Resumen:      Alonso de Aguilar presenta dos cédulas contra Juan de Monroy, por razón de un macho y un caballo rosillo                                                                                                                                                                                                                                                                                           |                       |                       |
|   ------------- ----------------------------------------------------------------------------------------------------------                                                                                                                                                                                                                                                                                         |                       |                       |
|                                                                                                                                                                                                                                                                                                                                                                                                                    |                       |                       |
|   ----------------------------------- ---------------------------------------------------------------------------------------------------------------------------------------------------------------------------------------------------------------------------------------------------------------------------------------------------------------------------------------------------------------------------- |                       |                       |
|   Contenido:                          El vecino Alonso de Aguilar presenta una cédula con fecha de 17 de noviembre de 1580, por la que Juan de Monroy se reconoce deudor a Martín Ruiz de un macho de 10 años y medio arriba, a cambio de una espada.                                                                                                                                                              |                       |                       |
|                                       También hizo presentación de otra cédula fechada el 7 de febrero de 1581, donde Juan de Monroy dice deberle cuarenta pesos de plata buena por razón de un caballo rosillo, de la casta de Juan Gómez.                                                                                                                                                                        |                       |                       |
|                                       Requerido Juan de Monroy a reconocer las cédulas bajo juramento, “dijo que no quería jurar ni debía nada”.                                                                                                                                                                                                                                                                   |                       |                       |
|                                       Apremiado por el alcalde ordinario de la Villa Hernando de Solórzano, insistió Monroy en lo mismo, diciendo “que le mandase echar preso”.                                                                                                                                                                                                                                    |                       |                       |
|                                       Así lo mandó el alcalde Solórzano.                                                                                                                                                                                                                                                                                                                                           |                       |                       |
|                                       El 22 de abril, Monroy alegó que el caballo rosillo que le vendiera Aguilar por 40 pesos, no valía tal “porque, líquidamente, podía valer el dicho caballo veinte pesos y no más”, lo que confirmaron Gonzalo López de Ayala, uno de los testigos presentados por Monroy, así como Juan López y Alonso de Valmaseda, quien afirmó que para él valía menos de veinte pesos.   |                       |                       |
|                                       El 8 de julio dictaron sentencia los alcaldes ordinarios Hernando de Solórzano y Baltasar de Alcalá, su acompañado, contra Juan de Monroy, pero moderaron el precio del caballo rosillo en treinta pesos.                                                                                                                                                                    |                       |                       |
|                                                                                                                                                                                                                                                                                                                                                                                                                    |                       |                       |
|   ----------------------------------- ---------------------------------------------------------------------------------------------------------------------------------------------------------------------------------------------------------------------------------------------------------------------------------------------------------------------------------------------------------------------------- |                       |                       |
|                                                                                                                                                                                                                                                                                                                                                                                                                    |                       |                       |
|   ---------------------------------------------------------------------------------------------------                                                                                                                                                                                                                                                                                                              |                       |                       |
|    Documento(s) original(es)                                                                                                                                                                                                                                                                                                                                                                                       |                       |                       |
|   --------------------------- ------- ------- ------- ------- ------- ------- ------- ------- -------                                                                                                                                                                                                                                                                                                              |                       |                       |
|               []                []      []      []      []      []      []      []      []      []                                                                                                                                                                                                                                                                                                                 |                       |                       |
|               1f                1v      2f      2v      3f      3v      4f      4v      5f      6f                                                                                                                                                                                                                                                                                                                 |                       |                       |
|                                                                                                                                                                                                                                                                                                                                                                                                                    |                       |                       |
|               []                []      []      []      []      []      []      []      []                                                                                                                                                                                                                                                                                                                         |                       |                       |
|               6v                7f      8f      8v      9f      10f     10v     11f     11v                                                                                                                                                                                                                                                                                                                        |                       |                       |
|   ---------------------------------------------------------------------------------------------------                                                                                                                                                                                                                                                                                                              |                       |                       |
+--------------------------------------------------------------------------------------------------------------------------------------------------------------------------------------------------------------------------------------------------------------------------------------------------------------------------------------------------------------------------------------------------------------------+-----------------------+-----------------------+
| +----------------------------------------------------------------------------+------------------------------------------------+                                                                                                                                                                                                                                                                                    |                       |                       |
| | ISBN 978-607-701-024-1                                                     |   ---- ---- ---- ---- ---- ---- ---- ---- ---- |                                                                                                                                                                                                                                                                                    |                       |                       |
| | © Derechos Reservados 2013. Archivo Histórico del Municipio de Colima. [*] |   []        []        []        []        []   |                                                                                                                                                                                                                                                                                    |                       |                       |
| |                                                                            |   ---- ---- ---- ---- ---- ---- ---- ---- ---- |                                                                                                                                                                                                                                                                                    |                       |                       |
| +----------------------------------------------------------------------------+------------------------------------------------+                                                                                                                                                                                                                                                                                    |                       |                       |
| |                                                                            |                                                |                                                                                                                                                                                                                                                                                    |                       |                       |
| +----------------------------------------------------------------------------+------------------------------------------------+                                                                                                                                                                                                                                                                                    |                       |                       |
+--------------------------------------------------------------------------------------------------------------------------------------------------------------------------------------------------------------------------------------------------------------------------------------------------------------------------------------------------------------------------------------------------------------------+-----------------------+-----------------------+

615 visitas
