+-------------------------------------------------------------------------------------------------------------------------------------------------------------------------------------------------------------------------------------------------------+-----------------------+-----------------------+
| []                                                                                                                                                                                                                                                    |                       |                       |
|                                                                                                                                                                                                                                                       |                       |                       |
| +-----------------------------------+:-------------------------------------:+                                                                                                                                                                         |                       |                       |
| | []                                | LA VILLA DE COLIMA DE LA NUEVA ESPAÑA |                                                                                                                                                                         |                       |                       |
| |                                   | SIGLO XVI                             |                                                                                                                                                                         |                       |                       |
| |                                   |                                       |                                                                                                                                                                         |                       |                       |
| |                                   | VOLUMEN II      (CAJAS 12-20)         |                                                                                                                                                                         |                       |                       |
| +-----------------------------------+---------------------------------------+                                                                                                                                                                         |                       |                       |
+-------------------------------------------------------------------------------------------------------------------------------------------------------------------------------------------------------------------------------------------------------+-----------------------+-----------------------+
| +------------------------------------------------------------------------+---------------------------+-----------------------+                                                                                                                        |                       |                       |
| | Inicio | Búsqueda | Siglas y bibliografía | Créditos | Más información | (consulta las cajas 1-11) |    [ES]               |                                                                                                                        |                       |                       |
| +------------------------------------------------------------------------+---------------------------+-----------------------+                                                                                                                        |                       |                       |
+-------------------------------------------------------------------------------------------------------------------------------------------------------------------------------------------------------------------------------------------------------+-----------------------+-----------------------+
| Búsqueda rápida                                                                                                                                                                                                                                       |                       |                       |
|                                                                                                                                                                                                                                                       |                       |                       |
| +:-------------------:+-----------------+:----------------------------------------:+----------------:+                                                                                                                                                |                       |                       |
| | Documento de fecha: |                 | Ubicación física del documento original: | [] [] []        |                                                                                                                                                |                       |                       |
| |                     |                 |                                          |                 |                                                                                                                                                |                       |                       |
| | 1570. Julio, 4      |                 | Caja 18, exp. 3, f. 1 vta.               |                 |                                                                                                                                                |                       |                       |
| +---------------------+-----------------+------------------------------------------+-----------------+                                                                                                                                                |                       |                       |
|                                                                                                                                                                                                                                                       |                       |                       |
|   ------------- --------------------------------------------------------------------------------------------                                                                                                                                          |                       |                       |
|   Resumen:      Diego de Velasco se obliga a pagar a Antonio de Maya cantidad de pesos de réditos corridos                                                                                                                                            |                       |                       |
|   ------------- --------------------------------------------------------------------------------------------                                                                                                                                          |                       |                       |
|                                                                                                                                                                                                                                                       |                       |                       |
|   ----------------------------------- --------------------------------------------------------------------------------------------------------------------------------------------------------------------------------------------------------------- |                       |                       |
|   Contenido:                          Diego de Velasco, como principal, y su fiador Pedro de Arévalo, se obligan a pagar a Antonio de Amaya^([679]) 500 pesos de oro común, por réditos corridos de seis años de una carta de censo de 1,225 pesos.   |                       |                       |
|                                                                                                                                                                                                                                                       |                       |                       |
|   ----------------------------------- --------------------------------------------------------------------------------------------------------------------------------------------------------------------------------------------------------------- |                       |                       |
|                                                                                                                                                                                                                                                       |                       |                       |
| (679) A la letra, Antonio de Maya.                                                                                                                                                                                                                    |                       |                       |
|                                                                                                                                                                                                                                                       |                       |                       |
|   ---------------------------------------------------------------------------------------------------                                                                                                                                                 |                       |                       |
|    Documento(s) original(es)                                                                                                                                                                                                                          |                       |                       |
|   --------------------------- ------- ------- ------- ------- ------- ------- ------- ------- -------                                                                                                                                                 |                       |                       |
|               []                                                                                                                                                                                                                                      |                       |                       |
|               1v                                                                                                                                                                                                                                      |                       |                       |
|                                                                                                                                                                                                                                                       |                       |                       |
|   ---------------------------------------------------------------------------------------------------                                                                                                                                                 |                       |                       |
+-------------------------------------------------------------------------------------------------------------------------------------------------------------------------------------------------------------------------------------------------------+-----------------------+-----------------------+
| +----------------------------------------------------------------------------+------------------------------------------------+                                                                                                                       |                       |                       |
| | ISBN 978-607-701-024-1                                                     |   ---- ---- ---- ---- ---- ---- ---- ---- ---- |                                                                                                                       |                       |                       |
| | © Derechos Reservados 2013. Archivo Histórico del Municipio de Colima. [*] |   []        []        []        []        []   |                                                                                                                       |                       |                       |
| |                                                                            |   ---- ---- ---- ---- ---- ---- ---- ---- ---- |                                                                                                                       |                       |                       |
| +----------------------------------------------------------------------------+------------------------------------------------+                                                                                                                       |                       |                       |
| |                                                                            |                                                |                                                                                                                       |                       |                       |
| +----------------------------------------------------------------------------+------------------------------------------------+                                                                                                                       |                       |                       |
+-------------------------------------------------------------------------------------------------------------------------------------------------------------------------------------------------------------------------------------------------------+-----------------------+-----------------------+

615 visitas
