+--------------------------------------------------------------------------------------------------------------------------------------------------------------------------------------------------------+-----------------------+-----------------------+
| []                                                                                                                                                                                                     |                       |                       |
|                                                                                                                                                                                                        |                       |                       |
| +-----------------------------------+:-------------------------------------:+                                                                                                                          |                       |                       |
| | []                                | LA VILLA DE COLIMA DE LA NUEVA ESPAÑA |                                                                                                                          |                       |                       |
| |                                   | SIGLO XVI                             |                                                                                                                          |                       |                       |
| |                                   |                                       |                                                                                                                          |                       |                       |
| |                                   | VOLUMEN II      (CAJAS 12-20)         |                                                                                                                          |                       |                       |
| +-----------------------------------+---------------------------------------+                                                                                                                          |                       |                       |
+--------------------------------------------------------------------------------------------------------------------------------------------------------------------------------------------------------+-----------------------+-----------------------+
| +------------------------------------------------------------------------+---------------------------+-----------------------+                                                                         |                       |                       |
| | Inicio | Búsqueda | Siglas y bibliografía | Créditos | Más información | (consulta las cajas 1-11) |    [ES]               |                                                                         |                       |                       |
| +------------------------------------------------------------------------+---------------------------+-----------------------+                                                                         |                       |                       |
+--------------------------------------------------------------------------------------------------------------------------------------------------------------------------------------------------------+-----------------------+-----------------------+
| Búsqueda rápida                                                                                                                                                                                        |                       |                       |
|                                                                                                                                                                                                        |                       |                       |
| +:-------------------:+-----------------+:----------------------------------------:+----------------:+                                                                                                 |                       |                       |
| | Documento de fecha: |                 | Ubicación física del documento original: | [] [] []        |                                                                                                 |                       |                       |
| |                     |                 |                                          |                 |                                                                                                 |                       |                       |
| | 1580. Julio, 18     |                 | Caja 18, exp. 9, 2 ff.                   |                 |                                                                                                 |                       |                       |
| +---------------------+-----------------+------------------------------------------+-----------------+                                                                                                 |                       |                       |
|                                                                                                                                                                                                        |                       |                       |
|   ------------- -------------------------------------------------------------------------------------------                                                                                            |                       |                       |
|   Resumen:      García Martínez presenta una carta cuenta de mercaderías que le adeuda Álvaro de Grijalba                                                                                              |                       |                       |
|   ------------- -------------------------------------------------------------------------------------------                                                                                            |                       |                       |
|                                                                                                                                                                                                        |                       |                       |
|   ----------------------------------- ---------------------------------------------------------------------------------------------------------------------------------------------------------------- |                       |                       |
|   Contenido:                          García Martínez, ante el alcalde mayor Gaspar Huerta, presenta una carta cuenta de Álvaro de Grijalba, por la que parece que debe, de resto de ella, 46 pesos.   |                       |                       |
|                                       Pide que Grijalba la reconozca y la pague.                                                                                                                       |                       |                       |
|                                       Éste, bajo juramento, dice que sólo debe los trece pesos de ropa que le dio a su esposa Catalina Ruiz, y que lo demás lo tiene ya pagado.                        |                       |                       |
|                                                                                                                                                                                                        |                       |                       |
|   ----------------------------------- ---------------------------------------------------------------------------------------------------------------------------------------------------------------- |                       |                       |
|                                                                                                                                                                                                        |                       |                       |
|   ---------------------------------------------------------------------------------------------------                                                                                                  |                       |                       |
|    Documento(s) original(es)                                                                                                                                                                           |                       |                       |
|   --------------------------- ------- ------- ------- ------- ------- ------- ------- ------- -------                                                                                                  |                       |                       |
|               []                []      []      []                                                                                                                                                     |                       |                       |
|               1f                1v      2f      2v                                                                                                                                                     |                       |                       |
|                                                                                                                                                                                                        |                       |                       |
|   ---------------------------------------------------------------------------------------------------                                                                                                  |                       |                       |
+--------------------------------------------------------------------------------------------------------------------------------------------------------------------------------------------------------+-----------------------+-----------------------+
| +----------------------------------------------------------------------------+------------------------------------------------+                                                                        |                       |                       |
| | ISBN 978-607-701-024-1                                                     |   ---- ---- ---- ---- ---- ---- ---- ---- ---- |                                                                        |                       |                       |
| | © Derechos Reservados 2013. Archivo Histórico del Municipio de Colima. [*] |   []        []        []        []        []   |                                                                        |                       |                       |
| |                                                                            |   ---- ---- ---- ---- ---- ---- ---- ---- ---- |                                                                        |                       |                       |
| +----------------------------------------------------------------------------+------------------------------------------------+                                                                        |                       |                       |
| |                                                                            |                                                |                                                                        |                       |                       |
| +----------------------------------------------------------------------------+------------------------------------------------+                                                                        |                       |                       |
+--------------------------------------------------------------------------------------------------------------------------------------------------------------------------------------------------------+-----------------------+-----------------------+

615 visitas
