+---------------------------------------------------------------------------------------------------------------------------------------------------------------------------------------------------------------------------------------------------------------------------------------------------------------------------------------------------------------------------------------------------------------------------------------------------------------------------------------------------------------------------------------------------------------------------------------------------------------------------------------------------------------------+-----------------------+-----------------------+
| []                                                                                                                                                                                                                                                                                                                                                                                                                                                                                                                                                                                                                                                                  |                       |                       |
|                                                                                                                                                                                                                                                                                                                                                                                                                                                                                                                                                                                                                                                                     |                       |                       |
| +-----------------------------------+:-------------------------------------:+                                                                                                                                                                                                                                                                                                                                                                                                                                                                                                                                                                                       |                       |                       |
| | []                                | LA VILLA DE COLIMA DE LA NUEVA ESPAÑA |                                                                                                                                                                                                                                                                                                                                                                                                                                                                                                                                                                                       |                       |                       |
| |                                   | SIGLO XVI                             |                                                                                                                                                                                                                                                                                                                                                                                                                                                                                                                                                                                       |                       |                       |
| |                                   |                                       |                                                                                                                                                                                                                                                                                                                                                                                                                                                                                                                                                                                       |                       |                       |
| |                                   | VOLUMEN II      (CAJAS 12-20)         |                                                                                                                                                                                                                                                                                                                                                                                                                                                                                                                                                                                       |                       |                       |
| +-----------------------------------+---------------------------------------+                                                                                                                                                                                                                                                                                                                                                                                                                                                                                                                                                                                       |                       |                       |
+---------------------------------------------------------------------------------------------------------------------------------------------------------------------------------------------------------------------------------------------------------------------------------------------------------------------------------------------------------------------------------------------------------------------------------------------------------------------------------------------------------------------------------------------------------------------------------------------------------------------------------------------------------------------+-----------------------+-----------------------+
| +------------------------------------------------------------------------+---------------------------+-----------------------+                                                                                                                                                                                                                                                                                                                                                                                                                                                                                                                                      |                       |                       |
| | Inicio | Búsqueda | Siglas y bibliografía | Créditos | Más información | (consulta las cajas 1-11) |    [ES]               |                                                                                                                                                                                                                                                                                                                                                                                                                                                                                                                                      |                       |                       |
| +------------------------------------------------------------------------+---------------------------+-----------------------+                                                                                                                                                                                                                                                                                                                                                                                                                                                                                                                                      |                       |                       |
+---------------------------------------------------------------------------------------------------------------------------------------------------------------------------------------------------------------------------------------------------------------------------------------------------------------------------------------------------------------------------------------------------------------------------------------------------------------------------------------------------------------------------------------------------------------------------------------------------------------------------------------------------------------------+-----------------------+-----------------------+
| Búsqueda rápida                                                                                                                                                                                                                                                                                                                                                                                                                                                                                                                                                                                                                                                     |                       |                       |
|                                                                                                                                                                                                                                                                                                                                                                                                                                                                                                                                                                                                                                                                     |                       |                       |
| +:-------------------:+-----------------+:----------------------------------------:+----------------:+                                                                                                                                                                                                                                                                                                                                                                                                                                                                                                                                                              |                       |                       |
| | Documento de fecha: |                 | Ubicación física del documento original: | [] [] []        |                                                                                                                                                                                                                                                                                                                                                                                                                                                                                                                                                              |                       |                       |
| |                     |                 |                                          |                 |                                                                                                                                                                                                                                                                                                                                                                                                                                                                                                                                                              |                       |                       |
| | 1580. Diciembre, 26 |                 | Caja 18, exp. 11, 4 ff.                  |                 |                                                                                                                                                                                                                                                                                                                                                                                                                                                                                                                                                              |                       |                       |
| +---------------------+-----------------+------------------------------------------+-----------------+                                                                                                                                                                                                                                                                                                                                                                                                                                                                                                                                                              |                       |                       |
|                                                                                                                                                                                                                                                                                                                                                                                                                                                                                                                                                                                                                                                                     |                       |                       |
|   ------------- -----------------------------------------------------------------------------------------------------------------------------                                                                                                                                                                                                                                                                                                                                                                                                                                                                                                                       |                       |                       |
|   Resumen:      Información de oficio acerca de la riña que tuvieron Hernando, criado de Juan de Salinas, y otro indio llamado Diego Jacobo                                                                                                                                                                                                                                                                                                                                                                                                                                                                                                                         |                       |                       |
|   ------------- -----------------------------------------------------------------------------------------------------------------------------                                                                                                                                                                                                                                                                                                                                                                                                                                                                                                                       |                       |                       |
|                                                                                                                                                                                                                                                                                                                                                                                                                                                                                                                                                                                                                                                                     |                       |                       |
|   ----------------------------------- ----------------------------------------------------------------------------------------------------------------------------------------------------------------------------------------------------------------------------------------------------------------------------------------------------------------------------------------------------------------------------------------------------------------------------------------------------------------------------------------------------------------------------------------------------------------------------------------------------------------------------- |                       |                       |
|   Contenido:                          El alcalde mayor Luis Núñez Mercado promueve de oficio averiguación por un incidente entre dos naturales, resultando que “un indio llamado Hernando, criado de Juan de Salinas, descalabró a otro indio, llamado Diego Jacobo, e le dio con una piedra en la cabeza, de la cual herida le salió mucha sangre”.                                                                                                                                                                                                                                                                                                                |                       |                       |
|                                       Miguel Hernández, indio mexicano, criado de Antonio Carrillo, dio su testimonio mediante Gerónimo de Almesto, interprete de esta Audiencia. Dijo haber visto cómo “Diego Jacobo se llegó al dicho Hernando, y le quitó un sombrero que traía puesto en la cabeza; y el dicho Hernando se abajó por una piedra e, con ella, dio al dicho Diego Jacobo en la cabeza, que dio con él en el suelo; y allí le dio muchos golpes con la dicha piedra, y descalabró con ella, y le hizo una herida”. Si no hubieran ocurrido este testigo y otros españoles, entre ellos, el alcalde ordinario Juan de Aguilar, le hubiera matado.   |                       |                       |
|                                       El residente de la Villa Baltasar García, por su lado, dijo que vio, estando en la esquina de la Plaza, cómo Diego Jacobo se acercó a Hernando dándole “con una piedra en el rostro”. Entonces, el agredido se abrazó a Diego lográndole derribar al suelo. “Y con un guijarro que tomó, le dio muchos golpes en la cabeza, de que le descalabró”. Fue este testigo el que dio aviso al alcalde Aguilar, quien acudió luego. Agregó haber visto a Diego, herido de la cabeza, y a Hernando cuando “lo trujeron a la cárcel”.                                                                                                  |                       |                       |
|                                       El español Alonso Pérez, estante a la sazón, dijo que él estaba en una esquina de la Plaza de la Villa y vio cómo a las puertas de las casas de Salinas estaban Diego y Hernando. Diego Jacobo dio, entonces, con una piedra en la cara a Hernando; éste se le abrazó y tirólo al suelo dándole con un guijarro muchos golpes y descalabrándolo. El alcalde Aguilar llegó y prendió a Hernando.                                                                                                                                                                                                                               |                       |                       |
|                                       El alcalde mayor mandó comparecer ante su presencia a Diego Jacobo.                                                                                                                                                                                                                                                                                                                                                                                                                                                                                                                                                           |                       |                       |
|                                       El detenido declaró que, estando holgándose, se llegó a él el indio Hernando y le dijo “que él era mejor arriero e bailaba mejor;^([693]) y este confesante se negó. E le iba a dar un bofetón y no le alcanzó”. Fue cuando Hernando se le abrazó y derribó al suelo, golpeándole. “Lo aturdió y descalabró muy mal, en la cabeza, en la cual le hizo una herida, muy mala, de que le ha salido mucha sangre”.                                                                                                                                                                                                                |                       |                       |
|                                       Dio mandamiento el alcalde mayor al alguacil y alcaide de tener preso y a buen recaudo a Hernando; también ordenó que Diego fuese dado en fiado hasta en tanto se curaba. Juan de la Vega, vecino de la Villa, se presentó por carcelero.                                                                                                                                                                                                                                                                                                                                                                                     |                       |                       |
|                                       El 29 de diciembre, en visita a la cárcel, el alcalde mayor encontró allí a ambos indios presos, a quienes, “por honra de las Santas Pascuas,^([694]) los mandó soltar en fiado”. Juan de Salinas fue fiador de ambos.                                                                                                                                                                                                                                                                                                                                                                                                        |                       |                       |
|                                                                                                                                                                                                                                                                                                                                                                                                                                                                                                                                                                                                                                                                     |                       |                       |
|   ----------------------------------- ----------------------------------------------------------------------------------------------------------------------------------------------------------------------------------------------------------------------------------------------------------------------------------------------------------------------------------------------------------------------------------------------------------------------------------------------------------------------------------------------------------------------------------------------------------------------------------------------------------------------------- |                       |                       |
|                                                                                                                                                                                                                                                                                                                                                                                                                                                                                                                                                                                                                                                                     |                       |                       |
| (693) Antes se hizo alusión a la música —tañían en la noche—: supra, regº 669; ahora, se habla del baile aunque la expresión podría tener otro significado —de reto o apuesta— y no precisamente de danza.                                                                                                                                                                                                                                                                                                                                                                                                                                                          |                       |                       |
|                                                                                                                                                                                                                                                                                                                                                                                                                                                                                                                                                                                                                                                                     |                       |                       |
| (694) Pascua de Navidad.                                                                                                                                                                                                                                                                                                                                                                                                                                                                                                                                                                                                                                            |                       |                       |
|                                                                                                                                                                                                                                                                                                                                                                                                                                                                                                                                                                                                                                                                     |                       |                       |
|   ---------------------------------------------------------------------------------------------------                                                                                                                                                                                                                                                                                                                                                                                                                                                                                                                                                               |                       |                       |
|    Documento(s) original(es)                                                                                                                                                                                                                                                                                                                                                                                                                                                                                                                                                                                                                                        |                       |                       |
|   --------------------------- ------- ------- ------- ------- ------- ------- ------- ------- -------                                                                                                                                                                                                                                                                                                                                                                                                                                                                                                                                                               |                       |                       |
|               []                []      []      []      []      []      []      []                                                                                                                                                                                                                                                                                                                                                                                                                                                                                                                                                                                  |                       |                       |
|               1f                1v      2f      2v      3f      3v      4f      4v                                                                                                                                                                                                                                                                                                                                                                                                                                                                                                                                                                                  |                       |                       |
|                                                                                                                                                                                                                                                                                                                                                                                                                                                                                                                                                                                                                                                                     |                       |                       |
|   ---------------------------------------------------------------------------------------------------                                                                                                                                                                                                                                                                                                                                                                                                                                                                                                                                                               |                       |                       |
+---------------------------------------------------------------------------------------------------------------------------------------------------------------------------------------------------------------------------------------------------------------------------------------------------------------------------------------------------------------------------------------------------------------------------------------------------------------------------------------------------------------------------------------------------------------------------------------------------------------------------------------------------------------------+-----------------------+-----------------------+
| +----------------------------------------------------------------------------+------------------------------------------------+                                                                                                                                                                                                                                                                                                                                                                                                                                                                                                                                     |                       |                       |
| | ISBN 978-607-701-024-1                                                     |   ---- ---- ---- ---- ---- ---- ---- ---- ---- |                                                                                                                                                                                                                                                                                                                                                                                                                                                                                                                                     |                       |                       |
| | © Derechos Reservados 2013. Archivo Histórico del Municipio de Colima. [*] |   []        []        []        []        []   |                                                                                                                                                                                                                                                                                                                                                                                                                                                                                                                                     |                       |                       |
| |                                                                            |   ---- ---- ---- ---- ---- ---- ---- ---- ---- |                                                                                                                                                                                                                                                                                                                                                                                                                                                                                                                                     |                       |                       |
| +----------------------------------------------------------------------------+------------------------------------------------+                                                                                                                                                                                                                                                                                                                                                                                                                                                                                                                                     |                       |                       |
| |                                                                            |                                                |                                                                                                                                                                                                                                                                                                                                                                                                                                                                                                                                     |                       |                       |
| +----------------------------------------------------------------------------+------------------------------------------------+                                                                                                                                                                                                                                                                                                                                                                                                                                                                                                                                     |                       |                       |
+---------------------------------------------------------------------------------------------------------------------------------------------------------------------------------------------------------------------------------------------------------------------------------------------------------------------------------------------------------------------------------------------------------------------------------------------------------------------------------------------------------------------------------------------------------------------------------------------------------------------------------------------------------------------+-----------------------+-----------------------+

615 visitas
