+-----------------------------------------------------------------------------------------------------------------------------------------------------------------------------------------------------------------------------------------------------------------------------------------------------------------------------------------------------------------------------------------------------------------------------------------------------------------------------------------------------------------------------------------------------------------------------------------------------------------------------------------------------------------------------------------------------------------------------------------------------------------------------------------+-----------------------+-----------------------+
| []                                                                                                                                                                                                                                                                                                                                                                                                                                                                                                                                                                                                                                                                                                                                                                                      |                       |                       |
|                                                                                                                                                                                                                                                                                                                                                                                                                                                                                                                                                                                                                                                                                                                                                                                         |                       |                       |
| +-----------------------------------+:-------------------------------------:+                                                                                                                                                                                                                                                                                                                                                                                                                                                                                                                                                                                                                                                                                                           |                       |                       |
| | []                                | LA VILLA DE COLIMA DE LA NUEVA ESPAÑA |                                                                                                                                                                                                                                                                                                                                                                                                                                                                                                                                                                                                                                                                                                           |                       |                       |
| |                                   | SIGLO XVI                             |                                                                                                                                                                                                                                                                                                                                                                                                                                                                                                                                                                                                                                                                                                           |                       |                       |
| |                                   |                                       |                                                                                                                                                                                                                                                                                                                                                                                                                                                                                                                                                                                                                                                                                                           |                       |                       |
| |                                   | VOLUMEN II      (CAJAS 12-20)         |                                                                                                                                                                                                                                                                                                                                                                                                                                                                                                                                                                                                                                                                                                           |                       |                       |
| +-----------------------------------+---------------------------------------+                                                                                                                                                                                                                                                                                                                                                                                                                                                                                                                                                                                                                                                                                                           |                       |                       |
+-----------------------------------------------------------------------------------------------------------------------------------------------------------------------------------------------------------------------------------------------------------------------------------------------------------------------------------------------------------------------------------------------------------------------------------------------------------------------------------------------------------------------------------------------------------------------------------------------------------------------------------------------------------------------------------------------------------------------------------------------------------------------------------------+-----------------------+-----------------------+
| +------------------------------------------------------------------------+---------------------------+-----------------------+                                                                                                                                                                                                                                                                                                                                                                                                                                                                                                                                                                                                                                                          |                       |                       |
| | Inicio | Búsqueda | Siglas y bibliografía | Créditos | Más información | (consulta las cajas 1-11) |    [ES]               |                                                                                                                                                                                                                                                                                                                                                                                                                                                                                                                                                                                                                                                          |                       |                       |
| +------------------------------------------------------------------------+---------------------------+-----------------------+                                                                                                                                                                                                                                                                                                                                                                                                                                                                                                                                                                                                                                                          |                       |                       |
+-----------------------------------------------------------------------------------------------------------------------------------------------------------------------------------------------------------------------------------------------------------------------------------------------------------------------------------------------------------------------------------------------------------------------------------------------------------------------------------------------------------------------------------------------------------------------------------------------------------------------------------------------------------------------------------------------------------------------------------------------------------------------------------------+-----------------------+-----------------------+
| Búsqueda rápida                                                                                                                                                                                                                                                                                                                                                                                                                                                                                                                                                                                                                                                                                                                                                                         |                       |                       |
|                                                                                                                                                                                                                                                                                                                                                                                                                                                                                                                                                                                                                                                                                                                                                                                         |                       |                       |
| +:-------------------:+-----------------+:----------------------------------------:+----------------:+                                                                                                                                                                                                                                                                                                                                                                                                                                                                                                                                                                                                                                                                                  |                       |                       |
| | Documento de fecha: |                 | Ubicación física del documento original: | [] [] []        |                                                                                                                                                                                                                                                                                                                                                                                                                                                                                                                                                                                                                                                                                  |                       |                       |
| |                     |                 |                                          |                 |                                                                                                                                                                                                                                                                                                                                                                                                                                                                                                                                                                                                                                                                                  |                       |                       |
| | 1592. Febrero, 26   |                 | Caja 18, exp. 15, ff. 36-47.             |                 |                                                                                                                                                                                                                                                                                                                                                                                                                                                                                                                                                                                                                                                                                  |                       |                       |
| +---------------------+-----------------+------------------------------------------+-----------------+                                                                                                                                                                                                                                                                                                                                                                                                                                                                                                                                                                                                                                                                                  |                       |                       |
|                                                                                                                                                                                                                                                                                                                                                                                                                                                                                                                                                                                                                                                                                                                                                                                         |                       |                       |
|   ------------- ----------------------------------------------------------------                                                                                                                                                                                                                                                                                                                                                                                                                                                                                                                                                                                                                                                                                                        |                       |                       |
|   Resumen:      De cómo fue tomado preso Baltasar de Enero, por amancebamiento                                                                                                                                                                                                                                                                                                                                                                                                                                                                                                                                                                                                                                                                                                          |                       |                       |
|   ------------- ----------------------------------------------------------------                                                                                                                                                                                                                                                                                                                                                                                                                                                                                                                                                                                                                                                                                                        |                       |                       |
|                                                                                                                                                                                                                                                                                                                                                                                                                                                                                                                                                                                                                                                                                                                                                                                         |                       |                       |
|   ----------------------------------- ------------------------------------------------------------------------------------------------------------------------------------------------------------------------------------------------------------------------------------------------------------------------------------------------------------------------------------------------------------------------------------------------------------------------------------------------------------------------------------------------------------------------------------------------------------------------------------------------------------------------------------------------------------------------------------------------------------------------------------------------- |                       |                       |
|   Contenido:                          El alcalde ordinario Álvaro de Herrera, informado que en la Villa de Colima “ha muchos años [que] está un mozo español al parecer, llamado Baltasar de Enero, públicamente amancebado con una mujer española y casada, teniéndola por su manceba”, y además, que “ha muerto ganado vacuno en el campo”, sin señal ni hierro alguno vendiéndolo como propio en los pueblos de indios de esta Provincia, fue a buscar al susodicho “para le prender”.^([705])                                                                                                                                                                                                                                                                                       |                       |                       |
|                                       Para la información, declaró primeramente Pedro Pablo,^([706]) vecino de esta Villa, quien dijo conocer al acusado “que por otro nombre lo llaman Cocles”,^([707]) y a su manceba, que ha estado preñada del dicho Baltasar. Recuerda que con anterioridad Antonio de Velasco y Julián de Frías, alcaldes ordinarios que fueron de esta Villa, quisieron prenderle en muchas ocasiones. Declara que se sabe que roba potros en las estancias de esta Villa, y que los vende. Sobre los incidentes de la víspera cuando Álvaro de Herrera fue a detenerlo, relata que le hallaron “en un colchón en donde se había escondido, en camisa y con calzones, y descalzo y sin sombrero, y sin capote”. Y luego “le trujeron a la cárcel desta Villa”.   |                       |                       |
|                                       Recuerda que, cuando llegaron a la casa para detener a Baltasar de Enero y entraron en ella, este testigo vio en el aposento de la mujer la silla de montar del acusado “que es jineta con sus estribos”. Luego, una vez que ya se encaminaban a la cárcel, y como le traían desnudo al detenido, éste pidió que le llevasen su hato, y lo fueron a sacar del aposento de la mujer, y era un capote, un jubón, unas botas de vaqueta y su sombrero.                                                                                                                                                                                                                                                                                               |                       |                       |
|                                       Un nuevo testigo, Esteban de Solórzano, relata lo sucedido cuando acompañó al alcalde Herrera a detener a Baltasar de Enero. Dice que le encontraron en el aposento de la mujer. Recuerda que ya Baltasar había tenido problemas con la Justicia, en concreto, cuando se le desterró del pueblo de Zapotlan por estar amancebado.                                                                                                                                                                                                                                                                                                                                                                                                                 |                       |                       |
|                                       Llegó el turno al acusado quien dijo tener 20 años, que era natural de la Ciudad de México, es vaquero de oficio y está casado con una india que reside en el pueblo de Comala. Acepta haber estado preso en la cárcel de Zapotlan “porque se halló en una pendencia de un mulato y unos mozos, cuñados de Juan de Velasco, su amo, y que por esto le sentenciaron en un año de destierro”.                                                                                                                                                                                                                                                                                                                                                       |                       |                       |
|                                       Preguntado que si es cierto que el alcalde Herrera y otras personas le hallaron en casa de una española casada, “a las once de la noche, desnudo, en camisa y con calzones, y descalzo y sin sombrero”, contestó que la verdad del caso es que él había ido a esa casa donde le encontraron, a dejar “un caballo, que era de Pedro Ceballos”.^([708]) Y si es cierto que, como se dice, le hallaron “en una recámara de la dicha mujer casada, que es su comadre, tapado con un colchón; [es] que se había escondido allí porque le habían dicho que el alcalde le quería prender”.                                                                                                                                                               |                       |                       |
|                                       Acerca de si era verdad que esa mujer española tenía un hijo de él y si estaba amancebado con ella, contestó negativamente.                                                                                                                                                                                                                                                                                                                                                                                                                                                                                                                                                                                                                       |                       |                       |
|                                       Luego se le preguntó, “si es verdad que su mujer deste confesante le pidió divorcio ante el vicario desta Villa,^([709]) el cual la depositó en casa de Pedro de Almodóvar”. Baltasar de Enero contestó: “Cuando sucedió lo que se le pregunta, estaba este confesante en Jilotlan y no estaba en esta Provincia,^([710]) y sus padres de su mujer la insistieron para ello”.                                                                                                                                                                                                                                                                                                                                                                     |                       |                       |
|                                       Se le pidió también que explicara el motivo de porqué, si tenía su casa en Comala donde vivía su esposa, se venía a “dormir a casa de la dicha mujer casada en donde le hallaron”. Dice que vino a traer un caballo, y estando ya en la casa, “como dieron ciertos golpes en la puerta de la calle” quienes venían a detenerle, él, que “estaba en el patio durmiendo”, corrió a esconderse a “la recámara de la dicha mujer casada, en donde le hallaron”. Reconoció, por otra parte que allí tenía una hija suya,^([711]) y que ello se explica fácilmente porque la mujer es su “comadre”.                                                                                                                                                     |                       |                       |
|                                       Le preguntaron también sobre las acciones realizadas por los alcaldes Frías y Velasco. Respondió Baltasar de Enero que Julián de Frías “le quiso prender por una pendencia que este confesante y Juan de Berlanga tuvieron”, y el alcalde Velasco “le quiso prender por una muchacha, hija deste confesante,^([712]) que se había huido de casa del dicho Antonio de Velasco”. Reconoció, también, que había “sacado, poco ha, dos potros que le dio Cristóbal Hernández de Tene y los vendió a un indio que se dice Baltasar, pintor” pero negó haber matado ganado y robado potros de las estancias de los vecinos de la Villa.                                                                                                                 |                       |                       |
|                                       Saliendo al frente de rumores acerca de que se había fugado en cierta ocasión de la cárcel de la Villa, comentó que “estuvo preso con unos grillos, siendo aquí alcalde mayor un Fulano de Arriaga^([713]) y alguacil mayor un Fulano de Herades,^([714]) y que este confesante no se huyó sino que el dicho alguacil le soltó, a quien servía”.^([715])                                                                                                                                                                                                                                                                                                                                                                                          |                       |                       |
|                                       En eso, el alcalde Álvaro de Herrera quien llevaba la causa, tuvo que ausentarse de Colima. Así lo dice Baltasar de Enero en petición dirigida a Cristobal Hernández de Tene, también alcalde ordinario a la sazón. Dice el suplicante: Herrera “se ha ido fuera desta Villa a negocios y causas que le convienen en esta Provincia, e yo padezco gran molestia por las graves prisiones en que me tiene, y necesidad y hambre, por ser pobre”. Pide al alcalde Hernández de Tene, el 3 de marzo, que asuma la causa por dicha razón.                                                                                                                                                                                                             |                       |                       |
|                                       El alcalde Hernández de Tene dio entrada a esta petición, y dijo que, como en el Archivo del escribano público Toribio de Casso había cuatro procesos criminales contra Baltasar de Enero, mandaba que, exhibiéndolos el escribano, fueran unidos al expediente en curso, y que se tomase la confesión del detenido sobre ellos.                                                                                                                                                                                                                                                                                                                                                                                                                  |                       |                       |
|                                       Éstos eran: “un proceso sobre haber muerto un novillo orejano, y otros, sobre la pedrada que dio a Marcos de Torres, y otros, sobre la resistencia que hizo a Diego Hernández, alguacil”. Sobre este último asunto, Baltasar dijo que cuando el alguacil le prendió en el pueblo de San Francisco, “se fue estirando” hacia el templo del dicho pueblo que está cerca del dicho tianguis, logrando introducirse en el interior de la Iglesia, “lo cual hizo sin maltratar al dicho Diego Hernández porque no tenía ni armas, ni cuchillo, ni otra cosa”.                                                                                                                                                                                          |                       |                       |
|                                       Fue también interrogado acerca de los incidentes ocurridos un 5 de enero de 1583 cuando, al parecer, en compañía de Hernando de Alvarado, había ido a casa de Marcos de Torres a jugar y le había dado una pedrada a éste en el rostro junto a la oreja haciéndole una mala herida de la que le salió mucha sangre. Baltasar de Enero negó los hechos. Su explicación fue que, “estando riñendo Marcos de Torres y Hernando de Alvarado y acuchillándose, y allí estaba Juan Núñez, su yerno del dicho Alvarado, que le ayudaba”, él llegó, pero no hizo nada.                                                                                                                                                                                    |                       |                       |
|                                       El 6 de marzo, el alcalde Hernández de Tene dictó sentencia en los procesos acumulados, a saber, su amancebamiento con mujer española y casada, la pedrada que dio a Marcos de Torres, la resistencia que hizo al alguacil Diego Hernández Rubio en el pueblo de San Francisco, el novillo orejano que mató y el ganado que llevó a vender a Quezalapa. En la sentencia se le manda que “no se junte con la mujer española —que no se dice aquí su nombre— debajo de techo ni en parte sospechosa, so pena de ser gravemente castigado”.                                                                                                                                                                                                          |                       |                       |
|                                       De los demás procesos, “le debo de condenar y condeno al dicho Baltasar de Enero en la pena de la sangre y en dos años de destierro de esta Villa y su jurisdicción, el uno, voluntario, y el otro, preciso, lo cual salga a cumplir desde la cárcel en donde está, saliendo della. Y si lo quebrantase, los cumpla los dichos dos años en el Fuerte de Sant Juan de Ulúa, sirviendo a Su Majestad en lo que se le mandare, sin sueldo. Y más le condena en las costas deste proceso”.                                                                                                                                                                                                                                                            |                       |                       |
|                                       El 21 de marzo, salía a cumplir su destierro el sentenciado,^([716]) siendo testigos de ello Diego de Contreras, Andrés Toscano y Martín Rosales.                                                                                                                                                                                                                                                                                                                                                                                                                                                                                                                                                                                                 |                       |                       |
|                                                                                                                                                                                                                                                                                                                                                                                                                                                                                                                                                                                                                                                                                                                                                                                         |                       |                       |
|   ----------------------------------- ------------------------------------------------------------------------------------------------------------------------------------------------------------------------------------------------------------------------------------------------------------------------------------------------------------------------------------------------------------------------------------------------------------------------------------------------------------------------------------------------------------------------------------------------------------------------------------------------------------------------------------------------------------------------------------------------------------------------------------------------- |                       |                       |
|                                                                                                                                                                                                                                                                                                                                                                                                                                                                                                                                                                                                                                                                                                                                                                                         |                       |                       |
| (705) Al parecer continúa el proceso iniciado meses atrás, tal y como se vio: supra, regº 683.                                                                                                                                                                                                                                                                                                                                                                                                                                                                                                                                                                                                                                                                                          |                       |                       |
|                                                                                                                                                                                                                                                                                                                                                                                                                                                                                                                                                                                                                                                                                                                                                                                         |                       |                       |
| (706) Se trata de Pero Pablo de Almodóvar.                                                                                                                                                                                                                                                                                                                                                                                                                                                                                                                                                                                                                                                                                                                                              |                       |                       |
|                                                                                                                                                                                                                                                                                                                                                                                                                                                                                                                                                                                                                                                                                                                                                                                         |                       |                       |
| (707) El apodo bien puede vincularse al legendario Publio Horacio Cocles (“Cocles”, según Plinio significa “tuerto”), héroe romano quien el año de 508 a.C. retrasó el avance del ejército etrusco del rey Porsena, defendiendo él solo un puente de madera sobre el Tíber.                                                                                                                                                                                                                                                                                                                                                                                                                                                                                                             |                       |                       |
|                                                                                                                                                                                                                                                                                                                                                                                                                                                                                                                                                                                                                                                                                                                                                                                         |                       |                       |
| (708) ¿Era la esposa de Pedro de Ceballos —doña Magdalena de Solórzano— la mujer casada y española que se entendía con Baltasar de Enero?                                                                                                                                                                                                                                                                                                                                                                                                                                                                                                                                                                                                                                               |                       |                       |
|                                                                                                                                                                                                                                                                                                                                                                                                                                                                                                                                                                                                                                                                                                                                                                                         |                       |                       |
| (709) Sorprende el hecho que la esposa de Baltasar de Enero haya acudido ante el Vicario de la Villa para solicitar el “divorcio”.                                                                                                                                                                                                                                                                                                                                                                                                                                                                                                                                                                                                                                                      |                       |                       |
|                                                                                                                                                                                                                                                                                                                                                                                                                                                                                                                                                                                                                                                                                                                                                                                         |                       |                       |
| (710) Xilotlan, por estas fechas, pertenecía a la alcaldía mayor de Quacoman: AQU                                                                                                                                                                                                                                                                                                                                                                                                                                                                                                                                                                                                                                                                                                       |                       |                       |
|                                                                                                                                                                                                                                                                                                                                                                                                                                                                                                                                                                                                                                                                                                                                                                                         |                       |                       |
| (711) En el párrafo siguiente Baltasar de Enero reconoce que tiene una hija, pero aquí daría la impresión que alude a una hija de esa dama española que era su “comadre”.                                                                                                                                                                                                                                                                                                                                                                                                                                                                                                                                                                                                               |                       |                       |
|                                                                                                                                                                                                                                                                                                                                                                                                                                                                                                                                                                                                                                                                                                                                                                                         |                       |                       |
| (712) Única noticia sobre la familia de Baltasar de Enero.                                                                                                                                                                                                                                                                                                                                                                                                                                                                                                                                                                                                                                                                                                                              |                       |                       |
|                                                                                                                                                                                                                                                                                                                                                                                                                                                                                                                                                                                                                                                                                                                                                                                         |                       |                       |
| (713) Pablo de Arriaga, alcalde mayor de Colima (1576-1577): Rodríguez Castellanos (1977), 8, nº 29. Tal vez hijo del conquistador Juan de Arriaga quien pasara a Nueva España desde Cuba con Hernán Cortés: Icaza (1969), I, nº 13. Antes de ser alcalde mayor ya había estado en la Villa de Colima, en 1554: Romero de Solís, Protocolos... (1999), regº 140. Posiblemente era hermano suyo un Luis de Arriaga que aparece registrado por vecino de Colima en 1575: supra, I, regº 263. Más datos: Romero de Solís, Andariegos... (2001), 47.                                                                                                                                                                                                                                        |                       |                       |
|                                                                                                                                                                                                                                                                                                                                                                                                                                                                                                                                                                                                                                                                                                                                                                                         |                       |                       |
| (714) Se refiere al vecino Tomás [Arriaga] Herades que fue alguacil mayor y alcaide en 1577: véase, entre otros registros; supra, II, regº 272, 293, 295 y 303. Arriaga y Herades eran parientes entre sí.                                                                                                                                                                                                                                                                                                                                                                                                                                                                                                                                                                              |                       |                       |
|                                                                                                                                                                                                                                                                                                                                                                                                                                                                                                                                                                                                                                                                                                                                                                                         |                       |                       |
| (715) La expresión sugiere que Cocles estuvo sirviendo a sucesivos amos: fue criado del alcalde mayor Jerónimo Flores, en 1572: supra, II, regº 240; en 1577, lo fue de Tomás Herades y, más tarde, pasó al servicio de García Ramírez y Juan de Velasco: supra, regº 683 y 684.                                                                                                                                                                                                                                                                                                                                                                                                                                                                                                        |                       |                       |
|                                                                                                                                                                                                                                                                                                                                                                                                                                                                                                                                                                                                                                                                                                                                                                                         |                       |                       |
| (716) ¿Acaso quebrantó el destierro y fue conducido al castillo de San Juan de Ulúa, situado en el puerto de Veracruz? Lo cierto es que no hemos hallado noticia cronológica posterior referida a Baltasar de Enero.                                                                                                                                                                                                                                                                                                                                                                                                                                                                                                                                                                    |                       |                       |
|                                                                                                                                                                                                                                                                                                                                                                                                                                                                                                                                                                                                                                                                                                                                                                                         |                       |                       |
|   ---------------------------------------------------------------------------------------------------                                                                                                                                                                                                                                                                                                                                                                                                                                                                                                                                                                                                                                                                                   |                       |                       |
|    Documento(s) original(es)                                                                                                                                                                                                                                                                                                                                                                                                                                                                                                                                                                                                                                                                                                                                                            |                       |                       |
|   --------------------------- ------- ------- ------- ------- ------- ------- ------- ------- -------                                                                                                                                                                                                                                                                                                                                                                                                                                                                                                                                                                                                                                                                                   |                       |                       |
|               []                []      []      []      []      []      []      []      []      []                                                                                                                                                                                                                                                                                                                                                                                                                                                                                                                                                                                                                                                                                      |                       |                       |
|               36f               36v     37f     37v     38f     38v     39f     39v     40f     40v                                                                                                                                                                                                                                                                                                                                                                                                                                                                                                                                                                                                                                                                                     |                       |                       |
|                                                                                                                                                                                                                                                                                                                                                                                                                                                                                                                                                                                                                                                                                                                                                                                         |                       |                       |
|               []                []      []      []      []      []      []      []      []      []                                                                                                                                                                                                                                                                                                                                                                                                                                                                                                                                                                                                                                                                                      |                       |                       |
|               41f               42f     42v     43f     43v     44f     44v     45f     45v     46f                                                                                                                                                                                                                                                                                                                                                                                                                                                                                                                                                                                                                                                                                     |                       |                       |
|                                                                                                                                                                                                                                                                                                                                                                                                                                                                                                                                                                                                                                                                                                                                                                                         |                       |                       |
|               []                                                                                                                                                                                                                                                                                                                                                                                                                                                                                                                                                                                                                                                                                                                                                                        |                       |                       |
|               46v                                                                                                                                                                                                                                                                                                                                                                                                                                                                                                                                                                                                                                                                                                                                                                       |                       |                       |
|   ---------------------------------------------------------------------------------------------------                                                                                                                                                                                                                                                                                                                                                                                                                                                                                                                                                                                                                                                                                   |                       |                       |
+-----------------------------------------------------------------------------------------------------------------------------------------------------------------------------------------------------------------------------------------------------------------------------------------------------------------------------------------------------------------------------------------------------------------------------------------------------------------------------------------------------------------------------------------------------------------------------------------------------------------------------------------------------------------------------------------------------------------------------------------------------------------------------------------+-----------------------+-----------------------+
| +----------------------------------------------------------------------------+------------------------------------------------+                                                                                                                                                                                                                                                                                                                                                                                                                                                                                                                                                                                                                                                         |                       |                       |
| | ISBN 978-607-701-024-1                                                     |   ---- ---- ---- ---- ---- ---- ---- ---- ---- |                                                                                                                                                                                                                                                                                                                                                                                                                                                                                                                                                                                                                                                         |                       |                       |
| | © Derechos Reservados 2013. Archivo Histórico del Municipio de Colima. [*] |   []        []        []        []        []   |                                                                                                                                                                                                                                                                                                                                                                                                                                                                                                                                                                                                                                                         |                       |                       |
| |                                                                            |   ---- ---- ---- ---- ---- ---- ---- ---- ---- |                                                                                                                                                                                                                                                                                                                                                                                                                                                                                                                                                                                                                                                         |                       |                       |
| +----------------------------------------------------------------------------+------------------------------------------------+                                                                                                                                                                                                                                                                                                                                                                                                                                                                                                                                                                                                                                                         |                       |                       |
| |                                                                            |                                                |                                                                                                                                                                                                                                                                                                                                                                                                                                                                                                                                                                                                                                                         |                       |                       |
| +----------------------------------------------------------------------------+------------------------------------------------+                                                                                                                                                                                                                                                                                                                                                                                                                                                                                                                                                                                                                                                         |                       |                       |
+-----------------------------------------------------------------------------------------------------------------------------------------------------------------------------------------------------------------------------------------------------------------------------------------------------------------------------------------------------------------------------------------------------------------------------------------------------------------------------------------------------------------------------------------------------------------------------------------------------------------------------------------------------------------------------------------------------------------------------------------------------------------------------------------+-----------------------+-----------------------+

615 visitas
