+---------------------------------------------------------------------------------------------------------------------------------------------------------------------------------------------------------------------------------------------------------------------------------------------------------------------------------------+-----------------------+-----------------------+
| []                                                                                                                                                                                                                                                                                                                                    |                       |                       |
|                                                                                                                                                                                                                                                                                                                                       |                       |                       |
| +-----------------------------------+:-------------------------------------:+                                                                                                                                                                                                                                                         |                       |                       |
| | []                                | LA VILLA DE COLIMA DE LA NUEVA ESPAÑA |                                                                                                                                                                                                                                                         |                       |                       |
| |                                   | SIGLO XVI                             |                                                                                                                                                                                                                                                         |                       |                       |
| |                                   |                                       |                                                                                                                                                                                                                                                         |                       |                       |
| |                                   | VOLUMEN II      (CAJAS 12-20)         |                                                                                                                                                                                                                                                         |                       |                       |
| +-----------------------------------+---------------------------------------+                                                                                                                                                                                                                                                         |                       |                       |
+---------------------------------------------------------------------------------------------------------------------------------------------------------------------------------------------------------------------------------------------------------------------------------------------------------------------------------------+-----------------------+-----------------------+
| +------------------------------------------------------------------------+---------------------------+-----------------------+                                                                                                                                                                                                        |                       |                       |
| | Inicio | Búsqueda | Siglas y bibliografía | Créditos | Más información | (consulta las cajas 1-11) |    [ES]               |                                                                                                                                                                                                        |                       |                       |
| +------------------------------------------------------------------------+---------------------------+-----------------------+                                                                                                                                                                                                        |                       |                       |
+---------------------------------------------------------------------------------------------------------------------------------------------------------------------------------------------------------------------------------------------------------------------------------------------------------------------------------------+-----------------------+-----------------------+
| Búsqueda rápida                                                                                                                                                                                                                                                                                                                       |                       |                       |
|                                                                                                                                                                                                                                                                                                                                       |                       |                       |
| +:--------------------:+-----------------+:----------------------------------------:+----------------:+                                                                                                                                                                                                                               |                       |                       |
| | Documento de fecha:  |                 | Ubicación física del documento original: | [] [] []        |                                                                                                                                                                                                                               |                       |                       |
| |                      |                 |                                          |                 |                                                                                                                                                                                                                               |                       |                       |
| | 1596. Septiembre, 19 |                 | Caja 19, exp. 1, ff. 126-127.^([850])    |                 |                                                                                                                                                                                                                               |                       |                       |
| +----------------------+-----------------+------------------------------------------+-----------------+                                                                                                                                                                                                                               |                       |                       |
|                                                                                                                                                                                                                                                                                                                                       |                       |                       |
|   ------------- -----------------------------------------------------------------------------------------------------------------------------------------------                                                                                                                                                                       |                       |                       |
|   Resumen:      Alonso García Nomparte contra Francisca de Saldaña y herederos de Baltasar de Alcalá, por una huerta de cacao que, con engaño, éste le vendió                                                                                                                                                                         |                       |                       |
|   ------------- -----------------------------------------------------------------------------------------------------------------------------------------------                                                                                                                                                                       |                       |                       |
|                                                                                                                                                                                                                                                                                                                                       |                       |                       |
|   ----------------------------------- ----------------------------------------------------------------------------------------------------------------------------------------------------------------------------------------------------------------------------------------------------------------------------------------------- |                       |                       |
|   Contenido:                          Ante Cristóbal Hernández de Tene y Diego Pérez de Espinosa, jueces árbitros, el vecino de Colima Alonso García Nomparte dice que puso demanda contra Francisca de Saldaña y demás herederos de Baltasar de Alcalá, “sobre el engaño de la Huerta de Caxitlan que el dicho difunto me vendió”.   |                       |                       |
|                                       Agrega que los herederos “quedaron de recibir la huerta, por lo cual hago dejación de la dicha huerta, y exhibo la escritura de venta que el dicho Baltasar de Alcalá me hizo”.                                                                                                                 |                       |                       |
|                                       Pide que “se me dé la escritura de obligación que yo otorgué al dicho Baltasar de Alcalá, de mil y cuatrocientos pesos”.                                                                                                                                                                        |                       |                       |
|                                       Notificados de ello, los herederos aceptaron la dejación al día siguiente, devolviendo la obligación y dando por libre y quito de la deuda a García Nomparte, de lo que dio fe el escribano Toribio de Casso.                                                                                   |                       |                       |
|                                                                                                                                                                                                                                                                                                                                       |                       |                       |
|   ----------------------------------- ----------------------------------------------------------------------------------------------------------------------------------------------------------------------------------------------------------------------------------------------------------------------------------------------- |                       |                       |
|                                                                                                                                                                                                                                                                                                                                       |                       |                       |
| (850) Antes en caja 18, exp. 1.                                                                                                                                                                                                                                                                                                       |                       |                       |
|                                                                                                                                                                                                                                                                                                                                       |                       |                       |
|   ---------------------------------------------------------------------------------------------------                                                                                                                                                                                                                                 |                       |                       |
|    Documento(s) original(es)                                                                                                                                                                                                                                                                                                          |                       |                       |
|   --------------------------- ------- ------- ------- ------- ------- ------- ------- ------- -------                                                                                                                                                                                                                                 |                       |                       |
|               []                []      []      []                                                                                                                                                                                                                                                                                    |                       |                       |
|              126f              126v    127f    127v                                                                                                                                                                                                                                                                                   |                       |                       |
|                                                                                                                                                                                                                                                                                                                                       |                       |                       |
|   ---------------------------------------------------------------------------------------------------                                                                                                                                                                                                                                 |                       |                       |
+---------------------------------------------------------------------------------------------------------------------------------------------------------------------------------------------------------------------------------------------------------------------------------------------------------------------------------------+-----------------------+-----------------------+
| +----------------------------------------------------------------------------+------------------------------------------------+                                                                                                                                                                                                       |                       |                       |
| | ISBN 978-607-701-024-1                                                     |   ---- ---- ---- ---- ---- ---- ---- ---- ---- |                                                                                                                                                                                                       |                       |                       |
| | © Derechos Reservados 2013. Archivo Histórico del Municipio de Colima. [*] |   []        []        []        []        []   |                                                                                                                                                                                                       |                       |                       |
| |                                                                            |   ---- ---- ---- ---- ---- ---- ---- ---- ---- |                                                                                                                                                                                                       |                       |                       |
| +----------------------------------------------------------------------------+------------------------------------------------+                                                                                                                                                                                                       |                       |                       |
| |                                                                            |                                                |                                                                                                                                                                                                       |                       |                       |
| +----------------------------------------------------------------------------+------------------------------------------------+                                                                                                                                                                                                       |                       |                       |
+---------------------------------------------------------------------------------------------------------------------------------------------------------------------------------------------------------------------------------------------------------------------------------------------------------------------------------------+-----------------------+-----------------------+

615 visitas
