+-----------------------------------------------------------------------------------------------------------------------------------------------------------------------------------------------------------------------------------------------------------------------------------------------------------+-----------------------+-----------------------+
| []                                                                                                                                                                                                                                                                                                        |                       |                       |
|                                                                                                                                                                                                                                                                                                           |                       |                       |
| +-----------------------------------+:-------------------------------------:+                                                                                                                                                                                                                             |                       |                       |
| | []                                | LA VILLA DE COLIMA DE LA NUEVA ESPAÑA |                                                                                                                                                                                                                             |                       |                       |
| |                                   | SIGLO XVI                             |                                                                                                                                                                                                                             |                       |                       |
| |                                   |                                       |                                                                                                                                                                                                                             |                       |                       |
| |                                   | VOLUMEN II      (CAJAS 12-20)         |                                                                                                                                                                                                                             |                       |                       |
| +-----------------------------------+---------------------------------------+                                                                                                                                                                                                                             |                       |                       |
+-----------------------------------------------------------------------------------------------------------------------------------------------------------------------------------------------------------------------------------------------------------------------------------------------------------+-----------------------+-----------------------+
| +------------------------------------------------------------------------+---------------------------+-----------------------+                                                                                                                                                                            |                       |                       |
| | Inicio | Búsqueda | Siglas y bibliografía | Créditos | Más información | (consulta las cajas 1-11) |    [ES]               |                                                                                                                                                                            |                       |                       |
| +------------------------------------------------------------------------+---------------------------+-----------------------+                                                                                                                                                                            |                       |                       |
+-----------------------------------------------------------------------------------------------------------------------------------------------------------------------------------------------------------------------------------------------------------------------------------------------------------+-----------------------+-----------------------+
| Búsqueda rápida                                                                                                                                                                                                                                                                                           |                       |                       |
|                                                                                                                                                                                                                                                                                                           |                       |                       |
| +:-------------------:+-----------------+:----------------------------------------:+----------------:+                                                                                                                                                                                                    |                       |                       |
| | Documento de fecha: |                 | Ubicación física del documento original: | [] [] []        |                                                                                                                                                                                                    |                       |                       |
| |                     |                 |                                          |                 |                                                                                                                                                                                                    |                       |                       |
| | 1597. Junio, 16     |                 | Caja 19, exp. 1, ff. 152-153.^([854])    |                 |                                                                                                                                                                                                    |                       |                       |
| +---------------------+-----------------+------------------------------------------+-----------------+                                                                                                                                                                                                    |                       |                       |
|                                                                                                                                                                                                                                                                                                           |                       |                       |
|   ------------- -------------------------------------------------------------------------------------------------                                                                                                                                                                                         |                       |                       |
|   Resumen:      Inventario de bienes a la muerte de Francisca de Saldaña, mujer que fue de Pedro Gómez Machorro                                                                                                                                                                                           |                       |                       |
|   ------------- -------------------------------------------------------------------------------------------------                                                                                                                                                                                         |                       |                       |
|                                                                                                                                                                                                                                                                                                           |                       |                       |
|   ----------------------------------- ------------------------------------------------------------------------------------------------------------------------------------------------------------------------------------------------------------------------------------------------------------------- |                       |                       |
|   Contenido:                          Ante Antonio Enríquez, justicia mayor de Colima, el alcalde ordinario Pedro Gomez Machorro notifica que “ayer, que se contaron quince [días] deste presente mes de junio”, falleció Francisca de Saldaña, su esposa, viuda que había sido de Baltasar de Alcalá.    |                       |                       |
|                                       Machorro dice que, además de los bienes que la difunta recibiera de su primer esposo, también recibió de él bienes que no han sido inventariados como son, entre otras cosas, quince mulas de recua aparejadas, treinta cargas de cacao, una mula baya, etcétera.   |                       |                       |
|                                       Gómez Machorro pide al justicia mayor que mande hacer inventario, cosa que ordenó don Antonio Enríquez, citando a los demás herederos.                                                                                                                              |                       |                       |
|                                                                                                                                                                                                                                                                                                           |                       |                       |
|   ----------------------------------- ------------------------------------------------------------------------------------------------------------------------------------------------------------------------------------------------------------------------------------------------------------------- |                       |                       |
|                                                                                                                                                                                                                                                                                                           |                       |                       |
| (854) Antes en caja 18, exp. 1.                                                                                                                                                                                                                                                                           |                       |                       |
|                                                                                                                                                                                                                                                                                                           |                       |                       |
|   ---------------------------------------------------------------------------------------------------                                                                                                                                                                                                     |                       |                       |
|    Documento(s) original(es)                                                                                                                                                                                                                                                                              |                       |                       |
|   --------------------------- ------- ------- ------- ------- ------- ------- ------- ------- -------                                                                                                                                                                                                     |                       |                       |
|               []                []      []                                                                                                                                                                                                                                                                |                       |                       |
|              152f              152v    153f                                                                                                                                                                                                                                                               |                       |                       |
|                                                                                                                                                                                                                                                                                                           |                       |                       |
|   ---------------------------------------------------------------------------------------------------                                                                                                                                                                                                     |                       |                       |
+-----------------------------------------------------------------------------------------------------------------------------------------------------------------------------------------------------------------------------------------------------------------------------------------------------------+-----------------------+-----------------------+
| +----------------------------------------------------------------------------+------------------------------------------------+                                                                                                                                                                           |                       |                       |
| | ISBN 978-607-701-024-1                                                     |   ---- ---- ---- ---- ---- ---- ---- ---- ---- |                                                                                                                                                                           |                       |                       |
| | © Derechos Reservados 2013. Archivo Histórico del Municipio de Colima. [*] |   []        []        []        []        []   |                                                                                                                                                                           |                       |                       |
| |                                                                            |   ---- ---- ---- ---- ---- ---- ---- ---- ---- |                                                                                                                                                                           |                       |                       |
| +----------------------------------------------------------------------------+------------------------------------------------+                                                                                                                                                                           |                       |                       |
| |                                                                            |                                                |                                                                                                                                                                           |                       |                       |
| +----------------------------------------------------------------------------+------------------------------------------------+                                                                                                                                                                           |                       |                       |
+-----------------------------------------------------------------------------------------------------------------------------------------------------------------------------------------------------------------------------------------------------------------------------------------------------------+-----------------------+-----------------------+

615 visitas
