+------------------------------------------------------------------------------------------------------------------------------------------------------------------------------------------------------------------------------------------------------------------------------------------------------------------------------------------------------------------------------------------------------------------------------------------+-----------------------+-----------------------+
| []                                                                                                                                                                                                                                                                                                                                                                                                                                       |                       |                       |
|                                                                                                                                                                                                                                                                                                                                                                                                                                          |                       |                       |
| +-----------------------------------+:-------------------------------------:+                                                                                                                                                                                                                                                                                                                                                            |                       |                       |
| | []                                | LA VILLA DE COLIMA DE LA NUEVA ESPAÑA |                                                                                                                                                                                                                                                                                                                                                            |                       |                       |
| |                                   | SIGLO XVI                             |                                                                                                                                                                                                                                                                                                                                                            |                       |                       |
| |                                   |                                       |                                                                                                                                                                                                                                                                                                                                                            |                       |                       |
| |                                   | VOLUMEN II      (CAJAS 12-20)         |                                                                                                                                                                                                                                                                                                                                                            |                       |                       |
| +-----------------------------------+---------------------------------------+                                                                                                                                                                                                                                                                                                                                                            |                       |                       |
+------------------------------------------------------------------------------------------------------------------------------------------------------------------------------------------------------------------------------------------------------------------------------------------------------------------------------------------------------------------------------------------------------------------------------------------+-----------------------+-----------------------+
| +------------------------------------------------------------------------+---------------------------+-----------------------+                                                                                                                                                                                                                                                                                                           |                       |                       |
| | Inicio | Búsqueda | Siglas y bibliografía | Créditos | Más información | (consulta las cajas 1-11) |    [ES]               |                                                                                                                                                                                                                                                                                                           |                       |                       |
| +------------------------------------------------------------------------+---------------------------+-----------------------+                                                                                                                                                                                                                                                                                                           |                       |                       |
+------------------------------------------------------------------------------------------------------------------------------------------------------------------------------------------------------------------------------------------------------------------------------------------------------------------------------------------------------------------------------------------------------------------------------------------+-----------------------+-----------------------+
| Búsqueda rápida                                                                                                                                                                                                                                                                                                                                                                                                                          |                       |                       |
|                                                                                                                                                                                                                                                                                                                                                                                                                                          |                       |                       |
| +:--------------------:+-----------------+:----------------------------------------:+----------------:+                                                                                                                                                                                                                                                                                                                                  |                       |                       |
| | Documento de fecha:  |                 | Ubicación física del documento original: | [] [] []        |                                                                                                                                                                                                                                                                                                                                  |                       |                       |
| |                      |                 |                                          |                 |                                                                                                                                                                                                                                                                                                                                  |                       |                       |
| | 1596. Septiembre, 28 |                 | Caja 19, exp. 1, f. 181.^([860])         |                 |                                                                                                                                                                                                                                                                                                                                  |                       |                       |
| +----------------------+-----------------+------------------------------------------+-----------------+                                                                                                                                                                                                                                                                                                                                  |                       |                       |
|                                                                                                                                                                                                                                                                                                                                                                                                                                          |                       |                       |
|   ------------- ---------------------------------------------------------------------------------------------------------                                                                                                                                                                                                                                                                                                                |                       |                       |
|   Resumen:      Se mandan cobrar los derechos de escribano a los herederos de Baltasar de Alcalá y Francisca de Saldaña                                                                                                                                                                                                                                                                                                                  |                       |                       |
|   ------------- ---------------------------------------------------------------------------------------------------------                                                                                                                                                                                                                                                                                                                |                       |                       |
|                                                                                                                                                                                                                                                                                                                                                                                                                                          |                       |                       |
|   ----------------------------------- -------------------------------------------------------------------------------------------------------------------------------------------------------------------------------------------------------------------------------------------------------------------------------------------------------------------------------------------------------------------------------------------------- |                       |                       |
|   Contenido:                          El justicia mayor de la Villa de Colima don Antonio Enríquez da mandamiento al alguacil^([859]) para que cobre de los poseedores de los bienes de Agustín de Alcalá y Francisca, hijo y nieta respectivamente de Baltasar de Alcalá y de Francisca de Saldaña, cincuenta y un pesos, cinco tomines y tres granos de oro común por razón de honorarios de escribano, a favor de Toribio de Casso.   |                       |                       |
|                                       El mismo día, el escribano firmó haber recibido de manos de Pedro Gómez Machorro un abono de diecisiete pesos de oro.                                                                                                                                                                                                                                                                              |                       |                       |
|                                       Dos días después, recibió un segundo abono, por otros tantos pesos.                                                                                                                                                                                                                                                                                                                                |                       |                       |
|                                                                                                                                                                                                                                                                                                                                                                                                                                          |                       |                       |
|   ----------------------------------- -------------------------------------------------------------------------------------------------------------------------------------------------------------------------------------------------------------------------------------------------------------------------------------------------------------------------------------------------------------------------------------------------- |                       |                       |
|                                                                                                                                                                                                                                                                                                                                                                                                                                          |                       |                       |
| (859) No se explicita si se alude al alguacil mayor que lo era Juan Fernández de Ocampo por haber comprado el oficio, o a algunos de los que usaron ese año el título de teniente de alguacil mayor como Juan de Espinosa, Pedro Ruiz de Vilches El Mozo, Alonso de Utrera y Pedro Ruiz de Padilla: entre otros referencias, infra, IV, regº 514, 515, 517 y 520.                                                                        |                       |                       |
|                                                                                                                                                                                                                                                                                                                                                                                                                                          |                       |                       |
| (860) Antes en caja 18, exp. 1.                                                                                                                                                                                                                                                                                                                                                                                                          |                       |                       |
|                                                                                                                                                                                                                                                                                                                                                                                                                                          |                       |                       |
|   ---------------------------------------------------------------------------------------------------                                                                                                                                                                                                                                                                                                                                    |                       |                       |
|    Documento(s) original(es)                                                                                                                                                                                                                                                                                                                                                                                                             |                       |                       |
|   --------------------------- ------- ------- ------- ------- ------- ------- ------- ------- -------                                                                                                                                                                                                                                                                                                                                    |                       |                       |
|               []                []                                                                                                                                                                                                                                                                                                                                                                                                       |                       |                       |
|              181f              181v                                                                                                                                                                                                                                                                                                                                                                                                      |                       |                       |
|                                                                                                                                                                                                                                                                                                                                                                                                                                          |                       |                       |
|   ---------------------------------------------------------------------------------------------------                                                                                                                                                                                                                                                                                                                                    |                       |                       |
+------------------------------------------------------------------------------------------------------------------------------------------------------------------------------------------------------------------------------------------------------------------------------------------------------------------------------------------------------------------------------------------------------------------------------------------+-----------------------+-----------------------+
| +----------------------------------------------------------------------------+------------------------------------------------+                                                                                                                                                                                                                                                                                                          |                       |                       |
| | ISBN 978-607-701-024-1                                                     |   ---- ---- ---- ---- ---- ---- ---- ---- ---- |                                                                                                                                                                                                                                                                                                          |                       |                       |
| | © Derechos Reservados 2013. Archivo Histórico del Municipio de Colima. [*] |   []        []        []        []        []   |                                                                                                                                                                                                                                                                                                          |                       |                       |
| |                                                                            |   ---- ---- ---- ---- ---- ---- ---- ---- ---- |                                                                                                                                                                                                                                                                                                          |                       |                       |
| +----------------------------------------------------------------------------+------------------------------------------------+                                                                                                                                                                                                                                                                                                          |                       |                       |
| |                                                                            |                                                |                                                                                                                                                                                                                                                                                                          |                       |                       |
| +----------------------------------------------------------------------------+------------------------------------------------+                                                                                                                                                                                                                                                                                                          |                       |                       |
+------------------------------------------------------------------------------------------------------------------------------------------------------------------------------------------------------------------------------------------------------------------------------------------------------------------------------------------------------------------------------------------------------------------------------------------+-----------------------+-----------------------+

615 visitas
