+------------------------------------------------------------------------------------------------------------------------------------------------------------------------------------------------------------------------------------------------+-----------------------+-----------------------+
| []                                                                                                                                                                                                                                             |                       |                       |
|                                                                                                                                                                                                                                                |                       |                       |
| +-----------------------------------+:-------------------------------------:+                                                                                                                                                                  |                       |                       |
| | []                                | LA VILLA DE COLIMA DE LA NUEVA ESPAÑA |                                                                                                                                                                  |                       |                       |
| |                                   | SIGLO XVI                             |                                                                                                                                                                  |                       |                       |
| |                                   |                                       |                                                                                                                                                                  |                       |                       |
| |                                   | VOLUMEN II      (CAJAS 12-20)         |                                                                                                                                                                  |                       |                       |
| +-----------------------------------+---------------------------------------+                                                                                                                                                                  |                       |                       |
+------------------------------------------------------------------------------------------------------------------------------------------------------------------------------------------------------------------------------------------------+-----------------------+-----------------------+
| +------------------------------------------------------------------------+---------------------------+-----------------------+                                                                                                                 |                       |                       |
| | Inicio | Búsqueda | Siglas y bibliografía | Créditos | Más información | (consulta las cajas 1-11) |    [ES]               |                                                                                                                 |                       |                       |
| +------------------------------------------------------------------------+---------------------------+-----------------------+                                                                                                                 |                       |                       |
+------------------------------------------------------------------------------------------------------------------------------------------------------------------------------------------------------------------------------------------------+-----------------------+-----------------------+
| Búsqueda rápida                                                                                                                                                                                                                                |                       |                       |
|                                                                                                                                                                                                                                                |                       |                       |
| +:-------------------:+-----------------+:----------------------------------------:+----------------:+                                                                                                                                         |                       |                       |
| | Documento de fecha: |                 | Ubicación física del documento original: | [] [] []        |                                                                                                                                         |                       |                       |
| |                     |                 |                                          |                 |                                                                                                                                         |                       |                       |
| | 1597. Agosto, 9     |                 | Caja 19, exp. 1, ff. 261-281.^([899])    |                 |                                                                                                                                         |                       |                       |
| +---------------------+-----------------+------------------------------------------+-----------------+                                                                                                                                         |                       |                       |
|                                                                                                                                                                                                                                                |                       |                       |
|   ------------- -------------------------------------------------------------------------------------------------------                                                                                                                        |                       |                       |
|   Resumen:      Antonio de Ocampo pide a Juan Ruiz de Haro los libros de cuentas de la tienda de Francisca de Saldaña                                                                                                                          |                       |                       |
|   ------------- -------------------------------------------------------------------------------------------------------                                                                                                                        |                       |                       |
|                                                                                                                                                                                                                                                |                       |                       |
|   ----------------------------------- -------------------------------------------------------------------------------------------------------------------------------------------------------------------------------------------------------- |                       |                       |
|   Contenido:                          Antonio de Ocampo reclama de Juan Ruiz de Haro los libros de cuentas que estaban a su cargo de la tienda de Francisca de Saldaña, difunta.^([896]) Dice que está presto de darle la carta de recibido.   |                       |                       |
|                                       Así lo mandó el justicia mayor don Antonio Enríquez.                                                                                                                                                     |                       |                       |
|                                       Se agregan otras diligencias más sobre el asunto de Juan El Vizcaíno, acusado de hurto de ganado.^([897])                                                                                                |                       |                       |
|                                       Almoneda de los bienes de Agustín de Alcalá y Francisca, hija de Catalina de Grijalba.^([898])                                                                                                           |                       |                       |
|                                       Cargos y descargos de la tutela de la misma.                                                                                                                                                             |                       |                       |
|                                       Tasación de costas.                                                                                                                                                                                      |                       |                       |
|                                                                                                                                                                                                                                                |                       |                       |
|   ----------------------------------- -------------------------------------------------------------------------------------------------------------------------------------------------------------------------------------------------------- |                       |                       |
|                                                                                                                                                                                                                                                |                       |                       |
| (896) El maestro de escuela Juan Ruiz de Haro estaba a cargo de la contabilidad de la tienda: supra, regº 728.                                                                                                                                 |                       |                       |
|                                                                                                                                                                                                                                                |                       |                       |
| (897) Supra, regº 736.                                                                                                                                                                                                                         |                       |                       |
|                                                                                                                                                                                                                                                |                       |                       |
| (898) Los tutores habían solicitado licencia para sacar a almoneda bienes de sus menores: supra, regº 731.                                                                                                                                     |                       |                       |
|                                                                                                                                                                                                                                                |                       |                       |
| (899) Antes en caja 18, exp. 1. Están destruidas las ff. 268-278.                                                                                                                                                                              |                       |                       |
|                                                                                                                                                                                                                                                |                       |                       |
|   ---------------------------------------------------------------------------------------------------                                                                                                                                          |                       |                       |
|    Documento(s) original(es)                                                                                                                                                                                                                   |                       |                       |
|   --------------------------- ------- ------- ------- ------- ------- ------- ------- ------- -------                                                                                                                                          |                       |                       |
|               []                []      []      []      []      []      []      []      []      []                                                                                                                                             |                       |                       |
|              261f              261v    262f    262v    263f    264f    265f    266f    266v    267f                                                                                                                                            |                       |                       |
|                                                                                                                                                                                                                                                |                       |                       |
|               []                []      []      []      []      []      []      []      []      []                                                                                                                                             |                       |                       |
|              267v              268f    268v    269f    269v    270f    270v    271f    271v    272f                                                                                                                                            |                       |                       |
|                                                                                                                                                                                                                                                |                       |                       |
|               []                []      []      []      []      []      []      []      []      []                                                                                                                                             |                       |                       |
|              272v              273f    273v    274f    274v    275f    276f    276v    277f    277v                                                                                                                                            |                       |                       |
|                                                                                                                                                                                                                                                |                       |                       |
|               []                []      []      []      []      []      []                                                                                                                                                                     |                       |                       |
|              278f              278v    279f    279v    280f    280v    281f                                                                                                                                                                    |                       |                       |
|   ---------------------------------------------------------------------------------------------------                                                                                                                                          |                       |                       |
+------------------------------------------------------------------------------------------------------------------------------------------------------------------------------------------------------------------------------------------------+-----------------------+-----------------------+
| +----------------------------------------------------------------------------+------------------------------------------------+                                                                                                                |                       |                       |
| | ISBN 978-607-701-024-1                                                     |   ---- ---- ---- ---- ---- ---- ---- ---- ---- |                                                                                                                |                       |                       |
| | © Derechos Reservados 2013. Archivo Histórico del Municipio de Colima. [*] |   []        []        []        []        []   |                                                                                                                |                       |                       |
| |                                                                            |   ---- ---- ---- ---- ---- ---- ---- ---- ---- |                                                                                                                |                       |                       |
| +----------------------------------------------------------------------------+------------------------------------------------+                                                                                                                |                       |                       |
| |                                                                            |                                                |                                                                                                                |                       |                       |
| +----------------------------------------------------------------------------+------------------------------------------------+                                                                                                                |                       |                       |
+------------------------------------------------------------------------------------------------------------------------------------------------------------------------------------------------------------------------------------------------+-----------------------+-----------------------+

615 visitas
