+-------------------------------------------------------------------------------------------------------------------------------------------------------------------------------------------------------------------------------------------------------+-----------------------+-----------------------+
| []                                                                                                                                                                                                                                                    |                       |                       |
|                                                                                                                                                                                                                                                       |                       |                       |
| +-----------------------------------+:-------------------------------------:+                                                                                                                                                                         |                       |                       |
| | []                                | LA VILLA DE COLIMA DE LA NUEVA ESPAÑA |                                                                                                                                                                         |                       |                       |
| |                                   | SIGLO XVI                             |                                                                                                                                                                         |                       |                       |
| |                                   |                                       |                                                                                                                                                                         |                       |                       |
| |                                   | VOLUMEN II      (CAJAS 12-20)         |                                                                                                                                                                         |                       |                       |
| +-----------------------------------+---------------------------------------+                                                                                                                                                                         |                       |                       |
+-------------------------------------------------------------------------------------------------------------------------------------------------------------------------------------------------------------------------------------------------------+-----------------------+-----------------------+
| +------------------------------------------------------------------------+---------------------------+-----------------------+                                                                                                                        |                       |                       |
| | Inicio | Búsqueda | Siglas y bibliografía | Créditos | Más información | (consulta las cajas 1-11) |    [ES]               |                                                                                                                        |                       |                       |
| +------------------------------------------------------------------------+---------------------------+-----------------------+                                                                                                                        |                       |                       |
+-------------------------------------------------------------------------------------------------------------------------------------------------------------------------------------------------------------------------------------------------------+-----------------------+-----------------------+
| Búsqueda rápida                                                                                                                                                                                                                                       |                       |                       |
|                                                                                                                                                                                                                                                       |                       |                       |
| +:--------------------:+-----------------+:----------------------------------------:+----------------:+                                                                                                                                               |                       |                       |
| | Documento de fecha:  |                 | Ubicación física del documento original: | [] [] []        |                                                                                                                                               |                       |                       |
| |                      |                 |                                          |                 |                                                                                                                                               |                       |                       |
| | 1597. Septiembre, 1º |                 | Caja 19, exp. 1, ff. 297-351.^([904])    |                 |                                                                                                                                               |                       |                       |
| +----------------------+-----------------+------------------------------------------+-----------------+                                                                                                                                               |                       |                       |
|                                                                                                                                                                                                                                                       |                       |                       |
|   ------------- ----------------------------------------------------------------------------                                                                                                                                                          |                       |                       |
|   Resumen:      Se piden cuentas de los bienes de menores depositados en Antonio de Ocampo                                                                                                                                                            |                       |                       |
|   ------------- ----------------------------------------------------------------------------                                                                                                                                                          |                       |                       |
|                                                                                                                                                                                                                                                       |                       |                       |
|   ----------------------------------- --------------------------------------------------------------------------------------------------------------------------------------------------------------------------------------------------------------- |                       |                       |
|   Contenido:                          Don Antonio Enríquez, justicia mayor de la Villa de Colima, pide cuentas de los bienes de los menores herederos de Baltasar de Alcalá y Francisca de Saldaña, a Antonio de Ocampo, depositario de los mismos.   |                       |                       |
|                                       Ocampo y demás curadores designaron entonces por tercer partidor a Cristóbal Hernández de Tene.                                                                                                                 |                       |                       |
|                                       Cartas y recibos de pago. Cargos y descargos.                                                                                                                                                                   |                       |                       |
|                                       Partición de bienes y diversas cartas de pago.                                                                                                                                                                  |                       |                       |
|                                                                                                                                                                                                                                                       |                       |                       |
|   ----------------------------------- --------------------------------------------------------------------------------------------------------------------------------------------------------------------------------------------------------------- |                       |                       |
|                                                                                                                                                                                                                                                       |                       |                       |
| (904) Antes en caja 18, exp. 1.                                                                                                                                                                                                                       |                       |                       |
|                                                                                                                                                                                                                                                       |                       |                       |
|   ---------------------------------------------------------------------------------------------------                                                                                                                                                 |                       |                       |
|    Documento(s) original(es)                                                                                                                                                                                                                          |                       |                       |
|   --------------------------- ------- ------- ------- ------- ------- ------- ------- ------- -------                                                                                                                                                 |                       |                       |
|               []                []      []      []      []      []      []      []      []      []                                                                                                                                                    |                       |                       |
|              297f              298f    298v    299f    299v    300f    300v    301f    301v    302f                                                                                                                                                   |                       |                       |
|                                                                                                                                                                                                                                                       |                       |                       |
|               []                []      []      []      []      []      []      []      []      []                                                                                                                                                    |                       |                       |
|              302v              303f    303v    304f    304v    305f    305v    306f    306v    307f                                                                                                                                                   |                       |                       |
|                                                                                                                                                                                                                                                       |                       |                       |
|               []                []      []      []      []      []      []      []      []      []                                                                                                                                                    |                       |                       |
|              307v              308f    308v    309f    309v    310f    310v    311f    311v    312f                                                                                                                                                   |                       |                       |
|                                                                                                                                                                                                                                                       |                       |                       |
|               []                []      []      []      []      []      []      []      []      []                                                                                                                                                    |                       |                       |
|              312v              313f    313v    314f    314v    315f    315v    316f    316v    317f                                                                                                                                                   |                       |                       |
|                                                                                                                                                                                                                                                       |                       |                       |
|               []                []      []      []      []      []      []      []      []      []                                                                                                                                                    |                       |                       |
|              317v              318f    318v    319f    319v    320f    320v    321f    321v    322f                                                                                                                                                   |                       |                       |
|                                                                                                                                                                                                                                                       |                       |                       |
|               []                []      []      []      []      []      []      []      []      []                                                                                                                                                    |                       |                       |
|              322v              323f    323v    324f    324v    325f    325v    326f    327f    328f                                                                                                                                                   |                       |                       |
|                                                                                                                                                                                                                                                       |                       |                       |
|               []                []      []      []      []      []      []      []      []      []                                                                                                                                                    |                       |                       |
|              328v              329f    329v    330f    330v    331f    331v    332f    332v    333f                                                                                                                                                   |                       |                       |
|                                                                                                                                                                                                                                                       |                       |                       |
|               []                []      []      []      []      []      []      []      []      []                                                                                                                                                    |                       |                       |
|              333v              334f    334v    335f    335v    336f    336v    337f    337v    338f                                                                                                                                                   |                       |                       |
|                                                                                                                                                                                                                                                       |                       |                       |
|               []                []      []      []      []      []      []      []      []      []                                                                                                                                                    |                       |                       |
|              338v              339f    339v    340f    340v    341f    341v    342f    342v    343f                                                                                                                                                   |                       |                       |
|                                                                                                                                                                                                                                                       |                       |                       |
|               []                []      []      []      []      []      []      []      []      []                                                                                                                                                    |                       |                       |
|              343v              344v    345f    345v    346f    346v    347f    347v    348f    348v                                                                                                                                                   |                       |                       |
|                                                                                                                                                                                                                                                       |                       |                       |
|               []                []      []      []                                                                                                                                                                                                    |                       |                       |
|              349f              349v    350f    351f                                                                                                                                                                                                   |                       |                       |
|   ---------------------------------------------------------------------------------------------------                                                                                                                                                 |                       |                       |
+-------------------------------------------------------------------------------------------------------------------------------------------------------------------------------------------------------------------------------------------------------+-----------------------+-----------------------+
| +----------------------------------------------------------------------------+------------------------------------------------+                                                                                                                       |                       |                       |
| | ISBN 978-607-701-024-1                                                     |   ---- ---- ---- ---- ---- ---- ---- ---- ---- |                                                                                                                       |                       |                       |
| | © Derechos Reservados 2013. Archivo Histórico del Municipio de Colima. [*] |   []        []        []        []        []   |                                                                                                                       |                       |                       |
| |                                                                            |   ---- ---- ---- ---- ---- ---- ---- ---- ---- |                                                                                                                       |                       |                       |
| +----------------------------------------------------------------------------+------------------------------------------------+                                                                                                                       |                       |                       |
| |                                                                            |                                                |                                                                                                                       |                       |                       |
| +----------------------------------------------------------------------------+------------------------------------------------+                                                                                                                       |                       |                       |
+-------------------------------------------------------------------------------------------------------------------------------------------------------------------------------------------------------------------------------------------------------+-----------------------+-----------------------+

615 visitas
