[]

LA VILLA DE COLIMA DE LA NUEVA ESPAÑA
SIGLO XVI

VOLUMEN I      (CAJAS 1-11)

[]

Inicio | Búsquedas | Siglas y bibliografía | Cartografía | Créditos | Más información

[]

Búsqueda rápida

+:--------------------------------------------------------------------------------------------------------------------------------------------------------------------------------------------------------------------------------------------------------------------------------------------------------------------------------------------------------------------------------------------------------------------------------------------------------------------------------------------------------------------------------------------------------------------------------------------------------------------------------------------------------------------------------------------------------------------------------------------------------------------------------------------------------------------------------------------------------------------------:+------------------------------------------:+
| Fecha:                                                                                                                                                                                                                                                                                                                                                                                                                                                                                                                                                                                                                                                                                                                                                                                                                                                                     | Ubicación física del documento original:  |
| 1575 Septiembre, 19                                                                                                                                                                                                                                                                                                                                                                                                                                                                                                                                                                                                                                                                                                                                                                                                                                                        | CAJA A-7, EXP. 22, 5 FF.                  |
|                                                                                                                                                                                                                                                                                                                                                                                                                                                                                                                                                                                                                                                                                                                                                                                                                                                                            | Archivo Histórico del Municipio de Colima |
+----------------------------------------------------------------------------------------------------------------------------------------------------------------------------------------------------------------------------------------------------------------------------------------------------------------------------------------------------------------------------------------------------------------------------------------------------------------------------------------------------------------------------------------------------------------------------------------------------------------------------------------------------------------------------------------------------------------------------------------------------------------------------------------------------------------------------------------------------------------------------+-------------------------------------------+
| 259. 1575. Septiembre, 19.                                                                                                                                                                                                                                                                                                                                                                                                                                                                                                                                                                                                                                                                                                                                                                                                                                                 |                                           |
|                                                                                                                                                                                                                                                                                                                                                                                                                                                                                                                                                                                                                                                                                                                                                                                                                                                                            |                                           |
| Francisco Ruiz, cura y vicario del pueblo de Tecolapa y su partido, reclama el pago de su salario.                                                                                                                                                                                                                                                                                                                                                                                                                                                                                                                                                                                                                                                                                                                                                                         |                                           |
|                                                                                                                                                                                                                                                                                                                                                                                                                                                                                                                                                                                                                                                                                                                                                                                                                                                                            |                                           |
| Ante el contador Martín de Montúfar, alcalde mayor de Colima, "Francisco Ruiz, cura y vicario del pueblo de Tecolapa y su partido, parezco ante V.m. y digo que por una Real Provisión me fueron señalados dozientos pesos de minas del salario en cada un año por la administración y trabajo de administrar los sacramentos a los naturales de mi partido y industriarlos en las cosas de nuestra santa fe católica; y de los dichos dozientos pesos del dicho oro, me fueron señalados los ciento y cuarenta pesos a costa de Su Majestad y los sesenta restantes de Pedro de Arévalo, encomendero de los pueblos que caían en el dicho mi partido, que son diez pueblos como dello constará en los libros de Su Majestad".^([1])                                                                                                                                       |                                           |
|                                                                                                                                                                                                                                                                                                                                                                                                                                                                                                                                                                                                                                                                                                                                                                                                                                                                            |                                           |
| "Y porque habrá dos años y medio que falleció el dicho Pedro de Arévalo y sus pueblos están en la Real Corona puestos, no he cobrado los dichos sesenta pesos de minas que ansín me fueron señalados de los bienes del dicho difunto ni de los naturales de los dichos pueblos, y porque de todo ello conste a Su Excelencia el señor Visorrey para que se me haga merced de dar libranza para que se cobren de los oficiales de la Real Hacienda lo que pareciere que he servido desde el día que el dicho Pedro de Arévalo falleció hasta postrero de julio deste año de mil y quinientos y setenta y cinco [1575], el cual dicho tiempo he servido en los dichos pueblos como parece por la certificación del provisor y carta de pago de los naturales de los dichos pueblos de no debelles cosa ninguna de comida ni de otras cosas,^([2]) como ante V.m. se otorgó". |                                           |
|                                                                                                                                                                                                                                                                                                                                                                                                                                                                                                                                                                                                                                                                                                                                                                                                                                                                            |                                           |
| "Por tanto a V.m. pido y suplico mande parecer ante sí a los dichos indios gobernadores, mayordomos y alcaldes de los dichos diez pueblos que tengo a mi cargo, que son los que dejó el dicho Pedro de Arévalo, y parecidos digan y declaren con juramento si me han pagado el salario".                                                                                                                                                                                                                                                                                                                                                                                                                                                                                                                                                                                   |                                           |
|                                                                                                                                                                                                                                                                                                                                                                                                                                                                                                                                                                                                                                                                                                                                                                                                                                                                            |                                           |
| El alcalde mayor mandó llamar a los gobernadores, alcaldes y mayordomos de los dichos pueblos de Pedro de Arévalo, quienes "agora son venidos ante su merced: don Juan Flores, gobernador, e Alonso Sánchez, alcalde, Pedro Elías, mayordomo, naturales del pueblo de Chiamila", que prestaron su juramento mediante Mateo de Berlanga, intérprete del juzgado; también se presentó por el pueblo de Umitlan, don Pedro Simón quien vino solo "porque en su pueblo a la sazón no había alcalde ni mayordomo"; del pueblo de Xolotlan se presentaron Juan Cornejo, alcalde, y Juan Pablo, mayordomo; del pueblo de Sinacamitlan, Cristóbal de Guzmán, alcalde, y Francisco Sánchez, mayordomo; del pueblo de la Rinconada, Cristóbal de Guzmán, mayordomo, "el cual dijo que el alcalde del dicho pueblo estaba malo". "Por manera que todos ellos son cinco pueblos".      |                                           |
|                                                                                                                                                                                                                                                                                                                                                                                                                                                                                                                                                                                                                                                                                                                                                                                                                                                                            |                                           |
| Se les preguntó "a todos ellos e a cada uno por sí que si supieron que en vida de Pedro de Arévalo, que el dicho Pedro de Arévalo pagaba al dicho Francisco Ruiz, cura y vicario, sesenta pesos de minas cada año por la administración de los sacramentos e doctrina e cuidado que dellos tenía, los cuales dijeron que bien lo sabían porque el dicho Pedro de Arévalo se lo decía; fueles preguntado por el dicho intérprete que si después que falleció el dicho Pedro de Arévalo, si el dicho vicario Francisco Ruiz les ha pedido los dichos pesos de oro y ellos se los han pagado, los cuales todos juntos e cada uno dellos por sí, que no se los ha pedido ni ellos los han pagado".                                                                                                                                                                             |                                           |
|                                                                                                                                                                                                                                                                                                                                                                                                                                                                                                                                                                                                                                                                                                                                                                                                                                                                            |                                           |
| Dispuso el alcalde mayor no dar testimonio alguno al Padre Francisco Ruiz hasta tanto los restantes pueblos prestaran declaración.                                                                                                                                                                                                                                                                                                                                                                                                                                                                                                                                                                                                                                                                                                                                         |                                           |
|                                                                                                                                                                                                                                                                                                                                                                                                                                                                                                                                                                                                                                                                                                                                                                                                                                                                            |                                           |
| El 23 de septiembre, mediante Juan Sánchez, intérprete nombrado para este efecto, "parecieron los demás indios naturales de los dichos pueblos que solían ser del dicho Pedro de Arévalo", quienes prestaron juramento: por el pueblo de Popatlan, Pedro Elías, alcalde, y Gaspar Pérez, alguacil, quienes dijeron que era verdad que el Padre Francisco Ruiz "ha sido capellán del dicho su pueblo e administrado sacramentos, e que Pedro de Arévalo, amo dellos, le pagaba su salario al dicho Francisco Ruiz, e que después que el susodicho falleció, nunca ellos le han dado ni pagado cosa ninguna del dicho su salario ni el dicho capellán se lo ha pedido, ni menos le debe cosa alguna de comida ni otra cosa".                                                                                                                                                 |                                           |
|                                                                                                                                                                                                                                                                                                                                                                                                                                                                                                                                                                                                                                                                                                                                                                                                                                                                            |                                           |
| Luego comparecieron Fabián de Padilla, quien dijo venir en nombre de don Martín, gobernador del pueblo de Puamo, Juan Fernández, mayordomo, y por Juan Sánchez, intérprete, dijeron que era cierto que Francisco Ruiz "fue capellán e vicario del dicho su pueblo e que Pedro de Arévalo antes que falleciese le pagaba su salario porque administraba los sacramentos, e que después que el dicho Pedro de Arévalo falleció, nunca estos confesantes le han pagado cosa ninguna ni el dicho pueblo después acá, ni el dicho Francisco Ruiz les ha pedido cosa ninguna dello e que asímismo el dicho Francisco Ruiz no les debe nada de comida ni de otra cosa alguna".                                                                                                                                                                                                    |                                           |
|                                                                                                                                                                                                                                                                                                                                                                                                                                                                                                                                                                                                                                                                                                                                                                                                                                                                            |                                           |
| Juan Ruiz, gobernador, y Alonso Miguel, mayordomo del pueblo de Tlaxinaxtla, coincidieron en los dichos anteriores.                                                                                                                                                                                                                                                                                                                                                                                                                                                                                                                                                                                                                                                                                                                                                        |                                           |
|                                                                                                                                                                                                                                                                                                                                                                                                                                                                                                                                                                                                                                                                                                                                                                                                                                                                            |                                           |
| Vistas las aclaraciones de los naturales, el alcalde mayor mandó "se le dé todo por testimonio al dicho Francisco Ruiz para en guarda de su derecho, como lo tiene pedido".                                                                                                                                                                                                                                                                                                                                                                                                                                                                                                                                                                                                                                                                                                |                                           |
|                                                                                                                                                                                                                                                                                                                                                                                                                                                                                                                                                                                                                                                                                                                                                                                                                                                                            |                                           |
| Pasó ante Francisco López, escribano, quien anotó a propósito de sus honorarios "recibí cuatro tomines deste".                                                                                                                                                                                                                                                                                                                                                                                                                                                                                                                                                                                                                                                                                                                                                             |                                           |
|                                                                                                                                                                                                                                                                                                                                                                                                                                                                                                                                                                                                                                                                                                                                                                                                                                                                            |                                           |
| Caja A–7, exp. 22, 5 ff.                                                                                                                                                                                                                                                                                                                                                                                                                                                                                                                                                                                                                                                                                                                                                                                                                                                   |                                           |
|                                                                                                                                                                                                                                                                                                                                                                                                                                                                                                                                                                                                                                                                                                                                                                                                                                                                            |                                           |
|                                                                                                                                                                                                                                                                                                                                                                                                                                                                                                                                                                                                                                                                                                                                                                                                                                                                            |                                           |
|                                                                                                                                                                                                                                                                                                                                                                                                                                                                                                                                                                                                                                                                                                                                                                                                                                                                            |                                           |
| ---------------                                                                                                                                                                                                                                                                                                                                                                                                                                                                                                                                                                                                                                                                                                                                                                                                                                                            |                                           |
|                                                                                                                                                                                                                                                                                                                                                                                                                                                                                                                                                                                                                                                                                                                                                                                                                                                                            |                                           |
| (1) Estos diez pueblos —que de una u otra manera se apropió Alonso de Arévalo— constituían una amplia región, conocida entonces como Pueblos de Arévalo. El visitador Lebrón de Quiñones, en su Relación sumaria (1554), cuestiona la legalidad de su posesión; de hecho, la viuda de Arévalo, doña Beatriz López, no pudo presentar títulos sobre ellos: Lebrón (1979), 54. Más adelante, los principales de ocho de aquellos pueblos —Chiamila, Umitlan, Xolotlan, Çinacamitlan, La Rinconada, Popatlan, Puamo (Pihuamo) y Tlaxinaxtla— prestan testimonio.                                                                                                                                                                                                                                                                                                              |                                           |
|                                                                                                                                                                                                                                                                                                                                                                                                                                                                                                                                                                                                                                                                                                                                                                                                                                                                            |                                           |
| (2) La carta de pago aparece en la primera foja del expediente, está escrita en náhuatl y rubricada con la firma del alcalde mayor.                                                                                                                                                                                                                                                                                                                                                                                                                                                                                                                                                                                                                                                                                                                                        |                                           |
+----------------------------------------------------------------------------------------------------------------------------------------------------------------------------------------------------------------------------------------------------------------------------------------------------------------------------------------------------------------------------------------------------------------------------------------------------------------------------------------------------------------------------------------------------------------------------------------------------------------------------------------------------------------------------------------------------------------------------------------------------------------------------------------------------------------------------------------------------------------------------+-------------------------------------------+

Documento(s) original(es)

Archivo no encontrado (CAJAS/CAJA7/EXP22/001V.jpg)

[]
1F

[]
2F

[]
2V

[]
3F

[]
3V

[]
4F

[]
4V

[]
5F

[]
5V

Proyecto interinstitucional del Archivo Histórico del Municipio de Colima y la Universidad de Colima,
realizado bajo los auspicios del fondo Ramón Álvarez-Buylla de Aldana.

------------------------------------------------------------------------

ISBN 978-968-7412-85-6
® Derechos Reservados 2008. Archivo Histórico del Municipio de Colima.

1,078 visitas
