[]

LA VILLA DE COLIMA DE LA NUEVA ESPAÑA
SIGLO XVI

VOLUMEN I      (CAJAS 1-11)

[]

Inicio | Búsquedas | Siglas y bibliografía | Cartografía | Créditos | Más información

[]

Búsqueda rápida

+:-----------------------------------------------------------------------------------------------------------------------------------------------------------------------------------------------------------------------------------------------------------------------------------------------------------------------------------------------------------------------------------------------------------------------------------------------------------------------------------------------------------------------------------------------------------------------------------------------------------------------------------------------------------------------------------------------------------------------------------------------------------------------------------------------------------------------------------------------------------------------------------------------------------------------------------------------------------------------------------------------------------------------------------------------------------------------------------------------------------------------------------------------------------------------------------------------------------------------------------------------------------------------------------------------------------------------------:+------------------------------------------:+
| Fecha:                                                                                                                                                                                                                                                                                                                                                                                                                                                                                                                                                                                                                                                                                                                                                                                                                                                                                                                                                                                                                                                                                                                                                                                                                                                                                                                        | Ubicación física del documento original:  |
| 1577 Julio, 5                                                                                                                                                                                                                                                                                                                                                                                                                                                                                                                                                                                                                                                                                                                                                                                                                                                                                                                                                                                                                                                                                                                                                                                                                                                                                                                 | CAJA A-9, EXP. 1, 6 FF.                   |
|                                                                                                                                                                                                                                                                                                                                                                                                                                                                                                                                                                                                                                                                                                                                                                                                                                                                                                                                                                                                                                                                                                                                                                                                                                                                                                                               | Archivo Histórico del Municipio de Colima |
+-------------------------------------------------------------------------------------------------------------------------------------------------------------------------------------------------------------------------------------------------------------------------------------------------------------------------------------------------------------------------------------------------------------------------------------------------------------------------------------------------------------------------------------------------------------------------------------------------------------------------------------------------------------------------------------------------------------------------------------------------------------------------------------------------------------------------------------------------------------------------------------------------------------------------------------------------------------------------------------------------------------------------------------------------------------------------------------------------------------------------------------------------------------------------------------------------------------------------------------------------------------------------------------------------------------------------------+-------------------------------------------+
| 290. 1577. Julio, 5.                                                                                                                                                                                                                                                                                                                                                                                                                                                                                                                                                                                                                                                                                                                                                                                                                                                                                                                                                                                                                                                                                                                                                                                                                                                                                                          |                                           |
|                                                                                                                                                                                                                                                                                                                                                                                                                                                                                                                                                                                                                                                                                                                                                                                                                                                                                                                                                                                                                                                                                                                                                                                                                                                                                                                               |                                           |
| El escribano Pedro de Palencia, vecino de Guadalajara, presenta provisión real de la Audiencia de la Nueva Galicia contra Diego Mejía de la Torre.                                                                                                                                                                                                                                                                                                                                                                                                                                                                                                                                                                                                                                                                                                                                                                                                                                                                                                                                                                                                                                                                                                                                                                            |                                           |
|                                                                                                                                                                                                                                                                                                                                                                                                                                                                                                                                                                                                                                                                                                                                                                                                                                                                                                                                                                                                                                                                                                                                                                                                                                                                                                                               |                                           |
| Ante el teniente de alcalde mayor Álvaro de Grijalba, Pedro de Palencia, escribano de Su Majestad y vecino de Guadalajara, presenta "una real provisión para prender el cuerpo de Diego Mejía" y embargarle todos sus bienes, pero como "el susodicho se ha ausentado desta Villa y porque en poder de Ana Martel, su madre, como su tutora y curadora, están cantidad de ochocientos pesos, antes más que menos, a V.m. suplico, los mande secrestar y remitir a la dicha Real Audiencia los que se pudieren llevar, y los demás depositarlos en personas abonadas, sacándolos de poder de la dicha Ana Martel, y pido justicia".                                                                                                                                                                                                                                                                                                                                                                                                                                                                                                                                                                                                                                                                                            |                                           |
|                                                                                                                                                                                                                                                                                                                                                                                                                                                                                                                                                                                                                                                                                                                                                                                                                                                                                                                                                                                                                                                                                                                                                                                                                                                                                                                               |                                           |
| El teniente mandó: "Con juramento declare Ana Martel, madre del dicho Diego Mejía, qué bienes tiene en su poder del dicho su hijo, como tutora e curadora que es, para que, así declarado, Su Merced proveerá lo que sea justicia".                                                                                                                                                                                                                                                                                                                                                                                                                                                                                                                                                                                                                                                                                                                                                                                                                                                                                                                                                                                                                                                                                           |                                           |
|                                                                                                                                                                                                                                                                                                                                                                                                                                                                                                                                                                                                                                                                                                                                                                                                                                                                                                                                                                                                                                                                                                                                                                                                                                                                                                                               |                                           |
| Para su cumplimiento, el escribano Francisco López "fue a las casas de la morada de la dicha Ana Martel", que juró que "no tiene bienes ningunos del dicho su hijo en su poder, y esto dio por su respuesta e no firmó porque no sabía. Ante mí, Francisco López, escribano público".                                                                                                                                                                                                                                                                                                                                                                                                                                                                                                                                                                                                                                                                                                                                                                                                                                                                                                                                                                                                                                         |                                           |
|                                                                                                                                                                                                                                                                                                                                                                                                                                                                                                                                                                                                                                                                                                                                                                                                                                                                                                                                                                                                                                                                                                                                                                                                                                                                                                                               |                                           |
| El teniente mandó entonces que Palencia "le nombre bienes del dicho Diego Mejía, que Su Merced está presto de los secrestar e cumplir lo que en la carta de justicia se contiene".                                                                                                                                                                                                                                                                                                                                                                                                                                                                                                                                                                                                                                                                                                                                                                                                                                                                                                                                                                                                                                                                                                                                            |                                           |
|                                                                                                                                                                                                                                                                                                                                                                                                                                                                                                                                                                                                                                                                                                                                                                                                                                                                                                                                                                                                                                                                                                                                                                                                                                                                                                                               |                                           |
| Notificado Pedro de Palencia señaló por tales bienes "ochocientos pesos de oro común que están en poder de la dicha Ana Martel, que le cupieron de la partición de bienes, que se hizo de los bienes del dicho su padre Melchor Pérez,(1) e pidió a Su Merced los mande exhibir e secrestar".                                                                                                                                                                                                                                                                                                                                                                                                                                                                                                                                                                                                                                                                                                                                                                                                                                                                                                                                                                                                                                 |                                           |
|                                                                                                                                                                                                                                                                                                                                                                                                                                                                                                                                                                                                                                                                                                                                                                                                                                                                                                                                                                                                                                                                                                                                                                                                                                                                                                                               |                                           |
| Al día siguiente, Pedro de Palencia protestó porque el teniente no había mandado embargar los 800 pesos "que le cupieron de la legítima de su padre". Para mayor constancia agregaba que estaba "presto de dar información, de cómo la dicha Ana Martel tiene los dichos pesos de oro como su tutora".                                                                                                                                                                                                                                                                                                                                                                                                                                                                                                                                                                                                                                                                                                                                                                                                                                                                                                                                                                                                                        |                                           |
|                                                                                                                                                                                                                                                                                                                                                                                                                                                                                                                                                                                                                                                                                                                                                                                                                                                                                                                                                                                                                                                                                                                                                                                                                                                                                                                               |                                           |
| El 8 de julio, el teniente Grijalba mandó que diera la información. De ello fue también notificada Ana Martel, siendo testigos Juan Preciado y Pedro de Solórzano, vecinos de Colima.                                                                                                                                                                                                                                                                                                                                                                                                                                                                                                                                                                                                                                                                                                                                                                                                                                                                                                                                                                                                                                                                                                                                         |                                           |
|                                                                                                                                                                                                                                                                                                                                                                                                                                                                                                                                                                                                                                                                                                                                                                                                                                                                                                                                                                                                                                                                                                                                                                                                                                                                                                                               |                                           |
| El 10 de julio, Pedro de Palencia presentó por testigo para la dicha información a Pedro de las Casas, vecino de Colima, de más de 25 años de edad. "Este testigo vido que habrá año y medio poco más o menos, que el dicho Pedro de Palencia vino a esta dicha Villa con poder de Catalina e Isabel Mejía e doña María de la Torre, hermanas, a cobrar la herencia que les pertenescía de Melchor Pérez, su padre difunto; y trujo pleito sobre ello con Ana Martel, mujer del dicho Melchor Pérez y Diego Mexía, su hijo, y entre ellos, hubo partición e división de bienes, que pasó ante Francisco López de Avecilla, escribano. Y al dicho Diego Mexía, le cupo de su parte ochocientos y sesenta y tantos pesos de lo procedido de dos negros y otras preseas que se vendieron en el almoneda, como paresce por el almoneda y partición a que se remite. Y es público y notorio que los dichos pesos de oro, que así cupieron al dicho Diego Mexía, los tiene la dicha Ana Martel, madre del dicho Diego Mexía, como su tutora y curadora que es y porque el dicho Diego Mexía es menor de edad y está debajo del dominio de su madre y porque en esta Villa no se le conosce otro tutor ni persona que tenga bienes suyos si no es la dicha Ana Martel su madre. Y que ésta es la verdad para el juramento que hizo". |                                           |
|                                                                                                                                                                                                                                                                                                                                                                                                                                                                                                                                                                                                                                                                                                                                                                                                                                                                                                                                                                                                                                                                                                                                                                                                                                                                                                                               |                                           |
| Palencia presentó luego a Juan Fernández Ladrillero, vecino de Colima, mayor de 50 años de edad. Declara que hace "año e medio, poco más o menos, que este testigo vido que entre Diego Mexía y sus hermanas Catalina e Isabel Mexía e doña María de la Torre, se hizo partición de los bienes que heredaron de Melchor Pérez, su padre, de los cuales le cupo al dicho Diego Mexía ochocientos y tantos pesos, los cuales están en poder de Ana Martel, su madre, como su tutora y curadora".                                                                                                                                                                                                                                                                                                                                                                                                                                                                                                                                                                                                                                                                                                                                                                                                                                |                                           |
|                                                                                                                                                                                                                                                                                                                                                                                                                                                                                                                                                                                                                                                                                                                                                                                                                                                                                                                                                                                                                                                                                                                                                                                                                                                                                                                               |                                           |
| El mismo día 10 de julio, "ante mí el escribano e testigos de yuso scriptos, paresció Pedro de Palencia, escribano de Su Majestad, vecino de la ciudad de Guadalaxara, a quien yo el escribano doy fe que conozco, e dijo que él tiene dada querella criminal contra Diego Mexía de la Torre por le haber traído dos negras suyas, la cual querella dio ante el presidente e oidores de la Real Audiencia que por Su Majestad reside en la ciudad de Guadalaxara, y que agora ha entendido, por cosa clara, que el dicho Diego Mexía no tiene culpa de lo contenido en su querella, por lo cual e por ruego de personas honradas, se apartaba e apartó de la querella que contra el dicho Diego Mexía tiene dada, el cual apartamiento dijo no lo hace de temor de que no le sería hecho cumplimiento de justicia, sino, como dicho tiene, por le constar no tener culpa e por amor de Dios e ruego de personas honradas, e lo firmó de su nombre, testigos el señor Álvaro de Grijalba y Cristóbal Hernández de Tene, vecinos desta Villa. Pedro de Palencia [rúbrica]. Ante mí, Francisco López, escribano público" [rúbrica].(2)                                                                                                                                                                                           |                                           |
|                                                                                                                                                                                                                                                                                                                                                                                                                                                                                                                                                                                                                                                                                                                                                                                                                                                                                                                                                                                                                                                                                                                                                                                                                                                                                                                               |                                           |
| El 15 de noviembre de ese mismo año, ante el alcalde mayor, junto con el apartamiento de la querella firmado por Palencia, Francisco Asensio Valenciano,(3) en nombre de Ana Martel, dijo que "por Pedro de Palencia fue presentada ante V.m. una provisión real" de la Real Audiencia de Guadalajara, "en que mandan prender el cuerpo de Diego Mexía de la Torre"; dice que Palencia "no es parte para poderlo pedir, por cuanto está ya apartado de la querella", por lo cual Su Merced le mande "poner perpetuo silencio por las causas siguientes: la una, por haber dado la dicha provisión real a la parte y, la otra, por haberse apartado de la dicha querella". Concluía Asensio su alegato: "Otrosí digo y pido a V.m., sea servido de mandar que las provisiones reales manadas de la Real Audiencia de Guadalaxara, se refrenden en la Ciudad de México, donde al presente estamos sometidos para los pleitos y causas, y de no hacerlo V.m. ansí, protesto quejarme ante el muy excelente señor Visorrey de la Nueva España y ante los oidores y presidentes della".(4)                                                                                                                                                                                                                                         |                                           |
|                                                                                                                                                                                                                                                                                                                                                                                                                                                                                                                                                                                                                                                                                                                                                                                                                                                                                                                                                                                                                                                                                                                                                                                                                                                                                                                               |                                           |
| Caja A–9, exp. 1, 6 ff.                                                                                                                                                                                                                                                                                                                                                                                                                                                                                                                                                                                                                                                                                                                                                                                                                                                                                                                                                                                                                                                                                                                                                                                                                                                                                                       |                                           |
|                                                                                                                                                                                                                                                                                                                                                                                                                                                                                                                                                                                                                                                                                                                                                                                                                                                                                                                                                                                                                                                                                                                                                                                                                                                                                                                               |                                           |
|                                                                                                                                                                                                                                                                                                                                                                                                                                                                                                                                                                                                                                                                                                                                                                                                                                                                                                                                                                                                                                                                                                                                                                                                                                                                                                                               |                                           |
|                                                                                                                                                                                                                                                                                                                                                                                                                                                                                                                                                                                                                                                                                                                                                                                                                                                                                                                                                                                                                                                                                                                                                                                                                                                                                                                               |                                           |
| ---------------                                                                                                                                                                                                                                                                                                                                                                                                                                                                                                                                                                                                                                                                                                                                                                                                                                                                                                                                                                                                                                                                                                                                                                                                                                                                                                               |                                           |
|                                                                                                                                                                                                                                                                                                                                                                                                                                                                                                                                                                                                                                                                                                                                                                                                                                                                                                                                                                                                                                                                                                                                                                                                                                                                                                                               |                                           |
| (1) En realidad, su suegro.                                                                                                                                                                                                                                                                                                                                                                                                                                                                                                                                                                                                                                                                                                                                                                                                                                                                                                                                                                                                                                                                                                                                                                                                                                                                                                   |                                           |
|                                                                                                                                                                                                                                                                                                                                                                                                                                                                                                                                                                                                                                                                                                                                                                                                                                                                                                                                                                                                                                                                                                                                                                                                                                                                                                                               |                                           |
| (2) Ver infra, regº 310 donde aparecen otros autos relacionados a esta causa.                                                                                                                                                                                                                                                                                                                                                                                                                                                                                                                                                                                                                                                                                                                                                                                                                                                                                                                                                                                                                                                                                                                                                                                                                                                 |                                           |
|                                                                                                                                                                                                                                                                                                                                                                                                                                                                                                                                                                                                                                                                                                                                                                                                                                                                                                                                                                                                                                                                                                                                                                                                                                                                                                                               |                                           |
| (3) Textualmente, "Vallensiano".                                                                                                                                                                                                                                                                                                                                                                                                                                                                                                                                                                                                                                                                                                                                                                                                                                                                                                                                                                                                                                                                                                                                                                                                                                                                                              |                                           |
|                                                                                                                                                                                                                                                                                                                                                                                                                                                                                                                                                                                                                                                                                                                                                                                                                                                                                                                                                                                                                                                                                                                                                                                                                                                                                                                               |                                           |
| (4) Se manifiesta en esta propuesta de Asensio la pretensión de la Real Audiencia de Nueva Galicia de tener bajo su jurisdicción a la alcaldía mayor de Colima, perteneciente a la Nueva España.                                                                                                                                                                                                                                                                                                                                                                                                                                                                                                                                                                                                                                                                                                                                                                                                                                                                                                                                                                                                                                                                                                                              |                                           |
+-------------------------------------------------------------------------------------------------------------------------------------------------------------------------------------------------------------------------------------------------------------------------------------------------------------------------------------------------------------------------------------------------------------------------------------------------------------------------------------------------------------------------------------------------------------------------------------------------------------------------------------------------------------------------------------------------------------------------------------------------------------------------------------------------------------------------------------------------------------------------------------------------------------------------------------------------------------------------------------------------------------------------------------------------------------------------------------------------------------------------------------------------------------------------------------------------------------------------------------------------------------------------------------------------------------------------------+-------------------------------------------+

Documento(s) original(es)

Archivo no encontrado (CAJAS/CAJA9/EXP1/002V.jpg)

Archivo no encontrado (CAJAS/CAJA9/EXP1/005V.jpg)

[]
1F

[]
1V

[]
2F

[]
3F

[]
3V

[]
4F

[]
4V

[]
5F

[]
6F

[]
6V

Proyecto interinstitucional del Archivo Histórico del Municipio de Colima y la Universidad de Colima,
realizado bajo los auspicios del fondo Ramón Álvarez-Buylla de Aldana.

------------------------------------------------------------------------

ISBN 978-968-7412-85-6
® Derechos Reservados 2008. Archivo Histórico del Municipio de Colima.

1,078 visitas
