+--------------------------------------------------------------------------------------------------------------------------------------------------------------------------------------------------------------------------------------------------------------------------------------------------------------------------------------------------------------------------------------------------------------------------------------------------------------------------------------------------------------------------------------------------------------------------------------------------------------------------------------------------------------------------------------------+---------------------------------------+-----------------------+
| []                                                                                                                                                                                                                                                                                                                                                                                                                                                                                                                                                                                                                                                                                         | LA VILLA DE COLIMA DE LA NUEVA ESPAÑA | []                    |
|                                                                                                                                                                                                                                                                                                                                                                                                                                                                                                                                                                                                                                                                                            | SIGLO XVI                             |                       |
|                                                                                                                                                                                                                                                                                                                                                                                                                                                                                                                                                                                                                                                                                            |                                       |                       |
|                                                                                                                                                                                                                                                                                                                                                                                                                                                                                                                                                                                                                                                                                            | VOLUMEN I      (CAJAS 1-11)           |                       |
+--------------------------------------------------------------------------------------------------------------------------------------------------------------------------------------------------------------------------------------------------------------------------------------------------------------------------------------------------------------------------------------------------------------------------------------------------------------------------------------------------------------------------------------------------------------------------------------------------------------------------------------------------------------------------------------------+---------------------------------------+-----------------------+
| Inicio | Búsquedas | Siglas y bibliografía | Cartografía | Créditos | Más información                                                                                                                                                                                                                                                                                                                                                                                                                                                                                                                                                                                                      |                                       | []                    |
+--------------------------------------------------------------------------------------------------------------------------------------------------------------------------------------------------------------------------------------------------------------------------------------------------------------------------------------------------------------------------------------------------------------------------------------------------------------------------------------------------------------------------------------------------------------------------------------------------------------------------------------------------------------------------------------------+---------------------------------------+-----------------------+
| Búsqueda rápida                                                                                                                                                                                                                                                                                                                                                                                                                                                                                                                                                                                                                                                                            |                                       |                       |
|                                                                                                                                                                                                                                                                                                                                                                                                                                                                                                                                                                                                                                                                                            |                                       |                       |
| +:------------------------------------------------------------------------------------------------------------------------------------------------------------------------------------------------------------------------------------------------------------------------------------------------------------------------------------------------------------------------------------------------------------------------------------------------------------------------------------------------------------------------------------------------------------------------------------------------------------------------------------------:+------------------------------------------:+ |                                       |                       |
| | Fecha:                                                                                                                                                                                                                                                                                                                                                                                                                                                                                                                                                                                                                                     | Ubicación física del documento original:  | |                                       |                       |
| | S/f                                                                                                                                                                                                                                                                                                                                                                                                                                                                                                                                                                                                                                        | CAJA A-9, EXP. 13, F. 2.                  | |                                       |                       |
| |                                                                                                                                                                                                                                                                                                                                                                                                                                                                                                                                                                                                                                            | Archivo Histórico del Municipio de Colima | |                                       |                       |
| +--------------------------------------------------------------------------------------------------------------------------------------------------------------------------------------------------------------------------------------------------------------------------------------------------------------------------------------------------------------------------------------------------------------------------------------------------------------------------------------------------------------------------------------------------------------------------------------------------------------------------------------------+-------------------------------------------+ |                                       |                       |
| | 305. S/f.                                                                                                                                                                                                                                                                                                                                                                                                                                                                                                                                                                                                                                  |                                           | |                                       |                       |
| |                                                                                                                                                                                                                                                                                                                                                                                                                                                                                                                                                                                                                                            |                                           | |                                       |                       |
| | Escritura de venta de dos esclavos a Catalina López.                                                                                                                                                                                                                                                                                                                                                                                                                                                                                                                                                                                       |                                           | |                                       |                       |
| |                                                                                                                                                                                                                                                                                                                                                                                                                                                                                                                                                                                                                                            |                                           | |                                       |                       |
| | Gonzalo López de Ayala y Juliana de Bobadilla, su mujer, con su licencia, vecinos de Colima, otorgan escritura de venta "a vos Catalina López, vecina desta dicha Villa, dos esclavos nuestros, marido e mujer, que el dicho esclavo se llama Francisco, de edad de sesenta años, e la dicha esclava Juana, de edad de cuarenta años, poco más o menos, los cuales vos vendemos por sujetos a servidumbre y con todas sus tachas buenas e malas, por precio e contía de quinientos y diez pesos del oro común, que recibimos de vos realmente, de los cuales nos damos por bien contentos e pagados y entregados a toda nuestra voluntad". |                                           | |                                       |                       |
| |                                                                                                                                                                                                                                                                                                                                                                                                                                                                                                                                                                                                                                            |                                           | |                                       |                       |
| | Los tales esclavos los había heredado Juliana, de Pedro de Bobadilla, su difunto padre.(1)                                                                                                                                                                                                                                                                                                                                                                                                                                                                                                                                                 |                                           | |                                       |                       |
| |                                                                                                                                                                                                                                                                                                                                                                                                                                                                                                                                                                                                                                            |                                           | |                                       |                       |
| | Caja A–9, exp. 13, f. 2.                                                                                                                                                                                                                                                                                                                                                                                                                                                                                                                                                                                                                   |                                           | |                                       |                       |
| |                                                                                                                                                                                                                                                                                                                                                                                                                                                                                                                                                                                                                                            |                                           | |                                       |                       |
| |                                                                                                                                                                                                                                                                                                                                                                                                                                                                                                                                                                                                                                            |                                           | |                                       |                       |
| |                                                                                                                                                                                                                                                                                                                                                                                                                                                                                                                                                                                                                                            |                                           | |                                       |                       |
| | ---------------                                                                                                                                                                                                                                                                                                                                                                                                                                                                                                                                                                                                                            |                                           | |                                       |                       |
| |                                                                                                                                                                                                                                                                                                                                                                                                                                                                                                                                                                                                                                            |                                           | |                                       |                       |
| | (1) No se especifica si los esclavos eran naturales o negros.                                                                                                                                                                                                                                                                                                                                                                                                                                                                                                                                                                              |                                           | |                                       |                       |
| +--------------------------------------------------------------------------------------------------------------------------------------------------------------------------------------------------------------------------------------------------------------------------------------------------------------------------------------------------------------------------------------------------------------------------------------------------------------------------------------------------------------------------------------------------------------------------------------------------------------------------------------------+-------------------------------------------+ |                                       |                       |
|                                                                                                                                                                                                                                                                                                                                                                                                                                                                                                                                                                                                                                                                                            |                                       |                       |
|   ---------------------------------------------------------------------------------------------------                                                                                                                                                                                                                                                                                                                                                                                                                                                                                                                                                                                      |                                       |                       |
|    Documento(s) original(es)                                                                                                                                                                                                                                                                                                                                                                                                                                                                                                                                                                                                                                                               |                                       |                       |
|   --------------------------- ------- ------- ------- ------- ------- ------- ------- ------- -------                                                                                                                                                                                                                                                                                                                                                                                                                                                                                                                                                                                      |                                       |                       |
|               []                []                                                                                                                                                                                                                                                                                                                                                                                                                                                                                                                                                                                                                                                         |                                       |                       |
|               2F                2V                                                                                                                                                                                                                                                                                                                                                                                                                                                                                                                                                                                                                                                         |                                       |                       |
|                                                                                                                                                                                                                                                                                                                                                                                                                                                                                                                                                                                                                                                                                            |                                       |                       |
|   ---------------------------------------------------------------------------------------------------                                                                                                                                                                                                                                                                                                                                                                                                                                                                                                                                                                                      |                                       |                       |
+--------------------------------------------------------------------------------------------------------------------------------------------------------------------------------------------------------------------------------------------------------------------------------------------------------------------------------------------------------------------------------------------------------------------------------------------------------------------------------------------------------------------------------------------------------------------------------------------------------------------------------------------------------------------------------------------+---------------------------------------+-----------------------+
| Proyecto interinstitucional del Archivo Histórico del Municipio de Colima y la Universidad de Colima,                                                                                                                                                                                                                                                                                                                                                                                                                                                                                                                                                                                      |                                       |                       |
| realizado bajo los auspicios del fondo Ramón Álvarez-Buylla de Aldana.                                                                                                                                                                                                                                                                                                                                                                                                                                                                                                                                                                                                                     |                                       |                       |
|                                                                                                                                                                                                                                                                                                                                                                                                                                                                                                                                                                                                                                                                                            |                                       |                       |
| ------------------------------------------------------------------------                                                                                                                                                                                                                                                                                                                                                                                                                                                                                                                                                                                                                   |                                       |                       |
|                                                                                                                                                                                                                                                                                                                                                                                                                                                                                                                                                                                                                                                                                            |                                       |                       |
| ISBN 978-968-7412-85-6                                                                                                                                                                                                                                                                                                                                                                                                                                                                                                                                                                                                                                                                     |                                       |                       |
| ® Derechos Reservados 2008. Archivo Histórico del Municipio de Colima.                                                                                                                                                                                                                                                                                                                                                                                                                                                                                                                                                                                                                     |                                       |                       |
+--------------------------------------------------------------------------------------------------------------------------------------------------------------------------------------------------------------------------------------------------------------------------------------------------------------------------------------------------------------------------------------------------------------------------------------------------------------------------------------------------------------------------------------------------------------------------------------------------------------------------------------------------------------------------------------------+---------------------------------------+-----------------------+

1,078 visitas
