[]

LA VILLA DE COLIMA DE LA NUEVA ESPAÑA
SIGLO XVI

VOLUMEN I      (CAJAS 1-11)

[]

Inicio | Búsquedas | Siglas y bibliografía | Cartografía | Créditos | Más información

[]

Búsqueda rápida

+:------------------------------------------------------------------------------------------------------------------------------------------------------------------------------------------------------------------------------------------------------------------------------------------------------------------------------------------------------------------------------------------------------------------------------------------------------------------------------------------------------------------------------------------------------------------------------------------------------------------------------------------------------------------------------------------------------------------------------------------------------------------------------------------------------------------------------------------------------------------------------------------------------------------------------------------------------------------------------------------------:+------------------------------------------:+
| Fecha:                                                                                                                                                                                                                                                                                                                                                                                                                                                                                                                                                                                                                                                                                                                                                                                                                                                                                                                                                                                           | Ubicación física del documento original:  |
| 1581 Junio, 26                                                                                                                                                                                                                                                                                                                                                                                                                                                                                                                                                                                                                                                                                                                                                                                                                                                                                                                                                                                   | CAJA A-11, EXP. 4, 4 FF.                  |
|                                                                                                                                                                                                                                                                                                                                                                                                                                                                                                                                                                                                                                                                                                                                                                                                                                                                                                                                                                                                  | Archivo Histórico del Municipio de Colima |
+--------------------------------------------------------------------------------------------------------------------------------------------------------------------------------------------------------------------------------------------------------------------------------------------------------------------------------------------------------------------------------------------------------------------------------------------------------------------------------------------------------------------------------------------------------------------------------------------------------------------------------------------------------------------------------------------------------------------------------------------------------------------------------------------------------------------------------------------------------------------------------------------------------------------------------------------------------------------------------------------------+-------------------------------------------+
| 391. 1581. Junio, 26.                                                                                                                                                                                                                                                                                                                                                                                                                                                                                                                                                                                                                                                                                                                                                                                                                                                                                                                                                                            |                                           |
|                                                                                                                                                                                                                                                                                                                                                                                                                                                                                                                                                                                                                                                                                                                                                                                                                                                                                                                                                                                                  |                                           |
| El escribano Pedro de Vega contra Juan del Castillo, mercader y vecino de México, por cantidad de pesos.                                                                                                                                                                                                                                                                                                                                                                                                                                                                                                                                                                                                                                                                                                                                                                                                                                                                                         |                                           |
|                                                                                                                                                                                                                                                                                                                                                                                                                                                                                                                                                                                                                                                                                                                                                                                                                                                                                                                                                                                                  |                                           |
| "Yo Alonso Santillán, escribano de Su Majestad Real,(1) fui presente e fize mi signo en verdad e testimonio. Alonso Santillán".                                                                                                                                                                                                                                                                                                                                                                                                                                                                                                                                                                                                                                                                                                                                                                                                                                                                  |                                           |
|                                                                                                                                                                                                                                                                                                                                                                                                                                                                                                                                                                                                                                                                                                                                                                                                                                                                                                                                                                                                  |                                           |
| "Yo Pedro de Vega, escribano de Su Majestad e procurador de la Real Audiencia desta Nueva España, otorgo que doy mi poder cumplido, cuan bastante de derecho se requiere y es necesario, a Julián de Frías, vecino de la Villa de Colima, estante en esta corte, para que, por mí y en mi nombre", cobre de la persona y bienes de Juan del Castillo, 456 pesos de oro común, "que el susodicho me debe de resto de la escritura de obligación desta otra parte contenida, y sobre la dicha cobranza, pueda parecer en juicio y hacer cualesquier autos, pedimientos, requerimientos, prisiones, ejecuciones, embargos, secrestos y todos los demás autos judiciales y extrajudiciales que convengan y sean necesarios para la dicha cobranza, y de lo que ansí rescibiere y cobrare, pueda dar las cartas de pago finiquito que sea necesario, las cuales desde luego apruebo e ratifico". Testigos fueron Nicolás de Morales, escribano de Su Majestad, y Francisco Pérez, estantes en México. |                                           |
|                                                                                                                                                                                                                                                                                                                                                                                                                                                                                                                                                                                                                                                                                                                                                                                                                                                                                                                                                                                                  |                                           |
| El 6 de septiembre de ese mismo año de 1581, ante el alcalde ordinario Cristóbal Hernández de Tene, Julián de Frías presentó este poder y demás recaudos, y decía: "Juan del Castillo debe al dicho Pedro de Vega cantidad de pesos de oro, según consta desta obligación de que hago presentación; y en esta Villa deben muchas personas al dicho Juan del Castillo cantidad de pesos de oro, que es Gaspar Román, e Ana Martel, Cristóbal de Solórzano, Álvaro de Grijalba, Juan de Iniesta y otras personas. Y al derecho del dicho mi parte conviene que las personas que deben los pesos de oro e cacao al dicho Juan del Castillo, declaren con juramento qué cantidad de pesos de oro son los que deben, y declarado, Vuestra Merced mande [que] se embarguen, para que no acudan al dicho Juan del Castillo hasta en tanto que el dicho mi parte esté pagado".                                                                                                                           |                                           |
|                                                                                                                                                                                                                                                                                                                                                                                                                                                                                                                                                                                                                                                                                                                                                                                                                                                                                                                                                                                                  |                                           |
| El alcalde así lo dispuso. El escribano Francisco López notificó este auto a Gaspar Román, vecino de Colima, quien declaró que debía al mercader Juan del Castillo, vecino de México, "dos cargas e cinco pesos de cacao". Testigos fueron Juan Ramírez y Juan de Velasco, vecinos de Colima.                                                                                                                                                                                                                                                                                                                                                                                                                                                                                                                                                                                                                                                                                                    |                                           |
|                                                                                                                                                                                                                                                                                                                                                                                                                                                                                                                                                                                                                                                                                                                                                                                                                                                                                                                                                                                                  |                                           |
| La viuda Ana Martel, vecina de Colima, dijo que debía a Juan del Castillo "tres cargas de cacao, poco más o menos, a lo que se acuerda". Testigos fueron Pedro de Ceballos(2) y Diego Mejía, vecinos de esta Villa.                                                                                                                                                                                                                                                                                                                                                                                                                                                                                                                                                                                                                                                                                                                                                                              |                                           |
|                                                                                                                                                                                                                                                                                                                                                                                                                                                                                                                                                                                                                                                                                                                                                                                                                                                                                                                                                                                                  |                                           |
| Cristóbal de Solórzano, vecino de Colima, por su parte, dijo que "él debe cacao al dicho Juan del Castillo, mas que no se acuerda los pesos de oro que son".                                                                                                                                                                                                                                                                                                                                                                                                                                                                                                                                                                                                                                                                                                                                                                                                                                     |                                           |
|                                                                                                                                                                                                                                                                                                                                                                                                                                                                                                                                                                                                                                                                                                                                                                                                                                                                                                                                                                                                  |                                           |
| El vecino Álvaro de Grijalba declaró que debía, "a lo que se acuerda, diez pesos en cacao". Fueron testigos Juan de Aguilar y Juan Gómez, vecinos.                                                                                                                                                                                                                                                                                                                                                                                                                                                                                                                                                                                                                                                                                                                                                                                                                                               |                                           |
|                                                                                                                                                                                                                                                                                                                                                                                                                                                                                                                                                                                                                                                                                                                                                                                                                                                                                                                                                                                                  |                                           |
| El 11 de septiembre prestó declaración el vecino Martín Ruiz y dijo que debía a Castillo "trece o catorce pesos, por una cédula a la cual se remite". Testigos fueron Gaspar Román y Juan López.                                                                                                                                                                                                                                                                                                                                                                                                                                                                                                                                                                                                                                                                                                                                                                                                 |                                           |
|                                                                                                                                                                                                                                                                                                                                                                                                                                                                                                                                                                                                                                                                                                                                                                                                                                                                                                                                                                                                  |                                           |
| El 13 de septiembre prestaba declaración el vecino Hernando de Solórzano, quien "confesó deber al dicho Juan del Castillo más de cincuenta pesos en cacao, como consta de una cédula que el susodicho tiene, a la cual se remitió".                                                                                                                                                                                                                                                                                                                                                                                                                                                                                                                                                                                                                                                                                                                                                              |                                           |
|                                                                                                                                                                                                                                                                                                                                                                                                                                                                                                                                                                                                                                                                                                                                                                                                                                                                                                                                                                                                  |                                           |
| El mismo día, el vecino Juan de Iniesta declaró deber a Castillo "ciertos pesos de oro por cuenta de su libro, mas no se acuerda la cantidad que son".                                                                                                                                                                                                                                                                                                                                                                                                                                                                                                                                                                                                                                                                                                                                                                                                                                           |                                           |
|                                                                                                                                                                                                                                                                                                                                                                                                                                                                                                                                                                                                                                                                                                                                                                                                                                                                                                                                                                                                  |                                           |
| En México, el 22 de julio de 1581, ante el alcalde Gonzalo Gallego,(3) Pedro de Vega, procurador de la Real Audiencia, decía que, "como consta desta escritura de obligación de que hago demostración, Juan del Castillo me es deudor de seiscientos e veinte pesos y cuatro tomines de oro común, y el susodicho anda ausente desta dicha ciudad. E ha venido a mi noticia que Juan de Aguilar, residente de la Villa de Colima, que al presente está en esta Ciudad de México, debe al dicho Juan del Castillo ciento e cincuenta pesos de oro común, por escritura que en su favor otorgó ante Juan Bautista de Salas.(4) Y conviene a mi derecho que el susodicho declare. A V.m. suplico, mande que el dicho Juan de Aguilar declare con juramento qué pesos de oro debe al dicho Juan del Castillo, y a qué plazo, para que fecha la dicha declaración, yo pida mi justicia".                                                                                                              |                                           |
|                                                                                                                                                                                                                                                                                                                                                                                                                                                                                                                                                                                                                                                                                                                                                                                                                                                                                                                                                                                                  |                                           |
| El alcalde mandó que Aguilar declarase con juramento por el tenor de esta petición "ante cualquier escribano". Pasó ante el escribano Pedro Montiel.(5)                                                                                                                                                                                                                                                                                                                                                                                                                                                                                                                                                                                                                                                                                                                                                                                                                                          |                                           |
|                                                                                                                                                                                                                                                                                                                                                                                                                                                                                                                                                                                                                                                                                                                                                                                                                                                                                                                                                                                                  |                                           |
| El escribano Diego Xuárez(6) notificó este auto el 24 de julio a Juan de Aguilar, quien de inmediato dijo que era verdad que debía a Castillo 50 pesos "en reales y cuatro cargas de cacao de Colima, bueno, de dar e de rescebir, a entregar e pagar en la dicha Villa de Colima para el día de Nuestra Señora de Agosto,(7) primero venidero, y en defecto de no le entregar las dichas cargas de cacao, le ha de pagar a razón de veinte pesos de oro común por cada carga dellas, de lo cual le otorgó escritura de obligación ante Juan Bautista de Salas, escribano. Y que está presto de los pagar para el dicho tiempo". Testigos fueron Ruy Díaz(8) y Juan Agustín de la Puerta, estantes en México.                                                                                                                                                                                                                                                                                    |                                           |
|                                                                                                                                                                                                                                                                                                                                                                                                                                                                                                                                                                                                                                                                                                                                                                                                                                                                                                                                                                                                  |                                           |
| El mismo día, Pedro de Vega pedía, ante el alcalde Gallego, que mandase a Juan de Aguilar [que] "no pague al dicho Juan del Castillo la dicha deuda, y lo retenga en su poder hasta que por mi parte se haga diligencia, sacando mandamiento en la dicha Villa de Colima, para cobrar della y de los demás bienes del dicho Juan del Castillo los pesos de oro que ansí me debe".                                                                                                                                                                                                                                                                                                                                                                                                                                                                                                                                                                                                                |                                           |
|                                                                                                                                                                                                                                                                                                                                                                                                                                                                                                                                                                                                                                                                                                                                                                                                                                                                                                                                                                                                  |                                           |
| El alcalde Gallego dio su mandamiento, que pasó ante el escribano Pedro Montiel.                                                                                                                                                                                                                                                                                                                                                                                                                                                                                                                                                                                                                                                                                                                                                                                                                                                                                                                 |                                           |
|                                                                                                                                                                                                                                                                                                                                                                                                                                                                                                                                                                                                                                                                                                                                                                                                                                                                                                                                                                                                  |                                           |
| El 27 de julio, el escribano Nicolás Morales notificó este auto a Juan de Aguilar, "el cual dijo que hará e cumplirá lo que por el dicho auto le es mandado, y lo firmó de su nombre, y se constituyó por depositario de los dichos pesos de oro". Testigos fueron Francisco Pérez y Sebastián de Medinilla.(9)                                                                                                                                                                                                                                                                                                                                                                                                                                                                                                                                                                                                                                                                                  |                                           |
|                                                                                                                                                                                                                                                                                                                                                                                                                                                                                                                                                                                                                                                                                                                                                                                                                                                                                                                                                                                                  |                                           |
| "Fecho, sacado, corregido e concertado fue este dicho traslado de la dicha escritura e los demás autos y declaraciones fechas por Juan de Aguilar en la Ciudad de México, según y como en todo ello se contiene, y de las demás declaraciones y embargos fechos en esta dicha Villa, según que ante mí pasó, e lo hice escribir. Lo cual va cierto y verdadero, corregido con el original que di y entregué al dicho Julián de Frías, de mandamiento de la Justicia. E por ende, fiz aquí mi signo que es a tal. En testimonio de verdad. Francisco López, escribano público".                                                                                                                                                                                                                                                                                                                                                                                                                   |                                           |
|                                                                                                                                                                                                                                                                                                                                                                                                                                                                                                                                                                                                                                                                                                                                                                                                                                                                                                                                                                                                  |                                           |
| Caja A–11, exp. 4, 4 ff.                                                                                                                                                                                                                                                                                                                                                                                                                                                                                                                                                                                                                                                                                                                                                                                                                                                                                                                                                                         |                                           |
|                                                                                                                                                                                                                                                                                                                                                                                                                                                                                                                                                                                                                                                                                                                                                                                                                                                                                                                                                                                                  |                                           |
|                                                                                                                                                                                                                                                                                                                                                                                                                                                                                                                                                                                                                                                                                                                                                                                                                                                                                                                                                                                                  |                                           |
|                                                                                                                                                                                                                                                                                                                                                                                                                                                                                                                                                                                                                                                                                                                                                                                                                                                                                                                                                                                                  |                                           |
| ---------------                                                                                                                                                                                                                                                                                                                                                                                                                                                                                                                                                                                                                                                                                                                                                                                                                                                                                                                                                                                  |                                           |
|                                                                                                                                                                                                                                                                                                                                                                                                                                                                                                                                                                                                                                                                                                                                                                                                                                                                                                                                                                                                  |                                           |
| (1) Como se verá al final del expediente, es un traslado de autos ante la Justicia de Colima por Julián de Frías a nombre de Pedro de Vega, por una parte, y por otra, algunas diligencias hechas por Vega en México, donde estuvo implicado el vecino de Colima Juan de Aguilar. El expediente, como se conserva, inicia con las siguientes palabras: "Yo, Alonso Santillán..." y luego sigue el poder de Vega a Frías. lo que sugiera que se trata de un expediente trunco, al que le falta, al menos, la primera foja.                                                                                                                                                                                                                                                                                                                                                                                                                                                                        |                                           |
|                                                                                                                                                                                                                                                                                                                                                                                                                                                                                                                                                                                                                                                                                                                                                                                                                                                                                                                                                                                                  |                                           |
| (2) Textualmente: "Çaballos".                                                                                                                                                                                                                                                                                                                                                                                                                                                                                                                                                                                                                                                                                                                                                                                                                                                                                                                                                                    |                                           |
|                                                                                                                                                                                                                                                                                                                                                                                                                                                                                                                                                                                                                                                                                                                                                                                                                                                                                                                                                                                                  |                                           |
| (3) Casó a Leonor Osorio y procrearon a Cristóbal de Gallegos Osorio, alcalde mayor de Colima (1621-1624): Porras Muñoz (1982), 291-293; Hillerkuss (2001), 184.                                                                                                                                                                                                                                                                                                                                                                                                                                                                                                                                                                                                                                                                                                                                                                                                                                 |                                           |
|                                                                                                                                                                                                                                                                                                                                                                                                                                                                                                                                                                                                                                                                                                                                                                                                                                                                                                                                                                                                  |                                           |
| (4) Ya registrado antes: supra, regº 289 y 289–C.                                                                                                                                                                                                                                                                                                                                                                                                                                                                                                                                                                                                                                                                                                                                                                                                                                                                                                                                                |                                           |
|                                                                                                                                                                                                                                                                                                                                                                                                                                                                                                                                                                                                                                                                                                                                                                                                                                                                                                                                                                                                  |                                           |
| (5) Únicas referencias a este escribano de México.                                                                                                                                                                                                                                                                                                                                                                                                                                                                                                                                                                                                                                                                                                                                                                                                                                                                                                                                               |                                           |
|                                                                                                                                                                                                                                                                                                                                                                                                                                                                                                                                                                                                                                                                                                                                                                                                                                                                                                                                                                                                  |                                           |
| (6) O Juárez: no debe ser confundido con un homónimo, avecindado en los Pueblos de Ávalos, que tomó residencia a Núñez del Castillo, alcalde mayor de Colima: supra, regº 264 e infra, regº 394. Ver: Romero de Solís, Andariegos… (2001), 232.                                                                                                                                                                                                                                                                                                                                                                                                                                                                                                                                                                                                                                                                                                                                                  |                                           |
|                                                                                                                                                                                                                                                                                                                                                                                                                                                                                                                                                                                                                                                                                                                                                                                                                                                                                                                                                                                                  |                                           |
| (7) Se celebraba el 15 de agosto.                                                                                                                                                                                                                                                                                                                                                                                                                                                                                                                                                                                                                                                                                                                                                                                                                                                                                                                                                                |                                           |
|                                                                                                                                                                                                                                                                                                                                                                                                                                                                                                                                                                                                                                                                                                                                                                                                                                                                                                                                                                                                  |                                           |
| (8) No sabemos de dónde era vecino Ruy Díaz. Esta referencia es la única que hemos localizado hasta el momento. En 1564 es registrado en la Villa de Nombre de Dios un Ruy Díaz y una década después, en 1573, a Ruy Díaz de Saldívar en Zacatecas, condenado a pagar una multa: Hillerkuss (2001), 33 y 43.                                                                                                                                                                                                                                                                                                                                                                                                                                                                                                                                                                                                                                                                                     |                                           |
|                                                                                                                                                                                                                                                                                                                                                                                                                                                                                                                                                                                                                                                                                                                                                                                                                                                                                                                                                                                                  |                                           |
| (9) Posiblemente, ambos eran vecinos de México; de ellos y del escribano Nicolás Morales no hallamos ulteriores referencias en el antiguo Archivo de la Villa.                                                                                                                                                                                                                                                                                                                                                                                                                                                                                                                                                                                                                                                                                                                                                                                                                                   |                                           |
+--------------------------------------------------------------------------------------------------------------------------------------------------------------------------------------------------------------------------------------------------------------------------------------------------------------------------------------------------------------------------------------------------------------------------------------------------------------------------------------------------------------------------------------------------------------------------------------------------------------------------------------------------------------------------------------------------------------------------------------------------------------------------------------------------------------------------------------------------------------------------------------------------------------------------------------------------------------------------------------------------+-------------------------------------------+

Documento(s) original(es)

Archivo no encontrado (CAJAS/CAJA11/EXP4/004V.jpg)

[]
1F

[]
1V

[]
2F

[]
2V

[]
3F

[]
3V

[]
4F

Proyecto interinstitucional del Archivo Histórico del Municipio de Colima y la Universidad de Colima,
realizado bajo los auspicios del fondo Ramón Álvarez-Buylla de Aldana.

------------------------------------------------------------------------

ISBN 978-968-7412-85-6
® Derechos Reservados 2008. Archivo Histórico del Municipio de Colima.

1,078 visitas
