+------------------------------------------------------------------------------------------------------------------------------------------------------------------------------------------------------------------------------------------------------------------------------------------------------------------------------------------------------------------------------------------------------------------------------------------------------------------------------------------------------------------------------------------------------------------------------------------------------------------------------------------------------------------------------------------------------------------------------------------------------------------------------------------------------------------------------------------------------------------------------------------------------------------------------------------------------------------------------------------------------------------------------------------------------------------------------------------------------------------------------------+---------------------------------------+-----------------------+
| []                                                                                                                                                                                                                                                                                                                                                                                                                                                                                                                                                                                                                                                                                                                                                                                                                                                                                                                                                                                                                                                                                                                                 | LA VILLA DE COLIMA DE LA NUEVA ESPAÑA | []                    |
|                                                                                                                                                                                                                                                                                                                                                                                                                                                                                                                                                                                                                                                                                                                                                                                                                                                                                                                                                                                                                                                                                                                                    | SIGLO XVI                             |                       |
|                                                                                                                                                                                                                                                                                                                                                                                                                                                                                                                                                                                                                                                                                                                                                                                                                                                                                                                                                                                                                                                                                                                                    |                                       |                       |
|                                                                                                                                                                                                                                                                                                                                                                                                                                                                                                                                                                                                                                                                                                                                                                                                                                                                                                                                                                                                                                                                                                                                    | VOLUMEN I      (CAJAS 1-11)           |                       |
+------------------------------------------------------------------------------------------------------------------------------------------------------------------------------------------------------------------------------------------------------------------------------------------------------------------------------------------------------------------------------------------------------------------------------------------------------------------------------------------------------------------------------------------------------------------------------------------------------------------------------------------------------------------------------------------------------------------------------------------------------------------------------------------------------------------------------------------------------------------------------------------------------------------------------------------------------------------------------------------------------------------------------------------------------------------------------------------------------------------------------------+---------------------------------------+-----------------------+
| Inicio | Búsquedas | Siglas y bibliografía | Cartografía | Créditos | Más información                                                                                                                                                                                                                                                                                                                                                                                                                                                                                                                                                                                                                                                                                                                                                                                                                                                                                                                                                                                                                                              |                                       | []                    |
+------------------------------------------------------------------------------------------------------------------------------------------------------------------------------------------------------------------------------------------------------------------------------------------------------------------------------------------------------------------------------------------------------------------------------------------------------------------------------------------------------------------------------------------------------------------------------------------------------------------------------------------------------------------------------------------------------------------------------------------------------------------------------------------------------------------------------------------------------------------------------------------------------------------------------------------------------------------------------------------------------------------------------------------------------------------------------------------------------------------------------------+---------------------------------------+-----------------------+
| Búsqueda rápida                                                                                                                                                                                                                                                                                                                                                                                                                                                                                                                                                                                                                                                                                                                                                                                                                                                                                                                                                                                                                                                                                                                    |                                       |                       |
|                                                                                                                                                                                                                                                                                                                                                                                                                                                                                                                                                                                                                                                                                                                                                                                                                                                                                                                                                                                                                                                                                                                                    |                                       |                       |
| +:----------------------------------------------------------------------------------------------------------------------------------------------------------------------------------------------------------------------------------------------------------------------------------------------------------------------------------------------------------------------------------------------------------------------------------------------------------------------------------------------------------------------------------------------------------------------------------------------------------------------------------------------------------------------------------------------------------------------------------------------------------------------------------------------------------------------------------------------------------------------------------------------------------------------------------------------------------------------------------------------------------------------------------------------------------------------------------:+------------------------------------------:+ |                                       |                       |
| | Fecha:                                                                                                                                                                                                                                                                                                                                                                                                                                                                                                                                                                                                                                                                                                                                                                                                                                                                                                                                                                                                                                                                             | Ubicación física del documento original:  | |                                       |                       |
| | 1552 Abril, 19                                                                                                                                                                                                                                                                                                                                                                                                                                                                                                                                                                                                                                                                                                                                                                                                                                                                                                                                                                                                                                                                     | CAJA A-2, EXP. 5, 7 FF.                   | |                                       |                       |
| |                                                                                                                                                                                                                                                                                                                                                                                                                                                                                                                                                                                                                                                                                                                                                                                                                                                                                                                                                                                                                                                                                    | Archivo Histórico del Municipio de Colima | |                                       |                       |
| +------------------------------------------------------------------------------------------------------------------------------------------------------------------------------------------------------------------------------------------------------------------------------------------------------------------------------------------------------------------------------------------------------------------------------------------------------------------------------------------------------------------------------------------------------------------------------------------------------------------------------------------------------------------------------------------------------------------------------------------------------------------------------------------------------------------------------------------------------------------------------------------------------------------------------------------------------------------------------------------------------------------------------------------------------------------------------------+-------------------------------------------+ |                                       |                       |
| | 37. 1552. Abril, 19.                                                                                                                                                                                                                                                                                                                                                                                                                                                                                                                                                                                                                                                                                                                                                                                                                                                                                                                                                                                                                                                               |                                           | |                                       |                       |
| |                                                                                                                                                                                                                                                                                                                                                                                                                                                                                                                                                                                                                                                                                                                                                                                                                                                                                                                                                                                                                                                                                    |                                           | |                                       |                       |
| | Pedro de Vivanco pide que le sea entregada Catalina de Arévalo, su legítima esposa, a quien retiene en su casa                                                                                                                                                                                                                                                                                                                                                                                                                                                                                                                                                                                                                                                                                                                                                                                                                                                                                                                                                                     |                                           | |                                       |                       |
| |                                                                                                                                                                                                                                                                                                                                                                                                                                                                                                                                                                                                                                                                                                                                                                                                                                                                                                                                                                                                                                                                                    |                                           | |                                       |                       |
| | Beatriz López.                                                                                                                                                                                                                                                                                                                                                                                                                                                                                                                                                                                                                                                                                                                                                                                                                                                                                                                                                                                                                                                                     |                                           | |                                       |                       |
| |                                                                                                                                                                                                                                                                                                                                                                                                                                                                                                                                                                                                                                                                                                                                                                                                                                                                                                                                                                                                                                                                                    |                                           | |                                       |                       |
| | Pedro de Vivanco, quien se había casado con Catalina de Arévalo sin consentimiento de Francisco Preciado, padre de la novia,^([1]) pide al alcalde mayor Luis Ramírez de Vargas, "como justicia mayor que es de esta Provincia, mande que se me dé y entregue a Catalina de Arévalo, mi legítima mujer, la cual me tiene tomada y en su casa doña Beatriz [López de Ayala], por fuerza y en contra de mi voluntad [...], como mujer poderosa y que no teme a la justicia".                                                                                                                                                                                                                                                                                                                                                                                                                                                                                                                                                                                                         |                                           | |                                       |                       |
| |                                                                                                                                                                                                                                                                                                                                                                                                                                                                                                                                                                                                                                                                                                                                                                                                                                                                                                                                                                                                                                                                                    |                                           | |                                       |                       |
| | En otro escrito, el demandante decía: "a mí, el señor Provisor^([2]) por fuerza y contra mi voluntad, hoy martes", tomó a Catalina de Arévalo, depositándola en casa de Juan de Aguilar, alcalde ordinario de esta Villa. Suplica al alcalde mayor que mande se la entreguen libremente porque está casado con ella.                                                                                                                                                                                                                                                                                                                                                                                                                                                                                                                                                                                                                                                                                                                                                               |                                           | |                                       |                       |
| |                                                                                                                                                                                                                                                                                                                                                                                                                                                                                                                                                                                                                                                                                                                                                                                                                                                                                                                                                                                                                                                                                    |                                           | |                                       |                       |
| | Pedro de Vivanco presentó por testigos a Diego de Almodóvar, a Juan Ruiz y a Pero Sánchez, vecinos de Colima.                                                                                                                                                                                                                                                                                                                                                                                                                                                                                                                                                                                                                                                                                                                                                                                                                                                                                                                                                                      |                                           | |                                       |                       |
| |                                                                                                                                                                                                                                                                                                                                                                                                                                                                                                                                                                                                                                                                                                                                                                                                                                                                                                                                                                                                                                                                                    |                                           | |                                       |                       |
| | Se presenta una carta del Provisor de Michoacán, fechada en Mechuacan a 22 de enero de 1552 y dirigida a Alonso Sánchez de Miranda,^([3]) en la que se lee: "Esta será sólo para hacer saber a V. m., cómo me han hecho relación que, porque Pedro de Vivanco se casó con Catalina de Arévalo sin consentimiento de Francisco Preciado, y estando ya averiguado el matrimonio entre ellos todavía no le quiere dar al dicho Pedro de Vivanco a la dicha su esposa, antes dicen que la tienen en casa de doña Beatriz López. Si es así que el dicho matrimonio entre ellos está averiguado, V.m. provea con justicia cómo al dicho Pedro de Vivanco se le dé y entregue la dicha su esposa; y, para ello, si necesario fuere, proceda con penas y censuras de excomunión mayor, hasta poner entredicho y invocar el auxilio secular, contra cualesquiera personas que resistieren y fueren rebeldes e contumaces, para todo lo cual y por todo lo a ello necesario y concerniente, le doy a V.m. poder y facultad cumplido según que de derecho se requiere y le cometo mis veces". |                                           | |                                       |                       |
| |                                                                                                                                                                                                                                                                                                                                                                                                                                                                                                                                                                                                                                                                                                                                                                                                                                                                                                                                                                                                                                                                                    |                                           | |                                       |                       |
| | Pedro de Vivanco pide al escribano Diego Veedor que le dé testimonio público, lo cual hizo el susodicho, quien dice cómo ante él y otros muchos vecinos de esta Villa, "vide desposar a los dichos Pedro de Vivanco e Catalina de Arévalo, a los cuales desposó el Vicario Alonso de Miranda". Agrega, entre otras cosas, que en la boda estuvieron presentes Francisco Preciado y Elvira de Arévalo, y que en el día en el que da este testimonio, hallándose doña Catalina junto a doña Beatriz López en la iglesia, se presentó Pedro de Vivanco a pedir que le entregasen a su esposa, a lo cual respondió doña Beatriz tomando a la susodicha y saliéndose de la iglesia, y que el Provisor pronunció cierto auto mandando depositar a doña Catalina en casa del alcalde Juan de Aguilar.                                                                                                                                                                                                                                                                                     |                                           | |                                       |                       |
| |                                                                                                                                                                                                                                                                                                                                                                                                                                                                                                                                                                                                                                                                                                                                                                                                                                                                                                                                                                                                                                                                                    |                                           | |                                       |                       |
| | Dieron su testimonio también otros vecinos. Juan Ruiz dice que estuvo presente cuando se casaron Pedro de Vivanco y Catalina de Arévalo en casa de Beatriz López, "y este testigo comió de la fruta que en el dicho desposorio se dio", y que fue el Vicario Alonso Sánchez de Miranda quien los casó, estando presentes muchos vecinos de la Villa de Colima, entre ellos el propio Francisco Preciado y Elvira de Arévalo, madre de doña Catalina. Que ahora, Pedro de Vivanco reclamó su mujer a doña Beatriz, quien no quiso dársela, sino que se salió con ella fuera de la iglesia, y que cuando Vivanco la quiso tomar, el Provisor de Michoacán no se lo consintió, mandándola depositar en casa de doña Beatriz, a lo que protestó Vivanco diciendo que mejor la depositase en casa de Juan de Aguilar. Pero Sánchez, otro de los testigos, confirmó los hechos.                                                                                                                                                                                                          |                                           | |                                       |                       |
| |                                                                                                                                                                                                                                                                                                                                                                                                                                                                                                                                                                                                                                                                                                                                                                                                                                                                                                                                                                                                                                                                                    |                                           | |                                       |                       |
| | Pedro de Vivanco pidió entonces al alcalde mayor que, como Su Merced no era letrado, remitiese la causa al licenciado Lebrón de Quiñones,^([4]) cosa que concedió el alcalde mayor.                                                                                                                                                                                                                                                                                                                                                                                                                                                                                                                                                                                                                                                                                                                                                                                                                                                                                                |                                           | |                                       |                       |
| |                                                                                                                                                                                                                                                                                                                                                                                                                                                                                                                                                                                                                                                                                                                                                                                                                                                                                                                                                                                                                                                                                    |                                           | |                                       |                       |
| | Caja A–2, exp. 5, 7 ff.                                                                                                                                                                                                                                                                                                                                                                                                                                                                                                                                                                                                                                                                                                                                                                                                                                                                                                                                                                                                                                                            |                                           | |                                       |                       |
| |                                                                                                                                                                                                                                                                                                                                                                                                                                                                                                                                                                                                                                                                                                                                                                                                                                                                                                                                                                                                                                                                                    |                                           | |                                       |                       |
| |                                                                                                                                                                                                                                                                                                                                                                                                                                                                                                                                                                                                                                                                                                                                                                                                                                                                                                                                                                                                                                                                                    |                                           | |                                       |                       |
| |                                                                                                                                                                                                                                                                                                                                                                                                                                                                                                                                                                                                                                                                                                                                                                                                                                                                                                                                                                                                                                                                                    |                                           | |                                       |                       |
| | ---------------                                                                                                                                                                                                                                                                                                                                                                                                                                                                                                                                                                                                                                                                                                                                                                                                                                                                                                                                                                                                                                                                    |                                           | |                                       |                       |
| |                                                                                                                                                                                                                                                                                                                                                                                                                                                                                                                                                                                                                                                                                                                                                                                                                                                                                                                                                                                                                                                                                    |                                           | |                                       |                       |
| | (1) No era padre sino padrastro. Catalina era hija de Diego Garrido y Elvira de Arévalo.                                                                                                                                                                                                                                                                                                                                                                                                                                                                                                                                                                                                                                                                                                                                                                                                                                                                                                                                                                                           |                                           | |                                       |                       |
| |                                                                                                                                                                                                                                                                                                                                                                                                                                                                                                                                                                                                                                                                                                                                                                                                                                                                                                                                                                                                                                                                                    |                                           | |                                       |                       |
| | (2) En ausencia de don Vasco de Quiroga que había viajado a España, quedó al frente del obispado de Michoacán, su provisor, el bachiller Juan García Zurnero, quien, a juicio del oidor Lebrón de Quiñones, era "la principal causa de tanta desorden por ser el principal que lo ha usado en aquel obispado y así, no sólo disimula los delitos de los clérigos, pero los sustenta y provée de nuevo en el dicho obispado": Lebrón (1979), 70.                                                                                                                                                                                                                                                                                                                                                                                                                                                                                                                                                                                                                                    |                                           | |                                       |                       |
| |                                                                                                                                                                                                                                                                                                                                                                                                                                                                                                                                                                                                                                                                                                                                                                                                                                                                                                                                                                                                                                                                                    |                                           | |                                       |                       |
| | (3) A la sazón, cura y vicario de la Villa de Colima.                                                                                                                                                                                                                                                                                                                                                                                                                                                                                                                                                                                                                                                                                                                                                                                                                                                                                                                                                                                                                              |                                           | |                                       |                       |
| |                                                                                                                                                                                                                                                                                                                                                                                                                                                                                                                                                                                                                                                                                                                                                                                                                                                                                                                                                                                                                                                                                    |                                           | |                                       |                       |
| | (4) Oidor de la Nueva Galicia. Poco después de este reclamo de Pedro de Vivanco, el oidor vendría a Colima en calidad de visitador real dejando una importante Relación de la que hubo dos textos: una extensa que se perdió en la mar, y una Breve y sumaria (1554) que se ha conservado hasta nuestros días. Lebrón era originario de la isla de Santo Domingo, hijo del también oidor de la Real Audiencia de Santo Domingo. Más datos, en: Romero de Solís, Andariegos y pobladores... (2001), 238-241.                                                                                                                                                                                                                                                                                                                                                                                                                                                                                                                                                                        |                                           | |                                       |                       |
| +------------------------------------------------------------------------------------------------------------------------------------------------------------------------------------------------------------------------------------------------------------------------------------------------------------------------------------------------------------------------------------------------------------------------------------------------------------------------------------------------------------------------------------------------------------------------------------------------------------------------------------------------------------------------------------------------------------------------------------------------------------------------------------------------------------------------------------------------------------------------------------------------------------------------------------------------------------------------------------------------------------------------------------------------------------------------------------+-------------------------------------------+ |                                       |                       |
|                                                                                                                                                                                                                                                                                                                                                                                                                                                                                                                                                                                                                                                                                                                                                                                                                                                                                                                                                                                                                                                                                                                                    |                                       |                       |
|   ---------------------------------------------------------------------------------------------------                                                                                                                                                                                                                                                                                                                                                                                                                                                                                                                                                                                                                                                                                                                                                                                                                                                                                                                                                                                                                              |                                       |                       |
|    Documento(s) original(es)                                                                                                                                                                                                                                                                                                                                                                                                                                                                                                                                                                                                                                                                                                                                                                                                                                                                                                                                                                                                                                                                                                       |                                       |                       |
|   --------------------------- ------- ------- ------- ------- ------- ------- ------- ------- -------                                                                                                                                                                                                                                                                                                                                                                                                                                                                                                                                                                                                                                                                                                                                                                                                                                                                                                                                                                                                                              |                                       |                       |
|               []                []      []      []      []      []      []      []      []      []                                                                                                                                                                                                                                                                                                                                                                                                                                                                                                                                                                                                                                                                                                                                                                                                                                                                                                                                                                                                                                 |                                       |                       |
|               1F                1V      2F      2V      3F      3V      4F      4V      5F      5V                                                                                                                                                                                                                                                                                                                                                                                                                                                                                                                                                                                                                                                                                                                                                                                                                                                                                                                                                                                                                                 |                                       |                       |
|                                                                                                                                                                                                                                                                                                                                                                                                                                                                                                                                                                                                                                                                                                                                                                                                                                                                                                                                                                                                                                                                                                                                    |                                       |                       |
|               []                []      []      []                                                                                                                                                                                                                                                                                                                                                                                                                                                                                                                                                                                                                                                                                                                                                                                                                                                                                                                                                                                                                                                                                 |                                       |                       |
|               6F                6V      7F      7V                                                                                                                                                                                                                                                                                                                                                                                                                                                                                                                                                                                                                                                                                                                                                                                                                                                                                                                                                                                                                                                                                 |                                       |                       |
|   ---------------------------------------------------------------------------------------------------                                                                                                                                                                                                                                                                                                                                                                                                                                                                                                                                                                                                                                                                                                                                                                                                                                                                                                                                                                                                                              |                                       |                       |
+------------------------------------------------------------------------------------------------------------------------------------------------------------------------------------------------------------------------------------------------------------------------------------------------------------------------------------------------------------------------------------------------------------------------------------------------------------------------------------------------------------------------------------------------------------------------------------------------------------------------------------------------------------------------------------------------------------------------------------------------------------------------------------------------------------------------------------------------------------------------------------------------------------------------------------------------------------------------------------------------------------------------------------------------------------------------------------------------------------------------------------+---------------------------------------+-----------------------+
| Proyecto interinstitucional del Archivo Histórico del Municipio de Colima y la Universidad de Colima,                                                                                                                                                                                                                                                                                                                                                                                                                                                                                                                                                                                                                                                                                                                                                                                                                                                                                                                                                                                                                              |                                       |                       |
| realizado bajo los auspicios del fondo Ramón Álvarez-Buylla de Aldana.                                                                                                                                                                                                                                                                                                                                                                                                                                                                                                                                                                                                                                                                                                                                                                                                                                                                                                                                                                                                                                                             |                                       |                       |
|                                                                                                                                                                                                                                                                                                                                                                                                                                                                                                                                                                                                                                                                                                                                                                                                                                                                                                                                                                                                                                                                                                                                    |                                       |                       |
| ------------------------------------------------------------------------                                                                                                                                                                                                                                                                                                                                                                                                                                                                                                                                                                                                                                                                                                                                                                                                                                                                                                                                                                                                                                                           |                                       |                       |
|                                                                                                                                                                                                                                                                                                                                                                                                                                                                                                                                                                                                                                                                                                                                                                                                                                                                                                                                                                                                                                                                                                                                    |                                       |                       |
| ISBN 978-968-7412-85-6                                                                                                                                                                                                                                                                                                                                                                                                                                                                                                                                                                                                                                                                                                                                                                                                                                                                                                                                                                                                                                                                                                             |                                       |                       |
| ® Derechos Reservados 2008. Archivo Histórico del Municipio de Colima.                                                                                                                                                                                                                                                                                                                                                                                                                                                                                                                                                                                                                                                                                                                                                                                                                                                                                                                                                                                                                                                             |                                       |                       |
+------------------------------------------------------------------------------------------------------------------------------------------------------------------------------------------------------------------------------------------------------------------------------------------------------------------------------------------------------------------------------------------------------------------------------------------------------------------------------------------------------------------------------------------------------------------------------------------------------------------------------------------------------------------------------------------------------------------------------------------------------------------------------------------------------------------------------------------------------------------------------------------------------------------------------------------------------------------------------------------------------------------------------------------------------------------------------------------------------------------------------------+---------------------------------------+-----------------------+

1,078 visitas
