[]

LA VILLA DE COLIMA DE LA NUEVA ESPAÑA
SIGLO XVI

VOLUMEN I      (CAJAS 1-11)

[]

Inicio | Búsquedas | Siglas y bibliografía | Cartografía | Créditos | Más información

[]

Búsqueda rápida

+:-----------------------------------------------------------------------------------------------------------------------------------------------------------------------------------------------------------------------------------------------------------------------------------------------------------------------------------------------------------------------------------------------------------------------------------------------------------------------------------------------------------------------------------------------------------------------------------------------------------------------------------------------------------------------------------------------------------------------------------------------------------------------------------------------------------:+------------------------------------------:+
| Fecha:                                                                                                                                                                                                                                                                                                                                                                                                                                                                                                                                                                                                                                                                                                                                                                                                      | Ubicación física del documento original:  |
| 1555 Febrero, 16                                                                                                                                                                                                                                                                                                                                                                                                                                                                                                                                                                                                                                                                                                                                                                                            | CAJA A-2, EXP. 13, 17 FF.                 |
|                                                                                                                                                                                                                                                                                                                                                                                                                                                                                                                                                                                                                                                                                                                                                                                                             | Archivo Histórico del Municipio de Colima |
+-------------------------------------------------------------------------------------------------------------------------------------------------------------------------------------------------------------------------------------------------------------------------------------------------------------------------------------------------------------------------------------------------------------------------------------------------------------------------------------------------------------------------------------------------------------------------------------------------------------------------------------------------------------------------------------------------------------------------------------------------------------------------------------------------------------+-------------------------------------------+
| 46. 1555. Febrero, 16.                                                                                                                                                                                                                                                                                                                                                                                                                                                                                                                                                                                                                                                                                                                                                                                      |                                           |
|                                                                                                                                                                                                                                                                                                                                                                                                                                                                                                                                                                                                                                                                                                                                                                                                             |                                           |
| Pedro de Vivanco pide que Francisco Preciado haga cuentas con él y le dé posesión de los bienes que le corresponden a Catalina de Arévalo, su mujer, por fallecimiento de su madre.                                                                                                                                                                                                                                                                                                                                                                                                                                                                                                                                                                                                                         |                                           |
|                                                                                                                                                                                                                                                                                                                                                                                                                                                                                                                                                                                                                                                                                                                                                                                                             |                                           |
| Ante el alcalde ordinario Juan Fernández El Viejo, Pedro de Vivanco, en nombre de su esposa Catalina de Arévalo, hija de Diego Garrido y Elvira de Arévalo, difuntos, por cuanto ha fallecido su suegra y su esposa es una de ocho herederos,^([1]) y le corresponde por tanto una ochava parte de los bienes que quedaron de su madre, pide que Francisco Preciado, en cuyo poder están esos bienes, se asiente a cuentas con él en lo que toca a los bienes muebles, y en lo que respecta a los raíces, como son las casas donde Preciado mora, y dos huertas de cacao que están en los términos de Epatlan, dé el alcalde su mandamiento "para tomar la posesión de la parte que de las dichas heredades pertenesce a la dicha Catalina de Arévalo, su mujer".                                           |                                           |
|                                                                                                                                                                                                                                                                                                                                                                                                                                                                                                                                                                                                                                                                                                                                                                                                             |                                           |
| Pedro de Vivanco presentó el poder que su esposa le había otorgado ante el escribano Juan de la Torre, fechado en Colima a 14 de febrero del mismo año, siendo testigos García Garcés, Pero Sánchez y Juan Aguado.^([2])                                                                                                                                                                                                                                                                                                                                                                                                                                                                                                                                                                                    |                                           |
|                                                                                                                                                                                                                                                                                                                                                                                                                                                                                                                                                                                                                                                                                                                                                                                                             |                                           |
| El alcalde dio mandamiento a Francisco Preciado para que en el término de nueve días hiciera cuentas con Vivanco.                                                                                                                                                                                                                                                                                                                                                                                                                                                                                                                                                                                                                                                                                           |                                           |
|                                                                                                                                                                                                                                                                                                                                                                                                                                                                                                                                                                                                                                                                                                                                                                                                             |                                           |
| El 25 de febrero, Preciado respondió: "Digo que ya es notorio como en esta Provincia no hay letrado, y por no haber los términos del derecho", podría ser afectado, en consecuencia pedía "me mande dar término de abogado para que yo pueda alegar lo que me conviene".                                                                                                                                                                                                                                                                                                                                                                                                                                                                                                                                    |                                           |
|                                                                                                                                                                                                                                                                                                                                                                                                                                                                                                                                                                                                                                                                                                                                                                                                             |                                           |
| El alcalde denegó esta petición, "porque en cosas de herencia no se sufre tanta dilación".                                                                                                                                                                                                                                                                                                                                                                                                                                                                                                                                                                                                                                                                                                                  |                                           |
|                                                                                                                                                                                                                                                                                                                                                                                                                                                                                                                                                                                                                                                                                                                                                                                                             |                                           |
| Notificado Preciado, apeló ante la Real Audiencia. Sin embargo, con una petición acudió ante el alcalde mayor, quien después de recibirla y ver que la causa estaba apelada ante la Real Audiencia, se desistió de ella.                                                                                                                                                                                                                                                                                                                                                                                                                                                                                                                                                                                    |                                           |
|                                                                                                                                                                                                                                                                                                                                                                                                                                                                                                                                                                                                                                                                                                                                                                                                             |                                           |
| Por este motivo y porque estaba preso, Preciado decía que no podría seguir su apelación y, por tanto, él también se desistía de su apelación y pedía justicia ante el alcalde mayor.                                                                                                                                                                                                                                                                                                                                                                                                                                                                                                                                                                                                                        |                                           |
|                                                                                                                                                                                                                                                                                                                                                                                                                                                                                                                                                                                                                                                                                                                                                                                                             |                                           |
| Una vez aceptada ésta, Preciado negó el derecho de Vivanco para solicitar cosa alguna, porque en vida todavía de Elvira de Arévalo, ya le habían dado lo que les correspondía, cosa que niega terminántemente Pedro de Vivanco. Acepta que su suegra dio algunas cosas a su hija, pero no como anticipo de la herencia sino de buena voluntad de madre a hija, y sobre lo que dice Preciado que le dieron la ochava parte de las huertas de cacao, no hay tal sino que aquéllo se le dio para que se retirara de cierto pleito que contra él trataba, y también porque Catalina era la única y legítima heredera de Diego Garrido, y que los pueblos que él tenía encomendados pasaron a ella como hija de conquistador, y eso consta por las escrituras que entre él y Preciado se hicieron en su momento. |                                           |
|                                                                                                                                                                                                                                                                                                                                                                                                                                                                                                                                                                                                                                                                                                                                                                                                             |                                           |
| El 6 de marzo, por ausencia del escribano Juan de la Torre, el alcalde mayor nombró para tal oficio a Francisco de Cepeda.                                                                                                                                                                                                                                                                                                                                                                                                                                                                                                                                                                                                                                                                                  |                                           |
|                                                                                                                                                                                                                                                                                                                                                                                                                                                                                                                                                                                                                                                                                                                                                                                                             |                                           |
| Por otra parte, Preciado recusó al alcalde Bartolomé Garrido y tuvo que tomar el caso el alcalde Juan Fernández El Viejo.                                                                                                                                                                                                                                                                                                                                                                                                                                                                                                                                                                                                                                                                                   |                                           |
|                                                                                                                                                                                                                                                                                                                                                                                                                                                                                                                                                                                                                                                                                                                                                                                                             |                                           |
| Caja A–2, exp. 13, 17 ff.                                                                                                                                                                                                                                                                                                                                                                                                                                                                                                                                                                                                                                                                                                                                                                                   |                                           |
|                                                                                                                                                                                                                                                                                                                                                                                                                                                                                                                                                                                                                                                                                                                                                                                                             |                                           |
|                                                                                                                                                                                                                                                                                                                                                                                                                                                                                                                                                                                                                                                                                                                                                                                                             |                                           |
|                                                                                                                                                                                                                                                                                                                                                                                                                                                                                                                                                                                                                                                                                                                                                                                                             |                                           |
| ---------------                                                                                                                                                                                                                                                                                                                                                                                                                                                                                                                                                                                                                                                                                                                                                                                             |                                           |
|                                                                                                                                                                                                                                                                                                                                                                                                                                                                                                                                                                                                                                                                                                                                                                                                             |                                           |
| (1) Catalina era hija única del primer matrimonio de Elvira de Arévalo, recientemente fallecida, que lo había sido con Diego Garrido. Los restantes herederos eran sus medios hermanos, habidos del matrimonio de Elvira con Francisco Preciado.                                                                                                                                                                                                                                                                                                                                                                                                                                                                                                                                                            |                                           |
|                                                                                                                                                                                                                                                                                                                                                                                                                                                                                                                                                                                                                                                                                                                                                                                                             |                                           |
| (2) Única referencia de Aguado, del que no se especifica su calidad.                                                                                                                                                                                                                                                                                                                                                                                                                                                                                                                                                                                                                                                                                                                                        |                                           |
+-------------------------------------------------------------------------------------------------------------------------------------------------------------------------------------------------------------------------------------------------------------------------------------------------------------------------------------------------------------------------------------------------------------------------------------------------------------------------------------------------------------------------------------------------------------------------------------------------------------------------------------------------------------------------------------------------------------------------------------------------------------------------------------------------------------+-------------------------------------------+

Documento(s) original(es)

Archivo no encontrado (CAJAS/CAJA2/EXP13/008F.jpg)

Archivo no encontrado (CAJAS/CAJA2/EXP13/014V.jpg)

[]
1F

[]
1V

[]
2F

[]
2V

[]
3F

[]
3V

[]
4F

[]
4V

[]
5F

[]
5V

[]
6F

[]
6V

[]
7F

[]
7V

[]
8V

[]
9F

[]
9V

[]
10F

[]
10V

[]
11F

[]
11V

[]
12F

[]
12V

[]
13F

[]
13V

[]
14F

[]
15F

[]
15V

[]
16F

[]
16V

[]
17F

[]
17V

Proyecto interinstitucional del Archivo Histórico del Municipio de Colima y la Universidad de Colima,
realizado bajo los auspicios del fondo Ramón Álvarez-Buylla de Aldana.

------------------------------------------------------------------------

ISBN 978-968-7412-85-6
® Derechos Reservados 2008. Archivo Histórico del Municipio de Colima.

1,078 visitas
