+-------------------------------------------------------------------------------------------------------+---------------------------------------+-----------------------+
| []                                                                                                    | LA VILLA DE COLIMA DE LA NUEVA ESPAÑA | []                    |
|                                                                                                       | SIGLO XVI                             |                       |
|                                                                                                       |                                       |                       |
|                                                                                                       | VOLUMEN I      (CAJAS 1-11)           |                       |
+-------------------------------------------------------------------------------------------------------+---------------------------------------+-----------------------+
| Inicio | Búsquedas | Siglas y bibliografía | Cartografía | Créditos | Más información                 |                                       | []                    |
+-------------------------------------------------------------------------------------------------------+---------------------------------------+-----------------------+
| Búsqueda rápida                                                                                       |                                       |                       |
|                                                                                                       |                                       |                       |
|   ----------------------------------- -------------------------------------------                     |                                       |                       |
|                 Fecha:                   Ubicación física del documento original:                     |                                       |                       |
|             1558 Enero, 20                               CAJA A-3, EXP. 6, 14 FF.                     |                                       |                       |
|                                         Archivo Histórico del Municipio de Colima                     |                                       |                       |
|                                                                                                       |                                       |                       |
|                                                                                                       |                                       |                       |
|   ----------------------------------- -------------------------------------------                     |                                       |                       |
|                                                                                                       |                                       |                       |
|   --------------------------------------------------------------------------------------------------- |                                       |                       |
|    Documento(s) original(es)                                                                          |                                       |                       |
|   --------------------------- ------- ------- ------- ------- ------- ------- ------- ------- ------- |                                       |                       |
|               []                []      []      []      []      []      []      []      []      []    |                                       |                       |
|               1F                1V      2F      2V      3F      3V      4F      4V      5F      5V    |                                       |                       |
|                                                                                                       |                                       |                       |
|               []                []      []      []      []      []      []      []      []      []    |                                       |                       |
|               6F                6V      7F      7V      8F      8V      9F      9V      10F     10V   |                                       |                       |
|                                                                                                       |                                       |                       |
|               []                []      []      []      []      []      []      []                    |                                       |                       |
|               11F               11V     12F     12V     13F     13V     14F     14V                   |                                       |                       |
|   --------------------------------------------------------------------------------------------------- |                                       |                       |
+-------------------------------------------------------------------------------------------------------+---------------------------------------+-----------------------+
| Proyecto interinstitucional del Archivo Histórico del Municipio de Colima y la Universidad de Colima, |                                       |                       |
| realizado bajo los auspicios del fondo Ramón Álvarez-Buylla de Aldana.                                |                                       |                       |
|                                                                                                       |                                       |                       |
| ------------------------------------------------------------------------                              |                                       |                       |
|                                                                                                       |                                       |                       |
| ISBN 978-968-7412-85-6                                                                                |                                       |                       |
| ® Derechos Reservados 2008. Archivo Histórico del Municipio de Colima.                                |                                       |                       |
+-------------------------------------------------------------------------------------------------------+---------------------------------------+-----------------------+

1,078 visitas
