[]

LA VILLA DE COLIMA DE LA NUEVA ESPAÑA
SIGLO XVI

VOLUMEN I      (CAJAS 1-11)

[]

Inicio | Búsquedas | Siglas y bibliografía | Cartografía | Créditos | Más información

[]

Búsqueda rápida

+:---------------------------------------------------------------------------------------------------------------------------------------------------------------------------------------------------------------------------------------------------------------------------------------------------------------------------------------------------------------------------------------------------------------------------------------------------------------------------------------------------------------------------------------------------------------------------------------------------------------------------------------------------------------------------------------------------------------------------------------------------------------------------------------------------------------------------------------------------------------------------------------------------------------------------------------------------------------------------------------------------------------------------------------------------------------------------------------------------------------------------------------------------------------------------------------------------------------------------------------------------------------------------------------------------------------------------------------------------------------------------------------------------------------------------------------------------------------------------------------:+------------------------------------------:+
| Fecha:                                                                                                                                                                                                                                                                                                                                                                                                                                                                                                                                                                                                                                                                                                                                                                                                                                                                                                                                                                                                                                                                                                                                                                                                                                                                                                                                                                                                                                                                                  | Ubicación física del documento original:  |
| 1565 Diciembre, 11                                                                                                                                                                                                                                                                                                                                                                                                                                                                                                                                                                                                                                                                                                                                                                                                                                                                                                                                                                                                                                                                                                                                                                                                                                                                                                                                                                                                                                                                      | CAJA A-4, EXP. 15, FF. 1-18.              |
|                                                                                                                                                                                                                                                                                                                                                                                                                                                                                                                                                                                                                                                                                                                                                                                                                                                                                                                                                                                                                                                                                                                                                                                                                                                                                                                                                                                                                                                                                         | Archivo Histórico del Municipio de Colima |
+-----------------------------------------------------------------------------------------------------------------------------------------------------------------------------------------------------------------------------------------------------------------------------------------------------------------------------------------------------------------------------------------------------------------------------------------------------------------------------------------------------------------------------------------------------------------------------------------------------------------------------------------------------------------------------------------------------------------------------------------------------------------------------------------------------------------------------------------------------------------------------------------------------------------------------------------------------------------------------------------------------------------------------------------------------------------------------------------------------------------------------------------------------------------------------------------------------------------------------------------------------------------------------------------------------------------------------------------------------------------------------------------------------------------------------------------------------------------------------------------+-------------------------------------------+
| 103. 1565. Diciembre, 11.                                                                                                                                                                                                                                                                                                                                                                                                                                                                                                                                                                                                                                                                                                                                                                                                                                                                                                                                                                                                                                                                                                                                                                                                                                                                                                                                                                                                                                                               |                                           |
|                                                                                                                                                                                                                                                                                                                                                                                                                                                                                                                                                                                                                                                                                                                                                                                                                                                                                                                                                                                                                                                                                                                                                                                                                                                                                                                                                                                                                                                                                         |                                           |
| Ejecución de Andrés de Segura a Elvira Lorenzo, viuda de Domingo López.                                                                                                                                                                                                                                                                                                                                                                                                                                                                                                                                                                                                                                                                                                                                                                                                                                                                                                                                                                                                                                                                                                                                                                                                                                                                                                                                                                                                                 |                                           |
|                                                                                                                                                                                                                                                                                                                                                                                                                                                                                                                                                                                                                                                                                                                                                                                                                                                                                                                                                                                                                                                                                                                                                                                                                                                                                                                                                                                                                                                                                         |                                           |
| Ante Hernando de Gamboa, alcalde ordinario de la Villa de Colima, y el escribano Pero Ruiz, Andrés de Segura presentó una obligación de Domingo López y Elvira Lorenzo, su mujer, de plazo pasado, y pidió mandamiento de ejecución contra la susodicha "atento a que el dicho Domingo López es ya difunto". La carta de obligación otorgada el 4 de enero de 1565, ante el escribano Miguel Rodríguez y siendo testigos de ella Juan de la Torre, Pero Ruiz, Alonso de las Casas y Martín Gómez, era por 158 pesos de oro común que debían por "un conocimiento que contra nos teníades reconocido como sisonario [sic]^([1]) de García Rodríguez, vecino desta Villa".                                                                                                                                                                                                                                                                                                                                                                                                                                                                                                                                                                                                                                                                                                                                                                                                                |                                           |
|                                                                                                                                                                                                                                                                                                                                                                                                                                                                                                                                                                                                                                                                                                                                                                                                                                                                                                                                                                                                                                                                                                                                                                                                                                                                                                                                                                                                                                                                                         |                                           |
| El mismo día, el alcalde dio mandamiento al alguacil Juan Muñoz para que hiciera ejecución en los bienes de Elvira Lorenzo, nombrándose por bienes "unas casas que son en esta Villa, que son las que en que al presente vive". Fueron testigos Tomás Herades, Pedro de Ibiza y Bartolomé de Vilches. Al día siguiente, 12 de diciembre, "de pedimiento de Andrés de Segura anduvo en venta y en pública almoneda las casas de la morada de Elvira Lorenzo, viuda, que se venden por bienes ejecutados de la susodicha por voz de Diego, indio, pregonero nombrado para lo susodicho, lo cual se vendió en la plaza pública desta Villa delante de mucha gente e no paresció ponedor a ellas. Testigos: Juan Fernández El Viejo e Cristóbal de Solórzano, e Francisco Toscano e Andrés Toscano, vecinos desta Villa.                                                                                                                                                                                                                                                                                                                                                                                                                                                                                                                                                                                                                                                                    |                                           |
|                                                                                                                                                                                                                                                                                                                                                                                                                                                                                                                                                                                                                                                                                                                                                                                                                                                                                                                                                                                                                                                                                                                                                                                                                                                                                                                                                                                                                                                                                         |                                           |
| El 14 de diciembre, Andrés de Segura otorgó poder a favor de Baltasar de Alcalá, estante en la Villa de Colima, ante el escribano Pero Ruiz y los testigos Bartolomé Ruiz de Vilches y Alonso Martín, estantes. El 22 de nuevo se pregonaron las casas de Elvira Lorenzo "por lengua de Juan indio, pregonero para el efecto nombrado", no apareciendo ponedor alguno. Testigos: Pedro de la Puerta, Cristóbal de Silva y Álvaro de Grijalba. Pasó ante Diego López de Ayala, escribano nombrado.^([2]) El 31 de diciembre por voz de Diego, indio ladino, se gritó el último pregón; Antonio de Paredes puso precio a las casas de Elvira Lorenzo "en ciertos pesos de tipusque". Fueron testigos Bernaldino Cola, Pedro de Solórzano, Juan Fernández Ladrillero y Juan Martín, vecinos y estantes. El 11 de enero de 1566, ante el alcalde ordinario Juan Fernández, Baltasar de Alcalá pedía que por haber pasado el término de los pregones, se mandara hacer trance y remate. El 12 de enero, el escribano Miguel Rodríguez notificó a Elvira Lorenzo el auto de trance y remate.                                                                                                                                                                                                                                                                                                                                                                                                  |                                           |
|                                                                                                                                                                                                                                                                                                                                                                                                                                                                                                                                                                                                                                                                                                                                                                                                                                                                                                                                                                                                                                                                                                                                                                                                                                                                                                                                                                                                                                                                                         |                                           |
| El día 14, Elvira de Lorenzo otorgó poder ante el escribano Miguel Rodríguez y de Pedro de la Puerta, Juan Fernández y Julián de Frías, vecinos de Colima, en favor de su hijo Lázaro del Valle. El 21, y ante el mismo escribano, Lázaro del Valle sustituyó su poder en Juan de Aguilar, vecino de la Villa. El 26 se presentó un escrito por el que la parte demandada, "respondiendo a una notificación de un trance y remate", decía oponerse al mismo alegando entre otras cosas que "la obligación procede de juego". Dice que "aguardaron a venir a hacer esta dicha escriptura cuando el dicho Domingo López estaba muriéndose y sin sentido, y él no supo lo que se hizo y a mí no me habían dicho sino que no eran más de cincuenta pesos y que procedían de otra cosa, hasta después que el dicho difunto a cabo de cuatro o cinco días que mejoró un poco, me lo dijo como era de juego y que si él vivía que no los pagaría y que no supo lo que se hacía cuando hizo esta dicha escritura porque con la enfermedad estaba muy fatigado y sin sentido, porque dello murió de a pocos días y en efecto yo fui engañada porque no me dijeron que eran más de cincuenta pesos ni eran de juego, y por ser tan poca cantidad me había obligado con el dicho difunto por dalle contento a su enfermedad que no porque fuese de mi voluntad, y por otras muchas cosas que pienso probar y alegar a su tiempo y lugar". Pide a la justicia "mande dar la ejecución por ninguna". |                                           |
|                                                                                                                                                                                                                                                                                                                                                                                                                                                                                                                                                                                                                                                                                                                                                                                                                                                                                                                                                                                                                                                                                                                                                                                                                                                                                                                                                                                                                                                                                         |                                           |
| El alcalde Juan Fernández ordenó que diera información, para lo cual Lázaro del Valle presentó un interrogatorio para el examen de sus testigos.^([3])                                                                                                                                                                                                                                                                                                                                                                                                                                                                                                                                                                                                                                                                                                                                                                                                                                                                                                                                                                                                                                                                                                                                                                                                                                                                                                                                  |                                           |
|                                                                                                                                                                                                                                                                                                                                                                                                                                                                                                                                                                                                                                                                                                                                                                                                                                                                                                                                                                                                                                                                                                                                                                                                                                                                                                                                                                                                                                                                                         |                                           |
| Interrogatorio                                                                                                                                                                                                                                                                                                                                                                                                                                                                                                                                                                                                                                                                                                                                                                                                                                                                                                                                                                                                                                                                                                                                                                                                                                                                                                                                                                                                                                                                          |                                           |
|                                                                                                                                                                                                                                                                                                                                                                                                                                                                                                                                                                                                                                                                                                                                                                                                                                                                                                                                                                                                                                                                                                                                                                                                                                                                                                                                                                                                                                                                                         |                                           |
| "Si saben que el dicho Domingo López jugó muchas veces con el dicho Garci Rodríguez y con otras personas, vecinos desta dicha Villa, dineros y caballos y preseas y otras muchas cosas en mucha cantidad; digan lo que saben.                                                                                                                                                                                                                                                                                                                                                                                                                                                                                                                                                                                                                                                                                                                                                                                                                                                                                                                                                                                                                                                                                                                                                                                                                                                           |                                           |
|                                                                                                                                                                                                                                                                                                                                                                                                                                                                                                                                                                                                                                                                                                                                                                                                                                                                                                                                                                                                                                                                                                                                                                                                                                                                                                                                                                                                                                                                                         |                                           |
| "Iten, si saben que la obligación que presentó Andrés de Segura sobre que se hizo ejecución, procede del dicho conocimiento que el dicho mi marido había hecho al dicho Garci Rodríguez, y esto de una deuda.                                                                                                                                                                                                                                                                                                                                                                                                                                                                                                                                                                                                                                                                                                                                                                                                                                                                                                                                                                                                                                                                                                                                                                                                                                                                           |                                           |
|                                                                                                                                                                                                                                                                                                                                                                                                                                                                                                                                                                                                                                                                                                                                                                                                                                                                                                                                                                                                                                                                                                                                                                                                                                                                                                                                                                                                                                                                                         |                                           |
| "Iten, si saben que el dicho Domingo López, habiendo jurado con el dicho Garci Rodríguez y habiéndole ganado muchas veces, el dicho Domingo López le hacía cédulas por ello, por no podelle pagar lo que le ganaba en el juego al dicho Garci Rodríguez; digan lo que saben.                                                                                                                                                                                                                                                                                                                                                                                                                                                                                                                                                                                                                                                                                                                                                                                                                                                                                                                                                                                                                                                                                                                                                                                                            |                                           |
|                                                                                                                                                                                                                                                                                                                                                                                                                                                                                                                                                                                                                                                                                                                                                                                                                                                                                                                                                                                                                                                                                                                                                                                                                                                                                                                                                                                                                                                                                         |                                           |
| "Iten, si saben que el dicho Garci Rodríguez, no pudiendo cobrar lo que le debía el dicho Domingo López y no lo pudiendo cobrar de él, estando enfermo y a la muerte el dicho Domingo López, el dicho Garci Rodríguez lo entró a ver a manera de engaño y con cautela le dijo que se acordase que le debía ciertos dineros, los cuales procedían del juego que con él jugó, y que le hiciese escritura dellos, y él la hizo como hombre agravado de la enfermedad y su juicio trastornado della, y no supo lo que hizo; digan lo que sepan.                                                                                                                                                                                                                                                                                                                                                                                                                                                                                                                                                                                                                                                                                                                                                                                                                                                                                                                                             |                                           |
|                                                                                                                                                                                                                                                                                                                                                                                                                                                                                                                                                                                                                                                                                                                                                                                                                                                                                                                                                                                                                                                                                                                                                                                                                                                                                                                                                                                                                                                                                         |                                           |
| "Iten, si saben que es público y notorio en aquesta Villa todo lo susodicho".                                                                                                                                                                                                                                                                                                                                                                                                                                                                                                                                                                                                                                                                                                                                                                                                                                                                                                                                                                                                                                                                                                                                                                                                                                                                                                                                                                                                           |                                           |
|                                                                                                                                                                                                                                                                                                                                                                                                                                                                                                                                                                                                                                                                                                                                                                                                                                                                                                                                                                                                                                                                                                                                                                                                                                                                                                                                                                                                                                                                                         |                                           |
| El 17 de enero, Lázaro del Valle presentó por testigos a Antonio de Carvajal, Andrés García, Julián de Frías y Tomás de Almodóvar, vecinos de Colima, de quienes se recibió juramento conforme a derecho.                                                                                                                                                                                                                                                                                                                                                                                                                                                                                                                                                                                                                                                                                                                                                                                                                                                                                                                                                                                                                                                                                                                                                                                                                                                                               |                                           |
|                                                                                                                                                                                                                                                                                                                                                                                                                                                                                                                                                                                                                                                                                                                                                                                                                                                                                                                                                                                                                                                                                                                                                                                                                                                                                                                                                                                                                                                                                         |                                           |
| Antonio de Carvajal, de más de 30 años de edad, dijo que conocía a las partes desde hacía ocho años. Reconoce haber jugado con Domingo López y García Rodríguez y con otras muchas personas tanto dineros como preseas. Sabe que Domingo López le hizo a Rodríguez un conocimiento "a escondidas de su mujer", y que Garcí Rodríguez se lo dio a Segura "de ciertos caballos".                                                                                                                                                                                                                                                                                                                                                                                                                                                                                                                                                                                                                                                                                                                                                                                                                                                                                                                                                                                                                                                                                                          |                                           |
|                                                                                                                                                                                                                                                                                                                                                                                                                                                                                                                                                                                                                                                                                                                                                                                                                                                                                                                                                                                                                                                                                                                                                                                                                                                                                                                                                                                                                                                                                         |                                           |
| Julián de Frías por su parte dijo tener más de 25 años de edad y que vio jugar a Domingo y a García muchas veces "caballos, preseas e joyas". Dice que García le platicó que Domingo López le había hecho un conocimiento de ciento y tantos pesos, que pasó a Andrés de Segura; y que está cierto que López nunca lo iba a pagar porque procedía de juego.                                                                                                                                                                                                                                                                                                                                                                                                                                                                                                                                                                                                                                                                                                                                                                                                                                                                                                                                                                                                                                                                                                                             |                                           |
|                                                                                                                                                                                                                                                                                                                                                                                                                                                                                                                                                                                                                                                                                                                                                                                                                                                                                                                                                                                                                                                                                                                                                                                                                                                                                                                                                                                                                                                                                         |                                           |
| Tomás de Almodóvar, de más de 30 años de edad, dijo haber visto jugar a Domingo López y Rodríguez "muchos pesos de oro, caballos, preseas e otras cosas".                                                                                                                                                                                                                                                                                                                                                                                                                                                                                                                                                                                                                                                                                                                                                                                                                                                                                                                                                                                                                                                                                                                                                                                                                                                                                                                               |                                           |
|                                                                                                                                                                                                                                                                                                                                                                                                                                                                                                                                                                                                                                                                                                                                                                                                                                                                                                                                                                                                                                                                                                                                                                                                                                                                                                                                                                                                                                                                                         |                                           |
| Andrés García, de 24 años, dice haber visto jugar a Garcí Rodríguez y a Domingo López, y que éste "no sabía jugar".                                                                                                                                                                                                                                                                                                                                                                                                                                                                                                                                                                                                                                                                                                                                                                                                                                                                                                                                                                                                                                                                                                                                                                                                                                                                                                                                                                     |                                           |
|                                                                                                                                                                                                                                                                                                                                                                                                                                                                                                                                                                                                                                                                                                                                                                                                                                                                                                                                                                                                                                                                                                                                                                                                                                                                                                                                                                                                                                                                                         |                                           |
| A petición de la parte demandada presentada el 25 de enero, Andrés de Segura reconoció el 8 de febrero haber recibido de Garci Rodríguez un conocimiento firmado por Diego López, y que habiéndole preguntado si procedía la deuda de juego, Rodríguez bajo juramente le dijo que de ellos solamente 50 pesos eran del juego.                                                                                                                                                                                                                                                                                                                                                                                                                                                                                                                                                                                                                                                                                                                                                                                                                                                                                                                                                                                                                                                                                                                                                           |                                           |
|                                                                                                                                                                                                                                                                                                                                                                                                                                                                                                                                                                                                                                                                                                                                                                                                                                                                                                                                                                                                                                                                                                                                                                                                                                                                                                                                                                                                                                                                                         |                                           |
| El 2 de marzo, el alcalde Fernández nombró por asesor de la causa al licenciado Monroy. Andrés de Segura protestó esta decisión que le causaba agravio y apeló de la misma ante el alcalde mayor Alonso Sánchez de Figueroa, quien dijo que no había lugar para remitir la causa a un asesor letrado y debía juzgarse sumariamente.                                                                                                                                                                                                                                                                                                                                                                                                                                                                                                                                                                                                                                                                                                                                                                                                                                                                                                                                                                                                                                                                                                                                                     |                                           |
|                                                                                                                                                                                                                                                                                                                                                                                                                                                                                                                                                                                                                                                                                                                                                                                                                                                                                                                                                                                                                                                                                                                                                                                                                                                                                                                                                                                                                                                                                         |                                           |
| Juan Fernández dictó entonces sentencia a favor de Andrés de Segura, mandando avivar la voz de trance y remate, siendo pregonero Juan de Berlanda, indio, que decía: "Cien pesos dan por las casas; si hay quien puje, si hay quién dé más, y andando en el dicho pregón paresció Pedro de Bobadilla e puso las dichas casas en cien y diez pesos". No habiendo más ponedores, fueron rematadas las casas de Elvira Lorenzo en Bobadilla. Fueron testigos Antonio de Paredes, Suero Vázquez y Baltasar de Alcalá.                                                                                                                                                                                                                                                                                                                                                                                                                                                                                                                                                                                                                                                                                                                                                                                                                                                                                                                                                                       |                                           |
|                                                                                                                                                                                                                                                                                                                                                                                                                                                                                                                                                                                                                                                                                                                                                                                                                                                                                                                                                                                                                                                                                                                                                                                                                                                                                                                                                                                                                                                                                         |                                           |
| Caja A–4, exp. 15, ff. 1-18.                                                                                                                                                                                                                                                                                                                                                                                                                                                                                                                                                                                                                                                                                                                                                                                                                                                                                                                                                                                                                                                                                                                                                                                                                                                                                                                                                                                                                                                            |                                           |
|                                                                                                                                                                                                                                                                                                                                                                                                                                                                                                                                                                                                                                                                                                                                                                                                                                                                                                                                                                                                                                                                                                                                                                                                                                                                                                                                                                                                                                                                                         |                                           |
|                                                                                                                                                                                                                                                                                                                                                                                                                                                                                                                                                                                                                                                                                                                                                                                                                                                                                                                                                                                                                                                                                                                                                                                                                                                                                                                                                                                                                                                                                         |                                           |
|                                                                                                                                                                                                                                                                                                                                                                                                                                                                                                                                                                                                                                                                                                                                                                                                                                                                                                                                                                                                                                                                                                                                                                                                                                                                                                                                                                                                                                                                                         |                                           |
| ---------------                                                                                                                                                                                                                                                                                                                                                                                                                                                                                                                                                                                                                                                                                                                                                                                                                                                                                                                                                                                                                                                                                                                                                                                                                                                                                                                                                                                                                                                                         |                                           |
|                                                                                                                                                                                                                                                                                                                                                                                                                                                                                                                                                                                                                                                                                                                                                                                                                                                                                                                                                                                                                                                                                                                                                                                                                                                                                                                                                                                                                                                                                         |                                           |
| (1) Por cesonario o cesionario: persona en cuyo favor se hace alguna cesión. También es posible entender la paslabra como "censatario", el obligado a pagar los réditos o corridos de un censo.                                                                                                                                                                                                                                                                                                                                                                                                                                                                                                                                                                                                                                                                                                                                                                                                                                                                                                                                                                                                                                                                                                                                                                                                                                                                                         |                                           |
|                                                                                                                                                                                                                                                                                                                                                                                                                                                                                                                                                                                                                                                                                                                                                                                                                                                                                                                                                                                                                                                                                                                                                                                                                                                                                                                                                                                                                                                                                         |                                           |
| (2) Curiosamente este auto se repite en la foja anterior, al reverso, pero dando fe del mismo el escribano Pero Ruiz; sin embargo está tachado.                                                                                                                                                                                                                                                                                                                                                                                                                                                                                                                                                                                                                                                                                                                                                                                                                                                                                                                                                                                                                                                                                                                                                                                                                                                                                                                                         |                                           |
|                                                                                                                                                                                                                                                                                                                                                                                                                                                                                                                                                                                                                                                                                                                                                                                                                                                                                                                                                                                                                                                                                                                                                                                                                                                                                                                                                                                                                                                                                         |                                           |
| (3) A través del cuestionario que presenta Lázaro del Valle para examinar a los testigos, tenemos la posibilidad de adentrarnos en una faceta más de la vida cotidiana en la Villa de Colima: el juego y las apuestas que, por lo que se puede ver, alcanzaban en ocasiones niveles que afectaban gravemente la economía familiar.                                                                                                                                                                                                                                                                                                                                                                                                                                                                                                                                                                                                                                                                                                                                                                                                                                                                                                                                                                                                                                                                                                                                                      |                                           |
+-----------------------------------------------------------------------------------------------------------------------------------------------------------------------------------------------------------------------------------------------------------------------------------------------------------------------------------------------------------------------------------------------------------------------------------------------------------------------------------------------------------------------------------------------------------------------------------------------------------------------------------------------------------------------------------------------------------------------------------------------------------------------------------------------------------------------------------------------------------------------------------------------------------------------------------------------------------------------------------------------------------------------------------------------------------------------------------------------------------------------------------------------------------------------------------------------------------------------------------------------------------------------------------------------------------------------------------------------------------------------------------------------------------------------------------------------------------------------------------------+-------------------------------------------+

Documento(s) original(es)

Archivo no encontrado (CAJAS/CAJA4/EXP15/009V.jpg)

Archivo no encontrado (CAJAS/CAJA4/EXP15/012V.jpg)

[]
1F

[]
1V

[]
2F

[]
2V

[]
3F

[]
3V

[]
4F

[]
4V

[]
5F

[]
5V

[]
6F

[]
6V

[]
7F

[]
7V

[]
8F

[]
8V

[]
9F

[]
10F

[]
10V

[]
11F

[]
11V

[]
12F

[]
13F

[]
13V

[]
14F

[]
14V

[]
15F

[]
15V

[]
16F

[]
16V

[]
17F

[]
17V

[]
18F

[]
18V

Proyecto interinstitucional del Archivo Histórico del Municipio de Colima y la Universidad de Colima,
realizado bajo los auspicios del fondo Ramón Álvarez-Buylla de Aldana.

------------------------------------------------------------------------

ISBN 978-968-7412-85-6
® Derechos Reservados 2008. Archivo Histórico del Municipio de Colima.

1,078 visitas
