+---------------------------------------------------------------------------------------------------------------------------------------------------------------------------------------------------------------------------------------------------------------------------------------------------------------------------------------------------------------------------------------------------------------------------------------------------------------------------------------------------------------------------------------------------------------------------------------------------------------------------------------------------------------------------------------------------------------------------------------------------------------------------------------------------------------------------------------------------------------------------------------------------------------------------------------------------------------------------------------------------------------------------------------------------------------------------------------------------------------------------------------------------------------------------------------------------------------------------------------------------------------------------------------------------------------------------------+---------------------------------------+-----------------------+
| []                                                                                                                                                                                                                                                                                                                                                                                                                                                                                                                                                                                                                                                                                                                                                                                                                                                                                                                                                                                                                                                                                                                                                                                                                                                                                                                              | LA VILLA DE COLIMA DE LA NUEVA ESPAÑA | []                    |
|                                                                                                                                                                                                                                                                                                                                                                                                                                                                                                                                                                                                                                                                                                                                                                                                                                                                                                                                                                                                                                                                                                                                                                                                                                                                                                                                 | SIGLO XVI                             |                       |
|                                                                                                                                                                                                                                                                                                                                                                                                                                                                                                                                                                                                                                                                                                                                                                                                                                                                                                                                                                                                                                                                                                                                                                                                                                                                                                                                 |                                       |                       |
|                                                                                                                                                                                                                                                                                                                                                                                                                                                                                                                                                                                                                                                                                                                                                                                                                                                                                                                                                                                                                                                                                                                                                                                                                                                                                                                                 | VOLUMEN I      (CAJAS 1-11)           |                       |
+---------------------------------------------------------------------------------------------------------------------------------------------------------------------------------------------------------------------------------------------------------------------------------------------------------------------------------------------------------------------------------------------------------------------------------------------------------------------------------------------------------------------------------------------------------------------------------------------------------------------------------------------------------------------------------------------------------------------------------------------------------------------------------------------------------------------------------------------------------------------------------------------------------------------------------------------------------------------------------------------------------------------------------------------------------------------------------------------------------------------------------------------------------------------------------------------------------------------------------------------------------------------------------------------------------------------------------+---------------------------------------+-----------------------+
| Inicio | Búsquedas | Siglas y bibliografía | Cartografía | Créditos | Más información                                                                                                                                                                                                                                                                                                                                                                                                                                                                                                                                                                                                                                                                                                                                                                                                                                                                                                                                                                                                                                                                                                                                                                                                                                           |                                       | []                    |
+---------------------------------------------------------------------------------------------------------------------------------------------------------------------------------------------------------------------------------------------------------------------------------------------------------------------------------------------------------------------------------------------------------------------------------------------------------------------------------------------------------------------------------------------------------------------------------------------------------------------------------------------------------------------------------------------------------------------------------------------------------------------------------------------------------------------------------------------------------------------------------------------------------------------------------------------------------------------------------------------------------------------------------------------------------------------------------------------------------------------------------------------------------------------------------------------------------------------------------------------------------------------------------------------------------------------------------+---------------------------------------+-----------------------+
| Búsqueda rápida                                                                                                                                                                                                                                                                                                                                                                                                                                                                                                                                                                                                                                                                                                                                                                                                                                                                                                                                                                                                                                                                                                                                                                                                                                                                                                                 |                                       |                       |
|                                                                                                                                                                                                                                                                                                                                                                                                                                                                                                                                                                                                                                                                                                                                                                                                                                                                                                                                                                                                                                                                                                                                                                                                                                                                                                                                 |                                       |                       |
| +:-------------------------------------------------------------------------------------------------------------------------------------------------------------------------------------------------------------------------------------------------------------------------------------------------------------------------------------------------------------------------------------------------------------------------------------------------------------------------------------------------------------------------------------------------------------------------------------------------------------------------------------------------------------------------------------------------------------------------------------------------------------------------------------------------------------------------------------------------------------------------------------------------------------------------------------------------------------------------------------------------------------------------------------------------------------------------------------------------------------------------------------------------------------------------------------------------------------------------------------------------------------------------------:+------------------------------------------:+ |                                       |                       |
| | Fecha:                                                                                                                                                                                                                                                                                                                                                                                                                                                                                                                                                                                                                                                                                                                                                                                                                                                                                                                                                                                                                                                                                                                                                                                                                                                                          | Ubicación física del documento original:  | |                                       |                       |
| | 1564 Enero, 3                                                                                                                                                                                                                                                                                                                                                                                                                                                                                                                                                                                                                                                                                                                                                                                                                                                                                                                                                                                                                                                                                                                                                                                                                                                                   | CAJA A-4, EXP. 7, 3 FF.                   | |                                       |                       |
| |                                                                                                                                                                                                                                                                                                                                                                                                                                                                                                                                                                                                                                                                                                                                                                                                                                                                                                                                                                                                                                                                                                                                                                                                                                                                                 | Archivo Histórico del Municipio de Colima | |                                       |                       |
| +---------------------------------------------------------------------------------------------------------------------------------------------------------------------------------------------------------------------------------------------------------------------------------------------------------------------------------------------------------------------------------------------------------------------------------------------------------------------------------------------------------------------------------------------------------------------------------------------------------------------------------------------------------------------------------------------------------------------------------------------------------------------------------------------------------------------------------------------------------------------------------------------------------------------------------------------------------------------------------------------------------------------------------------------------------------------------------------------------------------------------------------------------------------------------------------------------------------------------------------------------------------------------------+-------------------------------------------+ |                                       |                       |
| | 91. 1564. Enero, 3.                                                                                                                                                                                                                                                                                                                                                                                                                                                                                                                                                                                                                                                                                                                                                                                                                                                                                                                                                                                                                                                                                                                                                                                                                                                             |                                           | |                                       |                       |
| |                                                                                                                                                                                                                                                                                                                                                                                                                                                                                                                                                                                                                                                                                                                                                                                                                                                                                                                                                                                                                                                                                                                                                                                                                                                                                 |                                           | |                                       |                       |
| | Melchor Pérez protesta por malos manejos en la elección del Cabildo.                                                                                                                                                                                                                                                                                                                                                                                                                                                                                                                                                                                                                                                                                                                                                                                                                                                                                                                                                                                                                                                                                                                                                                                                            |                                           | |                                       |                       |
| |                                                                                                                                                                                                                                                                                                                                                                                                                                                                                                                                                                                                                                                                                                                                                                                                                                                                                                                                                                                                                                                                                                                                                                                                                                                                                 |                                           | |                                       |                       |
| | "Melchor Pérez,^([1]) alcalde ordinario desta Villa de Colima, según consta por la elección que el Cabildo desta dicha Villa anteayer sábado, día de Año Nuevo deste presente año, se hizo ante Vuesa Merced, parezco en aquella vía e forma que más a mi derecho convenga, y digo que V.m. de hecho y contra todo derecho y leyes y ordenanzas y mandamientos de Su Majestad y de su Ilustrísimo señor Visorrey en su Real Nombre, V.m. me quitó la vara de alcalde ordinario no permitiendo se me diese, teniendo tres votos como tenía, porque de cinco regidores que se juntaron a hacer la dicha elección, tuve los tres como dicho tengo, y Diego de Velasco, persona a quien V.m. dio la vara, no tuvo más de dos votos".^([2])                                                                                                                                                                                                                                                                                                                                                                                                                                                                                                                                          |                                           | |                                       |                       |
| |                                                                                                                                                                                                                                                                                                                                                                                                                                                                                                                                                                                                                                                                                                                                                                                                                                                                                                                                                                                                                                                                                                                                                                                                                                                                                 |                                           | |                                       |                       |
| | Agrega: para dar la vara de alcalde a Diego de Velasco, anuló "V.m. el voto del dicho Juan Preciado, diciendo no podérmelo dar por ser mi yerno, lo cual niego no ser mi yerno el dicho Juan Preciado, ni tener ningún parentesco conmigo, como a V.m. consta y a todos los vecinos desta Villa, en lo cual me hizo notorio agravio y sin justicia y afrenta a mi persona, por tener como tengo los tres votos y el dicho Diego de Velasco dos; por lo cual pido y suplico a V.m. y, si necesario es, requiero con el acatamiento debido una e dos e tres veces y más las que de derecho me dan lugar, mande revocar y revoque y dar por ninguno lo que toca a dar la vara al dicho Diego de Velasco y luego, in continente, quitársela, y dármela y entregármela a mí, pues de derecho me viene por tener, como dicho tengo los tres votos, y el dicho Diego de Velasco dos".                                                                                                                                                                                                                                                                                                                                                                                                  |                                           | |                                       |                       |
| |                                                                                                                                                                                                                                                                                                                                                                                                                                                                                                                                                                                                                                                                                                                                                                                                                                                                                                                                                                                                                                                                                                                                                                                                                                                                                 |                                           | |                                       |                       |
| | Y añade: "Otrosí pido al presente escribano me dé por testimonio el mismo día de Año Nuevo que se hizo la dicha elección, fuimos a las casas y morada del dicho señor Alcalde Mayor Pedro de Arávalo, e Bernardino Cola y Juan Preciado e yo, el dicho Melchor Pérez, los cuales dicho Pedro de Arévalo e Bernardino Cola e Juan Preciado, como personas que fueron en darme los dichos votos, a pedir y requerir por un requerimiento firmado de sus nombres, me diese la vara de alcalde ordinario, pues había yo tenido tres votos y el dicho Diego de Velasco dos, y consigo llevaron al presente escribano e yo, el dicho Melchor Pérez, con otro requerimiento pidiendo me diese la dicha vara, y el dicho señor Alcalde Mayor no quiso que se leyesen ni los quiso oir, diciendo ser día feriado; que pidiesen el lunes lo que quisiesen que él haría justicia y estaba presto de la hacer y que por ser día feriado no los quería oir, que para eso estaba allí. Otrosí pido a vos, el dicho escribano, me déis por testimonio como el mismo día de Año Nuevo, estando en la dicha elección, con todos los regidores en el Cabildo juntos, recibió una petición presentada por Pedro de Vivanco e Andrés de Segura, e la oyó y proveyó lo pedido en la dicha petición". |                                           | |                                       |                       |
| |                                                                                                                                                                                                                                                                                                                                                                                                                                                                                                                                                                                                                                                                                                                                                                                                                                                                                                                                                                                                                                                                                                                                                                                                                                                                                 |                                           | |                                       |                       |
| | El 5 de enero, el alcalde mayor Diego Núñez de Guzmán habiendo visto esta petición y requerimiento, respondió: él no hizo agravio alguno a Melchor Pérez "porque si a Diego de Velasco, vecino desta Villa, se le dio la vara de alcalde ordinario de Su Majestad, fue porque salió elegido e nombrado por el dicho Cabildo".                                                                                                                                                                                                                                                                                                                                                                                                                                                                                                                                                                                                                                                                                                                                                                                                                                                                                                                                                   |                                           | |                                       |                       |
| |                                                                                                                                                                                                                                                                                                                                                                                                                                                                                                                                                                                                                                                                                                                                                                                                                                                                                                                                                                                                                                                                                                                                                                                                                                                                                 |                                           | |                                       |                       |
| | "Como parecerá por el dicho libro",^([3]) agrega el auto del alcalde mayor, "Diego de Velasco e otras personas que fueron elegidas en el dicho Cabildo, salieron con iguales votos; e que el dicho señor alcalde mayor, según a la facultad que tiene del Ilustrísimo señor Visorrey desta Nueva España, viendo la igualla que había de los votos, aceptó al dicho Diego de Velasco e Luis de Grijalba, atento a tener votos igualmente con el dicho Melchor Pérez; que decir el dicho Melchor Pérez tener tres votos, lo niego, porque no los tuvo por estar excluído el voto de Juan Preciado, por ser su yerno".                                                                                                                                                                                                                                                                                                                                                                                                                                                                                                                                                                                                                                                             |                                           | |                                       |                       |
| |                                                                                                                                                                                                                                                                                                                                                                                                                                                                                                                                                                                                                                                                                                                                                                                                                                                                                                                                                                                                                                                                                                                                                                                                                                                                                 |                                           | |                                       |                       |
| | Notificado por el escribano Diego Veedor, Melchor Pérez se inconformó del auto del alcalde mayor; "e respondió que bien notorio es en esta Villa los agravios que he recibido del dicho señor alcalde mayor, los cuales aquí no replicará porque lo ha de pedir en su tiempo e lugar, y en especial le hizo este de quitarlle contra derecho la vara de alcalde ordinario en esta Villa, teniendo de cinco votos que había en Cabildo los tres". Melchor Pérez agrega que los tres regidores que le dieron sus votos, requirieron al alcalde mayor inutilmente. Que si no insistieron en su momento, fue "porque no se alborotase estaVilla".                                                                                                                                                                                                                                                                                                                                                                                                                                                                                                                                                                                                                                   |                                           | |                                       |                       |
| |                                                                                                                                                                                                                                                                                                                                                                                                                                                                                                                                                                                                                                                                                                                                                                                                                                                                                                                                                                                                                                                                                                                                                                                                                                                                                 |                                           | |                                       |                       |
| | Caja A–4, exp. 7, 3 ff.                                                                                                                                                                                                                                                                                                                                                                                                                                                                                                                                                                                                                                                                                                                                                                                                                                                                                                                                                                                                                                                                                                                                                                                                                                                         |                                           | |                                       |                       |
| |                                                                                                                                                                                                                                                                                                                                                                                                                                                                                                                                                                                                                                                                                                                                                                                                                                                                                                                                                                                                                                                                                                                                                                                                                                                                                 |                                           | |                                       |                       |
| |                                                                                                                                                                                                                                                                                                                                                                                                                                                                                                                                                                                                                                                                                                                                                                                                                                                                                                                                                                                                                                                                                                                                                                                                                                                                                 |                                           | |                                       |                       |
| |                                                                                                                                                                                                                                                                                                                                                                                                                                                                                                                                                                                                                                                                                                                                                                                                                                                                                                                                                                                                                                                                                                                                                                                                                                                                                 |                                           | |                                       |                       |
| | ---------------                                                                                                                                                                                                                                                                                                                                                                                                                                                                                                                                                                                                                                                                                                                                                                                                                                                                                                                                                                                                                                                                                                                                                                                                                                                                 |                                           | |                                       |                       |
| |                                                                                                                                                                                                                                                                                                                                                                                                                                                                                                                                                                                                                                                                                                                                                                                                                                                                                                                                                                                                                                                                                                                                                                                                                                                                                 |                                           | |                                       |                       |
| | (1) Melchor Pérez, natural de la villa de la Torre en el condado de Feria, era hijo legítimo del licenciado Diego de la Torre, juez de residencia de Nuño de Guzmán, y de Catalina Mexía. Llegó seguramente a la Nueva España en compañía de su padre en 1536 y cuando éste pasó de gobernador a la Nueva Galicia, le siguió.                                                                                                                                                                                                                                                                                                                                                                                                                                                                                                                                                                                                                                                                                                                                                                                                                                                                                                                                                   |                                           | |                                       |                       |
| |                                                                                                                                                                                                                                                                                                                                                                                                                                                                                                                                                                                                                                                                                                                                                                                                                                                                                                                                                                                                                                                                                                                                                                                                                                                                                 |                                           | |                                       |                       |
| | (2) Justo diez años antes a los hechos aquí denunciados por Melchor Pérez, el visitador Lebrón informaba en su Relación sumaria (1554) que "no había facultad para elegir regidores, ni alcaldes, ni alguaciles, mas de tenerlo por costumbre; y en esto había tan mala orden en la elección de los oficios que el que más podía, elegía a quien quería, eligiéndose unos a otros de un año a otro, por manera que nunca salían los oficios de ciertos particulares": Lebrón (1979), 74.                                                                                                                                                                                                                                                                                                                                                                                                                                                                                                                                                                                                                                                                                                                                                                                        |                                           | |                                       |                       |
| |                                                                                                                                                                                                                                                                                                                                                                                                                                                                                                                                                                                                                                                                                                                                                                                                                                                                                                                                                                                                                                                                                                                                                                                                                                                                                 |                                           | |                                       |                       |
| | (3) Quizá alude al correspondiente libro de actas del Cabildo, hoy perdido.                                                                                                                                                                                                                                                                                                                                                                                                                                                                                                                                                                                                                                                                                                                                                                                                                                                                                                                                                                                                                                                                                                                                                                                                     |                                           | |                                       |                       |
| +---------------------------------------------------------------------------------------------------------------------------------------------------------------------------------------------------------------------------------------------------------------------------------------------------------------------------------------------------------------------------------------------------------------------------------------------------------------------------------------------------------------------------------------------------------------------------------------------------------------------------------------------------------------------------------------------------------------------------------------------------------------------------------------------------------------------------------------------------------------------------------------------------------------------------------------------------------------------------------------------------------------------------------------------------------------------------------------------------------------------------------------------------------------------------------------------------------------------------------------------------------------------------------+-------------------------------------------+ |                                       |                       |
|                                                                                                                                                                                                                                                                                                                                                                                                                                                                                                                                                                                                                                                                                                                                                                                                                                                                                                                                                                                                                                                                                                                                                                                                                                                                                                                                 |                                       |                       |
|   ---------------------------------------------------------------------------------------------------                                                                                                                                                                                                                                                                                                                                                                                                                                                                                                                                                                                                                                                                                                                                                                                                                                                                                                                                                                                                                                                                                                                                                                                                                           |                                       |                       |
|    Documento(s) original(es)                                                                                                                                                                                                                                                                                                                                                                                                                                                                                                                                                                                                                                                                                                                                                                                                                                                                                                                                                                                                                                                                                                                                                                                                                                                                                                    |                                       |                       |
|   --------------------------- ------- ------- ------- ------- ------- ------- ------- ------- -------                                                                                                                                                                                                                                                                                                                                                                                                                                                                                                                                                                                                                                                                                                                                                                                                                                                                                                                                                                                                                                                                                                                                                                                                                           |                                       |                       |
|               []                []      []      []      []      []                                                                                                                                                                                                                                                                                                                                                                                                                                                                                                                                                                                                                                                                                                                                                                                                                                                                                                                                                                                                                                                                                                                                                                                                                                                              |                                       |                       |
|               1F                1V      2F      2V      3F      3V                                                                                                                                                                                                                                                                                                                                                                                                                                                                                                                                                                                                                                                                                                                                                                                                                                                                                                                                                                                                                                                                                                                                                                                                                                                              |                                       |                       |
|                                                                                                                                                                                                                                                                                                                                                                                                                                                                                                                                                                                                                                                                                                                                                                                                                                                                                                                                                                                                                                                                                                                                                                                                                                                                                                                                 |                                       |                       |
|   ---------------------------------------------------------------------------------------------------                                                                                                                                                                                                                                                                                                                                                                                                                                                                                                                                                                                                                                                                                                                                                                                                                                                                                                                                                                                                                                                                                                                                                                                                                           |                                       |                       |
+---------------------------------------------------------------------------------------------------------------------------------------------------------------------------------------------------------------------------------------------------------------------------------------------------------------------------------------------------------------------------------------------------------------------------------------------------------------------------------------------------------------------------------------------------------------------------------------------------------------------------------------------------------------------------------------------------------------------------------------------------------------------------------------------------------------------------------------------------------------------------------------------------------------------------------------------------------------------------------------------------------------------------------------------------------------------------------------------------------------------------------------------------------------------------------------------------------------------------------------------------------------------------------------------------------------------------------+---------------------------------------+-----------------------+
| Proyecto interinstitucional del Archivo Histórico del Municipio de Colima y la Universidad de Colima,                                                                                                                                                                                                                                                                                                                                                                                                                                                                                                                                                                                                                                                                                                                                                                                                                                                                                                                                                                                                                                                                                                                                                                                                                           |                                       |                       |
| realizado bajo los auspicios del fondo Ramón Álvarez-Buylla de Aldana.                                                                                                                                                                                                                                                                                                                                                                                                                                                                                                                                                                                                                                                                                                                                                                                                                                                                                                                                                                                                                                                                                                                                                                                                                                                          |                                       |                       |
|                                                                                                                                                                                                                                                                                                                                                                                                                                                                                                                                                                                                                                                                                                                                                                                                                                                                                                                                                                                                                                                                                                                                                                                                                                                                                                                                 |                                       |                       |
| ------------------------------------------------------------------------                                                                                                                                                                                                                                                                                                                                                                                                                                                                                                                                                                                                                                                                                                                                                                                                                                                                                                                                                                                                                                                                                                                                                                                                                                                        |                                       |                       |
|                                                                                                                                                                                                                                                                                                                                                                                                                                                                                                                                                                                                                                                                                                                                                                                                                                                                                                                                                                                                                                                                                                                                                                                                                                                                                                                                 |                                       |                       |
| ISBN 978-968-7412-85-6                                                                                                                                                                                                                                                                                                                                                                                                                                                                                                                                                                                                                                                                                                                                                                                                                                                                                                                                                                                                                                                                                                                                                                                                                                                                                                          |                                       |                       |
| ® Derechos Reservados 2008. Archivo Histórico del Municipio de Colima.                                                                                                                                                                                                                                                                                                                                                                                                                                                                                                                                                                                                                                                                                                                                                                                                                                                                                                                                                                                                                                                                                                                                                                                                                                                          |                                       |                       |
+---------------------------------------------------------------------------------------------------------------------------------------------------------------------------------------------------------------------------------------------------------------------------------------------------------------------------------------------------------------------------------------------------------------------------------------------------------------------------------------------------------------------------------------------------------------------------------------------------------------------------------------------------------------------------------------------------------------------------------------------------------------------------------------------------------------------------------------------------------------------------------------------------------------------------------------------------------------------------------------------------------------------------------------------------------------------------------------------------------------------------------------------------------------------------------------------------------------------------------------------------------------------------------------------------------------------------------+---------------------------------------+-----------------------+

1,078 visitas
