[]

LA VILLA DE COLIMA DE LA NUEVA ESPAÑA
SIGLO XVI

VOLUMEN I      (CAJAS 1-11)

[]

Inicio | Búsquedas | Siglas y bibliografía | Cartografía | Créditos | Más información

[]

Búsqueda rápida

+:-------------------------------------------------------------------------------------------------------------------------------------------------------------------------------------------------------------------------------------------------------------------------------------------------------------------------------------------------------------------------------------------------------------------------------------------------------------------------------------------------------------------------------------------------------------------------------------------------------------------------------------------------------------------------------------:+------------------------------------------:+
| Fecha:                                                                                                                                                                                                                                                                                                                                                                                                                                                                                                                                                                                                                                                                                | Ubicación física del documento original:  |
| 1563 Mayo, 7                                                                                                                                                                                                                                                                                                                                                                                                                                                                                                                                                                                                                                                                          | CAJA A-5, EXP. 12, 8 FF.                  |
|                                                                                                                                                                                                                                                                                                                                                                                                                                                                                                                                                                                                                                                                                       | Archivo Histórico del Municipio de Colima |
+---------------------------------------------------------------------------------------------------------------------------------------------------------------------------------------------------------------------------------------------------------------------------------------------------------------------------------------------------------------------------------------------------------------------------------------------------------------------------------------------------------------------------------------------------------------------------------------------------------------------------------------------------------------------------------------+-------------------------------------------+
| 126. 1563. Mayo, 7.                                                                                                                                                                                                                                                                                                                                                                                                                                                                                                                                                                                                                                                                   |                                           |
|                                                                                                                                                                                                                                                                                                                                                                                                                                                                                                                                                                                                                                                                                       |                                           |
| Baltasar de Alcalá demanda cantidad de pesos que le quedó debiendo Miguel Rodríguez, escribano difunto.                                                                                                                                                                                                                                                                                                                                                                                                                                                                                                                                                                               |                                           |
|                                                                                                                                                                                                                                                                                                                                                                                                                                                                                                                                                                                                                                                                                       |                                           |
| "Pagaré yo Miguel Rodríguez, escribano de Su Majestad, al señor Baltasar de Alcalá cuarenta pesos del oro común que por otros tantos que me prestó por me hacer placer e buena obra, los cuales le daré de la fecha de éste en dos meses; porque es verdad dí ésta firmada de mi nombre. Fecho en Colima en siete de mayo de 1563 años. Miguel Rodríguez".                                                                                                                                                                                                                                                                                                                            |                                           |
|                                                                                                                                                                                                                                                                                                                                                                                                                                                                                                                                                                                                                                                                                       |                                           |
| El 30 de diciembre de 1567, ante el alcalde Diego de Velasco, Baltasar de Alcalá presentó este conocimiento y dijo que "Miguel Rodríguez, difunto, me debe por esta cédula que tengo firmada de su nombre y escrita de su letra de que hago presentación ante V.m. cuarenta pesos del oro común como por ella paresce, a que me refiero. A V.m. pido y suplico mande que de los bienes del dicho Miguel Rodríguez que quedaron, los cuales están en poder del señor Diego de Mendoza, alcalde ordinario desta Villa, me den e paguen los dichos cuarenta pesos que ansí pido, atento que ha más de cuatro años que se los presté en reales de plata".                                 |                                           |
|                                                                                                                                                                                                                                                                                                                                                                                                                                                                                                                                                                                                                                                                                       |                                           |
| El alcalde Diego de Velasco mandó que Alcalá diera información para lo cual éste presentó por testigos a Bernaldino Cola, Bernaldino de Guzmán y Alonso Carrillo de Guzmán, vecinos de Colima. El primero declaró "que al tiempo que se quiso morir el dicho Miguel Rodríguez, dijo a este testigo que debía al dicho Baltasar de Alcalá por un conocimiento ciertos pesos, e que dellos le debía hasta treinta pesos bien debidos". Al serle mostrada la cédula, Bernaldino Cola dijo que era "de letra y firma del dicho Miguel Rodríguez, porque este testigo le ha visto escrebir e firmar muchas veces". Dijo tener 40 años de edad.                                             |                                           |
|                                                                                                                                                                                                                                                                                                                                                                                                                                                                                                                                                                                                                                                                                       |                                           |
| Bernaldino de Guzmán, por su parte, dijo que "habrá más de tres meses, poco más o menos, que el dicho Miguel Rodríguez, difunto, dijo a este testigo que debía al dicho Baltasar de Alcalá ciertos pesos de oro"; mostrada la cédula, reconoció en ella la letra y firma del difunto escribano.                                                                                                                                                                                                                                                                                                                                                                                       |                                           |
|                                                                                                                                                                                                                                                                                                                                                                                                                                                                                                                                                                                                                                                                                       |                                           |
| Alonso Carrillo de Guzmán, "vecino e regidor desta Villa", declaró que sabía de la deuda de Miguel Rodríguez con Alcalá, porque "antes que muriese se lo dijo a este testigo, mas no en qué cantidad". Cuando vio el conocimiento, reconoció la letra y firma de Miguel Rodríguez, "porque muchas veces le ha visto escrebir e firmar". Dijo tener 30 años de edad.                                                                                                                                                                                                                                                                                                                   |                                           |
|                                                                                                                                                                                                                                                                                                                                                                                                                                                                                                                                                                                                                                                                                       |                                           |
| Recibida la información y reconocida la cédula, el alcalde Diego de Velasco dictó mandamiento de ejecución, el 30 de diciembre: "Alguacil mayor desta Villa, yo os mando que hagáis entrega y ejecución en los bienes de Miguel Rodríguez, escribano difunto" por 40 pesos de oro común que "debía a Baltasar de Alcalá, residente en esta Villa, el cual juró por Dios e Santa María sobre la señal de la cruz, que le son debidos e por pagar". Decía también al alguacil: "apercebid e notificad a Pero Ruiz,^([1]) defensor de los dichos bienes, los términos desta ejecución e días de la ley de Toledo, e que señale casa e procurador conocido con quien se sigan los autos". |                                           |
|                                                                                                                                                                                                                                                                                                                                                                                                                                                                                                                                                                                                                                                                                       |                                           |
| El 3 de enero de 1568, el alguacil mayor Antonio de Carvajal "señaló por bienes para hacer esta ejecución los pesos de oro que deben de una almoneda que se hizo del dicho Miguel Rodríguez, Pedro de Bobadilla, e Diego Fernández de Saldaña, y Bernaldino de Guzmán y Álvaro de Grijalba, vecinos desta Villa, en los cuales dichos pesos de oro hizo la dicha ejecución por la cuantía e costas en el dicho mandamiento contenidas, e requirió a los susodichos no acudan con ellos a persona alguna, so pena que lo pagarán por sus personas e bienes, siendo presentes por testigos Andrés García, e Juan de Iniesta, e Pero López de Herrera, vecinos desta dicha Villa".       |                                           |
|                                                                                                                                                                                                                                                                                                                                                                                                                                                                                                                                                                                                                                                                                       |                                           |
| El 8 de enero, Baltasar de Alcalá dijo que "mejoraba e mejoró la ejecución que tiene hecha en esta causa en nueve pesos y medio en que se remató un caballo rucio, tordillo, en Juanes de Arrúe, que se vendió por bienes del dicho Miguel Rodríguez". El 12, por cuanto el término de los pregones ya había pasado, Baltasar de Alcalá pidió al alcalde ordinario Luis de Grijalba hacer trance y remate. Lo que, por auto del alcalde, fue notificado Pero Ruiz de Vilches, defensor en nombre de Su Majestad de los bienes del difunto escribano, de lo que fueron testigos "Antonio de Carvajal y el señor alcalde mayor Juan Fernández".^([2])                                   |                                           |
|                                                                                                                                                                                                                                                                                                                                                                                                                                                                                                                                                                                                                                                                                       |                                           |
| El 19 de enero volvía a insistir en su petición Baltasar de Alcalá, tornándose a notificar a Pero Ruiz, ante Antonio de Carvajal, Juan Adán y Gerónimo Serrano, vecinos de la Villa, "que si tiene que decir o alegar, lo venga diciendo dentro de tercero día". Como no respondía ni alegaba cosa alguna, Alcalá lo acusó de rebeldía el 25 de enero.                                                                                                                                                                                                                                                                                                                                |                                           |
|                                                                                                                                                                                                                                                                                                                                                                                                                                                                                                                                                                                                                                                                                       |                                           |
| El alcalde Luis de Grijalba pronunció sentencia el 27 de enero: "atento que los bienes en que esta ejecución se ha hecho, son dineros que tienen su entero e cumplido valor, debo de mandar y mando hacer entero y cumplido pago al dicho Baltasar de Alcalá".                                                                                                                                                                                                                                                                                                                                                                                                                        |                                           |
|                                                                                                                                                                                                                                                                                                                                                                                                                                                                                                                                                                                                                                                                                       |                                           |
| Baltasar de Alcalá, luego, nombró por su fiador a Bernaldino Cola quien se obligó ante el escribano Juan Vázquez y los testigos Bernaldino de Guzmán, Tomás Herades y Diego López de Ayala, vecinos de Colima.                                                                                                                                                                                                                                                                                                                                                                                                                                                                        |                                           |
|                                                                                                                                                                                                                                                                                                                                                                                                                                                                                                                                                                                                                                                                                       |                                           |
| Baltasar de Alcalá, por último, pidió al alcalde que diera "su mandamiento requisitorio e apremio" contra las personas deudoras de la almoneda hecha sobre los bienes del difunto; también el alcalde Grijalba hizo la tasación del principal y costas del proceso, resultando lo siguiente: del principal, 40 pesos; de las costas del proceso, del escribano,^([3]) 3 pesos; de las costas del juez, un peso; de las costas del alguacil, 2 pesos. "Parece que montan las costas del principal e todo ello, cuarenta y seis pesos del oro común".                                                                                                                                   |                                           |
|                                                                                                                                                                                                                                                                                                                                                                                                                                                                                                                                                                                                                                                                                       |                                           |
| Caja A–5, exp. 12, 8 ff.                                                                                                                                                                                                                                                                                                                                                                                                                                                                                                                                                                                                                                                              |                                           |
|                                                                                                                                                                                                                                                                                                                                                                                                                                                                                                                                                                                                                                                                                       |                                           |
|                                                                                                                                                                                                                                                                                                                                                                                                                                                                                                                                                                                                                                                                                       |                                           |
|                                                                                                                                                                                                                                                                                                                                                                                                                                                                                                                                                                                                                                                                                       |                                           |
| ---------------                                                                                                                                                                                                                                                                                                                                                                                                                                                                                                                                                                                                                                                                       |                                           |
|                                                                                                                                                                                                                                                                                                                                                                                                                                                                                                                                                                                                                                                                                       |                                           |
| (1) Se trata de Pero Ruiz de Vilches.                                                                                                                                                                                                                                                                                                                                                                                                                                                                                                                                                                                                                                                 |                                           |
|                                                                                                                                                                                                                                                                                                                                                                                                                                                                                                                                                                                                                                                                                       |                                           |
| (2) Este dato que Juan Fernández ocupaba la alcaldía mayor, no debe confundir; según Sevilla del Río (1977), 124, "en los años de 1567-68 fue teniente de alcalde mayor en Colima".                                                                                                                                                                                                                                                                                                                                                                                                                                                                                                   |                                           |
|                                                                                                                                                                                                                                                                                                                                                                                                                                                                                                                                                                                                                                                                                       |                                           |
| (3) Aparece aquí una nota añadida que dice: "con el alguacil".                                                                                                                                                                                                                                                                                                                                                                                                                                                                                                                                                                                                                        |                                           |
+---------------------------------------------------------------------------------------------------------------------------------------------------------------------------------------------------------------------------------------------------------------------------------------------------------------------------------------------------------------------------------------------------------------------------------------------------------------------------------------------------------------------------------------------------------------------------------------------------------------------------------------------------------------------------------------+-------------------------------------------+

Documento(s) original(es)

Archivo no encontrado (CAJAS/CAJA5/EXP12/005V.jpg)

[]
1F

[]
1V

[]
2F

[]
2V

[]
3F

[]
3V

[]
4F

[]
4V

[]
5F

[]
6F

[]
6V

[]
7F

[]
7V

[]
8F

[]
8V

Proyecto interinstitucional del Archivo Histórico del Municipio de Colima y la Universidad de Colima,
realizado bajo los auspicios del fondo Ramón Álvarez-Buylla de Aldana.

------------------------------------------------------------------------

ISBN 978-968-7412-85-6
® Derechos Reservados 2008. Archivo Histórico del Municipio de Colima.

1,078 visitas
