+----------------------------------------------------------------------------------------------------------------------------------------------------------------------------------------------------------------------------------------------------------------------------------------------------------------------------------------------------------------------------------------------------------------------------------------------------------------------------------------------------------------------------------------------------------------------------+---------------------------------------+-----------------------+
| []                                                                                                                                                                                                                                                                                                                                                                                                                                                                                                                                                                         | LA VILLA DE COLIMA DE LA NUEVA ESPAÑA | []                    |
|                                                                                                                                                                                                                                                                                                                                                                                                                                                                                                                                                                            | SIGLO XVI                             |                       |
|                                                                                                                                                                                                                                                                                                                                                                                                                                                                                                                                                                            |                                       |                       |
|                                                                                                                                                                                                                                                                                                                                                                                                                                                                                                                                                                            | VOLUMEN I      (CAJAS 1-11)           |                       |
+----------------------------------------------------------------------------------------------------------------------------------------------------------------------------------------------------------------------------------------------------------------------------------------------------------------------------------------------------------------------------------------------------------------------------------------------------------------------------------------------------------------------------------------------------------------------------+---------------------------------------+-----------------------+
| Inicio | Búsquedas | Siglas y bibliografía | Cartografía | Créditos | Más información                                                                                                                                                                                                                                                                                                                                                                                                                                                                                      |                                       | []                    |
+----------------------------------------------------------------------------------------------------------------------------------------------------------------------------------------------------------------------------------------------------------------------------------------------------------------------------------------------------------------------------------------------------------------------------------------------------------------------------------------------------------------------------------------------------------------------------+---------------------------------------+-----------------------+
| Búsqueda rápida                                                                                                                                                                                                                                                                                                                                                                                                                                                                                                                                                            |                                       |                       |
|                                                                                                                                                                                                                                                                                                                                                                                                                                                                                                                                                                            |                                       |                       |
| +:--------------------------------------------------------------------------------------------------------------------------------------------------------------------------------------------------------------------------------------------------------------------------------------------------------------------------------------------------------------------------------------------------------------------------------------------------------------------------------------------------------------------------:+------------------------------------------:+ |                                       |                       |
| | Fecha:                                                                                                                                                                                                                                                                                                                                                                                                                                                                                                                     | Ubicación física del documento original:  | |                                       |                       |
| | 1567 Junio, 5                                                                                                                                                                                                                                                                                                                                                                                                                                                                                                              | CAJA A-5, EXP. 13, F. 5 FTE.              | |                                       |                       |
| |                                                                                                                                                                                                                                                                                                                                                                                                                                                                                                                            | Archivo Histórico del Municipio de Colima | |                                       |                       |
| +----------------------------------------------------------------------------------------------------------------------------------------------------------------------------------------------------------------------------------------------------------------------------------------------------------------------------------------------------------------------------------------------------------------------------------------------------------------------------------------------------------------------------+-------------------------------------------+ |                                       |                       |
| | 156. 1567. Junio, 5.                                                                                                                                                                                                                                                                                                                                                                                                                                                                                                       |                                           | |                                       |                       |
| |                                                                                                                                                                                                                                                                                                                                                                                                                                                                                                                            |                                           | |                                       |                       |
| | Remate de tributos del pueblo de Tecolapa.                                                                                                                                                                                                                                                                                                                                                                                                                                                                                 |                                           | |                                       |                       |
| |                                                                                                                                                                                                                                                                                                                                                                                                                                                                                                                            |                                           | |                                       |                       |
| | [Al margen: Tecolapa y su partido].                                                                                                                                                                                                                                                                                                                                                                                                                                                                                        |                                           | |                                       |                       |
| |                                                                                                                                                                                                                                                                                                                                                                                                                                                                                                                            |                                           | |                                       |                       |
| | El alcalde mayor Alonso Sánchez de Figueroa "mandó se vendan e rematen en almoneda pública catorce mantas e dos piernas de algodón de a tres piernas cada una, que son de diez y seis meses, e ochenta e cinco hanegas y media de maíz sacado el diezmo, que es la sementera de un año para tributos de Su Majestad, que es del corregimiento de Tecolapa e Caxitlan e Santiago,^([1]) de que es corregidor Juan de la Torre, vecino desta Villa, y en todo se haga como Su Majestad tiene proveído e mandado en el caso". |                                           | |                                       |                       |
| |                                                                                                                                                                                                                                                                                                                                                                                                                                                                                                                            |                                           | |                                       |                       |
| | "Y en su cumplimiento, estando a las puertas de las Casas de Su Majestad, que son en la plaza desta dicha Villa, ante muncha gente por voz de Gabriel, indio pregonero desta Audiencia, anduvieron en público pregón los dichos tributos, diciendo a altas voces, quién quiere comprar y poner en precio catorce mantas e dos piernas de algodón e ochenta e cinco hanegas y media de maíz, que se venden por tributos de Su Majestad del dicho pueblo de Tecolapa y su partido".                                          |                                           | |                                       |                       |
| |                                                                                                                                                                                                                                                                                                                                                                                                                                                                                                                            |                                           | |                                       |                       |
| | Pero Ruiz, vecino de Colima, "puso cada manta a tres pesos del oro que corre y por cada una hanega de maíz a dos tomines del dicho oro". Se le adjudicaron los dichos tributos, siendo testigos el alcalde ordinario Diego de Mendoza, Juan Preciado, Diego Hernández Saldaña, el alguacil Juan Muñoz, Diego de Aguilar y Cristóbal de Silva. Escribano: Miguel Rodríguez.                                                                                                                                                 |                                           | |                                       |                       |
| |                                                                                                                                                                                                                                                                                                                                                                                                                                                                                                                            |                                           | |                                       |                       |
| | Caja A–5, exp. 13, f. 5 fte.                                                                                                                                                                                                                                                                                                                                                                                                                                                                                               |                                           | |                                       |                       |
| |                                                                                                                                                                                                                                                                                                                                                                                                                                                                                                                            |                                           | |                                       |                       |
| |                                                                                                                                                                                                                                                                                                                                                                                                                                                                                                                            |                                           | |                                       |                       |
| |                                                                                                                                                                                                                                                                                                                                                                                                                                                                                                                            |                                           | |                                       |                       |
| | ---------------                                                                                                                                                                                                                                                                                                                                                                                                                                                                                                            |                                           | |                                       |                       |
| |                                                                                                                                                                                                                                                                                                                                                                                                                                                                                                                            |                                           | |                                       |                       |
| | (1) Supra, regº 140.                                                                                                                                                                                                                                                                                                                                                                                                                                                                                                       |                                           | |                                       |                       |
| +----------------------------------------------------------------------------------------------------------------------------------------------------------------------------------------------------------------------------------------------------------------------------------------------------------------------------------------------------------------------------------------------------------------------------------------------------------------------------------------------------------------------------+-------------------------------------------+ |                                       |                       |
|                                                                                                                                                                                                                                                                                                                                                                                                                                                                                                                                                                            |                                       |                       |
|   ---------------------------------------------------------------------------------------------------                                                                                                                                                                                                                                                                                                                                                                                                                                                                      |                                       |                       |
|    Documento(s) original(es)                                                                                                                                                                                                                                                                                                                                                                                                                                                                                                                                               |                                       |                       |
|   --------------------------- ------- ------- ------- ------- ------- ------- ------- ------- -------                                                                                                                                                                                                                                                                                                                                                                                                                                                                      |                                       |                       |
|               []                                                                                                                                                                                                                                                                                                                                                                                                                                                                                                                                                           |                                       |                       |
|               5F                                                                                                                                                                                                                                                                                                                                                                                                                                                                                                                                                           |                                       |                       |
|                                                                                                                                                                                                                                                                                                                                                                                                                                                                                                                                                                            |                                       |                       |
|   ---------------------------------------------------------------------------------------------------                                                                                                                                                                                                                                                                                                                                                                                                                                                                      |                                       |                       |
+----------------------------------------------------------------------------------------------------------------------------------------------------------------------------------------------------------------------------------------------------------------------------------------------------------------------------------------------------------------------------------------------------------------------------------------------------------------------------------------------------------------------------------------------------------------------------+---------------------------------------+-----------------------+
| Proyecto interinstitucional del Archivo Histórico del Municipio de Colima y la Universidad de Colima,                                                                                                                                                                                                                                                                                                                                                                                                                                                                      |                                       |                       |
| realizado bajo los auspicios del fondo Ramón Álvarez-Buylla de Aldana.                                                                                                                                                                                                                                                                                                                                                                                                                                                                                                     |                                       |                       |
|                                                                                                                                                                                                                                                                                                                                                                                                                                                                                                                                                                            |                                       |                       |
| ------------------------------------------------------------------------                                                                                                                                                                                                                                                                                                                                                                                                                                                                                                   |                                       |                       |
|                                                                                                                                                                                                                                                                                                                                                                                                                                                                                                                                                                            |                                       |                       |
| ISBN 978-968-7412-85-6                                                                                                                                                                                                                                                                                                                                                                                                                                                                                                                                                     |                                       |                       |
| ® Derechos Reservados 2008. Archivo Histórico del Municipio de Colima.                                                                                                                                                                                                                                                                                                                                                                                                                                                                                                     |                                       |                       |
+----------------------------------------------------------------------------------------------------------------------------------------------------------------------------------------------------------------------------------------------------------------------------------------------------------------------------------------------------------------------------------------------------------------------------------------------------------------------------------------------------------------------------------------------------------------------------+---------------------------------------+-----------------------+

1,078 visitas
