+-------------------------------------------------------------------------------------------------------------------------------------------------------------------------------------------------------------------------------------------------------------------------------------------------------------------------------------------------------------------------------------------------------------------------------------------------------------------------------------------------------------------------------------------------------------------------------------------------------------------------------------+---------------------------------------+-----------------------+
| []                                                                                                                                                                                                                                                                                                                                                                                                                                                                                                                                                                                                                                  | LA VILLA DE COLIMA DE LA NUEVA ESPAÑA | []                    |
|                                                                                                                                                                                                                                                                                                                                                                                                                                                                                                                                                                                                                                     | SIGLO XVI                             |                       |
|                                                                                                                                                                                                                                                                                                                                                                                                                                                                                                                                                                                                                                     |                                       |                       |
|                                                                                                                                                                                                                                                                                                                                                                                                                                                                                                                                                                                                                                     | VOLUMEN I      (CAJAS 1-11)           |                       |
+-------------------------------------------------------------------------------------------------------------------------------------------------------------------------------------------------------------------------------------------------------------------------------------------------------------------------------------------------------------------------------------------------------------------------------------------------------------------------------------------------------------------------------------------------------------------------------------------------------------------------------------+---------------------------------------+-----------------------+
| Inicio | Búsquedas | Siglas y bibliografía | Cartografía | Créditos | Más información                                                                                                                                                                                                                                                                                                                                                                                                                                                                                                                                               |                                       | []                    |
+-------------------------------------------------------------------------------------------------------------------------------------------------------------------------------------------------------------------------------------------------------------------------------------------------------------------------------------------------------------------------------------------------------------------------------------------------------------------------------------------------------------------------------------------------------------------------------------------------------------------------------------+---------------------------------------+-----------------------+
| Búsqueda rápida                                                                                                                                                                                                                                                                                                                                                                                                                                                                                                                                                                                                                     |                                       |                       |
|                                                                                                                                                                                                                                                                                                                                                                                                                                                                                                                                                                                                                                     |                                       |                       |
| +:-----------------------------------------------------------------------------------------------------------------------------------------------------------------------------------------------------------------------------------------------------------------------------------------------------------------------------------------------------------------------------------------------------------------------------------------------------------------------------------------------------------------------------------------------------------------------------------:+------------------------------------------:+ |                                       |                       |
| | Fecha:                                                                                                                                                                                                                                                                                                                                                                                                                                                                                                                                                                              | Ubicación física del documento original:  | |                                       |                       |
| | 1568 Junio, 14                                                                                                                                                                                                                                                                                                                                                                                                                                                                                                                                                                      | CAJA A-5, EXP. 13, F. 25 VTA.             | |                                       |                       |
| |                                                                                                                                                                                                                                                                                                                                                                                                                                                                                                                                                                                     | Archivo Histórico del Municipio de Colima | |                                       |                       |
| +-------------------------------------------------------------------------------------------------------------------------------------------------------------------------------------------------------------------------------------------------------------------------------------------------------------------------------------------------------------------------------------------------------------------------------------------------------------------------------------------------------------------------------------------------------------------------------------+-------------------------------------------+ |                                       |                       |
| | 163. 1568. Junio, 14.                                                                                                                                                                                                                                                                                                                                                                                                                                                                                                                                                               |                                           | |                                       |                       |
| |                                                                                                                                                                                                                                                                                                                                                                                                                                                                                                                                                                                     |                                           | |                                       |                       |
| | Remate de tributos de Tecpa y Petlazoneca.                                                                                                                                                                                                                                                                                                                                                                                                                                                                                                                                          |                                           | |                                       |                       |
| |                                                                                                                                                                                                                                                                                                                                                                                                                                                                                                                                                                                     |                                           | |                                       |                       |
| | [Al margen: Remate de la sal de Tecpa y Petlazoneca].                                                                                                                                                                                                                                                                                                                                                                                                                                                                                                                               |                                           | |                                       |                       |
| |                                                                                                                                                                                                                                                                                                                                                                                                                                                                                                                                                                                     |                                           | |                                       |                       |
| | "Se trujo en almoneda pública en la plaza pública desta Villa y a la puerta de las Casas Reales por voz de Juan, negro pregonero, treinta e tres fanegas y media de sal, sacado el diezmo de treinta e siete fanegas, que pagan a Su Majestad los indios de los pueblos de Tecpa e Petlazoneca,^([1]) en cada un año, e anduvo en la dicha almoneda presente el señor licenciado Juan de Hoyos, alcalde mayor desta Villa e Bernaldino Cola, persona nombrada para se hallar presente a ello por los señores jueces e oficiales y Melchor Pérez, corregidor de los dichos pueblos". |                                           | |                                       |                       |
| |                                                                                                                                                                                                                                                                                                                                                                                                                                                                                                                                                                                     |                                           | |                                       |                       |
| | Juan Fernández Ladrillero pujó poniendo la hanega de la dicha sal a siete tomines. Como nadie pujó más, le fue adjudicado el remate.^([2]) Fueron testigos Alonso Miguel, Juan Fernández y Diego Hernández "e otros munchos vecinos desta Villa".                                                                                                                                                                                                                                                                                                                                   |                                           | |                                       |                       |
| |                                                                                                                                                                                                                                                                                                                                                                                                                                                                                                                                                                                     |                                           | |                                       |                       |
| | Pasó ante el escribano Juan Vázquez.                                                                                                                                                                                                                                                                                                                                                                                                                                                                                                                                                |                                           | |                                       |                       |
| |                                                                                                                                                                                                                                                                                                                                                                                                                                                                                                                                                                                     |                                           | |                                       |                       |
| | Caja A–5, exp. 13, f. 25 vta.                                                                                                                                                                                                                                                                                                                                                                                                                                                                                                                                                       |                                           | |                                       |                       |
| |                                                                                                                                                                                                                                                                                                                                                                                                                                                                                                                                                                                     |                                           | |                                       |                       |
| |                                                                                                                                                                                                                                                                                                                                                                                                                                                                                                                                                                                     |                                           | |                                       |                       |
| |                                                                                                                                                                                                                                                                                                                                                                                                                                                                                                                                                                                     |                                           | |                                       |                       |
| | ---------------                                                                                                                                                                                                                                                                                                                                                                                                                                                                                                                                                                     |                                           | |                                       |                       |
| |                                                                                                                                                                                                                                                                                                                                                                                                                                                                                                                                                                                     |                                           | |                                       |                       |
| | (1) Acerca de estos pueblos, supra, regº 141.                                                                                                                                                                                                                                                                                                                                                                                                                                                                                                                                       |                                           | |                                       |                       |
| |                                                                                                                                                                                                                                                                                                                                                                                                                                                                                                                                                                                     |                                           | |                                       |                       |
| | (2) En este caso se hicieron dos remates distintos: uno, éste de la sal; otro, el de las mantas que tributaban los naturales del corregimiento de Melchor Pérez, del que queda constancia en el regº 164, donde se nos dice, además, que el corregidor se hizo cargo de los pesos dados por Juan Fernández El Viejo.                                                                                                                                                                                                                                                                |                                           | |                                       |                       |
| +-------------------------------------------------------------------------------------------------------------------------------------------------------------------------------------------------------------------------------------------------------------------------------------------------------------------------------------------------------------------------------------------------------------------------------------------------------------------------------------------------------------------------------------------------------------------------------------+-------------------------------------------+ |                                       |                       |
|                                                                                                                                                                                                                                                                                                                                                                                                                                                                                                                                                                                                                                     |                                       |                       |
|   ---------------------------------------------------------------------------------------------------                                                                                                                                                                                                                                                                                                                                                                                                                                                                                                                               |                                       |                       |
|    Documento(s) original(es)                                                                                                                                                                                                                                                                                                                                                                                                                                                                                                                                                                                                        |                                       |                       |
|   --------------------------- ------- ------- ------- ------- ------- ------- ------- ------- -------                                                                                                                                                                                                                                                                                                                                                                                                                                                                                                                               |                                       |                       |
|               []                                                                                                                                                                                                                                                                                                                                                                                                                                                                                                                                                                                                                    |                                       |                       |
|               25V                                                                                                                                                                                                                                                                                                                                                                                                                                                                                                                                                                                                                   |                                       |                       |
|                                                                                                                                                                                                                                                                                                                                                                                                                                                                                                                                                                                                                                     |                                       |                       |
|   ---------------------------------------------------------------------------------------------------                                                                                                                                                                                                                                                                                                                                                                                                                                                                                                                               |                                       |                       |
+-------------------------------------------------------------------------------------------------------------------------------------------------------------------------------------------------------------------------------------------------------------------------------------------------------------------------------------------------------------------------------------------------------------------------------------------------------------------------------------------------------------------------------------------------------------------------------------------------------------------------------------+---------------------------------------+-----------------------+
| Proyecto interinstitucional del Archivo Histórico del Municipio de Colima y la Universidad de Colima,                                                                                                                                                                                                                                                                                                                                                                                                                                                                                                                               |                                       |                       |
| realizado bajo los auspicios del fondo Ramón Álvarez-Buylla de Aldana.                                                                                                                                                                                                                                                                                                                                                                                                                                                                                                                                                              |                                       |                       |
|                                                                                                                                                                                                                                                                                                                                                                                                                                                                                                                                                                                                                                     |                                       |                       |
| ------------------------------------------------------------------------                                                                                                                                                                                                                                                                                                                                                                                                                                                                                                                                                            |                                       |                       |
|                                                                                                                                                                                                                                                                                                                                                                                                                                                                                                                                                                                                                                     |                                       |                       |
| ISBN 978-968-7412-85-6                                                                                                                                                                                                                                                                                                                                                                                                                                                                                                                                                                                                              |                                       |                       |
| ® Derechos Reservados 2008. Archivo Histórico del Municipio de Colima.                                                                                                                                                                                                                                                                                                                                                                                                                                                                                                                                                              |                                       |                       |
+-------------------------------------------------------------------------------------------------------------------------------------------------------------------------------------------------------------------------------------------------------------------------------------------------------------------------------------------------------------------------------------------------------------------------------------------------------------------------------------------------------------------------------------------------------------------------------------------------------------------------------------+---------------------------------------+-----------------------+

1,078 visitas
