[]

LA VILLA DE COLIMA DE LA NUEVA ESPAÑA
SIGLO XVI

VOLUMEN I      (CAJAS 1-11)

[]

Inicio | Búsquedas | Siglas y bibliografía | Cartografía | Créditos | Más información

[]

Búsqueda rápida

+:--------------------------------------------------------------------------------------------------------------------------------------------------------------------------------------------------------------------------------------------------------------------------------------------------------------------------------------------------------------------------------------------------------------------------------------------------------------------------------------------------------------------------------------------------------------------------------------------------------------------------------------------------------------------------------------------------------------------------------------------------------------------------------------------------------------------------------------------------------------------------------------------------------------------------------------------------------------------------------------------------------------------------------------------------------------------------------------------------------------------------:+------------------------------------------:+
| Fecha:                                                                                                                                                                                                                                                                                                                                                                                                                                                                                                                                                                                                                                                                                                                                                                                                                                                                                                                                                                                                                                                                                                                     | Ubicación física del documento original:  |
| 1573 Septiembre, 16                                                                                                                                                                                                                                                                                                                                                                                                                                                                                                                                                                                                                                                                                                                                                                                                                                                                                                                                                                                                                                                                                                        | CAJA A-6, EXP. 9, FF. 50-54.              |
|                                                                                                                                                                                                                                                                                                                                                                                                                                                                                                                                                                                                                                                                                                                                                                                                                                                                                                                                                                                                                                                                                                                            | Archivo Histórico del Municipio de Colima |
+----------------------------------------------------------------------------------------------------------------------------------------------------------------------------------------------------------------------------------------------------------------------------------------------------------------------------------------------------------------------------------------------------------------------------------------------------------------------------------------------------------------------------------------------------------------------------------------------------------------------------------------------------------------------------------------------------------------------------------------------------------------------------------------------------------------------------------------------------------------------------------------------------------------------------------------------------------------------------------------------------------------------------------------------------------------------------------------------------------------------------+-------------------------------------------+
| 216. 1573. Septiembre, 16.                                                                                                                                                                                                                                                                                                                                                                                                                                                                                                                                                                                                                                                                                                                                                                                                                                                                                                                                                                                                                                                                                                 |                                           |
|                                                                                                                                                                                                                                                                                                                                                                                                                                                                                                                                                                                                                                                                                                                                                                                                                                                                                                                                                                                                                                                                                                                            |                                           |
| Pero López de Herrera manda a Bernaldino Cola, tutor nombrado de los menores hijos de Francisco Preciado, hacer la cobranza de sus bienes.                                                                                                                                                                                                                                                                                                                                                                                                                                                                                                                                                                                                                                                                                                                                                                                                                                                                                                                                                                                 |                                           |
|                                                                                                                                                                                                                                                                                                                                                                                                                                                                                                                                                                                                                                                                                                                                                                                                                                                                                                                                                                                                                                                                                                                            |                                           |
| El alcalde ordinario Pero López de Herrera y ante el escribano Luis Vélez Cherino encarga a Bernaldino Cola, a quien había designado tutor y curador de los menores hijos de Francisco Preciado, hacer la cobranza de los bienes siguientes:                                                                                                                                                                                                                                                                                                                                                                                                                                                                                                                                                                                                                                                                                                                                                                                                                                                                               |                                           |
|                                                                                                                                                                                                                                                                                                                                                                                                                                                                                                                                                                                                                                                                                                                                                                                                                                                                                                                                                                                                                                                                                                                            |                                           |
| Cargos                                                                                                                                                                                                                                                                                                                                                                                                                                                                                                                                                                                                                                                                                                                                                                                                                                                                                                                                                                                                                                                                                                                     |                                           |
|                                                                                                                                                                                                                                                                                                                                                                                                                                                                                                                                                                                                                                                                                                                                                                                                                                                                                                                                                                                                                                                                                                                            |                                           |
| "Primeramente se le hace cargo de una escritura de censo contra Alonso de Angulo de contra de trezientos pesos de oro común, que pasó ante Diego Veedor, escribano nombrado", fechada el 15 de septiembre de 1558, "y corre la cobranza de este censo" desde el 16 de mayo de este presente año de 1573.                                                                                                                                                                                                                                                                                                                                                                                                                                                                                                                                                                                                                                                                                                                                                                                                                   |                                           |
|                                                                                                                                                                                                                                                                                                                                                                                                                                                                                                                                                                                                                                                                                                                                                                                                                                                                                                                                                                                                                                                                                                                            |                                           |
| También le hace cargo de otra escritura de censo contra Juan de Arévalo, por 90 pesos de oro común, que pasó ante el mismo escribano el 6 de diciembre de 1561, y corre desde el 6 de julio de 1573. Otra escritura de censo por 1075 pesos contra Pedro de Arévalo, Hernando de Gamboa y Diego Morán, que pasó ante Diego Veedor el 3 de marzo de 1558, que corre desde el 3 de marzo de este año de 1573. Otra escritura de censo contra Pedro de Arévalo por 255 pesos de oro común de principal, que pasó ante Diego Veedor, el 7 de enero de 1561. Corre desde el 3 de enero de 1573.                                                                                                                                                                                                                                                                                                                                                                                                                                                                                                                                 |                                           |
|                                                                                                                                                                                                                                                                                                                                                                                                                                                                                                                                                                                                                                                                                                                                                                                                                                                                                                                                                                                                                                                                                                                            |                                           |
| Otro censo contra Diego López de Ayala y Juana Fernández, su mujer, y Alonso Miguel como su fiador que pasó ante Diego Veedor el 13 de enero de 1561 por cuantía de 250 pesos; corre desde el 1° de enero de este año de 1573. Otro censo por 774 pesos de oro común contra Diego de Velasco y Juana de Medina, su mujer, que pasó ante Diego Veedor el 16 de abril de 1561; corre la cobranza desde el 24 de febrero de 1573. Otro censo por cuantía de 130 pesos de oro común contra Diego de Mendoza y doña Beatriz López, su mujer, que pasó ante Diego Veedor, el 10 de abril de 1564; corre desde el 10 de abril de 1573.                                                                                                                                                                                                                                                                                                                                                                                                                                                                                            |                                           |
|                                                                                                                                                                                                                                                                                                                                                                                                                                                                                                                                                                                                                                                                                                                                                                                                                                                                                                                                                                                                                                                                                                                            |                                           |
| Otra escritura de censo contra Melchor Pérez y Ana Martel, su mujer, de cuantía de 445 pesos de oro común de principal, que pasó ante Diego Veedor el 16 de febrero de 1562, y corre su cobranza desde el 6 de abril de 1573. Otro censo contra Juan de Arévalo y Juana de Angulo, su mujer, por 268 pesos de principal, que pasó ante Juan de Segovia, escribano de Su Majestad, el 16 de mayo de 1565; corre desde el 15 de mayo de 1573. Contra Diego de Mendoza y doña Beatriz López, su mujer, hay otra escritura de censo por cuantía de 330 pesos de oro común de principal, que pasó ante Diego Veedor el 17 de septiembre de 1563; corre desde el 7 de septiembre de este año de 1573.                                                                                                                                                                                                                                                                                                                                                                                                                            |                                           |
|                                                                                                                                                                                                                                                                                                                                                                                                                                                                                                                                                                                                                                                                                                                                                                                                                                                                                                                                                                                                                                                                                                                            |                                           |
| Otra escritura de censo contra Melchor Pérez y Ana Martel, su mujer, por 110 pesos de oro común de principal, que pasó ante Diego Veedor, el 29 de abril de 1564; corre su cobranza desde el 10 de abril de 1573. Una cédula contra Lope Fernández, portugués, de 30 pesos de oro común, fechada el 5 de diciembre de 1556. Una obligación contra el mismo Lope Fernández, portugués, de 463 pesos y un tomín, cuya escritura pasó ante Diego de Isla, escribano de Su Majestad, y está fechada el 20 de diciembre de 1557. Otro conocimiento contra Juan Redondo, de 8 pesos, fechado el 4 de febrero de 1555. "Otro conocimiento contra Garci Garcés de Mancilla que dice que los debe Martín Ximénez", por 70 pesos, y tiene fecha de 28 de mayo de 1556.                                                                                                                                                                                                                                                                                                                                                               |                                           |
|                                                                                                                                                                                                                                                                                                                                                                                                                                                                                                                                                                                                                                                                                                                                                                                                                                                                                                                                                                                                                                                                                                                            |                                           |
| "Iten se le hace cargo de otro conocimiento contra Martín Páez, que de resto de él paresce que debe" 39 pesos de oro común, "para que los cobre con ciertas cartas de pago al pié del dicho conocimiento de Francisco Preciado, difunto", y otro conocimiento del mismo Martín Páez fecho a Juan Preciado, hijo del dicho Francisco Preciado, que todo parece ser una cosa". Además se le hace cargo de 100 pesos de oro de minas "que son de tipuzque ciento y sesenta e cinco pesos e tres tomines y seis granos,^([1]) que declaró Juan Núñez de Alvarado que debía Diego de Mendoza, de resto de un esclavo negro que le vendió el dicho Francisco Preciado", y que, según el mismo "dijo haber pleito pendiente ante la justicia desta Villa, para que busque el dicho proceso" y los cobre.                                                                                                                                                                                                                                                                                                                          |                                           |
|                                                                                                                                                                                                                                                                                                                                                                                                                                                                                                                                                                                                                                                                                                                                                                                                                                                                                                                                                                                                                                                                                                                            |                                           |
| De todas estas escrituras y papeles, fue entregando el alcalde ordinario Pero López de Herrera a Bernaldino Cola los correspondientes originales.                                                                                                                                                                                                                                                                                                                                                                                                                                                                                                                                                                                                                                                                                                                                                                                                                                                                                                                                                                          |                                           |
|                                                                                                                                                                                                                                                                                                                                                                                                                                                                                                                                                                                                                                                                                                                                                                                                                                                                                                                                                                                                                                                                                                                            |                                           |
| Se le hace cargo también de 2,238 pesos y 2 tomines de oro común para que los cobre de Juan Núñez por habérsele hecho alcance de ellos en las cuentas que le tomaron de los bienes de los dichos menores y que debe cobrar del modo siguiente: Primeramente, ha de cobrar 497 pesos y 4 tomines que Núñez debe pagar con los réditos que corrieren de a fin de junio deste dicho año de 1573 hasta que los pague o eche a censo por haber cuatro años y más que se hizo cargo de haberlos cobrado y no los echó a censo según estaba obligado y le fue mandado por Luis de Grijalba, teniente.                                                                                                                                                                                                                                                                                                                                                                                                                                                                                                                             |                                           |
|                                                                                                                                                                                                                                                                                                                                                                                                                                                                                                                                                                                                                                                                                                                                                                                                                                                                                                                                                                                                                                                                                                                            |                                           |
| Al siguiente día, 17 de septiembre, el alcalde López de Herrera prosiguió haciendo entrega de escrituras y conocimientos al curador Bernaldino Cola. "Iten ha de cobrar del dicho Juan Núñez, mil pesos que cobró de principal de un censo que pagaba Juan de San Pedro a los dichos menores, con más lo que corriere de censos dellos por no haber dado cuenta destos mil pesos y ha de cobrar el censo desde el día que se feneció la cuenta que se le tomó", y que fue el 30 de julio de 1573. También cobrará del mismo Núñez 140 pesos por que los pagaba Cristóbal de Solórzano a los dichos menores y los redimió, y no dio cuenta de ellos ni los echó a censo como estaba obligado y así debe pagar el censo que haya corrido hasta que los dé y pague. Cobrará Bernaldino Cola a Núñez también 515 pesos porque no entregó una escritura de censo de que le fue hecho cargo, contra Pedro de Granada con más el censo que corriere desde el día que se le tomó la cuenta hasta que lo pague. Cobrará también lo que debe pagar Núñez "para cumplimiento al dicho alcance que le fue hecho" 85 pesos y 6 tomines. |                                           |
|                                                                                                                                                                                                                                                                                                                                                                                                                                                                                                                                                                                                                                                                                                                                                                                                                                                                                                                                                                                                                                                                                                                            |                                           |
| "Por manera que suman e montan las dichas partidas que son cinco, dos mil e doscientos e treinta e ocho pesos e dos tomines que el dicho Bernaldino Cola ha de cobrar del dicho Juan Núñez como por ellas se le manda".                                                                                                                                                                                                                                                                                                                                                                                                                                                                                                                                                                                                                                                                                                                                                                                                                                                                                                    |                                           |
|                                                                                                                                                                                                                                                                                                                                                                                                                                                                                                                                                                                                                                                                                                                                                                                                                                                                                                                                                                                                                                                                                                                            |                                           |
| "Iten se le hace cargo que cobre el dicho Bernardino Cola del dicho Juan Núñez ciertos recaudos que declaró cuando le tomaron las cuentas, que tenía en su poder y por donde consta que Juan de Segovia dio poder a Gonzalo Hernández, mulato, para que tomase de la Estancia de Miaguatlan^([2]) cuarenta reses vacunas, y otro recaudo que tiene del dicho Gonzalo Hernández por donde tomó otra cierta cantidad de reses de la dicha estancia por mandado de Pedro de Granada, por las cuales el dicho Gonzalo Hernández le dio un caballo al dicho Pedro de Granada". Le dice que debe cobrar las dichas reses "de las personas que las deban pagar por ser la dicha estancia de los dichos menores".                                                                                                                                                                                                                                                                                                                                                                                                                  |                                           |
|                                                                                                                                                                                                                                                                                                                                                                                                                                                                                                                                                                                                                                                                                                                                                                                                                                                                                                                                                                                                                                                                                                                            |                                           |
| Cobrará igualmente "las cinco vigas y azuela gurviada" [sic]^([3]) que declaró doña Beatriz López que debía a los dichos menores, para que se cobre de sus herederos.                                                                                                                                                                                                                                                                                                                                                                                                                                                                                                                                                                                                                                                                                                                                                                                                                                                                                                                                                      |                                           |
|                                                                                                                                                                                                                                                                                                                                                                                                                                                                                                                                                                                                                                                                                                                                                                                                                                                                                                                                                                                                                                                                                                                            |                                           |
| "Iten se le hace cargo de una escritura de compañía que hicieron Francisco Preciado, defunto, padre de los dichos sus menores, y Lope Fernández, portugués, sobre cierto descubrimiento de minas para que cobre el interés que le pertenesciere por la dicha escritura de compañía de las dichas minas a los dichos menores, la cual escritura pasó en México a veinte e seis de abril de mil e quinientos e cincuenta e seis años [1556], ante Hernando de Cazalla, escribano de Su Majestad".^([4])                                                                                                                                                                                                                                                                                                                                                                                                                                                                                                                                                                                                                      |                                           |
|                                                                                                                                                                                                                                                                                                                                                                                                                                                                                                                                                                                                                                                                                                                                                                                                                                                                                                                                                                                                                                                                                                                            |                                           |
| "Por manera que suma e monta todo lo que se le hace cargo que ha de cobrar el dicho Bernardino Cola y lo que valen las escrituras y recaudos que se le entregan" 7,040 pesos y 5 tomines".                                                                                                                                                                                                                                                                                                                                                                                                                                                                                                                                                                                                                                                                                                                                                                                                                                                                                                                                 |                                           |
|                                                                                                                                                                                                                                                                                                                                                                                                                                                                                                                                                                                                                                                                                                                                                                                                                                                                                                                                                                                                                                                                                                                            |                                           |
| Bernardino Cola, el 18 de septiembre, presentó una petición ante el alcalde mayor Martín de Montúfar para cobrar de Juan Núñez los 2,238 pesos y 2 tomines de oro común del alcance que le hiciera el alcalde ordinario cuando le tomó cuentas de su tutela; pide también que Núñez "me dé y entregue las cédulas y poderes y otros cualesquier recaudos que declara tener en su poder contra Juan de Segovia y Pedro de Granada y Gonzalo Hernández, mulato" de las reses que retiró; además que declare o dé recaudo "por donde se cobren cien pesos de minas" que parece deber Diego de Mendoza de resto de un esclavo negro, y por último que diga lo de las vigas y azuela que deben los herederos de Beatriz López.                                                                                                                                                                                                                                                                                                                                                                                                  |                                           |
|                                                                                                                                                                                                                                                                                                                                                                                                                                                                                                                                                                                                                                                                                                                                                                                                                                                                                                                                                                                                                                                                                                                            |                                           |
| Caja A–6, exp. 9, ff. 50-54.                                                                                                                                                                                                                                                                                                                                                                                                                                                                                                                                                                                                                                                                                                                                                                                                                                                                                                                                                                                                                                                                                               |                                           |
|                                                                                                                                                                                                                                                                                                                                                                                                                                                                                                                                                                                                                                                                                                                                                                                                                                                                                                                                                                                                                                                                                                                            |                                           |
|                                                                                                                                                                                                                                                                                                                                                                                                                                                                                                                                                                                                                                                                                                                                                                                                                                                                                                                                                                                                                                                                                                                            |                                           |
|                                                                                                                                                                                                                                                                                                                                                                                                                                                                                                                                                                                                                                                                                                                                                                                                                                                                                                                                                                                                                                                                                                                            |                                           |
| ---------------                                                                                                                                                                                                                                                                                                                                                                                                                                                                                                                                                                                                                                                                                                                                                                                                                                                                                                                                                                                                                                                                                                            |                                           |
|                                                                                                                                                                                                                                                                                                                                                                                                                                                                                                                                                                                                                                                                                                                                                                                                                                                                                                                                                                                                                                                                                                                            |                                           |
| (1) Resulta interesante la equivalencia que se da.                                                                                                                                                                                                                                                                                                                                                                                                                                                                                                                                                                                                                                                                                                                                                                                                                                                                                                                                                                                                                                                                         |                                           |
|                                                                                                                                                                                                                                                                                                                                                                                                                                                                                                                                                                                                                                                                                                                                                                                                                                                                                                                                                                                                                                                                                                                            |                                           |
| (2) Acerca de Miaguatlan: supra, regº 176.                                                                                                                                                                                                                                                                                                                                                                                                                                                                                                                                                                                                                                                                                                                                                                                                                                                                                                                                                                                                                                                                                 |                                           |
|                                                                                                                                                                                                                                                                                                                                                                                                                                                                                                                                                                                                                                                                                                                                                                                                                                                                                                                                                                                                                                                                                                                            |                                           |
| (3) La azuela es una herramienta de carpintería compuesta de una plancha de hierro cortante, con mango corto de madera. La expresión "gurbiada" que registra también Boyd–Bowman (1971), 105 y 443, a propósito de la azuela, alude a la curvatura —gurbio o gurbia— de la misma.                                                                                                                                                                                                                                                                                                                                                                                                                                                                                                                                                                                                                                                                                                                                                                                                                                          |                                           |
|                                                                                                                                                                                                                                                                                                                                                                                                                                                                                                                                                                                                                                                                                                                                                                                                                                                                                                                                                                                                                                                                                                                            |                                           |
| (4) Sobre este "cierto descubrimiento de minas" y la compañía para su explotación suscrita entre Francisco Preciado y el portugués Lope Fernández, no hemos hallado otras pistas. De todas maneras es de interés señalar cómo Preciado dejó de explotar en su momento los placeres de oro de su suegro Diego Garrido, para dedicar las tierras aledañas a Apatlan al beneficio del cacao: supra, regº 39.                                                                                                                                                                                                                                                                                                                                                                                                                                                                                                                                                                                                                                                                                                                  |                                           |
+----------------------------------------------------------------------------------------------------------------------------------------------------------------------------------------------------------------------------------------------------------------------------------------------------------------------------------------------------------------------------------------------------------------------------------------------------------------------------------------------------------------------------------------------------------------------------------------------------------------------------------------------------------------------------------------------------------------------------------------------------------------------------------------------------------------------------------------------------------------------------------------------------------------------------------------------------------------------------------------------------------------------------------------------------------------------------------------------------------------------------+-------------------------------------------+

Documento(s) original(es)

Archivo no encontrado (CAJAS/CAJA6/EXP9/050F.jpg)

Archivo no encontrado (CAJAS/CAJA6/EXP9/050V.jpg)

Archivo no encontrado (CAJAS/CAJA6/EXP9/051F.jpg)

Archivo no encontrado (CAJAS/CAJA6/EXP9/051V.jpg)

Archivo no encontrado (CAJAS/CAJA6/EXP9/052F.jpg)

Archivo no encontrado (CAJAS/CAJA6/EXP9/052V.jpg)

Archivo no encontrado (CAJAS/CAJA6/EXP9/053F.jpg)

Archivo no encontrado (CAJAS/CAJA6/EXP9/053V.jpg)

Archivo no encontrado (CAJAS/CAJA6/EXP9/054F.jpg)

Archivo no encontrado (CAJAS/CAJA6/EXP9/054V.jpg)

Proyecto interinstitucional del Archivo Histórico del Municipio de Colima y la Universidad de Colima,
realizado bajo los auspicios del fondo Ramón Álvarez-Buylla de Aldana.

------------------------------------------------------------------------

ISBN 978-968-7412-85-6
® Derechos Reservados 2008. Archivo Histórico del Municipio de Colima.

1,078 visitas
