[]

LA VILLA DE COLIMA DE LA NUEVA ESPAÑA
SIGLO XVI

VOLUMEN I      (CAJAS 1-11)

[]

Inicio | Búsquedas | Siglas y bibliografía | Cartografía | Créditos | Más información

[]

Búsqueda rápida

+:-------------------------------------------------------------------------------------------------------------------------------------------------------------------------------------------------------------------------------------------------------------------------------------------------------------------------------------------------------------------------------------------------------------------------------------------------------------------------------------------------------------------------------------------------------------------------------------------------------------------------------------------------------------------------------------------------------------------------------------------------------------------------------------------------------------------------------------------------------------------------------------------------------------------------------------------------------------------------------------------------------------------------------------------------------------------------------------------------------------------------------------------------------------------------------------------------------------------------:+------------------------------------------:+
| Fecha:                                                                                                                                                                                                                                                                                                                                                                                                                                                                                                                                                                                                                                                                                                                                                                                                                                                                                                                                                                                                                                                                                                                                                                                                                    | Ubicación física del documento original:  |
| 1577 Febrero, 11                                                                                                                                                                                                                                                                                                                                                                                                                                                                                                                                                                                                                                                                                                                                                                                                                                                                                                                                                                                                                                                                                                                                                                                                          | CAJA A-6, EXP. 12, 11 FF.                 |
|                                                                                                                                                                                                                                                                                                                                                                                                                                                                                                                                                                                                                                                                                                                                                                                                                                                                                                                                                                                                                                                                                                                                                                                                                           | Archivo Histórico del Municipio de Colima |
+---------------------------------------------------------------------------------------------------------------------------------------------------------------------------------------------------------------------------------------------------------------------------------------------------------------------------------------------------------------------------------------------------------------------------------------------------------------------------------------------------------------------------------------------------------------------------------------------------------------------------------------------------------------------------------------------------------------------------------------------------------------------------------------------------------------------------------------------------------------------------------------------------------------------------------------------------------------------------------------------------------------------------------------------------------------------------------------------------------------------------------------------------------------------------------------------------------------------------+-------------------------------------------+
| 225. 1577. Febrero, 11.                                                                                                                                                                                                                                                                                                                                                                                                                                                                                                                                                                                                                                                                                                                                                                                                                                                                                                                                                                                                                                                                                                                                                                                                   |                                           |
|                                                                                                                                                                                                                                                                                                                                                                                                                                                                                                                                                                                                                                                                                                                                                                                                                                                                                                                                                                                                                                                                                                                                                                                                                           |                                           |
| Alonso Lorenzo reclama cierto dinero y cacao que le quedó debiendo Juan Domínguez, difunto.                                                                                                                                                                                                                                                                                                                                                                                                                                                                                                                                                                                                                                                                                                                                                                                                                                                                                                                                                                                                                                                                                                                               |                                           |
|                                                                                                                                                                                                                                                                                                                                                                                                                                                                                                                                                                                                                                                                                                                                                                                                                                                                                                                                                                                                                                                                                                                                                                                                                           |                                           |
| Ante Juan Preciado, alcalde ordinario, el vecino de la Villa de Colima Alonso Lorenzo dice que "yo día a Juan Domínguez, difunto, treinta y dos pesos en reales y en cacao para que dellos el dicho me truxese de México lo que por una memoria mía yo le dí; y el susodicho murió en el camino y en su testamento no hizo declaración dellos. A V.m. pido y suplico que, dando información de lo que digo, V.m. mande que de sus bienes se me den y vuelvan del arte que yo se los dí, y pido justicia.                                                                                                                                                                                                                                                                                                                                                                                                                                                                                                                                                                                                                                                                                                                  |                                           |
|                                                                                                                                                                                                                                                                                                                                                                                                                                                                                                                                                                                                                                                                                                                                                                                                                                                                                                                                                                                                                                                                                                                                                                                                                           |                                           |
| El alcalde dispuso que fuera citada la parte de Juan Domínguez o su albacea y que se hiciera información al respecto. Francisco Toscano,^([1]) escribano nombrado, notificó a Alonso Miguel, albacea. Testigos fueron Alonso Carrillo y Antón Alonso.                                                                                                                                                                                                                                                                                                                                                                                                                                                                                                                                                                                                                                                                                                                                                                                                                                                                                                                                                                     |                                           |
|                                                                                                                                                                                                                                                                                                                                                                                                                                                                                                                                                                                                                                                                                                                                                                                                                                                                                                                                                                                                                                                                                                                                                                                                                           |                                           |
| Alonso Lorenzo presentó por testigos a Elvira Lorenzo, viuda, y a Isabel Cervera, de quienes el escribano Francisco Toscano recibió juramento.                                                                                                                                                                                                                                                                                                                                                                                                                                                                                                                                                                                                                                                                                                                                                                                                                                                                                                                                                                                                                                                                            |                                           |
|                                                                                                                                                                                                                                                                                                                                                                                                                                                                                                                                                                                                                                                                                                                                                                                                                                                                                                                                                                                                                                                                                                                                                                                                                           |                                           |
| Elvira Lorenzo declaró que "sabe y vio que Teresa Tapia, mujer del dicho Alonso Lorenzo, dio al dicho Juan Domínguez unos dineros para que truxese ciertas cosas de la Ciudad de México, a donde el dicho Juan Domínguez iba, y vio cómo el dicho Juan Domínguez los recibió y los metió en un costal, pero que esta testigo no sabe qué cantidad era lo que el dicho Juan Domínguez rescibió, y que así sabe que luego se fue a México y desde a pocos días oyó decir que era muerto, y que esta es la verdad". Dijo tener más de 40 años de edad y que era hermana de Alonso Lorenzo. No firmó porque no supo.                                                                                                                                                                                                                                                                                                                                                                                                                                                                                                                                                                                                          |                                           |
|                                                                                                                                                                                                                                                                                                                                                                                                                                                                                                                                                                                                                                                                                                                                                                                                                                                                                                                                                                                                                                                                                                                                                                                                                           |                                           |
| Isabel Cervera, por su parte, declaró que "vio que Teresa de Tapia, mujer del dicho Alonso Lorenzo, dio al dicho Juan Domínguez cuando se quería ir a México ciertos dineros y cacao para que le traxese ciertas cosas de México y vio cómo el dicho Juan Domínguez lo recibió e lo metió en un costal y lo llevó, y después acá ha oído decir esta testigo que el dicho Juan Domínguez murió camino de México, y esta testigo no sabe qué cantidad eran los dichos cacaos y dineros, mas de que se lo vio dar, y que esta es la verdad". Dijo tener más de 25 años de edad, que no le tocaban las generales, "mas de que es el dicho Alonso Lorenzo casado con una hermana desta testigo". No firmó porque no supo hacerlo.                                                                                                                                                                                                                                                                                                                                                                                                                                                                                              |                                           |
|                                                                                                                                                                                                                                                                                                                                                                                                                                                                                                                                                                                                                                                                                                                                                                                                                                                                                                                                                                                                                                                                                                                                                                                                                           |                                           |
| El 18 de febrero, ante Álvaro de Grijalba, teniente del ilustre señor Pablo de Arriaga, alcalde mayor por Su Majestad en esta dicha Villa, y ante Francisco López, escribano público, Alonso Lorenzo presentó por testigo a Diego Morán, vecino de Colima. El testigo declaró que "puede haber tres meses poco más o menos, que estando este testigo en el Valle de Caxitlan, en casa de Elvira Lorenzo, allegó [sic] a la sazón su mujer de Alonso Lorenzo, llamada Teresa de Tapia, e le vido traer cierto cacao y siete pesos y medio en reales, y le dijo a este testigo que traía treinta y seis pesos y medio por todo el cacao y dos tomines, que así traía, y en presencia deste testigo le dio y entregó al dicho Juan Domínguez, que presente estaba, el cual lo recibió e lo metió en un costal de xaxal,^([2]) lo cual le dio para que de México le traxese ciertas cosas que por una memoria que le había de dar, y así el dicho Juan Domínguez llevó el dicho cacao a ciento e noventa al tomín,^([3]) que con los dichos tomines montó lo que así recibió treinta y dos pesos y medio, y en presencia deste testigo se fue e lo llevó y esta es la verdad". Dijo tener más de 60 años de edad, y lo firmó. |                                           |
|                                                                                                                                                                                                                                                                                                                                                                                                                                                                                                                                                                                                                                                                                                                                                                                                                                                                                                                                                                                                                                                                                                                                                                                                                           |                                           |
| El 4 de marzo, el señor teniente de alcalde vio la información y demás autos, y mandó que Alonso Lorenzo "pida su justicia derechamente como viere que le convenga, y así lo proveyó".                                                                                                                                                                                                                                                                                                                                                                                                                                                                                                                                                                                                                                                                                                                                                                                                                                                                                                                                                                                                                                    |                                           |
|                                                                                                                                                                                                                                                                                                                                                                                                                                                                                                                                                                                                                                                                                                                                                                                                                                                                                                                                                                                                                                                                                                                                                                                                                           |                                           |
| El 18 de agosto de 1578, ante el alcalde mayor Fernando Dávalos, presentó una cédula junto con una petición.                                                                                                                                                                                                                                                                                                                                                                                                                                                                                                                                                                                                                                                                                                                                                                                                                                                                                                                                                                                                                                                                                                              |                                           |
|                                                                                                                                                                                                                                                                                                                                                                                                                                                                                                                                                                                                                                                                                                                                                                                                                                                                                                                                                                                                                                                                                                                                                                                                                           |                                           |
| La cédula presentada dice: "Digo yo Juan Domínguez, vecino de la Villa de Colima, que es verdad que recibí de Teresa de Tapia, mujer de Alonso Lorenzo, una carga de cacao bueno e gordo y siete pesos y medio en reales, los cuales rescibí para traeros de la Ciudad de México^([4]) ciertas cosas conforme a una memoria que para ello me distes, lo cual traeré de la Ciudad de México". Añade que la cédula fechada el 7 de octubre de 1576 la firma en su nombre "Diego Morán, vuestro hermano, porque no sé escribir".^([5])                                                                                                                                                                                                                                                                                                                                                                                                                                                                                                                                                                                                                                                                                       |                                           |
|                                                                                                                                                                                                                                                                                                                                                                                                                                                                                                                                                                                                                                                                                                                                                                                                                                                                                                                                                                                                                                                                                                                                                                                                                           |                                           |
| La petición, por su parte, dice así: "Alonso Lorenzo, vecino desta Villa de Colima, como marido y conjunta persona que soy de Teresa de Tapia, mi mujer, parezco ante V.m. y digo que podrá haber un año y días y meses, poco más o menos, que yendo a la Ciudad de México Juan Domínguez, vecino que fue desta dicha Villa, la dicha mi mujer le dio una carga de cacao y siete pesos y medio del oro común, para que le trajese ciertas menudencias y cosas que había menester conforme a una memoria que le dio, y del dicho recibo dello el dicho Juan Domínguez le hizo una cédula, firmada de Diego Morán El Mozo por no saber el susodicho escribir de la cual hago presentación".                                                                                                                                                                                                                                                                                                                                                                                                                                                                                                                                 |                                           |
|                                                                                                                                                                                                                                                                                                                                                                                                                                                                                                                                                                                                                                                                                                                                                                                                                                                                                                                                                                                                                                                                                                                                                                                                                           |                                           |
| Sigue diciendo que poco después y "en el camino", Juan Dominguez falleció: "y murió en Guayangareo",^([6]) y quedaron todos sus bienes y lo que llevaba en poder de Polonia de Gamboa, que quedó por su albacea "y no he podido así ni cobrar la dicha carga de cacao y pesos de oro". Pide al alcalde que "mande a Alonso Miguel, tutor e curador del dicho Juan Domínguez y de sus hijos, que de los bienes que tuviere suyos, me dé e pague la dicha carga de cacao e los dichos siete pesos y medio".                                                                                                                                                                                                                                                                                                                                                                                                                                                                                                                                                                                                                                                                                                                 |                                           |
|                                                                                                                                                                                                                                                                                                                                                                                                                                                                                                                                                                                                                                                                                                                                                                                                                                                                                                                                                                                                                                                                                                                                                                                                                           |                                           |
| El alcalde mayor Fernando Dávalos mandó notificar a Alonso Miguel que "dentro de segundo día" pague a Alonso Lorenzo lo que se debe. El escribano Alonso de Huete así se lo notificó; fue testigo Juan Sánchez, vecino de Colima.                                                                                                                                                                                                                                                                                                                                                                                                                                                                                                                                                                                                                                                                                                                                                                                                                                                                                                                                                                                         |                                           |
|                                                                                                                                                                                                                                                                                                                                                                                                                                                                                                                                                                                                                                                                                                                                                                                                                                                                                                                                                                                                                                                                                                                                                                                                                           |                                           |
| El 26 de junio de 1579, Alonso Lorenzo otorgó poder a Diego Morán, vecinos de Colima, para que en su nombre pueda cobrar y cobre de Alonso Miguel y de sus bienes, como albacea de Juan Domínguez, difunto, una carga de cacao gordo y 7 pesos en reales, que Teresa de Tapia, su esposa, le entregó para que le comprara en México ciertas cosas. Agrega consta todo ello por una cédula que fuera presentada ante Fernando Dávalos, alcalde mayor que fue de Colima. Testigos: Diego de Contreras, Miguel de Rivera y Martín de Segura, vecinos de Colima. Juan de la Zarza firmó a su ruego, porque dijo que no sabía firmar. Pasó ante Francisco López Avecilla, escribano público de la Villa de Colima y su provincia por Su Majestad.                                                                                                                                                                                                                                                                                                                                                                                                                                                                              |                                           |
|                                                                                                                                                                                                                                                                                                                                                                                                                                                                                                                                                                                                                                                                                                                                                                                                                                                                                                                                                                                                                                                                                                                                                                                                                           |                                           |
| En enero de 1582, siendo Francisco Hernández alcalde ordinario de la Villa de Colima, se abrió nueva información para reconocer la cédula presentada por Alonso Lorenzo, que llevó por testigos a Diego Morán, Juan Ramírez de Alarcón y Pedro de Almodóvar, vecinos de Colima.                                                                                                                                                                                                                                                                                                                                                                                                                                                                                                                                                                                                                                                                                                                                                                                                                                                                                                                                           |                                           |
|                                                                                                                                                                                                                                                                                                                                                                                                                                                                                                                                                                                                                                                                                                                                                                                                                                                                                                                                                                                                                                                                                                                                                                                                                           |                                           |
| El alcalde Francisco Hernández mandó que de los bienes que quedaron por fin y muerte de Juan Domínguez, se den y paguen a Alonso Lorenzo una carga de cacao bueno de dar y recibir y 7 pesos y medio en reales conforme a la cédula en esta causa presentada. Así lo notificó el escribano Francisco López Avecilla a Juan de Salinas, tutor y curador de los hijos y herederos de Juan Domínguez en su persona, siendo testigos Diego Mexía^([7]) y Gonzalo Hernández, vecinos de Colima.                                                                                                                                                                                                                                                                                                                                                                                                                                                                                                                                                                                                                                                                                                                                |                                           |
|                                                                                                                                                                                                                                                                                                                                                                                                                                                                                                                                                                                                                                                                                                                                                                                                                                                                                                                                                                                                                                                                                                                                                                                                                           |                                           |
| Caja A–6, exp. 12, 11 ff.                                                                                                                                                                                                                                                                                                                                                                                                                                                                                                                                                                                                                                                                                                                                                                                                                                                                                                                                                                                                                                                                                                                                                                                                 |                                           |
|                                                                                                                                                                                                                                                                                                                                                                                                                                                                                                                                                                                                                                                                                                                                                                                                                                                                                                                                                                                                                                                                                                                                                                                                                           |                                           |
|                                                                                                                                                                                                                                                                                                                                                                                                                                                                                                                                                                                                                                                                                                                                                                                                                                                                                                                                                                                                                                                                                                                                                                                                                           |                                           |
|                                                                                                                                                                                                                                                                                                                                                                                                                                                                                                                                                                                                                                                                                                                                                                                                                                                                                                                                                                                                                                                                                                                                                                                                                           |                                           |
| ---------------                                                                                                                                                                                                                                                                                                                                                                                                                                                                                                                                                                                                                                                                                                                                                                                                                                                                                                                                                                                                                                                                                                                                                                                                           |                                           |
|                                                                                                                                                                                                                                                                                                                                                                                                                                                                                                                                                                                                                                                                                                                                                                                                                                                                                                                                                                                                                                                                                                                                                                                                                           |                                           |
| (1) Vecino de Colima, al menos, desde 1565. Posiblemente, hermano del también vº Andrés Toscano, hijos ambos de Francisco Toscano y Leonor Gómez Herrería, vecinos de la Villa de Cartaya, que es en los Reinos de Castilla: infra, regº 953. En la mayoría de las referencias aparece registrado como Francisco Toscano, pero también Francisco Toscano Gorjón y Francisco Gorjón Toscano, y como tal aparece de escribano cuando el corregidor Pedro de Villela mandó hacer la Relación de Chilchota (1579): Acuña (1987), 91-120. Casó con la viuda María de la Torre, hija de Melchor Pérez y María Álvarez, con la que hubo descendencia: infra, regº 392 y 862; Sevilla del Río (1977), 141.                                                                                                                                                                                                                                                                                                                                                                                                                                                                                                                        |                                           |
|                                                                                                                                                                                                                                                                                                                                                                                                                                                                                                                                                                                                                                                                                                                                                                                                                                                                                                                                                                                                                                                                                                                                                                                                                           |                                           |
| (2) De xaxaltic, arpillera. "Costal de arpilla de ixtle. En las salinas de Cuyutlán: el usado para acarrear la tierra de los comederos al pozo": Reyes (1991), 102.                                                                                                                                                                                                                                                                                                                                                                                                                                                                                                                                                                                                                                                                                                                                                                                                                                                                                                                                                                                                                                                       |                                           |
|                                                                                                                                                                                                                                                                                                                                                                                                                                                                                                                                                                                                                                                                                                                                                                                                                                                                                                                                                                                                                                                                                                                                                                                                                           |                                           |
| (3) Curiosa la manera de señalar el precio del cacao, ya que normalmente aparece por carga.                                                                                                                                                                                                                                                                                                                                                                                                                                                                                                                                                                                                                                                                                                                                                                                                                                                                                                                                                                                                                                                                                                                               |                                           |
|                                                                                                                                                                                                                                                                                                                                                                                                                                                                                                                                                                                                                                                                                                                                                                                                                                                                                                                                                                                                                                                                                                                                                                                                                           |                                           |
| (4) Aparece tachado un renglón que dice lo mismo en diferente orden. El año de la fecha originalmente escrito en números arábigos, está tachado, y luego escrito en letra.                                                                                                                                                                                                                                                                                                                                                                                                                                                                                                                                                                                                                                                                                                                                                                                                                                                                                                                                                                                                                                                |                                           |
|                                                                                                                                                                                                                                                                                                                                                                                                                                                                                                                                                                                                                                                                                                                                                                                                                                                                                                                                                                                                                                                                                                                                                                                                                           |                                           |
| (5) Diego Morán al prestar su primer testimonio, no mencionó esta cédula; sin embargo, lo recuerda años después: véase al final de este expediente.                                                                                                                                                                                                                                                                                                                                                                                                                                                                                                                                                                                                                                                                                                                                                                                                                                                                                                                                                                                                                                                                       |                                           |
|                                                                                                                                                                                                                                                                                                                                                                                                                                                                                                                                                                                                                                                                                                                                                                                                                                                                                                                                                                                                                                                                                                                                                                                                                           |                                           |
| (6) En el valle de Guayangareo fue fundada Valladolid.                                                                                                                                                                                                                                                                                                                                                                                                                                                                                                                                                                                                                                                                                                                                                                                                                                                                                                                                                                                                                                                                                                                                                                    |                                           |
|                                                                                                                                                                                                                                                                                                                                                                                                                                                                                                                                                                                                                                                                                                                                                                                                                                                                                                                                                                                                                                                                                                                                                                                                                           |                                           |
| (7) Diego Mejía de la Torre.                                                                                                                                                                                                                                                                                                                                                                                                                                                                                                                                                                                                                                                                                                                                                                                                                                                                                                                                                                                                                                                                                                                                                                                              |                                           |
+---------------------------------------------------------------------------------------------------------------------------------------------------------------------------------------------------------------------------------------------------------------------------------------------------------------------------------------------------------------------------------------------------------------------------------------------------------------------------------------------------------------------------------------------------------------------------------------------------------------------------------------------------------------------------------------------------------------------------------------------------------------------------------------------------------------------------------------------------------------------------------------------------------------------------------------------------------------------------------------------------------------------------------------------------------------------------------------------------------------------------------------------------------------------------------------------------------------------------+-------------------------------------------+

Documento(s) original(es)

Archivo no encontrado (CAJAS/CAJA6/EXP12/010V.jpg)

[]
1F

[]
1V

[]
2F

[]
2V

[]
3F

[]
3V

[]
4F

[]
4V

[]
5F

[]
5V

[]
6F

[]
6V

[]
7F

[]
7V

[]
8F

[]
8V

[]
9F

[]
9V

[]
10F

[]
11F

[]
11V

Proyecto interinstitucional del Archivo Histórico del Municipio de Colima y la Universidad de Colima,
realizado bajo los auspicios del fondo Ramón Álvarez-Buylla de Aldana.

------------------------------------------------------------------------

ISBN 978-968-7412-85-6
® Derechos Reservados 2008. Archivo Histórico del Municipio de Colima.

1,078 visitas
